[
    {
        "rank": "1",
        "title": "CBT Nuggets - Python Programming",
        "link": "magnet:?xt=urn:btih:EA9AE731573313679C84520B85C7FF3586F5F062&dn=CBT+Nuggets+-+Python+Programming&tr=udp%3A%2F%2Ftracker.coppersurfer.tk%3A6969%2Fannounce&tr=udp%3A%2F%2F9.rarbg.to%3A2920%2Fannounce&tr=udp%3A%2F%2Ftracker.opentrackr.org%3A1337&tr=udp%3A%2F%2Ftracker.internetwarriors.net%3A1337%2Fannounce&tr=udp%3A%2F%2Ftracker.leechers-paradise.org%3A6969%2Fannounce&tr=udp%3A%2F%2Ftracker.coppersurfer.tk%3A6969%2Fannounce&tr=udp%3A%2F%2Ftracker.pirateparty.gr%3A6969%2Fannounce&tr=udp%3A%2F%2Ftracker.cyberia.is%3A6969%2Fannounce",
        "seeder": "30",
        "leecher": "0"
    },
    {
        "rank": "2",
        "title": "Gayniggers.From.Outer.Space.Digitally.Remastered.XviD-NoGrp",
        "link": "magnet:?xt=urn:btih:4424ECBC11BF0238E36CF2412B248E0C2339C663&dn=Gayniggers.From.Outer.Space.Digitally.Remastered.XviD-NoGrp&tr=udp%3A%2F%2Ftracker.coppersurfer.tk%3A6969%2Fannounce&tr=udp%3A%2F%2F9.rarbg.to%3A2920%2Fannounce&tr=udp%3A%2F%2Ftracker.opentrackr.org%3A1337&tr=udp%3A%2F%2Ftracker.internetwarriors.net%3A1337%2Fannounce&tr=udp%3A%2F%2Ftracker.leechers-paradise.org%3A6969%2Fannounce&tr=udp%3A%2F%2Ftracker.coppersurfer.tk%3A6969%2Fannounce&tr=udp%3A%2F%2Ftracker.pirateparty.gr%3A6969%2Fannounce&tr=udp%3A%2F%2Ftracker.cyberia.is%3A6969%2Fannounce",
        "seeder": "17",
        "leecher": "1"
    },
    {
        "rank": "3",
        "title": "CBT Nuggets - LPI Linux LPIC-1 101 and CompTIA Linux+",
        "link": "magnet:?xt=urn:btih:0FE3B4BAF406BCE0355ACC6EA16D2142200EFFC6&dn=CBT+Nuggets+-+LPI+Linux+LPIC-1+101+and+CompTIA+Linux%2B&tr=udp%3A%2F%2Ftracker.coppersurfer.tk%3A6969%2Fannounce&tr=udp%3A%2F%2F9.rarbg.to%3A2920%2Fannounce&tr=udp%3A%2F%2Ftracker.opentrackr.org%3A1337&tr=udp%3A%2F%2Ftracker.internetwarriors.net%3A1337%2Fannounce&tr=udp%3A%2F%2Ftracker.leechers-paradise.org%3A6969%2Fannounce&tr=udp%3A%2F%2Ftracker.coppersurfer.tk%3A6969%2Fannounce&tr=udp%3A%2F%2Ftracker.pirateparty.gr%3A6969%2Fannounce&tr=udp%3A%2F%2Ftracker.cyberia.is%3A6969%2Fannounce",
        "seeder": "15",
        "leecher": "0"
    },
    {
        "rank": "4",
        "title": "CBT Nuggets - Amazon Web Services - AWS Foundations",
        "link": "magnet:?xt=urn:btih:1DB2237E86EDFFB538C7706AAC60A799A13C8BC0&dn=CBT+Nuggets+-+Amazon+Web+Services+-+AWS+Foundations&tr=udp%3A%2F%2Ftracker.coppersurfer.tk%3A6969%2Fannounce&tr=udp%3A%2F%2F9.rarbg.to%3A2920%2Fannounce&tr=udp%3A%2F%2Ftracker.opentrackr.org%3A1337&tr=udp%3A%2F%2Ftracker.internetwarriors.net%3A1337%2Fannounce&tr=udp%3A%2F%2Ftracker.leechers-paradise.org%3A6969%2Fannounce&tr=udp%3A%2F%2Ftracker.coppersurfer.tk%3A6969%2Fannounce&tr=udp%3A%2F%2Ftracker.pirateparty.gr%3A6969%2Fannounce&tr=udp%3A%2F%2Ftracker.cyberia.is%3A6969%2Fannounce",
        "seeder": "14",
        "leecher": "0"
    },
    {
        "rank": "5",
        "title": "Bakemonogatari Complete BD [720p]",
        "link": "magnet:?xt=urn:btih:780B0B3BB849A77A92519B2ABAC1568DD1DA2860&dn=Bakemonogatari+Complete+BD+%5B720p%5D&tr=udp%3A%2F%2Ftracker.coppersurfer.tk%3A6969%2Fannounce&tr=udp%3A%2F%2F9.rarbg.to%3A2920%2Fannounce&tr=udp%3A%2F%2Ftracker.opentrackr.org%3A1337&tr=udp%3A%2F%2Ftracker.internetwarriors.net%3A1337%2Fannounce&tr=udp%3A%2F%2Ftracker.leechers-paradise.org%3A6969%2Fannounce&tr=udp%3A%2F%2Ftracker.coppersurfer.tk%3A6969%2Fannounce&tr=udp%3A%2F%2Ftracker.pirateparty.gr%3A6969%2Fannounce&tr=udp%3A%2F%2Ftracker.cyberia.is%3A6969%2Fannounce",
        "seeder": "12",
        "leecher": "2"
    },
    {
        "rank": "6",
        "title": "Berserk Dual Audio Complete BD [720p]",
        "link": "magnet:?xt=urn:btih:01420A5E168A919BFF09B0495D3BE5C86B9FC989&dn=Berserk+Dual+Audio+Complete+BD+%5B720p%5D&tr=udp%3A%2F%2Ftracker.coppersurfer.tk%3A6969%2Fannounce&tr=udp%3A%2F%2F9.rarbg.to%3A2920%2Fannounce&tr=udp%3A%2F%2Ftracker.opentrackr.org%3A1337&tr=udp%3A%2F%2Ftracker.internetwarriors.net%3A1337%2Fannounce&tr=udp%3A%2F%2Ftracker.leechers-paradise.org%3A6969%2Fannounce&tr=udp%3A%2F%2Ftracker.coppersurfer.tk%3A6969%2Fannounce&tr=udp%3A%2F%2Ftracker.pirateparty.gr%3A6969%2Fannounce&tr=udp%3A%2F%2Ftracker.cyberia.is%3A6969%2Fannounce",
        "seeder": "12",
        "leecher": "2"
    },
    {
        "rank": "7",
        "title": "CBT Nuggets - AWS Certified Solutions Architect - Architecting f",
        "link": "magnet:?xt=urn:btih:EB139D4BE2F328108FEA7697CB775676BCEEA623&dn=CBT+Nuggets+-+AWS+Certified+Solutions+Architect+-+Architecting+f&tr=udp%3A%2F%2Ftracker.coppersurfer.tk%3A6969%2Fannounce&tr=udp%3A%2F%2F9.rarbg.to%3A2920%2Fannounce&tr=udp%3A%2F%2Ftracker.opentrackr.org%3A1337&tr=udp%3A%2F%2Ftracker.internetwarriors.net%3A1337%2Fannounce&tr=udp%3A%2F%2Ftracker.leechers-paradise.org%3A6969%2Fannounce&tr=udp%3A%2F%2Ftracker.coppersurfer.tk%3A6969%2Fannounce&tr=udp%3A%2F%2Ftracker.pirateparty.gr%3A6969%2Fannounce&tr=udp%3A%2F%2Ftracker.cyberia.is%3A6969%2Fannounce",
        "seeder": "11",
        "leecher": "0"
    },
    {
        "rank": "8",
        "title": "CBT Nuggets - LPI Linux LPIC-1 102 and CompTIA Linux+",
        "link": "magnet:?xt=urn:btih:CCE3DBFF5B36DD9E1D3D3285962F3F252F1D2DCC&dn=CBT+Nuggets+-+LPI+Linux+LPIC-1+102+and+CompTIA+Linux%2B&tr=udp%3A%2F%2Ftracker.coppersurfer.tk%3A6969%2Fannounce&tr=udp%3A%2F%2F9.rarbg.to%3A2920%2Fannounce&tr=udp%3A%2F%2Ftracker.opentrackr.org%3A1337&tr=udp%3A%2F%2Ftracker.internetwarriors.net%3A1337%2Fannounce&tr=udp%3A%2F%2Ftracker.leechers-paradise.org%3A6969%2Fannounce&tr=udp%3A%2F%2Ftracker.coppersurfer.tk%3A6969%2Fannounce&tr=udp%3A%2F%2Ftracker.pirateparty.gr%3A6969%2Fannounce&tr=udp%3A%2F%2Ftracker.cyberia.is%3A6969%2Fannounce",
        "seeder": "10",
        "leecher": "0"
    },
    {
        "rank": "9",
        "title": "Lupin III Complete Collection [480p]",
        "link": "magnet:?xt=urn:btih:661F132D9CD3432476C2C78E6624EFBA875B181D&dn=Lupin+III+Complete+Collection+%5B480p%5D&tr=udp%3A%2F%2Ftracker.coppersurfer.tk%3A6969%2Fannounce&tr=udp%3A%2F%2F9.rarbg.to%3A2920%2Fannounce&tr=udp%3A%2F%2Ftracker.opentrackr.org%3A1337&tr=udp%3A%2F%2Ftracker.internetwarriors.net%3A1337%2Fannounce&tr=udp%3A%2F%2Ftracker.leechers-paradise.org%3A6969%2Fannounce&tr=udp%3A%2F%2Ftracker.coppersurfer.tk%3A6969%2Fannounce&tr=udp%3A%2F%2Ftracker.pirateparty.gr%3A6969%2Fannounce&tr=udp%3A%2F%2Ftracker.cyberia.is%3A6969%2Fannounce",
        "seeder": "9",
        "leecher": "4"
    },
    {
        "rank": "10",
        "title": "Walt Disney Treasures - The Chronological Donald Duck",
        "link": "magnet:?xt=urn:btih:A06664B2758E5CBD9CEA03D2E4B2DA6C94842EE6&dn=Walt+Disney+Treasures+-+The+Chronological+Donald+Duck&tr=udp%3A%2F%2Ftracker.coppersurfer.tk%3A6969%2Fannounce&tr=udp%3A%2F%2F9.rarbg.to%3A2920%2Fannounce&tr=udp%3A%2F%2Ftracker.opentrackr.org%3A1337&tr=udp%3A%2F%2Ftracker.internetwarriors.net%3A1337%2Fannounce&tr=udp%3A%2F%2Ftracker.leechers-paradise.org%3A6969%2Fannounce&tr=udp%3A%2F%2Ftracker.coppersurfer.tk%3A6969%2Fannounce&tr=udp%3A%2F%2Ftracker.pirateparty.gr%3A6969%2Fannounce&tr=udp%3A%2F%2Ftracker.cyberia.is%3A6969%2Fannounce",
        "seeder": "9",
        "leecher": "3"
    },
    {
        "rank": "11",
        "title": "CBT Nuggets - ISC2 Security CISSP",
        "link": "magnet:?xt=urn:btih:58F1C67D1FA696CC92E01ED95AB00129DEF78BB8&dn=CBT+Nuggets+-+ISC2+Security+CISSP&tr=udp%3A%2F%2Ftracker.coppersurfer.tk%3A6969%2Fannounce&tr=udp%3A%2F%2F9.rarbg.to%3A2920%2Fannounce&tr=udp%3A%2F%2Ftracker.opentrackr.org%3A1337&tr=udp%3A%2F%2Ftracker.internetwarriors.net%3A1337%2Fannounce&tr=udp%3A%2F%2Ftracker.leechers-paradise.org%3A6969%2Fannounce&tr=udp%3A%2F%2Ftracker.coppersurfer.tk%3A6969%2Fannounce&tr=udp%3A%2F%2Ftracker.pirateparty.gr%3A6969%2Fannounce&tr=udp%3A%2F%2Ftracker.cyberia.is%3A6969%2Fannounce",
        "seeder": "8",
        "leecher": "0"
    },
    {
        "rank": "12",
        "title": "Fate/stay night Dual Audio Complete [720p]",
        "link": "magnet:?xt=urn:btih:22ECE95F46432F03F7990CB68F9C2E6D6B254180&dn=Fate%2Fstay+night+Dual+Audio+Complete+%5B720p%5D&tr=udp%3A%2F%2Ftracker.coppersurfer.tk%3A6969%2Fannounce&tr=udp%3A%2F%2F9.rarbg.to%3A2920%2Fannounce&tr=udp%3A%2F%2Ftracker.opentrackr.org%3A1337&tr=udp%3A%2F%2Ftracker.internetwarriors.net%3A1337%2Fannounce&tr=udp%3A%2F%2Ftracker.leechers-paradise.org%3A6969%2Fannounce&tr=udp%3A%2F%2Ftracker.coppersurfer.tk%3A6969%2Fannounce&tr=udp%3A%2F%2Ftracker.pirateparty.gr%3A6969%2Fannounce&tr=udp%3A%2F%2Ftracker.cyberia.is%3A6969%2Fannounce",
        "seeder": "7",
        "leecher": "1"
    },
    {
        "rank": "13",
        "title": "CBT Nuggets - AWS Certified Solutions Architect - Foundations",
        "link": "magnet:?xt=urn:btih:891ED4434D5826F2D934256F664371BD488B5B1F&dn=CBT+Nuggets+-+AWS+Certified+Solutions+Architect+-+Foundations&tr=udp%3A%2F%2Ftracker.coppersurfer.tk%3A6969%2Fannounce&tr=udp%3A%2F%2F9.rarbg.to%3A2920%2Fannounce&tr=udp%3A%2F%2Ftracker.opentrackr.org%3A1337&tr=udp%3A%2F%2Ftracker.internetwarriors.net%3A1337%2Fannounce&tr=udp%3A%2F%2Ftracker.leechers-paradise.org%3A6969%2Fannounce&tr=udp%3A%2F%2Ftracker.coppersurfer.tk%3A6969%2Fannounce&tr=udp%3A%2F%2Ftracker.pirateparty.gr%3A6969%2Fannounce&tr=udp%3A%2F%2Ftracker.cyberia.is%3A6969%2Fannounce",
        "seeder": "6",
        "leecher": "1"
    },
    {
        "rank": "14",
        "title": "CBT Nuggets - CompTIA Security+ SY0-401",
        "link": "magnet:?xt=urn:btih:2A4112C984677DE977A2860E38B51D8C3FD3193B&dn=CBT+Nuggets+-+CompTIA+Security%2B+SY0-401&tr=udp%3A%2F%2Ftracker.coppersurfer.tk%3A6969%2Fannounce&tr=udp%3A%2F%2F9.rarbg.to%3A2920%2Fannounce&tr=udp%3A%2F%2Ftracker.opentrackr.org%3A1337&tr=udp%3A%2F%2Ftracker.internetwarriors.net%3A1337%2Fannounce&tr=udp%3A%2F%2Ftracker.leechers-paradise.org%3A6969%2Fannounce&tr=udp%3A%2F%2Ftracker.coppersurfer.tk%3A6969%2Fannounce&tr=udp%3A%2F%2Ftracker.pirateparty.gr%3A6969%2Fannounce&tr=udp%3A%2F%2Ftracker.cyberia.is%3A6969%2Fannounce",
        "seeder": "6",
        "leecher": "1"
    },
    {
        "rank": "15",
        "title": "WWE Smackdown Live 2018 04 10 HDTV x264-Ebi [TJET]",
        "link": "magnet:?xt=urn:btih:0B5670CCBFFE6100C5C90326E691A2FFDF588F65&dn=WWE+Smackdown+Live+2018+04+10+HDTV+x264-Ebi+%5BTJET%5D&tr=udp%3A%2F%2Ftracker.coppersurfer.tk%3A6969%2Fannounce&tr=udp%3A%2F%2F9.rarbg.to%3A2920%2Fannounce&tr=udp%3A%2F%2Ftracker.opentrackr.org%3A1337&tr=udp%3A%2F%2Ftracker.internetwarriors.net%3A1337%2Fannounce&tr=udp%3A%2F%2Ftracker.leechers-paradise.org%3A6969%2Fannounce&tr=udp%3A%2F%2Ftracker.coppersurfer.tk%3A6969%2Fannounce&tr=udp%3A%2F%2Ftracker.pirateparty.gr%3A6969%2Fannounce&tr=udp%3A%2F%2Ftracker.cyberia.is%3A6969%2Fannounce",
        "seeder": "5",
        "leecher": "1"
    },
    {
        "rank": "16",
        "title": "WWE Smackdown Live 2017 12 05 HDTV x264-Ebi [TJET]",
        "link": "magnet:?xt=urn:btih:7AF8B7FD78C50BF472B29290B80E0E98C75BA744&dn=WWE+Smackdown+Live+2017+12+05+HDTV+x264-Ebi+%5BTJET%5D&tr=udp%3A%2F%2Ftracker.coppersurfer.tk%3A6969%2Fannounce&tr=udp%3A%2F%2F9.rarbg.to%3A2920%2Fannounce&tr=udp%3A%2F%2Ftracker.opentrackr.org%3A1337&tr=udp%3A%2F%2Ftracker.internetwarriors.net%3A1337%2Fannounce&tr=udp%3A%2F%2Ftracker.leechers-paradise.org%3A6969%2Fannounce&tr=udp%3A%2F%2Ftracker.coppersurfer.tk%3A6969%2Fannounce&tr=udp%3A%2F%2Ftracker.pirateparty.gr%3A6969%2Fannounce&tr=udp%3A%2F%2Ftracker.cyberia.is%3A6969%2Fannounce",
        "seeder": "5",
        "leecher": "0"
    },
    {
        "rank": "17",
        "title": "CBT Nuggets - MPLS Fundamentals",
        "link": "magnet:?xt=urn:btih:93F1DB92681432BB9C2DB7AA4508E8EF20F30430&dn=CBT+Nuggets+-+MPLS+Fundamentals&tr=udp%3A%2F%2Ftracker.coppersurfer.tk%3A6969%2Fannounce&tr=udp%3A%2F%2F9.rarbg.to%3A2920%2Fannounce&tr=udp%3A%2F%2Ftracker.opentrackr.org%3A1337&tr=udp%3A%2F%2Ftracker.internetwarriors.net%3A1337%2Fannounce&tr=udp%3A%2F%2Ftracker.leechers-paradise.org%3A6969%2Fannounce&tr=udp%3A%2F%2Ftracker.coppersurfer.tk%3A6969%2Fannounce&tr=udp%3A%2F%2Ftracker.pirateparty.gr%3A6969%2Fannounce&tr=udp%3A%2F%2Ftracker.cyberia.is%3A6969%2Fannounce",
        "seeder": "5",
        "leecher": "0"
    },
    {
        "rank": "18",
        "title": "CBT Nuggets - CCNP Security VPN v2.0 642-648",
        "link": "magnet:?xt=urn:btih:656EDB2AA1ED37F90B53F4542B33937060ADF94A&dn=CBT+Nuggets+-+CCNP+Security+VPN+v2.0+642-648&tr=udp%3A%2F%2Ftracker.coppersurfer.tk%3A6969%2Fannounce&tr=udp%3A%2F%2F9.rarbg.to%3A2920%2Fannounce&tr=udp%3A%2F%2Ftracker.opentrackr.org%3A1337&tr=udp%3A%2F%2Ftracker.internetwarriors.net%3A1337%2Fannounce&tr=udp%3A%2F%2Ftracker.leechers-paradise.org%3A6969%2Fannounce&tr=udp%3A%2F%2Ftracker.coppersurfer.tk%3A6969%2Fannounce&tr=udp%3A%2F%2Ftracker.pirateparty.gr%3A6969%2Fannounce&tr=udp%3A%2F%2Ftracker.cyberia.is%3A6969%2Fannounce",
        "seeder": "5",
        "leecher": "0"
    },
    {
        "rank": "19",
        "title": "CBT Nuggets - CCNP Security 300-208 SISAS",
        "link": "magnet:?xt=urn:btih:A19187B52FE61DC18E0463ED2C3BFBD5FF74905C&dn=CBT+Nuggets+-+CCNP+Security+300-208+SISAS&tr=udp%3A%2F%2Ftracker.coppersurfer.tk%3A6969%2Fannounce&tr=udp%3A%2F%2F9.rarbg.to%3A2920%2Fannounce&tr=udp%3A%2F%2Ftracker.opentrackr.org%3A1337&tr=udp%3A%2F%2Ftracker.internetwarriors.net%3A1337%2Fannounce&tr=udp%3A%2F%2Ftracker.leechers-paradise.org%3A6969%2Fannounce&tr=udp%3A%2F%2Ftracker.coppersurfer.tk%3A6969%2Fannounce&tr=udp%3A%2F%2Ftracker.pirateparty.gr%3A6969%2Fannounce&tr=udp%3A%2F%2Ftracker.cyberia.is%3A6969%2Fannounce",
        "seeder": "5",
        "leecher": "1"
    },
    {
        "rank": "20",
        "title": "UFC 225 PPV Whittaker vs Romero 2 HDTV x264-Ebi [TJET]",
        "link": "magnet:?xt=urn:btih:21A2D350C539A1866CB79F91DDE0205E039FC43F&dn=UFC+225+PPV+Whittaker+vs+Romero+2+HDTV+x264-Ebi+%5BTJET%5D&tr=udp%3A%2F%2Ftracker.coppersurfer.tk%3A6969%2Fannounce&tr=udp%3A%2F%2F9.rarbg.to%3A2920%2Fannounce&tr=udp%3A%2F%2Ftracker.opentrackr.org%3A1337&tr=udp%3A%2F%2Ftracker.internetwarriors.net%3A1337%2Fannounce&tr=udp%3A%2F%2Ftracker.leechers-paradise.org%3A6969%2Fannounce&tr=udp%3A%2F%2Ftracker.coppersurfer.tk%3A6969%2Fannounce&tr=udp%3A%2F%2Ftracker.pirateparty.gr%3A6969%2Fannounce&tr=udp%3A%2F%2Ftracker.cyberia.is%3A6969%2Fannounce",
        "seeder": "4",
        "leecher": "0"
    },
    {
        "rank": "21",
        "title": "Urusei Yatsura Complete [480p]",
        "link": "magnet:?xt=urn:btih:1521C7E920019D2963C9AEF1DC476AF6889DCCB8&dn=Urusei+Yatsura+Complete+%5B480p%5D&tr=udp%3A%2F%2Ftracker.coppersurfer.tk%3A6969%2Fannounce&tr=udp%3A%2F%2F9.rarbg.to%3A2920%2Fannounce&tr=udp%3A%2F%2Ftracker.opentrackr.org%3A1337&tr=udp%3A%2F%2Ftracker.internetwarriors.net%3A1337%2Fannounce&tr=udp%3A%2F%2Ftracker.leechers-paradise.org%3A6969%2Fannounce&tr=udp%3A%2F%2Ftracker.coppersurfer.tk%3A6969%2Fannounce&tr=udp%3A%2F%2Ftracker.pirateparty.gr%3A6969%2Fannounce&tr=udp%3A%2F%2Ftracker.cyberia.is%3A6969%2Fannounce",
        "seeder": "4",
        "leecher": "3"
    },
    {
        "rank": "22",
        "title": "CBT Nuggets - CCNA Data Center DCICN 640-911",
        "link": "magnet:?xt=urn:btih:E71A62977F536E865DC394DEE8C2BEC2DC3FF3CE&dn=CBT+Nuggets+-+CCNA+Data+Center+DCICN+640-911&tr=udp%3A%2F%2Ftracker.coppersurfer.tk%3A6969%2Fannounce&tr=udp%3A%2F%2F9.rarbg.to%3A2920%2Fannounce&tr=udp%3A%2F%2Ftracker.opentrackr.org%3A1337&tr=udp%3A%2F%2Ftracker.internetwarriors.net%3A1337%2Fannounce&tr=udp%3A%2F%2Ftracker.leechers-paradise.org%3A6969%2Fannounce&tr=udp%3A%2F%2Ftracker.coppersurfer.tk%3A6969%2Fannounce&tr=udp%3A%2F%2Ftracker.pirateparty.gr%3A6969%2Fannounce&tr=udp%3A%2F%2Ftracker.cyberia.is%3A6969%2Fannounce",
        "seeder": "4",
        "leecher": "1"
    },
    {
        "rank": "23",
        "title": "CBT Nuggets - CCNA Service Provider SPNGN2 640-878",
        "link": "magnet:?xt=urn:btih:F5091DFFC20BA746FD856F7FA025A8822BFCF4B2&dn=CBT+Nuggets+-+CCNA+Service+Provider+SPNGN2+640-878&tr=udp%3A%2F%2Ftracker.coppersurfer.tk%3A6969%2Fannounce&tr=udp%3A%2F%2F9.rarbg.to%3A2920%2Fannounce&tr=udp%3A%2F%2Ftracker.opentrackr.org%3A1337&tr=udp%3A%2F%2Ftracker.internetwarriors.net%3A1337%2Fannounce&tr=udp%3A%2F%2Ftracker.leechers-paradise.org%3A6969%2Fannounce&tr=udp%3A%2F%2Ftracker.coppersurfer.tk%3A6969%2Fannounce&tr=udp%3A%2F%2Ftracker.pirateparty.gr%3A6969%2Fannounce&tr=udp%3A%2F%2Ftracker.cyberia.is%3A6969%2Fannounce",
        "seeder": "4",
        "leecher": "0"
    },
    {
        "rank": "24",
        "title": "Waco: The Big Lie Continues (Part 2) - Linda Thompson",
        "link": "magnet:?xt=urn:btih:A8CC7DE69EB676ACA48909A5CD033BAEED72A7B7&dn=Waco%3A+The+Big+Lie+Continues+%28Part+2%29+-+Linda+Thompson&tr=udp%3A%2F%2Ftracker.coppersurfer.tk%3A6969%2Fannounce&tr=udp%3A%2F%2F9.rarbg.to%3A2920%2Fannounce&tr=udp%3A%2F%2Ftracker.opentrackr.org%3A1337&tr=udp%3A%2F%2Ftracker.internetwarriors.net%3A1337%2Fannounce&tr=udp%3A%2F%2Ftracker.leechers-paradise.org%3A6969%2Fannounce&tr=udp%3A%2F%2Ftracker.coppersurfer.tk%3A6969%2Fannounce&tr=udp%3A%2F%2Ftracker.pirateparty.gr%3A6969%2Fannounce&tr=udp%3A%2F%2Ftracker.cyberia.is%3A6969%2Fannounce",
        "seeder": "4",
        "leecher": "0"
    },
    {
        "rank": "25",
        "title": "WWE Smackdown Live 2017 10 03 HDTV x264 Ebi [TJET]",
        "link": "magnet:?xt=urn:btih:EAEFA21B162223123EC7F3A071E803FCAD1669BB&dn=WWE+Smackdown+Live+2017+10+03+HDTV+x264+Ebi+%5BTJET%5D&tr=udp%3A%2F%2Ftracker.coppersurfer.tk%3A6969%2Fannounce&tr=udp%3A%2F%2F9.rarbg.to%3A2920%2Fannounce&tr=udp%3A%2F%2Ftracker.opentrackr.org%3A1337&tr=udp%3A%2F%2Ftracker.internetwarriors.net%3A1337%2Fannounce&tr=udp%3A%2F%2Ftracker.leechers-paradise.org%3A6969%2Fannounce&tr=udp%3A%2F%2Ftracker.coppersurfer.tk%3A6969%2Fannounce&tr=udp%3A%2F%2Ftracker.pirateparty.gr%3A6969%2Fannounce&tr=udp%3A%2F%2Ftracker.cyberia.is%3A6969%2Fannounce",
        "seeder": "4",
        "leecher": "0"
    },
    {
        "rank": "26",
        "title": "WWE Friday Night SmackDown 2020 12 04 HDTV x264-NWCHD [TJET]",
        "link": "magnet:?xt=urn:btih:C193168AA8A4CD23E04B9F56FDFA6830318BCCB1&dn=WWE+Friday+Night+SmackDown+2020+12+04+HDTV+x264-NWCHD+%5BTJET%5D&tr=udp%3A%2F%2Ftracker.coppersurfer.tk%3A6969%2Fannounce&tr=udp%3A%2F%2F9.rarbg.to%3A2920%2Fannounce&tr=udp%3A%2F%2Ftracker.opentrackr.org%3A1337&tr=udp%3A%2F%2Ftracker.internetwarriors.net%3A1337%2Fannounce&tr=udp%3A%2F%2Ftracker.leechers-paradise.org%3A6969%2Fannounce&tr=udp%3A%2F%2Ftracker.coppersurfer.tk%3A6969%2Fannounce&tr=udp%3A%2F%2Ftracker.pirateparty.gr%3A6969%2Fannounce&tr=udp%3A%2F%2Ftracker.cyberia.is%3A6969%2Fannounce",
        "seeder": "4",
        "leecher": "0"
    },
    {
        "rank": "27",
        "title": "CBT Nuggets - IPv4 Subnetting",
        "link": "magnet:?xt=urn:btih:A695A588303A85D57EF31BB9EA641C5CCA97CF52&dn=CBT+Nuggets+-+IPv4+Subnetting&tr=udp%3A%2F%2Ftracker.coppersurfer.tk%3A6969%2Fannounce&tr=udp%3A%2F%2F9.rarbg.to%3A2920%2Fannounce&tr=udp%3A%2F%2Ftracker.opentrackr.org%3A1337&tr=udp%3A%2F%2Ftracker.internetwarriors.net%3A1337%2Fannounce&tr=udp%3A%2F%2Ftracker.leechers-paradise.org%3A6969%2Fannounce&tr=udp%3A%2F%2Ftracker.coppersurfer.tk%3A6969%2Fannounce&tr=udp%3A%2F%2Ftracker.pirateparty.gr%3A6969%2Fannounce&tr=udp%3A%2F%2Ftracker.cyberia.is%3A6969%2Fannounce",
        "seeder": "4",
        "leecher": "0"
    },
    {
        "rank": "28",
        "title": "I'm Here (2010) Spike Jonze",
        "link": "magnet:?xt=urn:btih:F2F3C87B6F3DB4F4344337821EFB01FC9020BBF7&dn=I%27m+Here+%282010%29+Spike+Jonze&tr=udp%3A%2F%2Ftracker.coppersurfer.tk%3A6969%2Fannounce&tr=udp%3A%2F%2F9.rarbg.to%3A2920%2Fannounce&tr=udp%3A%2F%2Ftracker.opentrackr.org%3A1337&tr=udp%3A%2F%2Ftracker.internetwarriors.net%3A1337%2Fannounce&tr=udp%3A%2F%2Ftracker.leechers-paradise.org%3A6969%2Fannounce&tr=udp%3A%2F%2Ftracker.coppersurfer.tk%3A6969%2Fannounce&tr=udp%3A%2F%2Ftracker.pirateparty.gr%3A6969%2Fannounce&tr=udp%3A%2F%2Ftracker.cyberia.is%3A6969%2Fannounce",
        "seeder": "4",
        "leecher": "1"
    },
    {
        "rank": "29",
        "title": "Walt Disney Treasures Mickey Mouse",
        "link": "magnet:?xt=urn:btih:342EB761BCC166A286ABCF0C51205AF42F09A9D1&dn=Walt+Disney+Treasures+Mickey+Mouse&tr=udp%3A%2F%2Ftracker.coppersurfer.tk%3A6969%2Fannounce&tr=udp%3A%2F%2F9.rarbg.to%3A2920%2Fannounce&tr=udp%3A%2F%2Ftracker.opentrackr.org%3A1337&tr=udp%3A%2F%2Ftracker.internetwarriors.net%3A1337%2Fannounce&tr=udp%3A%2F%2Ftracker.leechers-paradise.org%3A6969%2Fannounce&tr=udp%3A%2F%2Ftracker.coppersurfer.tk%3A6969%2Fannounce&tr=udp%3A%2F%2Ftracker.pirateparty.gr%3A6969%2Fannounce&tr=udp%3A%2F%2Ftracker.cyberia.is%3A6969%2Fannounce",
        "seeder": "4",
        "leecher": "7"
    },
    {
        "rank": "30",
        "title": "CBT Nuggets - Cisco R&S Troubleshooting Mastery",
        "link": "magnet:?xt=urn:btih:0B9BF55D387AD9BADDE31196A6B1EDA994C79862&dn=CBT+Nuggets+-+Cisco+R%26amp%3BS+Troubleshooting+Mastery&tr=udp%3A%2F%2Ftracker.coppersurfer.tk%3A6969%2Fannounce&tr=udp%3A%2F%2F9.rarbg.to%3A2920%2Fannounce&tr=udp%3A%2F%2Ftracker.opentrackr.org%3A1337&tr=udp%3A%2F%2Ftracker.internetwarriors.net%3A1337%2Fannounce&tr=udp%3A%2F%2Ftracker.leechers-paradise.org%3A6969%2Fannounce&tr=udp%3A%2F%2Ftracker.coppersurfer.tk%3A6969%2Fannounce&tr=udp%3A%2F%2Ftracker.pirateparty.gr%3A6969%2Fannounce&tr=udp%3A%2F%2Ftracker.cyberia.is%3A6969%2Fannounce",
        "seeder": "3",
        "leecher": "0"
    },
    {
        "rank": "31",
        "title": "UFC Fight Night 117 Saint Preux vs Okami HDTV x264-Ebi [TJET]",
        "link": "magnet:?xt=urn:btih:4A61FA7E8257BB20B0F244061588CCD59DB39D12&dn=UFC+Fight+Night+117+Saint+Preux+vs+Okami+HDTV+x264-Ebi+%5BTJET%5D&tr=udp%3A%2F%2Ftracker.coppersurfer.tk%3A6969%2Fannounce&tr=udp%3A%2F%2F9.rarbg.to%3A2920%2Fannounce&tr=udp%3A%2F%2Ftracker.opentrackr.org%3A1337&tr=udp%3A%2F%2Ftracker.internetwarriors.net%3A1337%2Fannounce&tr=udp%3A%2F%2Ftracker.leechers-paradise.org%3A6969%2Fannounce&tr=udp%3A%2F%2Ftracker.coppersurfer.tk%3A6969%2Fannounce&tr=udp%3A%2F%2Ftracker.pirateparty.gr%3A6969%2Fannounce&tr=udp%3A%2F%2Ftracker.cyberia.is%3A6969%2Fannounce",
        "seeder": "3",
        "leecher": "0"
    },
    {
        "rank": "32",
        "title": "POTHS - Conspiracy Theory - Part 42 - David Icke & Kevin Trudeau",
        "link": "magnet:?xt=urn:btih:D849811C448CE71FEB0A83D81A17D5DCFECD272F&dn=POTHS+-+Conspiracy+Theory+-+Part+42+-+David+Icke+%26+Kevin+Trudeau&tr=udp%3A%2F%2Ftracker.coppersurfer.tk%3A6969%2Fannounce&tr=udp%3A%2F%2F9.rarbg.to%3A2920%2Fannounce&tr=udp%3A%2F%2Ftracker.opentrackr.org%3A1337&tr=udp%3A%2F%2Ftracker.internetwarriors.net%3A1337%2Fannounce&tr=udp%3A%2F%2Ftracker.leechers-paradise.org%3A6969%2Fannounce&tr=udp%3A%2F%2Ftracker.coppersurfer.tk%3A6969%2Fannounce&tr=udp%3A%2F%2Ftracker.pirateparty.gr%3A6969%2Fannounce&tr=udp%3A%2F%2Ftracker.cyberia.is%3A6969%2Fannounce",
        "seeder": "3",
        "leecher": "0"
    },
    {
        "rank": "33",
        "title": "Les Mills RPM 54",
        "link": "magnet:?xt=urn:btih:B86F7754D0174D62B9AD224D7CB9ABE92F638E30&dn=Les+Mills+RPM+54&tr=udp%3A%2F%2Ftracker.coppersurfer.tk%3A6969%2Fannounce&tr=udp%3A%2F%2F9.rarbg.to%3A2920%2Fannounce&tr=udp%3A%2F%2Ftracker.opentrackr.org%3A1337&tr=udp%3A%2F%2Ftracker.internetwarriors.net%3A1337%2Fannounce&tr=udp%3A%2F%2Ftracker.leechers-paradise.org%3A6969%2Fannounce&tr=udp%3A%2F%2Ftracker.coppersurfer.tk%3A6969%2Fannounce&tr=udp%3A%2F%2Ftracker.pirateparty.gr%3A6969%2Fannounce&tr=udp%3A%2F%2Ftracker.cyberia.is%3A6969%2Fannounce",
        "seeder": "3",
        "leecher": "0"
    },
    {
        "rank": "34",
        "title": "CBT Nuggets - CCNP Security FIREWALL v2.0 642-618",
        "link": "magnet:?xt=urn:btih:4E1DB01C220C545A33107D0BEBC1B91523EF6428&dn=CBT+Nuggets+-+CCNP+Security+FIREWALL+v2.0+642-618&tr=udp%3A%2F%2Ftracker.coppersurfer.tk%3A6969%2Fannounce&tr=udp%3A%2F%2F9.rarbg.to%3A2920%2Fannounce&tr=udp%3A%2F%2Ftracker.opentrackr.org%3A1337&tr=udp%3A%2F%2Ftracker.internetwarriors.net%3A1337%2Fannounce&tr=udp%3A%2F%2Ftracker.leechers-paradise.org%3A6969%2Fannounce&tr=udp%3A%2F%2Ftracker.coppersurfer.tk%3A6969%2Fannounce&tr=udp%3A%2F%2Ftracker.pirateparty.gr%3A6969%2Fannounce&tr=udp%3A%2F%2Ftracker.cyberia.is%3A6969%2Fannounce",
        "seeder": "3",
        "leecher": "0"
    },
    {
        "rank": "35",
        "title": "CBT Nuggets - CCNP Security 300-206 SENSS",
        "link": "magnet:?xt=urn:btih:3771DEFD2D40FF42B1DC6703E5E86B3102A74FCF&dn=CBT+Nuggets+-+CCNP+Security+300-206+SENSS&tr=udp%3A%2F%2Ftracker.coppersurfer.tk%3A6969%2Fannounce&tr=udp%3A%2F%2F9.rarbg.to%3A2920%2Fannounce&tr=udp%3A%2F%2Ftracker.opentrackr.org%3A1337&tr=udp%3A%2F%2Ftracker.internetwarriors.net%3A1337%2Fannounce&tr=udp%3A%2F%2Ftracker.leechers-paradise.org%3A6969%2Fannounce&tr=udp%3A%2F%2Ftracker.coppersurfer.tk%3A6969%2Fannounce&tr=udp%3A%2F%2Ftracker.pirateparty.gr%3A6969%2Fannounce&tr=udp%3A%2F%2Ftracker.cyberia.is%3A6969%2Fannounce",
        "seeder": "3",
        "leecher": "0"
    },
    {
        "rank": "36",
        "title": "Bela Tarr - Hotel Magnezit (1978) DVDRip",
        "link": "magnet:?xt=urn:btih:CE9E3DC60681FC5BCFC50E01E45910ED0F03E56E&dn=Bela+Tarr+-+Hotel+Magnezit+%281978%29+DVDRip&tr=udp%3A%2F%2Ftracker.coppersurfer.tk%3A6969%2Fannounce&tr=udp%3A%2F%2F9.rarbg.to%3A2920%2Fannounce&tr=udp%3A%2F%2Ftracker.opentrackr.org%3A1337&tr=udp%3A%2F%2Ftracker.internetwarriors.net%3A1337%2Fannounce&tr=udp%3A%2F%2Ftracker.leechers-paradise.org%3A6969%2Fannounce&tr=udp%3A%2F%2Ftracker.coppersurfer.tk%3A6969%2Fannounce&tr=udp%3A%2F%2Ftracker.pirateparty.gr%3A6969%2Fannounce&tr=udp%3A%2F%2Ftracker.cyberia.is%3A6969%2Fannounce",
        "seeder": "3",
        "leecher": "0"
    },
    {
        "rank": "37",
        "title": "Nadia The Secret of Blue Water Complete BD [960x720]",
        "link": "magnet:?xt=urn:btih:52ED48B5478F9389180928BEB3EBEBAAF6B8E349&dn=Nadia+The+Secret+of+Blue+Water+Complete+BD+%5B960x720%5D&tr=udp%3A%2F%2Ftracker.coppersurfer.tk%3A6969%2Fannounce&tr=udp%3A%2F%2F9.rarbg.to%3A2920%2Fannounce&tr=udp%3A%2F%2Ftracker.opentrackr.org%3A1337&tr=udp%3A%2F%2Ftracker.internetwarriors.net%3A1337%2Fannounce&tr=udp%3A%2F%2Ftracker.leechers-paradise.org%3A6969%2Fannounce&tr=udp%3A%2F%2Ftracker.coppersurfer.tk%3A6969%2Fannounce&tr=udp%3A%2F%2Ftracker.pirateparty.gr%3A6969%2Fannounce&tr=udp%3A%2F%2Ftracker.cyberia.is%3A6969%2Fannounce",
        "seeder": "3",
        "leecher": "1"
    },
    {
        "rank": "38",
        "title": "Krzysztof Kieslowski - Gadajace glowy / talking heads (1980)",
        "link": "magnet:?xt=urn:btih:946A964F6F5E37E7B30D15B6A19FE35EA02CAF98&dn=Krzysztof+Kieslowski+-+Gadajace+glowy+%2F+talking+heads+%281980%29&tr=udp%3A%2F%2Ftracker.coppersurfer.tk%3A6969%2Fannounce&tr=udp%3A%2F%2F9.rarbg.to%3A2920%2Fannounce&tr=udp%3A%2F%2Ftracker.opentrackr.org%3A1337&tr=udp%3A%2F%2Ftracker.internetwarriors.net%3A1337%2Fannounce&tr=udp%3A%2F%2Ftracker.leechers-paradise.org%3A6969%2Fannounce&tr=udp%3A%2F%2Ftracker.coppersurfer.tk%3A6969%2Fannounce&tr=udp%3A%2F%2Ftracker.pirateparty.gr%3A6969%2Fannounce&tr=udp%3A%2F%2Ftracker.cyberia.is%3A6969%2Fannounce",
        "seeder": "3",
        "leecher": "1"
    },
    {
        "rank": "39",
        "title": "CBT Nuggets - Juniper JNCIA JN0-101",
        "link": "magnet:?xt=urn:btih:7B4D17E351DC296C2FB85F4AE11F762059521A4C&dn=CBT+Nuggets+-+Juniper+JNCIA+JN0-101&tr=udp%3A%2F%2Ftracker.coppersurfer.tk%3A6969%2Fannounce&tr=udp%3A%2F%2F9.rarbg.to%3A2920%2Fannounce&tr=udp%3A%2F%2Ftracker.opentrackr.org%3A1337&tr=udp%3A%2F%2Ftracker.internetwarriors.net%3A1337%2Fannounce&tr=udp%3A%2F%2Ftracker.leechers-paradise.org%3A6969%2Fannounce&tr=udp%3A%2F%2Ftracker.coppersurfer.tk%3A6969%2Fannounce&tr=udp%3A%2F%2Ftracker.pirateparty.gr%3A6969%2Fannounce&tr=udp%3A%2F%2Ftracker.cyberia.is%3A6969%2Fannounce",
        "seeder": "3",
        "leecher": "0"
    },
    {
        "rank": "40",
        "title": "Ouran High School Host Club BDRip [1280x720-Dual-Audio]",
        "link": "magnet:?xt=urn:btih:A6BB54A79D64CFA72E26D4B10296718017A4C7B4&dn=Ouran+High+School+Host+Club+BDRip+%5B1280x720-Dual-Audio%5D&tr=udp%3A%2F%2Ftracker.coppersurfer.tk%3A6969%2Fannounce&tr=udp%3A%2F%2F9.rarbg.to%3A2920%2Fannounce&tr=udp%3A%2F%2Ftracker.opentrackr.org%3A1337&tr=udp%3A%2F%2Ftracker.internetwarriors.net%3A1337%2Fannounce&tr=udp%3A%2F%2Ftracker.leechers-paradise.org%3A6969%2Fannounce&tr=udp%3A%2F%2Ftracker.coppersurfer.tk%3A6969%2Fannounce&tr=udp%3A%2F%2Ftracker.pirateparty.gr%3A6969%2Fannounce&tr=udp%3A%2F%2Ftracker.cyberia.is%3A6969%2Fannounce",
        "seeder": "3",
        "leecher": "1"
    },
    {
        "rank": "41",
        "title": "WWE Raw 07 24 17 HDTV x264-XWT [TJET]",
        "link": "magnet:?xt=urn:btih:3F87B8D2F39DB716118AE79AE2D135BE68EAF8A3&dn=WWE+Raw+07+24+17+HDTV+x264-XWT+%5BTJET%5D&tr=udp%3A%2F%2Ftracker.coppersurfer.tk%3A6969%2Fannounce&tr=udp%3A%2F%2F9.rarbg.to%3A2920%2Fannounce&tr=udp%3A%2F%2Ftracker.opentrackr.org%3A1337&tr=udp%3A%2F%2Ftracker.internetwarriors.net%3A1337%2Fannounce&tr=udp%3A%2F%2Ftracker.leechers-paradise.org%3A6969%2Fannounce&tr=udp%3A%2F%2Ftracker.coppersurfer.tk%3A6969%2Fannounce&tr=udp%3A%2F%2Ftracker.pirateparty.gr%3A6969%2Fannounce&tr=udp%3A%2F%2Ftracker.cyberia.is%3A6969%2Fannounce",
        "seeder": "3",
        "leecher": "0"
    },
    {
        "rank": "42",
        "title": "Walt Disney Treasures - The Complete Pluto",
        "link": "magnet:?xt=urn:btih:EA9507E9CBB9149912419CB611026E2D764F7797&dn=Walt+Disney+Treasures+-+The+Complete+Pluto&tr=udp%3A%2F%2Ftracker.coppersurfer.tk%3A6969%2Fannounce&tr=udp%3A%2F%2F9.rarbg.to%3A2920%2Fannounce&tr=udp%3A%2F%2Ftracker.opentrackr.org%3A1337&tr=udp%3A%2F%2Ftracker.internetwarriors.net%3A1337%2Fannounce&tr=udp%3A%2F%2Ftracker.leechers-paradise.org%3A6969%2Fannounce&tr=udp%3A%2F%2Ftracker.coppersurfer.tk%3A6969%2Fannounce&tr=udp%3A%2F%2Ftracker.pirateparty.gr%3A6969%2Fannounce&tr=udp%3A%2F%2Ftracker.cyberia.is%3A6969%2Fannounce",
        "seeder": "3",
        "leecher": "4"
    },
    {
        "rank": "43",
        "title": "CBT Nuggets - CentOS System Administrator Prep",
        "link": "magnet:?xt=urn:btih:93572D3FEA6DCDA813A4B381C18AFECF9F9E0177&dn=CBT+Nuggets+-+CentOS+System+Administrator+Prep&tr=udp%3A%2F%2Ftracker.coppersurfer.tk%3A6969%2Fannounce&tr=udp%3A%2F%2F9.rarbg.to%3A2920%2Fannounce&tr=udp%3A%2F%2Ftracker.opentrackr.org%3A1337&tr=udp%3A%2F%2Ftracker.internetwarriors.net%3A1337%2Fannounce&tr=udp%3A%2F%2Ftracker.leechers-paradise.org%3A6969%2Fannounce&tr=udp%3A%2F%2Ftracker.coppersurfer.tk%3A6969%2Fannounce&tr=udp%3A%2F%2Ftracker.pirateparty.gr%3A6969%2Fannounce&tr=udp%3A%2F%2Ftracker.cyberia.is%3A6969%2Fannounce",
        "seeder": "3",
        "leecher": "1"
    },
    {
        "rank": "44",
        "title": "80's Hits Video Clips Vol 1 2013 DVDR NTSC ENG",
        "link": "magnet:?xt=urn:btih:7F42AA2416EDEA0209381BC99DD2C25521C04D9B&dn=80%27s+Hits+Video+Clips+Vol+1+2013+DVDR+NTSC+ENG&tr=udp%3A%2F%2Ftracker.coppersurfer.tk%3A6969%2Fannounce&tr=udp%3A%2F%2F9.rarbg.to%3A2920%2Fannounce&tr=udp%3A%2F%2Ftracker.opentrackr.org%3A1337&tr=udp%3A%2F%2Ftracker.internetwarriors.net%3A1337%2Fannounce&tr=udp%3A%2F%2Ftracker.leechers-paradise.org%3A6969%2Fannounce&tr=udp%3A%2F%2Ftracker.coppersurfer.tk%3A6969%2Fannounce&tr=udp%3A%2F%2Ftracker.pirateparty.gr%3A6969%2Fannounce&tr=udp%3A%2F%2Ftracker.cyberia.is%3A6969%2Fannounce",
        "seeder": "3",
        "leecher": "1"
    },
    {
        "rank": "45",
        "title": "Lucky Star Complete BDRip [1280x720 Dual-Audio]",
        "link": "magnet:?xt=urn:btih:B4792965CDF7B33DC93B054C41FCCE26154E824D&dn=Lucky+Star+Complete+BDRip+%5B1280x720+Dual-Audio%5D&tr=udp%3A%2F%2Ftracker.coppersurfer.tk%3A6969%2Fannounce&tr=udp%3A%2F%2F9.rarbg.to%3A2920%2Fannounce&tr=udp%3A%2F%2Ftracker.opentrackr.org%3A1337&tr=udp%3A%2F%2Ftracker.internetwarriors.net%3A1337%2Fannounce&tr=udp%3A%2F%2Ftracker.leechers-paradise.org%3A6969%2Fannounce&tr=udp%3A%2F%2Ftracker.coppersurfer.tk%3A6969%2Fannounce&tr=udp%3A%2F%2Ftracker.pirateparty.gr%3A6969%2Fannounce&tr=udp%3A%2F%2Ftracker.cyberia.is%3A6969%2Fannounce",
        "seeder": "3",
        "leecher": "1"
    },
    {
        "rank": "46",
        "title": "WWE RAW 2016 02 15 HDTV x264-Ebi -={SPARROW}=-",
        "link": "magnet:?xt=urn:btih:13FA43364BBEE59EEA7A2405A184C94B3ADA9B5C&dn=WWE+RAW+2016+02+15+HDTV+x264-Ebi+-%3D%7BSPARROW%7D%3D-&tr=udp%3A%2F%2Ftracker.coppersurfer.tk%3A6969%2Fannounce&tr=udp%3A%2F%2F9.rarbg.to%3A2920%2Fannounce&tr=udp%3A%2F%2Ftracker.opentrackr.org%3A1337&tr=udp%3A%2F%2Ftracker.internetwarriors.net%3A1337%2Fannounce&tr=udp%3A%2F%2Ftracker.leechers-paradise.org%3A6969%2Fannounce&tr=udp%3A%2F%2Ftracker.coppersurfer.tk%3A6969%2Fannounce&tr=udp%3A%2F%2Ftracker.pirateparty.gr%3A6969%2Fannounce&tr=udp%3A%2F%2Ftracker.cyberia.is%3A6969%2Fannounce",
        "seeder": "3",
        "leecher": "0"
    },
    {
        "rank": "47",
        "title": "CCNA Security IINS 640-554",
        "link": "magnet:?xt=urn:btih:9A64A284F13B395E98D8F232B783997F3C2C62AE&dn=CCNA+Security+IINS+640-554&tr=udp%3A%2F%2Ftracker.coppersurfer.tk%3A6969%2Fannounce&tr=udp%3A%2F%2F9.rarbg.to%3A2920%2Fannounce&tr=udp%3A%2F%2Ftracker.opentrackr.org%3A1337&tr=udp%3A%2F%2Ftracker.internetwarriors.net%3A1337%2Fannounce&tr=udp%3A%2F%2Ftracker.leechers-paradise.org%3A6969%2Fannounce&tr=udp%3A%2F%2Ftracker.coppersurfer.tk%3A6969%2Fannounce&tr=udp%3A%2F%2Ftracker.pirateparty.gr%3A6969%2Fannounce&tr=udp%3A%2F%2Ftracker.cyberia.is%3A6969%2Fannounce",
        "seeder": "2",
        "leecher": "1"
    },
    {
        "rank": "48",
        "title": "LOU 2017 BDRip x264-FLAME",
        "link": "magnet:?xt=urn:btih:CD597CA277FDD0365CA955C1C6C2DBDDE049E406&dn=LOU+2017+BDRip+x264-FLAME&tr=udp%3A%2F%2Ftracker.coppersurfer.tk%3A6969%2Fannounce&tr=udp%3A%2F%2F9.rarbg.to%3A2920%2Fannounce&tr=udp%3A%2F%2Ftracker.opentrackr.org%3A1337&tr=udp%3A%2F%2Ftracker.internetwarriors.net%3A1337%2Fannounce&tr=udp%3A%2F%2Ftracker.leechers-paradise.org%3A6969%2Fannounce&tr=udp%3A%2F%2Ftracker.coppersurfer.tk%3A6969%2Fannounce&tr=udp%3A%2F%2Ftracker.pirateparty.gr%3A6969%2Fannounce&tr=udp%3A%2F%2Ftracker.cyberia.is%3A6969%2Fannounce",
        "seeder": "2",
        "leecher": "0"
    },
    {
        "rank": "49",
        "title": "CBT Nuggets - IPv6",
        "link": "magnet:?xt=urn:btih:D1D949E680BD24816D8F18C3A1806BF617C32FF0&dn=CBT+Nuggets+-+IPv6&tr=udp%3A%2F%2Ftracker.coppersurfer.tk%3A6969%2Fannounce&tr=udp%3A%2F%2F9.rarbg.to%3A2920%2Fannounce&tr=udp%3A%2F%2Ftracker.opentrackr.org%3A1337&tr=udp%3A%2F%2Ftracker.internetwarriors.net%3A1337%2Fannounce&tr=udp%3A%2F%2Ftracker.leechers-paradise.org%3A6969%2Fannounce&tr=udp%3A%2F%2Ftracker.coppersurfer.tk%3A6969%2Fannounce&tr=udp%3A%2F%2Ftracker.pirateparty.gr%3A6969%2Fannounce&tr=udp%3A%2F%2Ftracker.cyberia.is%3A6969%2Fannounce",
        "seeder": "2",
        "leecher": "0"
    },
    {
        "rank": "50",
        "title": "Amputee - teenage girl with no legs.................FFF",
        "link": "magnet:?xt=urn:btih:A40AADDD9A70E39120644C80D828717E02C8020F&dn=Amputee+-+teenage+girl+with+no+legs.................FFF&tr=udp%3A%2F%2Ftracker.coppersurfer.tk%3A6969%2Fannounce&tr=udp%3A%2F%2F9.rarbg.to%3A2920%2Fannounce&tr=udp%3A%2F%2Ftracker.opentrackr.org%3A1337&tr=udp%3A%2F%2Ftracker.internetwarriors.net%3A1337%2Fannounce&tr=udp%3A%2F%2Ftracker.leechers-paradise.org%3A6969%2Fannounce&tr=udp%3A%2F%2Ftracker.coppersurfer.tk%3A6969%2Fannounce&tr=udp%3A%2F%2Ftracker.pirateparty.gr%3A6969%2Fannounce&tr=udp%3A%2F%2Ftracker.cyberia.is%3A6969%2Fannounce",
        "seeder": "2",
        "leecher": "0"
    },
    {
        "rank": "51",
        "title": "English Grammar - Sentence Diagrams",
        "link": "magnet:?xt=urn:btih:B783FF741C054639080E59C42FB20FCAA32DEA12&dn=English+Grammar+-+Sentence+Diagrams&tr=udp%3A%2F%2Ftracker.coppersurfer.tk%3A6969%2Fannounce&tr=udp%3A%2F%2F9.rarbg.to%3A2920%2Fannounce&tr=udp%3A%2F%2Ftracker.opentrackr.org%3A1337&tr=udp%3A%2F%2Ftracker.internetwarriors.net%3A1337%2Fannounce&tr=udp%3A%2F%2Ftracker.leechers-paradise.org%3A6969%2Fannounce&tr=udp%3A%2F%2Ftracker.coppersurfer.tk%3A6969%2Fannounce&tr=udp%3A%2F%2Ftracker.pirateparty.gr%3A6969%2Fannounce&tr=udp%3A%2F%2Ftracker.cyberia.is%3A6969%2Fannounce",
        "seeder": "2",
        "leecher": "0"
    },
    {
        "rank": "52",
        "title": "CBT Nuggets - Juniper JNCIS-SEC JN0-332",
        "link": "magnet:?xt=urn:btih:708FFB5749C996C30C7E0C9E9F6486532A2040F3&dn=CBT+Nuggets+-+Juniper+JNCIS-SEC+JN0-332&tr=udp%3A%2F%2Ftracker.coppersurfer.tk%3A6969%2Fannounce&tr=udp%3A%2F%2F9.rarbg.to%3A2920%2Fannounce&tr=udp%3A%2F%2Ftracker.opentrackr.org%3A1337&tr=udp%3A%2F%2Ftracker.internetwarriors.net%3A1337%2Fannounce&tr=udp%3A%2F%2Ftracker.leechers-paradise.org%3A6969%2Fannounce&tr=udp%3A%2F%2Ftracker.coppersurfer.tk%3A6969%2Fannounce&tr=udp%3A%2F%2Ftracker.pirateparty.gr%3A6969%2Fannounce&tr=udp%3A%2F%2Ftracker.cyberia.is%3A6969%2Fannounce",
        "seeder": "2",
        "leecher": "0"
    },
    {
        "rank": "53",
        "title": "Jorgen Leth - The Perfect Human - 1967 - XviD",
        "link": "magnet:?xt=urn:btih:F40EDC5098C93EA35748F4A2D97C8B9C161DD02E&dn=Jorgen+Leth+-+The+Perfect+Human+-+1967+-+XviD&tr=udp%3A%2F%2Ftracker.coppersurfer.tk%3A6969%2Fannounce&tr=udp%3A%2F%2F9.rarbg.to%3A2920%2Fannounce&tr=udp%3A%2F%2Ftracker.opentrackr.org%3A1337&tr=udp%3A%2F%2Ftracker.internetwarriors.net%3A1337%2Fannounce&tr=udp%3A%2F%2Ftracker.leechers-paradise.org%3A6969%2Fannounce&tr=udp%3A%2F%2Ftracker.coppersurfer.tk%3A6969%2Fannounce&tr=udp%3A%2F%2Ftracker.pirateparty.gr%3A6969%2Fannounce&tr=udp%3A%2F%2Ftracker.cyberia.is%3A6969%2Fannounce",
        "seeder": "2",
        "leecher": "0"
    },
    {
        "rank": "54",
        "title": "CBT Nuggets - CCIE R&S v5 All-In-One - 2.0 Layer 2 Technolog",
        "link": "magnet:?xt=urn:btih:3623B5EF77C3911FB39FAA88C413EBC92F60E416&dn=CBT+Nuggets+-+CCIE+R%26amp%3BS+v5+All-In-One+-+2.0+Layer+2+Technolog&tr=udp%3A%2F%2Ftracker.coppersurfer.tk%3A6969%2Fannounce&tr=udp%3A%2F%2F9.rarbg.to%3A2920%2Fannounce&tr=udp%3A%2F%2Ftracker.opentrackr.org%3A1337&tr=udp%3A%2F%2Ftracker.internetwarriors.net%3A1337%2Fannounce&tr=udp%3A%2F%2Ftracker.leechers-paradise.org%3A6969%2Fannounce&tr=udp%3A%2F%2Ftracker.coppersurfer.tk%3A6969%2Fannounce&tr=udp%3A%2F%2Ftracker.pirateparty.gr%3A6969%2Fannounce&tr=udp%3A%2F%2Ftracker.cyberia.is%3A6969%2Fannounce",
        "seeder": "2",
        "leecher": "0"
    },
    {
        "rank": "55",
        "title": "We Become Silent - Last Days of Health Freedom [AVI]",
        "link": "magnet:?xt=urn:btih:5062CE461DAEFCA5D08739C97D8F6892593C38D7&dn=We+Become+Silent+-+Last+Days+of+Health+Freedom+%5BAVI%5D&tr=udp%3A%2F%2Ftracker.coppersurfer.tk%3A6969%2Fannounce&tr=udp%3A%2F%2F9.rarbg.to%3A2920%2Fannounce&tr=udp%3A%2F%2Ftracker.opentrackr.org%3A1337&tr=udp%3A%2F%2Ftracker.internetwarriors.net%3A1337%2Fannounce&tr=udp%3A%2F%2Ftracker.leechers-paradise.org%3A6969%2Fannounce&tr=udp%3A%2F%2Ftracker.coppersurfer.tk%3A6969%2Fannounce&tr=udp%3A%2F%2Ftracker.pirateparty.gr%3A6969%2Fannounce&tr=udp%3A%2F%2Ftracker.cyberia.is%3A6969%2Fannounce",
        "seeder": "2",
        "leecher": "0"
    },
    {
        "rank": "56",
        "title": "The Twelve Kingdoms Complete Dual Audio BD",
        "link": "magnet:?xt=urn:btih:416B1BAE5D77A12A952C7232324328AC16191D23&dn=The+Twelve+Kingdoms+Complete+Dual+Audio+BD&tr=udp%3A%2F%2Ftracker.coppersurfer.tk%3A6969%2Fannounce&tr=udp%3A%2F%2F9.rarbg.to%3A2920%2Fannounce&tr=udp%3A%2F%2Ftracker.opentrackr.org%3A1337&tr=udp%3A%2F%2Ftracker.internetwarriors.net%3A1337%2Fannounce&tr=udp%3A%2F%2Ftracker.leechers-paradise.org%3A6969%2Fannounce&tr=udp%3A%2F%2Ftracker.coppersurfer.tk%3A6969%2Fannounce&tr=udp%3A%2F%2Ftracker.pirateparty.gr%3A6969%2Fannounce&tr=udp%3A%2F%2Ftracker.cyberia.is%3A6969%2Fannounce",
        "seeder": "2",
        "leecher": "0"
    },
    {
        "rank": "57",
        "title": "ViZ Sid The Sexist DVDRip H264 AAC",
        "link": "magnet:?xt=urn:btih:D5FED4497C486DE31D966B76FCC77A676B5A1AE2&dn=ViZ+Sid+The+Sexist+DVDRip+H264+AAC&tr=udp%3A%2F%2Ftracker.coppersurfer.tk%3A6969%2Fannounce&tr=udp%3A%2F%2F9.rarbg.to%3A2920%2Fannounce&tr=udp%3A%2F%2Ftracker.opentrackr.org%3A1337&tr=udp%3A%2F%2Ftracker.internetwarriors.net%3A1337%2Fannounce&tr=udp%3A%2F%2Ftracker.leechers-paradise.org%3A6969%2Fannounce&tr=udp%3A%2F%2Ftracker.coppersurfer.tk%3A6969%2Fannounce&tr=udp%3A%2F%2Ftracker.pirateparty.gr%3A6969%2Fannounce&tr=udp%3A%2F%2Ftracker.cyberia.is%3A6969%2Fannounce",
        "seeder": "2",
        "leecher": "0"
    },
    {
        "rank": "58",
        "title": "Bambi Meets Godzilla (1969).avi",
        "link": "magnet:?xt=urn:btih:7F7C1B466DFE16B5C28132A148A5B6BEA37DE5F6&dn=Bambi+Meets+Godzilla+%281969%29.avi&tr=udp%3A%2F%2Ftracker.coppersurfer.tk%3A6969%2Fannounce&tr=udp%3A%2F%2F9.rarbg.to%3A2920%2Fannounce&tr=udp%3A%2F%2Ftracker.opentrackr.org%3A1337&tr=udp%3A%2F%2Ftracker.internetwarriors.net%3A1337%2Fannounce&tr=udp%3A%2F%2Ftracker.leechers-paradise.org%3A6969%2Fannounce&tr=udp%3A%2F%2Ftracker.coppersurfer.tk%3A6969%2Fannounce&tr=udp%3A%2F%2Ftracker.pirateparty.gr%3A6969%2Fannounce&tr=udp%3A%2F%2Ftracker.cyberia.is%3A6969%2Fannounce",
        "seeder": "2",
        "leecher": "0"
    },
    {
        "rank": "59",
        "title": "Inside Out Rileys First Date 2015 1080p 5.1 BRRip LKRG",
        "link": "magnet:?xt=urn:btih:E3760707ED64AA060C9F1DA93D6AF88F766B6B84&dn=Inside+Out+Rileys+First+Date+2015+1080p+5.1+BRRip+LKRG&tr=udp%3A%2F%2Ftracker.coppersurfer.tk%3A6969%2Fannounce&tr=udp%3A%2F%2F9.rarbg.to%3A2920%2Fannounce&tr=udp%3A%2F%2Ftracker.opentrackr.org%3A1337&tr=udp%3A%2F%2Ftracker.internetwarriors.net%3A1337%2Fannounce&tr=udp%3A%2F%2Ftracker.leechers-paradise.org%3A6969%2Fannounce&tr=udp%3A%2F%2Ftracker.coppersurfer.tk%3A6969%2Fannounce&tr=udp%3A%2F%2Ftracker.pirateparty.gr%3A6969%2Fannounce&tr=udp%3A%2F%2Ftracker.cyberia.is%3A6969%2Fannounce",
        "seeder": "2",
        "leecher": "0"
    },
    {
        "rank": "60",
        "title": "Une robe d'ete (1996) (short film) Francois Ozon",
        "link": "magnet:?xt=urn:btih:AAC335AD332F596EAF41F0D063ABA7458E4410B0&dn=Une+robe+d%27ete+%281996%29+%28short+film%29+Francois+Ozon&tr=udp%3A%2F%2Ftracker.coppersurfer.tk%3A6969%2Fannounce&tr=udp%3A%2F%2F9.rarbg.to%3A2920%2Fannounce&tr=udp%3A%2F%2Ftracker.opentrackr.org%3A1337&tr=udp%3A%2F%2Ftracker.internetwarriors.net%3A1337%2Fannounce&tr=udp%3A%2F%2Ftracker.leechers-paradise.org%3A6969%2Fannounce&tr=udp%3A%2F%2Ftracker.coppersurfer.tk%3A6969%2Fannounce&tr=udp%3A%2F%2Ftracker.pirateparty.gr%3A6969%2Fannounce&tr=udp%3A%2F%2Ftracker.cyberia.is%3A6969%2Fannounce",
        "seeder": "2",
        "leecher": "0"
    },
    {
        "rank": "61",
        "title": "What World Famous Men Said About the Jews - AVI Video",
        "link": "magnet:?xt=urn:btih:16BAE498545778626D080DED398D563D5D242430&dn=What+World+Famous+Men+Said+About+the+Jews+-+AVI+Video&tr=udp%3A%2F%2Ftracker.coppersurfer.tk%3A6969%2Fannounce&tr=udp%3A%2F%2F9.rarbg.to%3A2920%2Fannounce&tr=udp%3A%2F%2Ftracker.opentrackr.org%3A1337&tr=udp%3A%2F%2Ftracker.internetwarriors.net%3A1337%2Fannounce&tr=udp%3A%2F%2Ftracker.leechers-paradise.org%3A6969%2Fannounce&tr=udp%3A%2F%2Ftracker.coppersurfer.tk%3A6969%2Fannounce&tr=udp%3A%2F%2Ftracker.pirateparty.gr%3A6969%2Fannounce&tr=udp%3A%2F%2Ftracker.cyberia.is%3A6969%2Fannounce",
        "seeder": "2",
        "leecher": "0"
    },
    {
        "rank": "62",
        "title": "The Delhi Way [1964] James Ivory",
        "link": "magnet:?xt=urn:btih:2B3D37BC2BD6EBC6B756851A72C71A7984ED7D6A&dn=The+Delhi+Way+%5B1964%5D+James+Ivory&tr=udp%3A%2F%2Ftracker.coppersurfer.tk%3A6969%2Fannounce&tr=udp%3A%2F%2F9.rarbg.to%3A2920%2Fannounce&tr=udp%3A%2F%2Ftracker.opentrackr.org%3A1337&tr=udp%3A%2F%2Ftracker.internetwarriors.net%3A1337%2Fannounce&tr=udp%3A%2F%2Ftracker.leechers-paradise.org%3A6969%2Fannounce&tr=udp%3A%2F%2Ftracker.coppersurfer.tk%3A6969%2Fannounce&tr=udp%3A%2F%2Ftracker.pirateparty.gr%3A6969%2Fannounce&tr=udp%3A%2F%2Ftracker.cyberia.is%3A6969%2Fannounce",
        "seeder": "2",
        "leecher": "1"
    },
    {
        "rank": "63",
        "title": "WWE Friday Night Smackdown 2021 03 05 HDTV x264-SkY [TJET]",
        "link": "magnet:?xt=urn:btih:A6A222113DC5942CADED978C01676328BA8C50C7&dn=WWE+Friday+Night+Smackdown+2021+03+05+HDTV+x264-SkY+%5BTJET%5D&tr=udp%3A%2F%2Ftracker.coppersurfer.tk%3A6969%2Fannounce&tr=udp%3A%2F%2F9.rarbg.to%3A2920%2Fannounce&tr=udp%3A%2F%2Ftracker.opentrackr.org%3A1337&tr=udp%3A%2F%2Ftracker.internetwarriors.net%3A1337%2Fannounce&tr=udp%3A%2F%2Ftracker.leechers-paradise.org%3A6969%2Fannounce&tr=udp%3A%2F%2Ftracker.coppersurfer.tk%3A6969%2Fannounce&tr=udp%3A%2F%2Ftracker.pirateparty.gr%3A6969%2Fannounce&tr=udp%3A%2F%2Ftracker.cyberia.is%3A6969%2Fannounce",
        "seeder": "2",
        "leecher": "0"
    },
    {
        "rank": "64",
        "title": "CBT Nuggets - CCIP BGP 642-661",
        "link": "magnet:?xt=urn:btih:AB5587E08A33692D569A0784AE7EE41F47561D9E&dn=CBT+Nuggets+-+CCIP+BGP+642-661&tr=udp%3A%2F%2Ftracker.coppersurfer.tk%3A6969%2Fannounce&tr=udp%3A%2F%2F9.rarbg.to%3A2920%2Fannounce&tr=udp%3A%2F%2Ftracker.opentrackr.org%3A1337&tr=udp%3A%2F%2Ftracker.internetwarriors.net%3A1337%2Fannounce&tr=udp%3A%2F%2Ftracker.leechers-paradise.org%3A6969%2Fannounce&tr=udp%3A%2F%2Ftracker.coppersurfer.tk%3A6969%2Fannounce&tr=udp%3A%2F%2Ftracker.pirateparty.gr%3A6969%2Fannounce&tr=udp%3A%2F%2Ftracker.cyberia.is%3A6969%2Fannounce",
        "seeder": "2",
        "leecher": "0"
    },
    {
        "rank": "65",
        "title": "Doodlebug [1997] - Christopher Nolan [Faukka's]",
        "link": "magnet:?xt=urn:btih:142AFE3011110BD4448161F25462C3140534A2F5&dn=Doodlebug+%5B1997%5D+-+Christopher+Nolan+%5BFaukka%27s%5D&tr=udp%3A%2F%2Ftracker.coppersurfer.tk%3A6969%2Fannounce&tr=udp%3A%2F%2F9.rarbg.to%3A2920%2Fannounce&tr=udp%3A%2F%2Ftracker.opentrackr.org%3A1337&tr=udp%3A%2F%2Ftracker.internetwarriors.net%3A1337%2Fannounce&tr=udp%3A%2F%2Ftracker.leechers-paradise.org%3A6969%2Fannounce&tr=udp%3A%2F%2Ftracker.coppersurfer.tk%3A6969%2Fannounce&tr=udp%3A%2F%2Ftracker.pirateparty.gr%3A6969%2Fannounce&tr=udp%3A%2F%2Ftracker.cyberia.is%3A6969%2Fannounce",
        "seeder": "2",
        "leecher": "0"
    },
    {
        "rank": "66",
        "title": "UFC on Fox 30 Alvarez vs Poirier 2 HDTV x264-Star [TJET]",
        "link": "magnet:?xt=urn:btih:0DBE36C91B3F350D18534725063E0EC3BCBA5F50&dn=UFC+on+Fox+30+Alvarez+vs+Poirier+2+HDTV+x264-Star+%5BTJET%5D&tr=udp%3A%2F%2Ftracker.coppersurfer.tk%3A6969%2Fannounce&tr=udp%3A%2F%2F9.rarbg.to%3A2920%2Fannounce&tr=udp%3A%2F%2Ftracker.opentrackr.org%3A1337&tr=udp%3A%2F%2Ftracker.internetwarriors.net%3A1337%2Fannounce&tr=udp%3A%2F%2Ftracker.leechers-paradise.org%3A6969%2Fannounce&tr=udp%3A%2F%2Ftracker.coppersurfer.tk%3A6969%2Fannounce&tr=udp%3A%2F%2Ftracker.pirateparty.gr%3A6969%2Fannounce&tr=udp%3A%2F%2Ftracker.cyberia.is%3A6969%2Fannounce",
        "seeder": "2",
        "leecher": "0"
    },
    {
        "rank": "67",
        "title": "The Crimson Permanent Assurance (1982) Terry Gilliam",
        "link": "magnet:?xt=urn:btih:830293ED30D8FD18B04E7F17288ED1FA82B4F628&dn=The+Crimson+Permanent+Assurance+%281982%29+Terry+Gilliam&tr=udp%3A%2F%2Ftracker.coppersurfer.tk%3A6969%2Fannounce&tr=udp%3A%2F%2F9.rarbg.to%3A2920%2Fannounce&tr=udp%3A%2F%2Ftracker.opentrackr.org%3A1337&tr=udp%3A%2F%2Ftracker.internetwarriors.net%3A1337%2Fannounce&tr=udp%3A%2F%2Ftracker.leechers-paradise.org%3A6969%2Fannounce&tr=udp%3A%2F%2Ftracker.coppersurfer.tk%3A6969%2Fannounce&tr=udp%3A%2F%2Ftracker.pirateparty.gr%3A6969%2Fannounce&tr=udp%3A%2F%2Ftracker.cyberia.is%3A6969%2Fannounce",
        "seeder": "2",
        "leecher": "0"
    },
    {
        "rank": "68",
        "title": "Banned, Uncensored & Uncut Music Videos Russia",
        "link": "magnet:?xt=urn:btih:B2C8A128DFD495276D3B77C5E28A660A6C9932AF&dn=Banned%2C+Uncensored+%26+Uncut+Music+Videos+Russia&tr=udp%3A%2F%2Ftracker.coppersurfer.tk%3A6969%2Fannounce&tr=udp%3A%2F%2F9.rarbg.to%3A2920%2Fannounce&tr=udp%3A%2F%2Ftracker.opentrackr.org%3A1337&tr=udp%3A%2F%2Ftracker.internetwarriors.net%3A1337%2Fannounce&tr=udp%3A%2F%2Ftracker.leechers-paradise.org%3A6969%2Fannounce&tr=udp%3A%2F%2Ftracker.coppersurfer.tk%3A6969%2Fannounce&tr=udp%3A%2F%2Ftracker.pirateparty.gr%3A6969%2Fannounce&tr=udp%3A%2F%2Ftracker.cyberia.is%3A6969%2Fannounce",
        "seeder": "2",
        "leecher": "1"
    },
    {
        "rank": "69",
        "title": "Minions.Competition.Mini.Movie.2015.720p.BluRay.x264-GERUDO",
        "link": "magnet:?xt=urn:btih:0F3FBDF0EE3A584EB2B4EBCF8D30A119D362D8CE&dn=Minions.Competition.Mini.Movie.2015.720p.BluRay.x264-GERUDO&tr=udp%3A%2F%2Ftracker.coppersurfer.tk%3A6969%2Fannounce&tr=udp%3A%2F%2F9.rarbg.to%3A2920%2Fannounce&tr=udp%3A%2F%2Ftracker.opentrackr.org%3A1337&tr=udp%3A%2F%2Ftracker.internetwarriors.net%3A1337%2Fannounce&tr=udp%3A%2F%2Ftracker.leechers-paradise.org%3A6969%2Fannounce&tr=udp%3A%2F%2Ftracker.coppersurfer.tk%3A6969%2Fannounce&tr=udp%3A%2F%2Ftracker.pirateparty.gr%3A6969%2Fannounce&tr=udp%3A%2F%2Ftracker.cyberia.is%3A6969%2Fannounce",
        "seeder": "2",
        "leecher": "0"
    },
    {
        "rank": "70",
        "title": "Prince of tennis Complete [480p]",
        "link": "magnet:?xt=urn:btih:71CD3C004A4699B167A1629053653CC20AD3DA63&dn=Prince+of+tennis+Complete+%5B480p%5D&tr=udp%3A%2F%2Ftracker.coppersurfer.tk%3A6969%2Fannounce&tr=udp%3A%2F%2F9.rarbg.to%3A2920%2Fannounce&tr=udp%3A%2F%2Ftracker.opentrackr.org%3A1337&tr=udp%3A%2F%2Ftracker.internetwarriors.net%3A1337%2Fannounce&tr=udp%3A%2F%2Ftracker.leechers-paradise.org%3A6969%2Fannounce&tr=udp%3A%2F%2Ftracker.coppersurfer.tk%3A6969%2Fannounce&tr=udp%3A%2F%2Ftracker.pirateparty.gr%3A6969%2Fannounce&tr=udp%3A%2F%2Ftracker.cyberia.is%3A6969%2Fannounce",
        "seeder": "2",
        "leecher": "0"
    },
    {
        "rank": "71",
        "title": "How I Steal Cars (How To Video)",
        "link": "magnet:?xt=urn:btih:105A9231FFF053F529C0D4D800306F14DF77622A&dn=How+I+Steal+Cars+%28How+To+Video%29&tr=udp%3A%2F%2Ftracker.coppersurfer.tk%3A6969%2Fannounce&tr=udp%3A%2F%2F9.rarbg.to%3A2920%2Fannounce&tr=udp%3A%2F%2Ftracker.opentrackr.org%3A1337&tr=udp%3A%2F%2Ftracker.internetwarriors.net%3A1337%2Fannounce&tr=udp%3A%2F%2Ftracker.leechers-paradise.org%3A6969%2Fannounce&tr=udp%3A%2F%2Ftracker.coppersurfer.tk%3A6969%2Fannounce&tr=udp%3A%2F%2Ftracker.pirateparty.gr%3A6969%2Fannounce&tr=udp%3A%2F%2Ftracker.cyberia.is%3A6969%2Fannounce",
        "seeder": "2",
        "leecher": "0"
    },
    {
        "rank": "72",
        "title": "CBT Nuggets - CCNP Data Center DCUCT 642-035",
        "link": "magnet:?xt=urn:btih:A1B8F083A79BA147F951C2D189DA812D2D519A9C&dn=CBT+Nuggets+-+CCNP+Data+Center+DCUCT+642-035&tr=udp%3A%2F%2Ftracker.coppersurfer.tk%3A6969%2Fannounce&tr=udp%3A%2F%2F9.rarbg.to%3A2920%2Fannounce&tr=udp%3A%2F%2Ftracker.opentrackr.org%3A1337&tr=udp%3A%2F%2Ftracker.internetwarriors.net%3A1337%2Fannounce&tr=udp%3A%2F%2Ftracker.leechers-paradise.org%3A6969%2Fannounce&tr=udp%3A%2F%2Ftracker.coppersurfer.tk%3A6969%2Fannounce&tr=udp%3A%2F%2Ftracker.pirateparty.gr%3A6969%2Fannounce&tr=udp%3A%2F%2Ftracker.cyberia.is%3A6969%2Fannounce",
        "seeder": "2",
        "leecher": "0"
    },
    {
        "rank": "73",
        "title": "Spider Ham Caught in a Ham 2019 1080p BluRay DD5.1 HEVC x265",
        "link": "magnet:?xt=urn:btih:AF6266B47D744E30E7F5D3A0C89BA2E06C170B05&dn=Spider+Ham+Caught+in+a+Ham+2019+1080p+BluRay+DD5.1+HEVC+x265&tr=udp%3A%2F%2Ftracker.coppersurfer.tk%3A6969%2Fannounce&tr=udp%3A%2F%2F9.rarbg.to%3A2920%2Fannounce&tr=udp%3A%2F%2Ftracker.opentrackr.org%3A1337&tr=udp%3A%2F%2Ftracker.internetwarriors.net%3A1337%2Fannounce&tr=udp%3A%2F%2Ftracker.leechers-paradise.org%3A6969%2Fannounce&tr=udp%3A%2F%2Ftracker.coppersurfer.tk%3A6969%2Fannounce&tr=udp%3A%2F%2Ftracker.pirateparty.gr%3A6969%2Fannounce&tr=udp%3A%2F%2Ftracker.cyberia.is%3A6969%2Fannounce",
        "seeder": "2",
        "leecher": "0"
    },
    {
        "rank": "74",
        "title": "CBT Nuggets - CCNA ICND1 100-101",
        "link": "magnet:?xt=urn:btih:0BE04A2995A5EB7FED4614530B0FBBDFB85DEC74&dn=CBT+Nuggets+-+CCNA+ICND1+100-101&tr=udp%3A%2F%2Ftracker.coppersurfer.tk%3A6969%2Fannounce&tr=udp%3A%2F%2F9.rarbg.to%3A2920%2Fannounce&tr=udp%3A%2F%2Ftracker.opentrackr.org%3A1337&tr=udp%3A%2F%2Ftracker.internetwarriors.net%3A1337%2Fannounce&tr=udp%3A%2F%2Ftracker.leechers-paradise.org%3A6969%2Fannounce&tr=udp%3A%2F%2Ftracker.coppersurfer.tk%3A6969%2Fannounce&tr=udp%3A%2F%2Ftracker.pirateparty.gr%3A6969%2Fannounce&tr=udp%3A%2F%2Ftracker.cyberia.is%3A6969%2Fannounce",
        "seeder": "2",
        "leecher": "0"
    },
    {
        "rank": "75",
        "title": "Legend.of.the .Boneknapper.Dragon.2010.DVDrip-BONE",
        "link": "magnet:?xt=urn:btih:293A709869AD05A6EA652986F6E706BE96B4B034&dn=Legend.of.the+.Boneknapper.Dragon.2010.DVDrip-BONE&tr=udp%3A%2F%2Ftracker.coppersurfer.tk%3A6969%2Fannounce&tr=udp%3A%2F%2F9.rarbg.to%3A2920%2Fannounce&tr=udp%3A%2F%2Ftracker.opentrackr.org%3A1337&tr=udp%3A%2F%2Ftracker.internetwarriors.net%3A1337%2Fannounce&tr=udp%3A%2F%2Ftracker.leechers-paradise.org%3A6969%2Fannounce&tr=udp%3A%2F%2Ftracker.coppersurfer.tk%3A6969%2Fannounce&tr=udp%3A%2F%2Ftracker.pirateparty.gr%3A6969%2Fannounce&tr=udp%3A%2F%2Ftracker.cyberia.is%3A6969%2Fannounce",
        "seeder": "2",
        "leecher": "0"
    },
    {
        "rank": "76",
        "title": "Dragons.Gift.Of.The.Night.Fury.2011.DVDRip.XVID-BONE",
        "link": "magnet:?xt=urn:btih:2A1A87FA1B2D4E71FE88D739DDABD3A462169805&dn=Dragons.Gift.Of.The.Night.Fury.2011.DVDRip.XVID-BONE&tr=udp%3A%2F%2Ftracker.coppersurfer.tk%3A6969%2Fannounce&tr=udp%3A%2F%2F9.rarbg.to%3A2920%2Fannounce&tr=udp%3A%2F%2Ftracker.opentrackr.org%3A1337&tr=udp%3A%2F%2Ftracker.internetwarriors.net%3A1337%2Fannounce&tr=udp%3A%2F%2Ftracker.leechers-paradise.org%3A6969%2Fannounce&tr=udp%3A%2F%2Ftracker.coppersurfer.tk%3A6969%2Fannounce&tr=udp%3A%2F%2Ftracker.pirateparty.gr%3A6969%2Fannounce&tr=udp%3A%2F%2Ftracker.cyberia.is%3A6969%2Fannounce",
        "seeder": "2",
        "leecher": "0"
    },
    {
        "rank": "77",
        "title": "Alain Resnais - guernica - 1950 Eng. And portuguese subtitle",
        "link": "magnet:?xt=urn:btih:B49CEE4F029486EFD604F4B73AE8D9B39F37406A&dn=Alain+Resnais+-+guernica+-+1950+Eng.+And+portuguese+subtitle&tr=udp%3A%2F%2Ftracker.coppersurfer.tk%3A6969%2Fannounce&tr=udp%3A%2F%2F9.rarbg.to%3A2920%2Fannounce&tr=udp%3A%2F%2Ftracker.opentrackr.org%3A1337&tr=udp%3A%2F%2Ftracker.internetwarriors.net%3A1337%2Fannounce&tr=udp%3A%2F%2Ftracker.leechers-paradise.org%3A6969%2Fannounce&tr=udp%3A%2F%2Ftracker.coppersurfer.tk%3A6969%2Fannounce&tr=udp%3A%2F%2Ftracker.pirateparty.gr%3A6969%2Fannounce&tr=udp%3A%2F%2Ftracker.cyberia.is%3A6969%2Fannounce",
        "seeder": "2",
        "leecher": "0"
    },
    {
        "rank": "78",
        "title": "Oscar Wilde himself (1985) BBC TV",
        "link": "magnet:?xt=urn:btih:E9CD72C838259F49E36AD8ED10D8CCBEB0DCFFD2&dn=Oscar+Wilde+himself+%281985%29+BBC+TV&tr=udp%3A%2F%2Ftracker.coppersurfer.tk%3A6969%2Fannounce&tr=udp%3A%2F%2F9.rarbg.to%3A2920%2Fannounce&tr=udp%3A%2F%2Ftracker.opentrackr.org%3A1337&tr=udp%3A%2F%2Ftracker.internetwarriors.net%3A1337%2Fannounce&tr=udp%3A%2F%2Ftracker.leechers-paradise.org%3A6969%2Fannounce&tr=udp%3A%2F%2Ftracker.coppersurfer.tk%3A6969%2Fannounce&tr=udp%3A%2F%2Ftracker.pirateparty.gr%3A6969%2Fannounce&tr=udp%3A%2F%2Ftracker.cyberia.is%3A6969%2Fannounce",
        "seeder": "2",
        "leecher": "0"
    },
    {
        "rank": "79",
        "title": "CBT Nuggets - CCNP Data Center DCUCI 642-999",
        "link": "magnet:?xt=urn:btih:492C511F76D8C87A04AE9238DE7DE845AA4B90BC&dn=CBT+Nuggets+-+CCNP+Data+Center+DCUCI+642-999&tr=udp%3A%2F%2Ftracker.coppersurfer.tk%3A6969%2Fannounce&tr=udp%3A%2F%2F9.rarbg.to%3A2920%2Fannounce&tr=udp%3A%2F%2Ftracker.opentrackr.org%3A1337&tr=udp%3A%2F%2Ftracker.internetwarriors.net%3A1337%2Fannounce&tr=udp%3A%2F%2Ftracker.leechers-paradise.org%3A6969%2Fannounce&tr=udp%3A%2F%2Ftracker.coppersurfer.tk%3A6969%2Fannounce&tr=udp%3A%2F%2Ftracker.pirateparty.gr%3A6969%2Fannounce&tr=udp%3A%2F%2Ftracker.cyberia.is%3A6969%2Fannounce",
        "seeder": "2",
        "leecher": "0"
    },
    {
        "rank": "80",
        "title": "Fatty Arbuckle and Buster Keaton - The Rough House (1917)",
        "link": "magnet:?xt=urn:btih:E9C38EC1365912F0C93A112E7E2DE5BB13484AE5&dn=Fatty+Arbuckle+and+Buster+Keaton+-+The+Rough+House+%281917%29&tr=udp%3A%2F%2Ftracker.coppersurfer.tk%3A6969%2Fannounce&tr=udp%3A%2F%2F9.rarbg.to%3A2920%2Fannounce&tr=udp%3A%2F%2Ftracker.opentrackr.org%3A1337&tr=udp%3A%2F%2Ftracker.internetwarriors.net%3A1337%2Fannounce&tr=udp%3A%2F%2Ftracker.leechers-paradise.org%3A6969%2Fannounce&tr=udp%3A%2F%2Ftracker.coppersurfer.tk%3A6969%2Fannounce&tr=udp%3A%2F%2Ftracker.pirateparty.gr%3A6969%2Fannounce&tr=udp%3A%2F%2Ftracker.cyberia.is%3A6969%2Fannounce",
        "seeder": "2",
        "leecher": "0"
    },
    {
        "rank": "81",
        "title": "Eric Rohmer - UNE ETUDIANTE D'AUJOURD'HUI (1966)",
        "link": "magnet:?xt=urn:btih:9B6C6C36239846A379164B94AA4A83DF6879AC13&dn=Eric+Rohmer+-+UNE+ETUDIANTE+D%27AUJOURD%27HUI+%281966%29&tr=udp%3A%2F%2Ftracker.coppersurfer.tk%3A6969%2Fannounce&tr=udp%3A%2F%2F9.rarbg.to%3A2920%2Fannounce&tr=udp%3A%2F%2Ftracker.opentrackr.org%3A1337&tr=udp%3A%2F%2Ftracker.internetwarriors.net%3A1337%2Fannounce&tr=udp%3A%2F%2Ftracker.leechers-paradise.org%3A6969%2Fannounce&tr=udp%3A%2F%2Ftracker.coppersurfer.tk%3A6969%2Fannounce&tr=udp%3A%2F%2Ftracker.pirateparty.gr%3A6969%2Fannounce&tr=udp%3A%2F%2Ftracker.cyberia.is%3A6969%2Fannounce",
        "seeder": "2",
        "leecher": "0"
    },
    {
        "rank": "82",
        "title": "CBT Nuggets - CCNP Security 300-209 SIMOS",
        "link": "magnet:?xt=urn:btih:D8C3B09AB6AD317C9434890014A530E02686CE62&dn=CBT+Nuggets+-+CCNP+Security+300-209+SIMOS&tr=udp%3A%2F%2Ftracker.coppersurfer.tk%3A6969%2Fannounce&tr=udp%3A%2F%2F9.rarbg.to%3A2920%2Fannounce&tr=udp%3A%2F%2Ftracker.opentrackr.org%3A1337&tr=udp%3A%2F%2Ftracker.internetwarriors.net%3A1337%2Fannounce&tr=udp%3A%2F%2Ftracker.leechers-paradise.org%3A6969%2Fannounce&tr=udp%3A%2F%2Ftracker.coppersurfer.tk%3A6969%2Fannounce&tr=udp%3A%2F%2Ftracker.pirateparty.gr%3A6969%2Fannounce&tr=udp%3A%2F%2Ftracker.cyberia.is%3A6969%2Fannounce",
        "seeder": "2",
        "leecher": "0"
    },
    {
        "rank": "83",
        "title": "The threat of the Free Masons to the world",
        "link": "magnet:?xt=urn:btih:AA082761D348E172B6EEA6C77329FC9DAE5BD294&dn=The+threat+of+the+Free+Masons+to+the+world&tr=udp%3A%2F%2Ftracker.coppersurfer.tk%3A6969%2Fannounce&tr=udp%3A%2F%2F9.rarbg.to%3A2920%2Fannounce&tr=udp%3A%2F%2Ftracker.opentrackr.org%3A1337&tr=udp%3A%2F%2Ftracker.internetwarriors.net%3A1337%2Fannounce&tr=udp%3A%2F%2Ftracker.leechers-paradise.org%3A6969%2Fannounce&tr=udp%3A%2F%2Ftracker.coppersurfer.tk%3A6969%2Fannounce&tr=udp%3A%2F%2Ftracker.pirateparty.gr%3A6969%2Fannounce&tr=udp%3A%2F%2Ftracker.cyberia.is%3A6969%2Fannounce",
        "seeder": "2",
        "leecher": "0"
    },
    {
        "rank": "84",
        "title": "Weenie.2016.480p.x264-mSD",
        "link": "magnet:?xt=urn:btih:8F864748578126DA7EDFBC67729E0EB38F049068&dn=Weenie.2016.480p.x264-mSD&tr=udp%3A%2F%2Ftracker.coppersurfer.tk%3A6969%2Fannounce&tr=udp%3A%2F%2F9.rarbg.to%3A2920%2Fannounce&tr=udp%3A%2F%2Ftracker.opentrackr.org%3A1337&tr=udp%3A%2F%2Ftracker.internetwarriors.net%3A1337%2Fannounce&tr=udp%3A%2F%2Ftracker.leechers-paradise.org%3A6969%2Fannounce&tr=udp%3A%2F%2Ftracker.coppersurfer.tk%3A6969%2Fannounce&tr=udp%3A%2F%2Ftracker.pirateparty.gr%3A6969%2Fannounce&tr=udp%3A%2F%2Ftracker.cyberia.is%3A6969%2Fannounce",
        "seeder": "1",
        "leecher": "1"
    },
    {
        "rank": "85",
        "title": "[CNF]Chi's Sweet Home 28 vostfr",
        "link": "magnet:?xt=urn:btih:57433FAA05C297B8D8DF83E14808AF54C77371B3&dn=%5BCNF%5DChi%27s+Sweet+Home+28+vostfr&tr=udp%3A%2F%2Ftracker.coppersurfer.tk%3A6969%2Fannounce&tr=udp%3A%2F%2F9.rarbg.to%3A2920%2Fannounce&tr=udp%3A%2F%2Ftracker.opentrackr.org%3A1337&tr=udp%3A%2F%2Ftracker.internetwarriors.net%3A1337%2Fannounce&tr=udp%3A%2F%2Ftracker.leechers-paradise.org%3A6969%2Fannounce&tr=udp%3A%2F%2Ftracker.coppersurfer.tk%3A6969%2Fannounce&tr=udp%3A%2F%2Ftracker.pirateparty.gr%3A6969%2Fannounce&tr=udp%3A%2F%2Ftracker.cyberia.is%3A6969%2Fannounce",
        "seeder": "1",
        "leecher": "0"
    },
    {
        "rank": "86",
        "title": "Guardians of the Galaxy Trailer No. 1 720P x264 MP4 - Ofek",
        "link": "magnet:?xt=urn:btih:FA0557D5A34666C03906CF5A142C292DDC7A4A65&dn=Guardians+of+the+Galaxy+Trailer+No.+1+720P+x264+MP4+-+Ofek&tr=udp%3A%2F%2Ftracker.coppersurfer.tk%3A6969%2Fannounce&tr=udp%3A%2F%2F9.rarbg.to%3A2920%2Fannounce&tr=udp%3A%2F%2Ftracker.opentrackr.org%3A1337&tr=udp%3A%2F%2Ftracker.internetwarriors.net%3A1337%2Fannounce&tr=udp%3A%2F%2Ftracker.leechers-paradise.org%3A6969%2Fannounce&tr=udp%3A%2F%2Ftracker.coppersurfer.tk%3A6969%2Fannounce&tr=udp%3A%2F%2Ftracker.pirateparty.gr%3A6969%2Fannounce&tr=udp%3A%2F%2Ftracker.cyberia.is%3A6969%2Fannounce",
        "seeder": "1",
        "leecher": "0"
    },
    {
        "rank": "87",
        "title": "The Vampire Diaries S05-E06 (2013) XviD NLSub NLtoppers",
        "link": "magnet:?xt=urn:btih:9E977D2C175795810D1432F520ABB9FC9DA2A12D&dn=The+Vampire+Diaries+S05-E06+%282013%29+XviD+NLSub+NLtoppers&tr=udp%3A%2F%2Ftracker.coppersurfer.tk%3A6969%2Fannounce&tr=udp%3A%2F%2F9.rarbg.to%3A2920%2Fannounce&tr=udp%3A%2F%2Ftracker.opentrackr.org%3A1337&tr=udp%3A%2F%2Ftracker.internetwarriors.net%3A1337%2Fannounce&tr=udp%3A%2F%2Ftracker.leechers-paradise.org%3A6969%2Fannounce&tr=udp%3A%2F%2Ftracker.coppersurfer.tk%3A6969%2Fannounce&tr=udp%3A%2F%2Ftracker.pirateparty.gr%3A6969%2Fannounce&tr=udp%3A%2F%2Ftracker.cyberia.is%3A6969%2Fannounce",
        "seeder": "1",
        "leecher": "0"
    },
    {
        "rank": "88",
        "title": "Cookin' with Gags (1955)(avi){Zzzzz}",
        "link": "magnet:?xt=urn:btih:EAF2A7890186ED412262B579A7BCD795512E268B&dn=Cookin%27+with+Gags+%281955%29%28avi%29%7BZzzzz%7D&tr=udp%3A%2F%2Ftracker.coppersurfer.tk%3A6969%2Fannounce&tr=udp%3A%2F%2F9.rarbg.to%3A2920%2Fannounce&tr=udp%3A%2F%2Ftracker.opentrackr.org%3A1337&tr=udp%3A%2F%2Ftracker.internetwarriors.net%3A1337%2Fannounce&tr=udp%3A%2F%2Ftracker.leechers-paradise.org%3A6969%2Fannounce&tr=udp%3A%2F%2Ftracker.coppersurfer.tk%3A6969%2Fannounce&tr=udp%3A%2F%2Ftracker.pirateparty.gr%3A6969%2Fannounce&tr=udp%3A%2F%2Ftracker.cyberia.is%3A6969%2Fannounce",
        "seeder": "1",
        "leecher": "0"
    },
    {
        "rank": "89",
        "title": "Pedro Costa - The End Of A Love Affair - 2003 - DVDRip.x264-HAND",
        "link": "magnet:?xt=urn:btih:5B5CF823335A8F0C41E9BBABF60E3E89D94D4EE2&dn=Pedro+Costa+-+The+End+Of+A+Love+Affair+-+2003+-+DVDRip.x264-HAND&tr=udp%3A%2F%2Ftracker.coppersurfer.tk%3A6969%2Fannounce&tr=udp%3A%2F%2F9.rarbg.to%3A2920%2Fannounce&tr=udp%3A%2F%2Ftracker.opentrackr.org%3A1337&tr=udp%3A%2F%2Ftracker.internetwarriors.net%3A1337%2Fannounce&tr=udp%3A%2F%2Ftracker.leechers-paradise.org%3A6969%2Fannounce&tr=udp%3A%2F%2Ftracker.coppersurfer.tk%3A6969%2Fannounce&tr=udp%3A%2F%2Ftracker.pirateparty.gr%3A6969%2Fannounce&tr=udp%3A%2F%2Ftracker.cyberia.is%3A6969%2Fannounce",
        "seeder": "1",
        "leecher": "0"
    },
    {
        "rank": "90",
        "title": "Canadian Woman Exposes Maritime Admiralty Law - AVI",
        "link": "magnet:?xt=urn:btih:3C724315F6F443C5AA663FD9AE36A8F76F1D3093&dn=Canadian+Woman+Exposes+Maritime+Admiralty+Law+-+AVI&tr=udp%3A%2F%2Ftracker.coppersurfer.tk%3A6969%2Fannounce&tr=udp%3A%2F%2F9.rarbg.to%3A2920%2Fannounce&tr=udp%3A%2F%2Ftracker.opentrackr.org%3A1337&tr=udp%3A%2F%2Ftracker.internetwarriors.net%3A1337%2Fannounce&tr=udp%3A%2F%2Ftracker.leechers-paradise.org%3A6969%2Fannounce&tr=udp%3A%2F%2Ftracker.coppersurfer.tk%3A6969%2Fannounce&tr=udp%3A%2F%2Ftracker.pirateparty.gr%3A6969%2Fannounce&tr=udp%3A%2F%2Ftracker.cyberia.is%3A6969%2Fannounce",
        "seeder": "1",
        "leecher": "0"
    },
    {
        "rank": "91",
        "title": "One Piece - 536[360p",
        "link": "magnet:?xt=urn:btih:D7682C702F2749D65AC5DEF36F5ECC3D6CDBE5F7&dn=One+Piece+-+536%5B360p&tr=udp%3A%2F%2Ftracker.coppersurfer.tk%3A6969%2Fannounce&tr=udp%3A%2F%2F9.rarbg.to%3A2920%2Fannounce&tr=udp%3A%2F%2Ftracker.opentrackr.org%3A1337&tr=udp%3A%2F%2Ftracker.internetwarriors.net%3A1337%2Fannounce&tr=udp%3A%2F%2Ftracker.leechers-paradise.org%3A6969%2Fannounce&tr=udp%3A%2F%2Ftracker.coppersurfer.tk%3A6969%2Fannounce&tr=udp%3A%2F%2Ftracker.pirateparty.gr%3A6969%2Fannounce&tr=udp%3A%2F%2Ftracker.cyberia.is%3A6969%2Fannounce",
        "seeder": "1",
        "leecher": "0"
    },
    {
        "rank": "92",
        "title": "UFC on Fox 26 WEB-DL H264 Fight-BB",
        "link": "magnet:?xt=urn:btih:6476F2FD94F02E72B3AD1ACB2CC70508332BBE67&dn=UFC+on+Fox+26+WEB-DL+H264+Fight-BB&tr=udp%3A%2F%2Ftracker.coppersurfer.tk%3A6969%2Fannounce&tr=udp%3A%2F%2F9.rarbg.to%3A2920%2Fannounce&tr=udp%3A%2F%2Ftracker.opentrackr.org%3A1337&tr=udp%3A%2F%2Ftracker.internetwarriors.net%3A1337%2Fannounce&tr=udp%3A%2F%2Ftracker.leechers-paradise.org%3A6969%2Fannounce&tr=udp%3A%2F%2Ftracker.coppersurfer.tk%3A6969%2Fannounce&tr=udp%3A%2F%2Ftracker.pirateparty.gr%3A6969%2Fannounce&tr=udp%3A%2F%2Ftracker.cyberia.is%3A6969%2Fannounce",
        "seeder": "1",
        "leecher": "0"
    },
    {
        "rank": "93",
        "title": "The Maxwell Multiple Climax",
        "link": "magnet:?xt=urn:btih:5AE591D3E370330795A0E6AC4623E9E9E85930F4&dn=The+Maxwell+Multiple+Climax&tr=udp%3A%2F%2Ftracker.coppersurfer.tk%3A6969%2Fannounce&tr=udp%3A%2F%2F9.rarbg.to%3A2920%2Fannounce&tr=udp%3A%2F%2Ftracker.opentrackr.org%3A1337&tr=udp%3A%2F%2Ftracker.internetwarriors.net%3A1337%2Fannounce&tr=udp%3A%2F%2Ftracker.leechers-paradise.org%3A6969%2Fannounce&tr=udp%3A%2F%2Ftracker.coppersurfer.tk%3A6969%2Fannounce&tr=udp%3A%2F%2Ftracker.pirateparty.gr%3A6969%2Fannounce&tr=udp%3A%2F%2Ftracker.cyberia.is%3A6969%2Fannounce",
        "seeder": "1",
        "leecher": "0"
    },
    {
        "rank": "94",
        "title": "[CNF]Chi's Sweet Home 81 vostfr",
        "link": "magnet:?xt=urn:btih:4791E719E7FA3CB36E2A48B7CB70C45A69183D02&dn=%5BCNF%5DChi%27s+Sweet+Home+81+vostfr&tr=udp%3A%2F%2Ftracker.coppersurfer.tk%3A6969%2Fannounce&tr=udp%3A%2F%2F9.rarbg.to%3A2920%2Fannounce&tr=udp%3A%2F%2Ftracker.opentrackr.org%3A1337&tr=udp%3A%2F%2Ftracker.internetwarriors.net%3A1337%2Fannounce&tr=udp%3A%2F%2Ftracker.leechers-paradise.org%3A6969%2Fannounce&tr=udp%3A%2F%2Ftracker.coppersurfer.tk%3A6969%2Fannounce&tr=udp%3A%2F%2Ftracker.pirateparty.gr%3A6969%2Fannounce&tr=udp%3A%2F%2Ftracker.cyberia.is%3A6969%2Fannounce",
        "seeder": "1",
        "leecher": "0"
    },
    {
        "rank": "95",
        "title": "El Inframundo Egpcio.(Docu.SATRip.Spanish).",
        "link": "magnet:?xt=urn:btih:72893296D3A8266F6ED8AE8438E4ACD0E38E54DE&dn=El+Inframundo+Egpcio.%28Docu.SATRip.Spanish%29.&tr=udp%3A%2F%2Ftracker.coppersurfer.tk%3A6969%2Fannounce&tr=udp%3A%2F%2F9.rarbg.to%3A2920%2Fannounce&tr=udp%3A%2F%2Ftracker.opentrackr.org%3A1337&tr=udp%3A%2F%2Ftracker.internetwarriors.net%3A1337%2Fannounce&tr=udp%3A%2F%2Ftracker.leechers-paradise.org%3A6969%2Fannounce&tr=udp%3A%2F%2Ftracker.coppersurfer.tk%3A6969%2Fannounce&tr=udp%3A%2F%2Ftracker.pirateparty.gr%3A6969%2Fannounce&tr=udp%3A%2F%2Ftracker.cyberia.is%3A6969%2Fannounce",
        "seeder": "1",
        "leecher": "0"
    },
    {
        "rank": "96",
        "title": "Glory 63 Houston WEB h264-SF63 [TJET]",
        "link": "magnet:?xt=urn:btih:EB8FBF3DF81FA4E546A7DD6E2210C2ABC38D3003&dn=Glory+63+Houston+WEB+h264-SF63+%5BTJET%5D&tr=udp%3A%2F%2Ftracker.coppersurfer.tk%3A6969%2Fannounce&tr=udp%3A%2F%2F9.rarbg.to%3A2920%2Fannounce&tr=udp%3A%2F%2Ftracker.opentrackr.org%3A1337&tr=udp%3A%2F%2Ftracker.internetwarriors.net%3A1337%2Fannounce&tr=udp%3A%2F%2Ftracker.leechers-paradise.org%3A6969%2Fannounce&tr=udp%3A%2F%2Ftracker.coppersurfer.tk%3A6969%2Fannounce&tr=udp%3A%2F%2Ftracker.pirateparty.gr%3A6969%2Fannounce&tr=udp%3A%2F%2Ftracker.cyberia.is%3A6969%2Fannounce",
        "seeder": "1",
        "leecher": "0"
    },
    {
        "rank": "97",
        "title": "The Beatles Videography 1963-1994 [72 Videos][[email\u00a0protected]]",
        "link": "magnet:?xt=urn:btih:53597D7E768EE2825B4401BB15CB2A7AEDEEBBDF&dn=The+Beatles+Videography+1963-1994+%5B72+Videos%5D%5BM%40IN%5D&tr=udp%3A%2F%2Ftracker.coppersurfer.tk%3A6969%2Fannounce&tr=udp%3A%2F%2F9.rarbg.to%3A2920%2Fannounce&tr=udp%3A%2F%2Ftracker.opentrackr.org%3A1337&tr=udp%3A%2F%2Ftracker.internetwarriors.net%3A1337%2Fannounce&tr=udp%3A%2F%2Ftracker.leechers-paradise.org%3A6969%2Fannounce&tr=udp%3A%2F%2Ftracker.coppersurfer.tk%3A6969%2Fannounce&tr=udp%3A%2F%2Ftracker.pirateparty.gr%3A6969%2Fannounce&tr=udp%3A%2F%2Ftracker.cyberia.is%3A6969%2Fannounce",
        "seeder": "1",
        "leecher": "0"
    },
    {
        "rank": "98",
        "title": "Combates Cortos Wanderlei Silva",
        "link": "magnet:?xt=urn:btih:5CC9A6BCCB14CE08E5E41C92383EB754C11B5C12&dn=Combates+Cortos+Wanderlei+Silva&tr=udp%3A%2F%2Ftracker.coppersurfer.tk%3A6969%2Fannounce&tr=udp%3A%2F%2F9.rarbg.to%3A2920%2Fannounce&tr=udp%3A%2F%2Ftracker.opentrackr.org%3A1337&tr=udp%3A%2F%2Ftracker.internetwarriors.net%3A1337%2Fannounce&tr=udp%3A%2F%2Ftracker.leechers-paradise.org%3A6969%2Fannounce&tr=udp%3A%2F%2Ftracker.coppersurfer.tk%3A6969%2Fannounce&tr=udp%3A%2F%2Ftracker.pirateparty.gr%3A6969%2Fannounce&tr=udp%3A%2F%2Ftracker.cyberia.is%3A6969%2Fannounce",
        "seeder": "1",
        "leecher": "0"
    },
    {
        "rank": "99",
        "title": "NikkHelen romance 1.mpg",
        "link": "magnet:?xt=urn:btih:4F51680646BC47792006BDC43615004C013004D3&dn=NikkHelen+romance+1.mpg&tr=udp%3A%2F%2Ftracker.coppersurfer.tk%3A6969%2Fannounce&tr=udp%3A%2F%2F9.rarbg.to%3A2920%2Fannounce&tr=udp%3A%2F%2Ftracker.opentrackr.org%3A1337&tr=udp%3A%2F%2Ftracker.internetwarriors.net%3A1337%2Fannounce&tr=udp%3A%2F%2Ftracker.leechers-paradise.org%3A6969%2Fannounce&tr=udp%3A%2F%2Ftracker.coppersurfer.tk%3A6969%2Fannounce&tr=udp%3A%2F%2Ftracker.pirateparty.gr%3A6969%2Fannounce&tr=udp%3A%2F%2Ftracker.cyberia.is%3A6969%2Fannounce",
        "seeder": "1",
        "leecher": "0"
    },
    {
        "rank": "100",
        "title": "[HorribleSubs] Bleach - 366 [480p]",
        "link": "magnet:?xt=urn:btih:E4347EA6B4F99937AD3325289B6957DBA9AB12E4&dn=%5BHorribleSubs%5D+Bleach+-+366+%5B480p%5D&tr=udp%3A%2F%2Ftracker.coppersurfer.tk%3A6969%2Fannounce&tr=udp%3A%2F%2F9.rarbg.to%3A2920%2Fannounce&tr=udp%3A%2F%2Ftracker.opentrackr.org%3A1337&tr=udp%3A%2F%2Ftracker.internetwarriors.net%3A1337%2Fannounce&tr=udp%3A%2F%2Ftracker.leechers-paradise.org%3A6969%2Fannounce&tr=udp%3A%2F%2Ftracker.coppersurfer.tk%3A6969%2Fannounce&tr=udp%3A%2F%2Ftracker.pirateparty.gr%3A6969%2Fannounce&tr=udp%3A%2F%2Ftracker.cyberia.is%3A6969%2Fannounce",
        "seeder": "1",
        "leecher": "0"
    }
]
