[
    {
        "rank": "1",
        "title": "The.Falcon.and.The.Winter.Soldier.S01E03.WEB.x264-PHOENiX[TGx]",
        "link": "magnet:?xt=urn:btih:0B8DB7FED119020A74249FD4648FEE651AC2F844&dn=The.Falcon.and.The.Winter.Soldier.S01E03.WEB.x264-PHOENiX%5BTGx%5D&tr=udp%3A%2F%2Ftracker.coppersurfer.tk%3A6969%2Fannounce&tr=udp%3A%2F%2F9.rarbg.to%3A2920%2Fannounce&tr=udp%3A%2F%2Ftracker.opentrackr.org%3A1337&tr=udp%3A%2F%2Ftracker.internetwarriors.net%3A1337%2Fannounce&tr=udp%3A%2F%2Ftracker.leechers-paradise.org%3A6969%2Fannounce&tr=udp%3A%2F%2Ftracker.coppersurfer.tk%3A6969%2Fannounce&tr=udp%3A%2F%2Ftracker.pirateparty.gr%3A6969%2Fannounce&tr=udp%3A%2F%2Ftracker.cyberia.is%3A6969%2Fannounce",
        "seeder": "1129",
        "leecher": "1013"
    },
    {
        "rank": "2",
        "title": "Resident.Alien.S01E10.WEBRip.x264-PHOENiX[TGx]",
        "link": "magnet:?xt=urn:btih:3622BAAA23413C3985A0FF24BDA91434B156B128&dn=Resident.Alien.S01E10.WEBRip.x264-PHOENiX%5BTGx%5D&tr=udp%3A%2F%2Ftracker.coppersurfer.tk%3A6969%2Fannounce&tr=udp%3A%2F%2F9.rarbg.to%3A2920%2Fannounce&tr=udp%3A%2F%2Ftracker.opentrackr.org%3A1337&tr=udp%3A%2F%2Ftracker.internetwarriors.net%3A1337%2Fannounce&tr=udp%3A%2F%2Ftracker.leechers-paradise.org%3A6969%2Fannounce&tr=udp%3A%2F%2Ftracker.coppersurfer.tk%3A6969%2Fannounce&tr=udp%3A%2F%2Ftracker.pirateparty.gr%3A6969%2Fannounce&tr=udp%3A%2F%2Ftracker.cyberia.is%3A6969%2Fannounce",
        "seeder": "1112",
        "leecher": "126"
    },
    {
        "rank": "3",
        "title": "Greys.Anatomy.S17E09.HDTV.x264-PHOENiX[TGx]",
        "link": "magnet:?xt=urn:btih:ABFA1892C7229537DFC065BF2A1E3A4A7EE4C6FE&dn=Greys.Anatomy.S17E09.HDTV.x264-PHOENiX%5BTGx%5D&tr=udp%3A%2F%2Ftracker.coppersurfer.tk%3A6969%2Fannounce&tr=udp%3A%2F%2F9.rarbg.to%3A2920%2Fannounce&tr=udp%3A%2F%2Ftracker.opentrackr.org%3A1337&tr=udp%3A%2F%2Ftracker.internetwarriors.net%3A1337%2Fannounce&tr=udp%3A%2F%2Ftracker.leechers-paradise.org%3A6969%2Fannounce&tr=udp%3A%2F%2Ftracker.coppersurfer.tk%3A6969%2Fannounce&tr=udp%3A%2F%2Ftracker.pirateparty.gr%3A6969%2Fannounce&tr=udp%3A%2F%2Ftracker.cyberia.is%3A6969%2Fannounce",
        "seeder": "1040",
        "leecher": "375"
    },
    {
        "rank": "4",
        "title": "The.Falcon.and.the.Winter.Soldier.S01E01.WEBRip.x264-PHOENiX[TGx",
        "link": "magnet:?xt=urn:btih:2AF3E24CA2B5246C169CA30C61670FC9BA8A2F04&dn=The.Falcon.and.the.Winter.Soldier.S01E01.WEBRip.x264-PHOENiX%5BTGx&tr=udp%3A%2F%2Ftracker.coppersurfer.tk%3A6969%2Fannounce&tr=udp%3A%2F%2F9.rarbg.to%3A2920%2Fannounce&tr=udp%3A%2F%2Ftracker.opentrackr.org%3A1337&tr=udp%3A%2F%2Ftracker.internetwarriors.net%3A1337%2Fannounce&tr=udp%3A%2F%2Ftracker.leechers-paradise.org%3A6969%2Fannounce&tr=udp%3A%2F%2Ftracker.coppersurfer.tk%3A6969%2Fannounce&tr=udp%3A%2F%2Ftracker.pirateparty.gr%3A6969%2Fannounce&tr=udp%3A%2F%2Ftracker.cyberia.is%3A6969%2Fannounce",
        "seeder": "988",
        "leecher": "171"
    },
    {
        "rank": "5",
        "title": "UFC.260.Miocic.vs.Ngannou.SD[TGx]",
        "link": "magnet:?xt=urn:btih:F9C5A21514F2B78F19956971732B6DA206DA00D9&dn=UFC.260.Miocic.vs.Ngannou.SD%5BTGx%5D&tr=udp%3A%2F%2Ftracker.coppersurfer.tk%3A6969%2Fannounce&tr=udp%3A%2F%2F9.rarbg.to%3A2920%2Fannounce&tr=udp%3A%2F%2Ftracker.opentrackr.org%3A1337&tr=udp%3A%2F%2Ftracker.internetwarriors.net%3A1337%2Fannounce&tr=udp%3A%2F%2Ftracker.leechers-paradise.org%3A6969%2Fannounce&tr=udp%3A%2F%2Ftracker.coppersurfer.tk%3A6969%2Fannounce&tr=udp%3A%2F%2Ftracker.pirateparty.gr%3A6969%2Fannounce&tr=udp%3A%2F%2Ftracker.cyberia.is%3A6969%2Fannounce",
        "seeder": "952",
        "leecher": "33"
    },
    {
        "rank": "6",
        "title": "The.Walking.Dead.S10E22.WEB.x264-PHOENiX[TGx]",
        "link": "magnet:?xt=urn:btih:5C9D388A3A42A64620E0A5F5BB647589229636DF&dn=The.Walking.Dead.S10E22.WEB.x264-PHOENiX%5BTGx%5D&tr=udp%3A%2F%2Ftracker.coppersurfer.tk%3A6969%2Fannounce&tr=udp%3A%2F%2F9.rarbg.to%3A2920%2Fannounce&tr=udp%3A%2F%2Ftracker.opentrackr.org%3A1337&tr=udp%3A%2F%2Ftracker.internetwarriors.net%3A1337%2Fannounce&tr=udp%3A%2F%2Ftracker.leechers-paradise.org%3A6969%2Fannounce&tr=udp%3A%2F%2Ftracker.coppersurfer.tk%3A6969%2Fannounce&tr=udp%3A%2F%2Ftracker.pirateparty.gr%3A6969%2Fannounce&tr=udp%3A%2F%2Ftracker.cyberia.is%3A6969%2Fannounce",
        "seeder": "932",
        "leecher": "157"
    },
    {
        "rank": "7",
        "title": "Superman.and.Lois.S01E05.HDTV.x264-PHOENiX[TGx]",
        "link": "magnet:?xt=urn:btih:163714FBB6712BE6857D2D842DDAA1E6D254B8B8&dn=Superman.and.Lois.S01E05.HDTV.x264-PHOENiX%5BTGx%5D&tr=udp%3A%2F%2Ftracker.coppersurfer.tk%3A6969%2Fannounce&tr=udp%3A%2F%2F9.rarbg.to%3A2920%2Fannounce&tr=udp%3A%2F%2Ftracker.opentrackr.org%3A1337&tr=udp%3A%2F%2Ftracker.internetwarriors.net%3A1337%2Fannounce&tr=udp%3A%2F%2Ftracker.leechers-paradise.org%3A6969%2Fannounce&tr=udp%3A%2F%2Ftracker.coppersurfer.tk%3A6969%2Fannounce&tr=udp%3A%2F%2Ftracker.pirateparty.gr%3A6969%2Fannounce&tr=udp%3A%2F%2Ftracker.cyberia.is%3A6969%2Fannounce",
        "seeder": "900",
        "leecher": "118"
    },
    {
        "rank": "8",
        "title": "Greys.Anatomy.S17E08.HDTV.x264-PHOENiX[TGx]",
        "link": "magnet:?xt=urn:btih:5BF1680537DF9D21BF2BCB20456CDA57BD1E2BA0&dn=Greys.Anatomy.S17E08.HDTV.x264-PHOENiX%5BTGx%5D&tr=udp%3A%2F%2Ftracker.coppersurfer.tk%3A6969%2Fannounce&tr=udp%3A%2F%2F9.rarbg.to%3A2920%2Fannounce&tr=udp%3A%2F%2Ftracker.opentrackr.org%3A1337&tr=udp%3A%2F%2Ftracker.internetwarriors.net%3A1337%2Fannounce&tr=udp%3A%2F%2Ftracker.leechers-paradise.org%3A6969%2Fannounce&tr=udp%3A%2F%2Ftracker.coppersurfer.tk%3A6969%2Fannounce&tr=udp%3A%2F%2Ftracker.pirateparty.gr%3A6969%2Fannounce&tr=udp%3A%2F%2Ftracker.cyberia.is%3A6969%2Fannounce",
        "seeder": "897",
        "leecher": "272"
    },
    {
        "rank": "9",
        "title": "The.Blacklist.S08E11.WEB.x264-PHOENiX[TGx]",
        "link": "magnet:?xt=urn:btih:F07A4498E1BF0B970896391F8F81869910DDE121&dn=The.Blacklist.S08E11.WEB.x264-PHOENiX%5BTGx%5D&tr=udp%3A%2F%2Ftracker.coppersurfer.tk%3A6969%2Fannounce&tr=udp%3A%2F%2F9.rarbg.to%3A2920%2Fannounce&tr=udp%3A%2F%2Ftracker.opentrackr.org%3A1337&tr=udp%3A%2F%2Ftracker.internetwarriors.net%3A1337%2Fannounce&tr=udp%3A%2F%2Ftracker.leechers-paradise.org%3A6969%2Fannounce&tr=udp%3A%2F%2Ftracker.coppersurfer.tk%3A6969%2Fannounce&tr=udp%3A%2F%2Ftracker.pirateparty.gr%3A6969%2Fannounce&tr=udp%3A%2F%2Ftracker.cyberia.is%3A6969%2Fannounce",
        "seeder": "805",
        "leecher": "91"
    },
    {
        "rank": "10",
        "title": "The.Falcon.and.the.Winter.Soldier.S01E02.WEB.x264-PHOENiX[TGx]",
        "link": "magnet:?xt=urn:btih:0200EE72E99D48D596537ACA7AB9D773F7C74592&dn=The.Falcon.and.the.Winter.Soldier.S01E02.WEB.x264-PHOENiX%5BTGx%5D&tr=udp%3A%2F%2Ftracker.coppersurfer.tk%3A6969%2Fannounce&tr=udp%3A%2F%2F9.rarbg.to%3A2920%2Fannounce&tr=udp%3A%2F%2Ftracker.opentrackr.org%3A1337&tr=udp%3A%2F%2Ftracker.internetwarriors.net%3A1337%2Fannounce&tr=udp%3A%2F%2Ftracker.leechers-paradise.org%3A6969%2Fannounce&tr=udp%3A%2F%2Ftracker.coppersurfer.tk%3A6969%2Fannounce&tr=udp%3A%2F%2Ftracker.pirateparty.gr%3A6969%2Fannounce&tr=udp%3A%2F%2Ftracker.cyberia.is%3A6969%2Fannounce",
        "seeder": "796",
        "leecher": "44"
    },
    {
        "rank": "11",
        "title": "The.Flash.2014.S07E05.HDTV.x264-PHOENiX[TGx]",
        "link": "magnet:?xt=urn:btih:0CF1052D02087EC43EE92E053E1C1576B6D8305C&dn=The.Flash.2014.S07E05.HDTV.x264-PHOENiX%5BTGx%5D&tr=udp%3A%2F%2Ftracker.coppersurfer.tk%3A6969%2Fannounce&tr=udp%3A%2F%2F9.rarbg.to%3A2920%2Fannounce&tr=udp%3A%2F%2Ftracker.opentrackr.org%3A1337&tr=udp%3A%2F%2Ftracker.internetwarriors.net%3A1337%2Fannounce&tr=udp%3A%2F%2Ftracker.leechers-paradise.org%3A6969%2Fannounce&tr=udp%3A%2F%2Ftracker.coppersurfer.tk%3A6969%2Fannounce&tr=udp%3A%2F%2Ftracker.pirateparty.gr%3A6969%2Fannounce&tr=udp%3A%2F%2Ftracker.cyberia.is%3A6969%2Fannounce",
        "seeder": "752",
        "leecher": "62"
    },
    {
        "rank": "12",
        "title": "Greys.Anatomy.S17E07.HDTV.x264-PHOENiX[TGx]",
        "link": "magnet:?xt=urn:btih:1C93F0D3F4986AFB94896D337687808C3A98015A&dn=Greys.Anatomy.S17E07.HDTV.x264-PHOENiX%5BTGx%5D&tr=udp%3A%2F%2Ftracker.coppersurfer.tk%3A6969%2Fannounce&tr=udp%3A%2F%2F9.rarbg.to%3A2920%2Fannounce&tr=udp%3A%2F%2Ftracker.opentrackr.org%3A1337&tr=udp%3A%2F%2Ftracker.internetwarriors.net%3A1337%2Fannounce&tr=udp%3A%2F%2Ftracker.leechers-paradise.org%3A6969%2Fannounce&tr=udp%3A%2F%2Ftracker.coppersurfer.tk%3A6969%2Fannounce&tr=udp%3A%2F%2Ftracker.pirateparty.gr%3A6969%2Fannounce&tr=udp%3A%2F%2Ftracker.cyberia.is%3A6969%2Fannounce",
        "seeder": "733",
        "leecher": "199"
    },
    {
        "rank": "13",
        "title": "Resident.Alien.S01E09.WEBRip.x264-PHOENiX[TGx]",
        "link": "magnet:?xt=urn:btih:346C02B8EACFBC47812EF4C2EBF8D0BE3D6BD085&dn=Resident.Alien.S01E09.WEBRip.x264-PHOENiX%5BTGx%5D&tr=udp%3A%2F%2Ftracker.coppersurfer.tk%3A6969%2Fannounce&tr=udp%3A%2F%2F9.rarbg.to%3A2920%2Fannounce&tr=udp%3A%2F%2Ftracker.opentrackr.org%3A1337&tr=udp%3A%2F%2Ftracker.internetwarriors.net%3A1337%2Fannounce&tr=udp%3A%2F%2Ftracker.leechers-paradise.org%3A6969%2Fannounce&tr=udp%3A%2F%2Ftracker.coppersurfer.tk%3A6969%2Fannounce&tr=udp%3A%2F%2Ftracker.pirateparty.gr%3A6969%2Fannounce&tr=udp%3A%2F%2Ftracker.cyberia.is%3A6969%2Fannounce",
        "seeder": "716",
        "leecher": "83"
    },
    {
        "rank": "14",
        "title": "The.Good.Doctor.S04E13.WEB.x264-PHOENiX[TGx]",
        "link": "magnet:?xt=urn:btih:914011A4D9D2E3B468D57F45C6FA066CE85F47E2&dn=The.Good.Doctor.S04E13.WEB.x264-PHOENiX%5BTGx%5D&tr=udp%3A%2F%2Ftracker.coppersurfer.tk%3A6969%2Fannounce&tr=udp%3A%2F%2F9.rarbg.to%3A2920%2Fannounce&tr=udp%3A%2F%2Ftracker.opentrackr.org%3A1337&tr=udp%3A%2F%2Ftracker.internetwarriors.net%3A1337%2Fannounce&tr=udp%3A%2F%2Ftracker.leechers-paradise.org%3A6969%2Fannounce&tr=udp%3A%2F%2Ftracker.coppersurfer.tk%3A6969%2Fannounce&tr=udp%3A%2F%2Ftracker.pirateparty.gr%3A6969%2Fannounce&tr=udp%3A%2F%2Ftracker.cyberia.is%3A6969%2Fannounce",
        "seeder": "686",
        "leecher": "65"
    },
    {
        "rank": "15",
        "title": "Superman.and.Lois.S01E04.HDTV.x264-PHOENiX[TGx]",
        "link": "magnet:?xt=urn:btih:102A02AB6B3552FC9952D767827D0D130C3D361D&dn=Superman.and.Lois.S01E04.HDTV.x264-PHOENiX%5BTGx%5D&tr=udp%3A%2F%2Ftracker.coppersurfer.tk%3A6969%2Fannounce&tr=udp%3A%2F%2F9.rarbg.to%3A2920%2Fannounce&tr=udp%3A%2F%2Ftracker.opentrackr.org%3A1337&tr=udp%3A%2F%2Ftracker.internetwarriors.net%3A1337%2Fannounce&tr=udp%3A%2F%2Ftracker.leechers-paradise.org%3A6969%2Fannounce&tr=udp%3A%2F%2Ftracker.coppersurfer.tk%3A6969%2Fannounce&tr=udp%3A%2F%2Ftracker.pirateparty.gr%3A6969%2Fannounce&tr=udp%3A%2F%2Ftracker.cyberia.is%3A6969%2Fannounce",
        "seeder": "653",
        "leecher": "89"
    },
    {
        "rank": "16",
        "title": "Superman.and.Lois.S01E01.HDTV.x264-PHOENiX[TGx]",
        "link": "magnet:?xt=urn:btih:174C8F58C6105C91AB07C1370CEEFF6D04F17C1B&dn=Superman.and.Lois.S01E01.HDTV.x264-PHOENiX%5BTGx%5D&tr=udp%3A%2F%2Ftracker.coppersurfer.tk%3A6969%2Fannounce&tr=udp%3A%2F%2F9.rarbg.to%3A2920%2Fannounce&tr=udp%3A%2F%2Ftracker.opentrackr.org%3A1337&tr=udp%3A%2F%2Ftracker.internetwarriors.net%3A1337%2Fannounce&tr=udp%3A%2F%2Ftracker.leechers-paradise.org%3A6969%2Fannounce&tr=udp%3A%2F%2Ftracker.coppersurfer.tk%3A6969%2Fannounce&tr=udp%3A%2F%2Ftracker.pirateparty.gr%3A6969%2Fannounce&tr=udp%3A%2F%2Ftracker.cyberia.is%3A6969%2Fannounce",
        "seeder": "597",
        "leecher": "88"
    },
    {
        "rank": "17",
        "title": "Debris.S01E05.WEB.x264-PHOENiX[TGx]",
        "link": "magnet:?xt=urn:btih:9E009C9B3A19CF68A1BA089C2F3201A57356B33E&dn=Debris.S01E05.WEB.x264-PHOENiX%5BTGx%5D&tr=udp%3A%2F%2Ftracker.coppersurfer.tk%3A6969%2Fannounce&tr=udp%3A%2F%2F9.rarbg.to%3A2920%2Fannounce&tr=udp%3A%2F%2Ftracker.opentrackr.org%3A1337&tr=udp%3A%2F%2Ftracker.internetwarriors.net%3A1337%2Fannounce&tr=udp%3A%2F%2Ftracker.leechers-paradise.org%3A6969%2Fannounce&tr=udp%3A%2F%2Ftracker.coppersurfer.tk%3A6969%2Fannounce&tr=udp%3A%2F%2Ftracker.pirateparty.gr%3A6969%2Fannounce&tr=udp%3A%2F%2Ftracker.cyberia.is%3A6969%2Fannounce",
        "seeder": "579",
        "leecher": "29"
    },
    {
        "rank": "18",
        "title": "Superman.and.Lois.S01E03.HDTV.x264-PHOENiX[TGx]",
        "link": "magnet:?xt=urn:btih:836401D0217F92EDACCBC3C80EDC7807A7712DBB&dn=Superman.and.Lois.S01E03.HDTV.x264-PHOENiX%5BTGx%5D&tr=udp%3A%2F%2Ftracker.coppersurfer.tk%3A6969%2Fannounce&tr=udp%3A%2F%2F9.rarbg.to%3A2920%2Fannounce&tr=udp%3A%2F%2Ftracker.opentrackr.org%3A1337&tr=udp%3A%2F%2Ftracker.internetwarriors.net%3A1337%2Fannounce&tr=udp%3A%2F%2Ftracker.leechers-paradise.org%3A6969%2Fannounce&tr=udp%3A%2F%2Ftracker.coppersurfer.tk%3A6969%2Fannounce&tr=udp%3A%2F%2Ftracker.pirateparty.gr%3A6969%2Fannounce&tr=udp%3A%2F%2Ftracker.cyberia.is%3A6969%2Fannounce",
        "seeder": "573",
        "leecher": "58"
    },
    {
        "rank": "19",
        "title": "The.Walking.Dead.S10E19.WEB.x264-PHOENiX[TGx]",
        "link": "magnet:?xt=urn:btih:C62D35DE93D299E5A01FA2ADC72EC3C39836792E&dn=The.Walking.Dead.S10E19.WEB.x264-PHOENiX%5BTGx%5D&tr=udp%3A%2F%2Ftracker.coppersurfer.tk%3A6969%2Fannounce&tr=udp%3A%2F%2F9.rarbg.to%3A2920%2Fannounce&tr=udp%3A%2F%2Ftracker.opentrackr.org%3A1337&tr=udp%3A%2F%2Ftracker.internetwarriors.net%3A1337%2Fannounce&tr=udp%3A%2F%2Ftracker.leechers-paradise.org%3A6969%2Fannounce&tr=udp%3A%2F%2Ftracker.coppersurfer.tk%3A6969%2Fannounce&tr=udp%3A%2F%2Ftracker.pirateparty.gr%3A6969%2Fannounce&tr=udp%3A%2F%2Ftracker.cyberia.is%3A6969%2Fannounce",
        "seeder": "568",
        "leecher": "76"
    },
    {
        "rank": "20",
        "title": "Clarice.S01E06.HDTV.x264-PHOENiX[TGx]",
        "link": "magnet:?xt=urn:btih:7FF856C772137E476682B8D62FD7084839456493&dn=Clarice.S01E06.HDTV.x264-PHOENiX%5BTGx%5D&tr=udp%3A%2F%2Ftracker.coppersurfer.tk%3A6969%2Fannounce&tr=udp%3A%2F%2F9.rarbg.to%3A2920%2Fannounce&tr=udp%3A%2F%2Ftracker.opentrackr.org%3A1337&tr=udp%3A%2F%2Ftracker.internetwarriors.net%3A1337%2Fannounce&tr=udp%3A%2F%2Ftracker.leechers-paradise.org%3A6969%2Fannounce&tr=udp%3A%2F%2Ftracker.coppersurfer.tk%3A6969%2Fannounce&tr=udp%3A%2F%2Ftracker.pirateparty.gr%3A6969%2Fannounce&tr=udp%3A%2F%2Ftracker.cyberia.is%3A6969%2Fannounce",
        "seeder": "554",
        "leecher": "191"
    },
    {
        "rank": "21",
        "title": "Resident.Alien.S01E08.WEB.x264-PHOENiX[TGx]",
        "link": "magnet:?xt=urn:btih:A74EA28CADAEF3F89119DDF05A43088918EA821F&dn=Resident.Alien.S01E08.WEB.x264-PHOENiX%5BTGx%5D&tr=udp%3A%2F%2Ftracker.coppersurfer.tk%3A6969%2Fannounce&tr=udp%3A%2F%2F9.rarbg.to%3A2920%2Fannounce&tr=udp%3A%2F%2Ftracker.opentrackr.org%3A1337&tr=udp%3A%2F%2Ftracker.internetwarriors.net%3A1337%2Fannounce&tr=udp%3A%2F%2Ftracker.leechers-paradise.org%3A6969%2Fannounce&tr=udp%3A%2F%2Ftracker.coppersurfer.tk%3A6969%2Fannounce&tr=udp%3A%2F%2Ftracker.pirateparty.gr%3A6969%2Fannounce&tr=udp%3A%2F%2Ftracker.cyberia.is%3A6969%2Fannounce",
        "seeder": "538",
        "leecher": "66"
    },
    {
        "rank": "22",
        "title": "The.Blacklist.S08E10.HDTV.x264-PHOENiX[TGx]",
        "link": "magnet:?xt=urn:btih:4DADDF6FF0F48670F48ECF99B3F7912B7667963C&dn=The.Blacklist.S08E10.HDTV.x264-PHOENiX%5BTGx%5D&tr=udp%3A%2F%2Ftracker.coppersurfer.tk%3A6969%2Fannounce&tr=udp%3A%2F%2F9.rarbg.to%3A2920%2Fannounce&tr=udp%3A%2F%2Ftracker.opentrackr.org%3A1337&tr=udp%3A%2F%2Ftracker.internetwarriors.net%3A1337%2Fannounce&tr=udp%3A%2F%2Ftracker.leechers-paradise.org%3A6969%2Fannounce&tr=udp%3A%2F%2Ftracker.coppersurfer.tk%3A6969%2Fannounce&tr=udp%3A%2F%2Ftracker.pirateparty.gr%3A6969%2Fannounce&tr=udp%3A%2F%2Ftracker.cyberia.is%3A6969%2Fannounce",
        "seeder": "536",
        "leecher": "69"
    },
    {
        "rank": "23",
        "title": "Young.Sheldon.S04E12.WEB.x264-PHOENiX[TGx]",
        "link": "magnet:?xt=urn:btih:D751E43EF7DE7EB6089D4FF599F7D00839AEC41A&dn=Young.Sheldon.S04E12.WEB.x264-PHOENiX%5BTGx%5D&tr=udp%3A%2F%2Ftracker.coppersurfer.tk%3A6969%2Fannounce&tr=udp%3A%2F%2F9.rarbg.to%3A2920%2Fannounce&tr=udp%3A%2F%2Ftracker.opentrackr.org%3A1337&tr=udp%3A%2F%2Ftracker.internetwarriors.net%3A1337%2Fannounce&tr=udp%3A%2F%2Ftracker.leechers-paradise.org%3A6969%2Fannounce&tr=udp%3A%2F%2Ftracker.coppersurfer.tk%3A6969%2Fannounce&tr=udp%3A%2F%2Ftracker.pirateparty.gr%3A6969%2Fannounce&tr=udp%3A%2F%2Ftracker.cyberia.is%3A6969%2Fannounce",
        "seeder": "503",
        "leecher": "175"
    },
    {
        "rank": "24",
        "title": "Chicago.PD.S08E10.HDTV.x264-PHOENiX[TGx]",
        "link": "magnet:?xt=urn:btih:80E96EE7702E9FB9D24967B353E49BA109FCE62E&dn=Chicago.PD.S08E10.HDTV.x264-PHOENiX%5BTGx%5D&tr=udp%3A%2F%2Ftracker.coppersurfer.tk%3A6969%2Fannounce&tr=udp%3A%2F%2F9.rarbg.to%3A2920%2Fannounce&tr=udp%3A%2F%2Ftracker.opentrackr.org%3A1337&tr=udp%3A%2F%2Ftracker.internetwarriors.net%3A1337%2Fannounce&tr=udp%3A%2F%2Ftracker.leechers-paradise.org%3A6969%2Fannounce&tr=udp%3A%2F%2Ftracker.coppersurfer.tk%3A6969%2Fannounce&tr=udp%3A%2F%2Ftracker.pirateparty.gr%3A6969%2Fannounce&tr=udp%3A%2F%2Ftracker.cyberia.is%3A6969%2Fannounce",
        "seeder": "502",
        "leecher": "56"
    },
    {
        "rank": "25",
        "title": "Resident.Alien.S01E07.WEB.x264-PHOENiX[TGx]",
        "link": "magnet:?xt=urn:btih:D216188D1D74DE7F0BDF76C0B2BC88A71365A9ED&dn=Resident.Alien.S01E07.WEB.x264-PHOENiX%5BTGx%5D&tr=udp%3A%2F%2Ftracker.coppersurfer.tk%3A6969%2Fannounce&tr=udp%3A%2F%2F9.rarbg.to%3A2920%2Fannounce&tr=udp%3A%2F%2Ftracker.opentrackr.org%3A1337&tr=udp%3A%2F%2Ftracker.internetwarriors.net%3A1337%2Fannounce&tr=udp%3A%2F%2Ftracker.leechers-paradise.org%3A6969%2Fannounce&tr=udp%3A%2F%2Ftracker.coppersurfer.tk%3A6969%2Fannounce&tr=udp%3A%2F%2Ftracker.pirateparty.gr%3A6969%2Fannounce&tr=udp%3A%2F%2Ftracker.cyberia.is%3A6969%2Fannounce",
        "seeder": "493",
        "leecher": "59"
    },
    {
        "rank": "26",
        "title": "The.Mandalorian.S02E01.WEBRip.x264-ION10",
        "link": "magnet:?xt=urn:btih:952D8210F7DB93FB2C5E0A8FD8AC05422E97AE8B&dn=The.Mandalorian.S02E01.WEBRip.x264-ION10&tr=udp%3A%2F%2Ftracker.coppersurfer.tk%3A6969%2Fannounce&tr=udp%3A%2F%2F9.rarbg.to%3A2920%2Fannounce&tr=udp%3A%2F%2Ftracker.opentrackr.org%3A1337&tr=udp%3A%2F%2Ftracker.internetwarriors.net%3A1337%2Fannounce&tr=udp%3A%2F%2Ftracker.leechers-paradise.org%3A6969%2Fannounce&tr=udp%3A%2F%2Ftracker.coppersurfer.tk%3A6969%2Fannounce&tr=udp%3A%2F%2Ftracker.pirateparty.gr%3A6969%2Fannounce&tr=udp%3A%2F%2Ftracker.cyberia.is%3A6969%2Fannounce",
        "seeder": "483",
        "leecher": "14"
    },
    {
        "rank": "27",
        "title": "The.Blacklist.S08E09.HDTV.x264-PHOENiX[TGx]",
        "link": "magnet:?xt=urn:btih:F9E4A836227046AFF494B0FC45A2D61D58952A9A&dn=The.Blacklist.S08E09.HDTV.x264-PHOENiX%5BTGx%5D&tr=udp%3A%2F%2Ftracker.coppersurfer.tk%3A6969%2Fannounce&tr=udp%3A%2F%2F9.rarbg.to%3A2920%2Fannounce&tr=udp%3A%2F%2Ftracker.opentrackr.org%3A1337&tr=udp%3A%2F%2Ftracker.internetwarriors.net%3A1337%2Fannounce&tr=udp%3A%2F%2Ftracker.leechers-paradise.org%3A6969%2Fannounce&tr=udp%3A%2F%2Ftracker.coppersurfer.tk%3A6969%2Fannounce&tr=udp%3A%2F%2Ftracker.pirateparty.gr%3A6969%2Fannounce&tr=udp%3A%2F%2Ftracker.cyberia.is%3A6969%2Fannounce",
        "seeder": "454",
        "leecher": "50"
    },
    {
        "rank": "28",
        "title": "The.Flash.2014.S07E04.HDTV.x264-PHOENiX[TGx]",
        "link": "magnet:?xt=urn:btih:447A6062107D1B97F40A741E0EB47933C7D83961&dn=The.Flash.2014.S07E04.HDTV.x264-PHOENiX%5BTGx%5D&tr=udp%3A%2F%2Ftracker.coppersurfer.tk%3A6969%2Fannounce&tr=udp%3A%2F%2F9.rarbg.to%3A2920%2Fannounce&tr=udp%3A%2F%2Ftracker.opentrackr.org%3A1337&tr=udp%3A%2F%2Ftracker.internetwarriors.net%3A1337%2Fannounce&tr=udp%3A%2F%2Ftracker.leechers-paradise.org%3A6969%2Fannounce&tr=udp%3A%2F%2Ftracker.coppersurfer.tk%3A6969%2Fannounce&tr=udp%3A%2F%2Ftracker.pirateparty.gr%3A6969%2Fannounce&tr=udp%3A%2F%2Ftracker.cyberia.is%3A6969%2Fannounce",
        "seeder": "452",
        "leecher": "49"
    },
    {
        "rank": "29",
        "title": "The.Walking.Dead.S10E20.WEB.x264-PHOENiX[TGx]",
        "link": "magnet:?xt=urn:btih:209B2BF1432685C8558C7FC087A3BDD228609BF0&dn=The.Walking.Dead.S10E20.WEB.x264-PHOENiX%5BTGx%5D&tr=udp%3A%2F%2Ftracker.coppersurfer.tk%3A6969%2Fannounce&tr=udp%3A%2F%2F9.rarbg.to%3A2920%2Fannounce&tr=udp%3A%2F%2Ftracker.opentrackr.org%3A1337&tr=udp%3A%2F%2Ftracker.internetwarriors.net%3A1337%2Fannounce&tr=udp%3A%2F%2Ftracker.leechers-paradise.org%3A6969%2Fannounce&tr=udp%3A%2F%2Ftracker.coppersurfer.tk%3A6969%2Fannounce&tr=udp%3A%2F%2Ftracker.pirateparty.gr%3A6969%2Fannounce&tr=udp%3A%2F%2Ftracker.cyberia.is%3A6969%2Fannounce",
        "seeder": "449",
        "leecher": "38"
    },
    {
        "rank": "30",
        "title": "The.Good.Doctor.S04E12.HDTV.x264-PHOENiX[TGx]",
        "link": "magnet:?xt=urn:btih:9565F346D4261268F388A4A9F3B54ADEB0446B3D&dn=The.Good.Doctor.S04E12.HDTV.x264-PHOENiX%5BTGx%5D&tr=udp%3A%2F%2Ftracker.coppersurfer.tk%3A6969%2Fannounce&tr=udp%3A%2F%2F9.rarbg.to%3A2920%2Fannounce&tr=udp%3A%2F%2Ftracker.opentrackr.org%3A1337&tr=udp%3A%2F%2Ftracker.internetwarriors.net%3A1337%2Fannounce&tr=udp%3A%2F%2Ftracker.leechers-paradise.org%3A6969%2Fannounce&tr=udp%3A%2F%2Ftracker.coppersurfer.tk%3A6969%2Fannounce&tr=udp%3A%2F%2Ftracker.pirateparty.gr%3A6969%2Fannounce&tr=udp%3A%2F%2Ftracker.cyberia.is%3A6969%2Fannounce",
        "seeder": "443",
        "leecher": "120"
    },
    {
        "rank": "31",
        "title": "Snowfall.S04E07.Through.a.Glass.Darkly.HDTV.x264-CRiMSON[TGx]",
        "link": "magnet:?xt=urn:btih:611050D4A10F55C4DBC60AA7ACC3D9C7C33CFA43&dn=Snowfall.S04E07.Through.a.Glass.Darkly.HDTV.x264-CRiMSON%5BTGx%5D&tr=udp%3A%2F%2Ftracker.coppersurfer.tk%3A6969%2Fannounce&tr=udp%3A%2F%2F9.rarbg.to%3A2920%2Fannounce&tr=udp%3A%2F%2Ftracker.opentrackr.org%3A1337&tr=udp%3A%2F%2Ftracker.internetwarriors.net%3A1337%2Fannounce&tr=udp%3A%2F%2Ftracker.leechers-paradise.org%3A6969%2Fannounce&tr=udp%3A%2F%2Ftracker.coppersurfer.tk%3A6969%2Fannounce&tr=udp%3A%2F%2Ftracker.pirateparty.gr%3A6969%2Fannounce&tr=udp%3A%2F%2Ftracker.cyberia.is%3A6969%2Fannounce",
        "seeder": "441",
        "leecher": "70"
    },
    {
        "rank": "32",
        "title": "Superman.and.Lois.S01E02.HDTV.x264-PHOENiX[TGx]",
        "link": "magnet:?xt=urn:btih:00F99CB793102CBC47EEF24A0C0525EAAA00F72C&dn=Superman.and.Lois.S01E02.HDTV.x264-PHOENiX%5BTGx%5D&tr=udp%3A%2F%2Ftracker.coppersurfer.tk%3A6969%2Fannounce&tr=udp%3A%2F%2F9.rarbg.to%3A2920%2Fannounce&tr=udp%3A%2F%2Ftracker.opentrackr.org%3A1337&tr=udp%3A%2F%2Ftracker.internetwarriors.net%3A1337%2Fannounce&tr=udp%3A%2F%2Ftracker.leechers-paradise.org%3A6969%2Fannounce&tr=udp%3A%2F%2Ftracker.coppersurfer.tk%3A6969%2Fannounce&tr=udp%3A%2F%2Ftracker.pirateparty.gr%3A6969%2Fannounce&tr=udp%3A%2F%2Ftracker.cyberia.is%3A6969%2Fannounce",
        "seeder": "440",
        "leecher": "23"
    },
    {
        "rank": "33",
        "title": "Chicago.Fire.S09E10.HDTV.x264-PHOENiX[TGx]",
        "link": "magnet:?xt=urn:btih:ABB614537A47BDE4BAAB813D5EBBE46467BB818C&dn=Chicago.Fire.S09E10.HDTV.x264-PHOENiX%5BTGx%5D&tr=udp%3A%2F%2Ftracker.coppersurfer.tk%3A6969%2Fannounce&tr=udp%3A%2F%2F9.rarbg.to%3A2920%2Fannounce&tr=udp%3A%2F%2Ftracker.opentrackr.org%3A1337&tr=udp%3A%2F%2Ftracker.internetwarriors.net%3A1337%2Fannounce&tr=udp%3A%2F%2Ftracker.leechers-paradise.org%3A6969%2Fannounce&tr=udp%3A%2F%2Ftracker.coppersurfer.tk%3A6969%2Fannounce&tr=udp%3A%2F%2Ftracker.pirateparty.gr%3A6969%2Fannounce&tr=udp%3A%2F%2Ftracker.cyberia.is%3A6969%2Fannounce",
        "seeder": "438",
        "leecher": "51"
    },
    {
        "rank": "34",
        "title": "Shameless.US.S11E09.WEB.x264-PHOENiX[TGx]",
        "link": "magnet:?xt=urn:btih:58312B38FA24E45A92CDA0DDFD447B033185EF1C&dn=Shameless.US.S11E09.WEB.x264-PHOENiX%5BTGx%5D&tr=udp%3A%2F%2Ftracker.coppersurfer.tk%3A6969%2Fannounce&tr=udp%3A%2F%2F9.rarbg.to%3A2920%2Fannounce&tr=udp%3A%2F%2Ftracker.opentrackr.org%3A1337&tr=udp%3A%2F%2Ftracker.internetwarriors.net%3A1337%2Fannounce&tr=udp%3A%2F%2Ftracker.leechers-paradise.org%3A6969%2Fannounce&tr=udp%3A%2F%2Ftracker.coppersurfer.tk%3A6969%2Fannounce&tr=udp%3A%2F%2Ftracker.pirateparty.gr%3A6969%2Fannounce&tr=udp%3A%2F%2Ftracker.cyberia.is%3A6969%2Fannounce",
        "seeder": "438",
        "leecher": "59"
    },
    {
        "rank": "35",
        "title": "Supergirl.S06E01.HDTV.x264-PHOENiX[TGx]",
        "link": "magnet:?xt=urn:btih:DA191AA9FCBDF5C0FCB5191F236597FC428211C1&dn=Supergirl.S06E01.HDTV.x264-PHOENiX%5BTGx%5D&tr=udp%3A%2F%2Ftracker.coppersurfer.tk%3A6969%2Fannounce&tr=udp%3A%2F%2F9.rarbg.to%3A2920%2Fannounce&tr=udp%3A%2F%2Ftracker.opentrackr.org%3A1337&tr=udp%3A%2F%2Ftracker.internetwarriors.net%3A1337%2Fannounce&tr=udp%3A%2F%2Ftracker.leechers-paradise.org%3A6969%2Fannounce&tr=udp%3A%2F%2Ftracker.coppersurfer.tk%3A6969%2Fannounce&tr=udp%3A%2F%2Ftracker.pirateparty.gr%3A6969%2Fannounce&tr=udp%3A%2F%2Ftracker.cyberia.is%3A6969%2Fannounce",
        "seeder": "435",
        "leecher": "31"
    },
    {
        "rank": "36",
        "title": "New.Amsterdam.2018.S03E05.WEBRip.x264-PHOENiX[TGx]",
        "link": "magnet:?xt=urn:btih:549B86AF464D4248E3C9B2D9C91452DED5BA2A81&dn=New.Amsterdam.2018.S03E05.WEBRip.x264-PHOENiX%5BTGx%5D&tr=udp%3A%2F%2Ftracker.coppersurfer.tk%3A6969%2Fannounce&tr=udp%3A%2F%2F9.rarbg.to%3A2920%2Fannounce&tr=udp%3A%2F%2Ftracker.opentrackr.org%3A1337&tr=udp%3A%2F%2Ftracker.internetwarriors.net%3A1337%2Fannounce&tr=udp%3A%2F%2Ftracker.leechers-paradise.org%3A6969%2Fannounce&tr=udp%3A%2F%2Ftracker.coppersurfer.tk%3A6969%2Fannounce&tr=udp%3A%2F%2Ftracker.pirateparty.gr%3A6969%2Fannounce&tr=udp%3A%2F%2Ftracker.cyberia.is%3A6969%2Fannounce",
        "seeder": "434",
        "leecher": "36"
    },
    {
        "rank": "37",
        "title": "The.Flash.2014.S07E03.HDTV.x264-PHOENiX[TGx]",
        "link": "magnet:?xt=urn:btih:725FBC80B7D6DCA4C6D8893DF1D15ABB765E5CD6&dn=The.Flash.2014.S07E03.HDTV.x264-PHOENiX%5BTGx%5D&tr=udp%3A%2F%2Ftracker.coppersurfer.tk%3A6969%2Fannounce&tr=udp%3A%2F%2F9.rarbg.to%3A2920%2Fannounce&tr=udp%3A%2F%2Ftracker.opentrackr.org%3A1337&tr=udp%3A%2F%2Ftracker.internetwarriors.net%3A1337%2Fannounce&tr=udp%3A%2F%2Ftracker.leechers-paradise.org%3A6969%2Fannounce&tr=udp%3A%2F%2Ftracker.coppersurfer.tk%3A6969%2Fannounce&tr=udp%3A%2F%2Ftracker.pirateparty.gr%3A6969%2Fannounce&tr=udp%3A%2F%2Ftracker.cyberia.is%3A6969%2Fannounce",
        "seeder": "431",
        "leecher": "77"
    },
    {
        "rank": "38",
        "title": "The.Falcon.and.the.Winter.Soldier.S01E02.WEBRip.x264-ION10",
        "link": "magnet:?xt=urn:btih:A96BCC6D70DCB22245B6F91C9ED9F993E6C2BC83&dn=The.Falcon.and.the.Winter.Soldier.S01E02.WEBRip.x264-ION10&tr=udp%3A%2F%2Ftracker.coppersurfer.tk%3A6969%2Fannounce&tr=udp%3A%2F%2F9.rarbg.to%3A2920%2Fannounce&tr=udp%3A%2F%2Ftracker.opentrackr.org%3A1337&tr=udp%3A%2F%2Ftracker.internetwarriors.net%3A1337%2Fannounce&tr=udp%3A%2F%2Ftracker.leechers-paradise.org%3A6969%2Fannounce&tr=udp%3A%2F%2Ftracker.coppersurfer.tk%3A6969%2Fannounce&tr=udp%3A%2F%2Ftracker.pirateparty.gr%3A6969%2Fannounce&tr=udp%3A%2F%2Ftracker.cyberia.is%3A6969%2Fannounce",
        "seeder": "424",
        "leecher": "111"
    },
    {
        "rank": "39",
        "title": "Debris.S01E04.HDTV.x264-PHOENiX[TGx]",
        "link": "magnet:?xt=urn:btih:2C48814478C894B4F7FBA685B485F75D415CB0A3&dn=Debris.S01E04.HDTV.x264-PHOENiX%5BTGx%5D&tr=udp%3A%2F%2Ftracker.coppersurfer.tk%3A6969%2Fannounce&tr=udp%3A%2F%2F9.rarbg.to%3A2920%2Fannounce&tr=udp%3A%2F%2Ftracker.opentrackr.org%3A1337&tr=udp%3A%2F%2Ftracker.internetwarriors.net%3A1337%2Fannounce&tr=udp%3A%2F%2Ftracker.leechers-paradise.org%3A6969%2Fannounce&tr=udp%3A%2F%2Ftracker.coppersurfer.tk%3A6969%2Fannounce&tr=udp%3A%2F%2Ftracker.pirateparty.gr%3A6969%2Fannounce&tr=udp%3A%2F%2Ftracker.cyberia.is%3A6969%2Fannounce",
        "seeder": "419",
        "leecher": "25"
    },
    {
        "rank": "40",
        "title": "Resident.Alien.S01E02.WEB.x264-PHOENiX[TGx]",
        "link": "magnet:?xt=urn:btih:1D1F10F021BE20AE49359750A73B804315F89494&dn=Resident.Alien.S01E02.WEB.x264-PHOENiX%5BTGx%5D&tr=udp%3A%2F%2Ftracker.coppersurfer.tk%3A6969%2Fannounce&tr=udp%3A%2F%2F9.rarbg.to%3A2920%2Fannounce&tr=udp%3A%2F%2Ftracker.opentrackr.org%3A1337&tr=udp%3A%2F%2Ftracker.internetwarriors.net%3A1337%2Fannounce&tr=udp%3A%2F%2Ftracker.leechers-paradise.org%3A6969%2Fannounce&tr=udp%3A%2F%2Ftracker.coppersurfer.tk%3A6969%2Fannounce&tr=udp%3A%2F%2Ftracker.pirateparty.gr%3A6969%2Fannounce&tr=udp%3A%2F%2Ftracker.cyberia.is%3A6969%2Fannounce",
        "seeder": "419",
        "leecher": "77"
    },
    {
        "rank": "41",
        "title": "Greys.Anatomy.S17E10.HDTV.x264-PHOENiX[TGx]",
        "link": "magnet:?xt=urn:btih:38FF77497392FECA4E6DB3C4D12F266637D18167&dn=Greys.Anatomy.S17E10.HDTV.x264-PHOENiX%5BTGx%5D&tr=udp%3A%2F%2Ftracker.coppersurfer.tk%3A6969%2Fannounce&tr=udp%3A%2F%2F9.rarbg.to%3A2920%2Fannounce&tr=udp%3A%2F%2Ftracker.opentrackr.org%3A1337&tr=udp%3A%2F%2Ftracker.internetwarriors.net%3A1337%2Fannounce&tr=udp%3A%2F%2Ftracker.leechers-paradise.org%3A6969%2Fannounce&tr=udp%3A%2F%2Ftracker.coppersurfer.tk%3A6969%2Fannounce&tr=udp%3A%2F%2Ftracker.pirateparty.gr%3A6969%2Fannounce&tr=udp%3A%2F%2Ftracker.cyberia.is%3A6969%2Fannounce",
        "seeder": "414",
        "leecher": "204"
    },
    {
        "rank": "42",
        "title": "This.Is.Us.S05E11.HDTV.x264-PHOENiX[TGx]",
        "link": "magnet:?xt=urn:btih:41578A6C5341CB4393610770CD14474FB3789C54&dn=This.Is.Us.S05E11.HDTV.x264-PHOENiX%5BTGx%5D&tr=udp%3A%2F%2Ftracker.coppersurfer.tk%3A6969%2Fannounce&tr=udp%3A%2F%2F9.rarbg.to%3A2920%2Fannounce&tr=udp%3A%2F%2Ftracker.opentrackr.org%3A1337&tr=udp%3A%2F%2Ftracker.internetwarriors.net%3A1337%2Fannounce&tr=udp%3A%2F%2Ftracker.leechers-paradise.org%3A6969%2Fannounce&tr=udp%3A%2F%2Ftracker.coppersurfer.tk%3A6969%2Fannounce&tr=udp%3A%2F%2Ftracker.pirateparty.gr%3A6969%2Fannounce&tr=udp%3A%2F%2Ftracker.cyberia.is%3A6969%2Fannounce",
        "seeder": "412",
        "leecher": "134"
    },
    {
        "rank": "43",
        "title": "Greys.Anatomy.S17E06.HDTV.x264-PHOENiX[TGx]",
        "link": "magnet:?xt=urn:btih:6459D6E9E1C5365A74D5C0FAB84F7A7C789BB4BB&dn=Greys.Anatomy.S17E06.HDTV.x264-PHOENiX%5BTGx%5D&tr=udp%3A%2F%2Ftracker.coppersurfer.tk%3A6969%2Fannounce&tr=udp%3A%2F%2F9.rarbg.to%3A2920%2Fannounce&tr=udp%3A%2F%2Ftracker.opentrackr.org%3A1337&tr=udp%3A%2F%2Ftracker.internetwarriors.net%3A1337%2Fannounce&tr=udp%3A%2F%2Ftracker.leechers-paradise.org%3A6969%2Fannounce&tr=udp%3A%2F%2Ftracker.coppersurfer.tk%3A6969%2Fannounce&tr=udp%3A%2F%2Ftracker.pirateparty.gr%3A6969%2Fannounce&tr=udp%3A%2F%2Ftracker.cyberia.is%3A6969%2Fannounce",
        "seeder": "411",
        "leecher": "40"
    },
    {
        "rank": "44",
        "title": "The.Walking.Dead.S10E21.WEB.x264-PHOENiX[TGx]",
        "link": "magnet:?xt=urn:btih:81F68AAC17CB085FE96FFEDBD78FF45970A8D0CE&dn=The.Walking.Dead.S10E21.WEB.x264-PHOENiX%5BTGx%5D&tr=udp%3A%2F%2Ftracker.coppersurfer.tk%3A6969%2Fannounce&tr=udp%3A%2F%2F9.rarbg.to%3A2920%2Fannounce&tr=udp%3A%2F%2Ftracker.opentrackr.org%3A1337&tr=udp%3A%2F%2Ftracker.internetwarriors.net%3A1337%2Fannounce&tr=udp%3A%2F%2Ftracker.leechers-paradise.org%3A6969%2Fannounce&tr=udp%3A%2F%2Ftracker.coppersurfer.tk%3A6969%2Fannounce&tr=udp%3A%2F%2Ftracker.pirateparty.gr%3A6969%2Fannounce&tr=udp%3A%2F%2Ftracker.cyberia.is%3A6969%2Fannounce",
        "seeder": "410",
        "leecher": "41"
    },
    {
        "rank": "45",
        "title": "The.Blacklist.S08E08.HDTV.x264-PHOENiX[TGx]",
        "link": "magnet:?xt=urn:btih:BCEC22E006E4A8AF23CE622DE90D8F6E1206CCDC&dn=The.Blacklist.S08E08.HDTV.x264-PHOENiX%5BTGx%5D&tr=udp%3A%2F%2Ftracker.coppersurfer.tk%3A6969%2Fannounce&tr=udp%3A%2F%2F9.rarbg.to%3A2920%2Fannounce&tr=udp%3A%2F%2Ftracker.opentrackr.org%3A1337&tr=udp%3A%2F%2Ftracker.internetwarriors.net%3A1337%2Fannounce&tr=udp%3A%2F%2Ftracker.leechers-paradise.org%3A6969%2Fannounce&tr=udp%3A%2F%2Ftracker.coppersurfer.tk%3A6969%2Fannounce&tr=udp%3A%2F%2Ftracker.pirateparty.gr%3A6969%2Fannounce&tr=udp%3A%2F%2Ftracker.cyberia.is%3A6969%2Fannounce",
        "seeder": "410",
        "leecher": "47"
    },
    {
        "rank": "46",
        "title": "The.Blacklist.S08E07.HDTV.x264-PHOENiX[TGx]",
        "link": "magnet:?xt=urn:btih:473661706FABA8F6621263B9F1E6686F65156932&dn=The.Blacklist.S08E07.HDTV.x264-PHOENiX%5BTGx%5D&tr=udp%3A%2F%2Ftracker.coppersurfer.tk%3A6969%2Fannounce&tr=udp%3A%2F%2F9.rarbg.to%3A2920%2Fannounce&tr=udp%3A%2F%2Ftracker.opentrackr.org%3A1337&tr=udp%3A%2F%2Ftracker.internetwarriors.net%3A1337%2Fannounce&tr=udp%3A%2F%2Ftracker.leechers-paradise.org%3A6969%2Fannounce&tr=udp%3A%2F%2Ftracker.coppersurfer.tk%3A6969%2Fannounce&tr=udp%3A%2F%2Ftracker.pirateparty.gr%3A6969%2Fannounce&tr=udp%3A%2F%2Ftracker.cyberia.is%3A6969%2Fannounce",
        "seeder": "410",
        "leecher": "28"
    },
    {
        "rank": "47",
        "title": "Resident.Alien.S01E01.WEB.x264-PHOENiX[TGx]",
        "link": "magnet:?xt=urn:btih:A15E788A135EE3E13976A506C7D1C494BC48B104&dn=Resident.Alien.S01E01.WEB.x264-PHOENiX%5BTGx%5D&tr=udp%3A%2F%2Ftracker.coppersurfer.tk%3A6969%2Fannounce&tr=udp%3A%2F%2F9.rarbg.to%3A2920%2Fannounce&tr=udp%3A%2F%2Ftracker.opentrackr.org%3A1337&tr=udp%3A%2F%2Ftracker.internetwarriors.net%3A1337%2Fannounce&tr=udp%3A%2F%2Ftracker.leechers-paradise.org%3A6969%2Fannounce&tr=udp%3A%2F%2Ftracker.coppersurfer.tk%3A6969%2Fannounce&tr=udp%3A%2F%2Ftracker.pirateparty.gr%3A6969%2Fannounce&tr=udp%3A%2F%2Ftracker.cyberia.is%3A6969%2Fannounce",
        "seeder": "405",
        "leecher": "81"
    },
    {
        "rank": "48",
        "title": "New.Amsterdam.2018.S03E04.HDTV.x264-PHOENiX[TGx]",
        "link": "magnet:?xt=urn:btih:AB11BB7FA1952A0126D3A70BE595196DB60E17BA&dn=New.Amsterdam.2018.S03E04.HDTV.x264-PHOENiX%5BTGx%5D&tr=udp%3A%2F%2Ftracker.coppersurfer.tk%3A6969%2Fannounce&tr=udp%3A%2F%2F9.rarbg.to%3A2920%2Fannounce&tr=udp%3A%2F%2Ftracker.opentrackr.org%3A1337&tr=udp%3A%2F%2Ftracker.internetwarriors.net%3A1337%2Fannounce&tr=udp%3A%2F%2Ftracker.leechers-paradise.org%3A6969%2Fannounce&tr=udp%3A%2F%2Ftracker.coppersurfer.tk%3A6969%2Fannounce&tr=udp%3A%2F%2Ftracker.pirateparty.gr%3A6969%2Fannounce&tr=udp%3A%2F%2Ftracker.cyberia.is%3A6969%2Fannounce",
        "seeder": "402",
        "leecher": "73"
    },
    {
        "rank": "49",
        "title": "SEAL.Team.S04E10.WEB.x264-PHOENiX[TGx]",
        "link": "magnet:?xt=urn:btih:C314AE15B00D7DD1445979FE758B40DC9654588B&dn=SEAL.Team.S04E10.WEB.x264-PHOENiX%5BTGx%5D&tr=udp%3A%2F%2Ftracker.coppersurfer.tk%3A6969%2Fannounce&tr=udp%3A%2F%2F9.rarbg.to%3A2920%2Fannounce&tr=udp%3A%2F%2Ftracker.opentrackr.org%3A1337&tr=udp%3A%2F%2Ftracker.internetwarriors.net%3A1337%2Fannounce&tr=udp%3A%2F%2Ftracker.leechers-paradise.org%3A6969%2Fannounce&tr=udp%3A%2F%2Ftracker.coppersurfer.tk%3A6969%2Fannounce&tr=udp%3A%2F%2Ftracker.pirateparty.gr%3A6969%2Fannounce&tr=udp%3A%2F%2Ftracker.cyberia.is%3A6969%2Fannounce",
        "seeder": "401",
        "leecher": "74"
    },
    {
        "rank": "50",
        "title": "Resident.Alien.S01E06.WEB.x264-PHOENiX[TGx]",
        "link": "magnet:?xt=urn:btih:2E95786BE81A0FC308A4A5E60D3E128AA05AB032&dn=Resident.Alien.S01E06.WEB.x264-PHOENiX%5BTGx%5D&tr=udp%3A%2F%2Ftracker.coppersurfer.tk%3A6969%2Fannounce&tr=udp%3A%2F%2F9.rarbg.to%3A2920%2Fannounce&tr=udp%3A%2F%2Ftracker.opentrackr.org%3A1337&tr=udp%3A%2F%2Ftracker.internetwarriors.net%3A1337%2Fannounce&tr=udp%3A%2F%2Ftracker.leechers-paradise.org%3A6969%2Fannounce&tr=udp%3A%2F%2Ftracker.coppersurfer.tk%3A6969%2Fannounce&tr=udp%3A%2F%2Ftracker.pirateparty.gr%3A6969%2Fannounce&tr=udp%3A%2F%2Ftracker.cyberia.is%3A6969%2Fannounce",
        "seeder": "397",
        "leecher": "48"
    },
    {
        "rank": "51",
        "title": "Resident.Alien.S01E05.WEB.x264-PHOENiX[TGx]",
        "link": "magnet:?xt=urn:btih:4221C085E2404AA90A407CDFBF6FCFAE98471A77&dn=Resident.Alien.S01E05.WEB.x264-PHOENiX%5BTGx%5D&tr=udp%3A%2F%2Ftracker.coppersurfer.tk%3A6969%2Fannounce&tr=udp%3A%2F%2F9.rarbg.to%3A2920%2Fannounce&tr=udp%3A%2F%2Ftracker.opentrackr.org%3A1337&tr=udp%3A%2F%2Ftracker.internetwarriors.net%3A1337%2Fannounce&tr=udp%3A%2F%2Ftracker.leechers-paradise.org%3A6969%2Fannounce&tr=udp%3A%2F%2Ftracker.coppersurfer.tk%3A6969%2Fannounce&tr=udp%3A%2F%2Ftracker.pirateparty.gr%3A6969%2Fannounce&tr=udp%3A%2F%2Ftracker.cyberia.is%3A6969%2Fannounce",
        "seeder": "387",
        "leecher": "47"
    },
    {
        "rank": "52",
        "title": "Brooklyn Nine-Nine Season 7 Complete 720p AMZN WEB-DL x264 [i_c]",
        "link": "magnet:?xt=urn:btih:BCD19DFF484D94CF74ADC3A60C6D567681A65AD4&dn=Brooklyn+Nine-Nine+Season+7+Complete+720p+AMZN+WEB-DL+x264+%5Bi_c%5D&tr=udp%3A%2F%2Ftracker.coppersurfer.tk%3A6969%2Fannounce&tr=udp%3A%2F%2F9.rarbg.to%3A2920%2Fannounce&tr=udp%3A%2F%2Ftracker.opentrackr.org%3A1337&tr=udp%3A%2F%2Ftracker.internetwarriors.net%3A1337%2Fannounce&tr=udp%3A%2F%2Ftracker.leechers-paradise.org%3A6969%2Fannounce&tr=udp%3A%2F%2Ftracker.coppersurfer.tk%3A6969%2Fannounce&tr=udp%3A%2F%2Ftracker.pirateparty.gr%3A6969%2Fannounce&tr=udp%3A%2F%2Ftracker.cyberia.is%3A6969%2Fannounce",
        "seeder": "376",
        "leecher": "168"
    },
    {
        "rank": "53",
        "title": "Chicago.Med.S06E10.HDTV.x264-PHOENiX[TGx]",
        "link": "magnet:?xt=urn:btih:AC9E9FC2EF4ED7199647D761FB6BBE79C6F034B6&dn=Chicago.Med.S06E10.HDTV.x264-PHOENiX%5BTGx%5D&tr=udp%3A%2F%2Ftracker.coppersurfer.tk%3A6969%2Fannounce&tr=udp%3A%2F%2F9.rarbg.to%3A2920%2Fannounce&tr=udp%3A%2F%2Ftracker.opentrackr.org%3A1337&tr=udp%3A%2F%2Ftracker.internetwarriors.net%3A1337%2Fannounce&tr=udp%3A%2F%2Ftracker.leechers-paradise.org%3A6969%2Fannounce&tr=udp%3A%2F%2Ftracker.coppersurfer.tk%3A6969%2Fannounce&tr=udp%3A%2F%2Ftracker.pirateparty.gr%3A6969%2Fannounce&tr=udp%3A%2F%2Ftracker.cyberia.is%3A6969%2Fannounce",
        "seeder": "375",
        "leecher": "36"
    },
    {
        "rank": "54",
        "title": "Shameless.US.S11E08.WEB.x264-PHOENiX[TGx]",
        "link": "magnet:?xt=urn:btih:036E118D57363518309968B8BD395A2CDE088A28&dn=Shameless.US.S11E08.WEB.x264-PHOENiX%5BTGx%5D&tr=udp%3A%2F%2Ftracker.coppersurfer.tk%3A6969%2Fannounce&tr=udp%3A%2F%2F9.rarbg.to%3A2920%2Fannounce&tr=udp%3A%2F%2Ftracker.opentrackr.org%3A1337&tr=udp%3A%2F%2Ftracker.internetwarriors.net%3A1337%2Fannounce&tr=udp%3A%2F%2Ftracker.leechers-paradise.org%3A6969%2Fannounce&tr=udp%3A%2F%2Ftracker.coppersurfer.tk%3A6969%2Fannounce&tr=udp%3A%2F%2Ftracker.pirateparty.gr%3A6969%2Fannounce&tr=udp%3A%2F%2Ftracker.cyberia.is%3A6969%2Fannounce",
        "seeder": "374",
        "leecher": "46"
    },
    {
        "rank": "55",
        "title": "Resident.Alien.S01E04.WEB.x264-PHOENiX[TGx]",
        "link": "magnet:?xt=urn:btih:4B8D3A67091DCC27DC5C895F21247A1B9D59673B&dn=Resident.Alien.S01E04.WEB.x264-PHOENiX%5BTGx%5D&tr=udp%3A%2F%2Ftracker.coppersurfer.tk%3A6969%2Fannounce&tr=udp%3A%2F%2F9.rarbg.to%3A2920%2Fannounce&tr=udp%3A%2F%2Ftracker.opentrackr.org%3A1337&tr=udp%3A%2F%2Ftracker.internetwarriors.net%3A1337%2Fannounce&tr=udp%3A%2F%2Ftracker.leechers-paradise.org%3A6969%2Fannounce&tr=udp%3A%2F%2Ftracker.coppersurfer.tk%3A6969%2Fannounce&tr=udp%3A%2F%2Ftracker.pirateparty.gr%3A6969%2Fannounce&tr=udp%3A%2F%2Ftracker.cyberia.is%3A6969%2Fannounce",
        "seeder": "368",
        "leecher": "40"
    },
    {
        "rank": "56",
        "title": "Greys.Anatomy.S17E04.HDTV.x264-PHOENiX[TGx]",
        "link": "magnet:?xt=urn:btih:3818D1AE49A20D09E1B298532B359CF891A0BD45&dn=Greys.Anatomy.S17E04.HDTV.x264-PHOENiX%5BTGx%5D&tr=udp%3A%2F%2Ftracker.coppersurfer.tk%3A6969%2Fannounce&tr=udp%3A%2F%2F9.rarbg.to%3A2920%2Fannounce&tr=udp%3A%2F%2Ftracker.opentrackr.org%3A1337&tr=udp%3A%2F%2Ftracker.internetwarriors.net%3A1337%2Fannounce&tr=udp%3A%2F%2Ftracker.leechers-paradise.org%3A6969%2Fannounce&tr=udp%3A%2F%2Ftracker.coppersurfer.tk%3A6969%2Fannounce&tr=udp%3A%2F%2Ftracker.pirateparty.gr%3A6969%2Fannounce&tr=udp%3A%2F%2Ftracker.cyberia.is%3A6969%2Fannounce",
        "seeder": "362",
        "leecher": "43"
    },
    {
        "rank": "57",
        "title": "Snowpiercer.S02E10.WEBRip.x264-PHOENiX[TGx]",
        "link": "magnet:?xt=urn:btih:ED39C602599228855AD76EBCBC2F19003AC8725C&dn=Snowpiercer.S02E10.WEBRip.x264-PHOENiX%5BTGx%5D&tr=udp%3A%2F%2Ftracker.coppersurfer.tk%3A6969%2Fannounce&tr=udp%3A%2F%2F9.rarbg.to%3A2920%2Fannounce&tr=udp%3A%2F%2Ftracker.opentrackr.org%3A1337&tr=udp%3A%2F%2Ftracker.internetwarriors.net%3A1337%2Fannounce&tr=udp%3A%2F%2Ftracker.leechers-paradise.org%3A6969%2Fannounce&tr=udp%3A%2F%2Ftracker.coppersurfer.tk%3A6969%2Fannounce&tr=udp%3A%2F%2Ftracker.pirateparty.gr%3A6969%2Fannounce&tr=udp%3A%2F%2Ftracker.cyberia.is%3A6969%2Fannounce",
        "seeder": "353",
        "leecher": "39"
    },
    {
        "rank": "58",
        "title": "Manifest.S03E01.HDTV.x264-PHOENiX[TGx]",
        "link": "magnet:?xt=urn:btih:5D80128046FEA5D74016D25C93B32DEE661F2E69&dn=Manifest.S03E01.HDTV.x264-PHOENiX%5BTGx%5D&tr=udp%3A%2F%2Ftracker.coppersurfer.tk%3A6969%2Fannounce&tr=udp%3A%2F%2F9.rarbg.to%3A2920%2Fannounce&tr=udp%3A%2F%2Ftracker.opentrackr.org%3A1337&tr=udp%3A%2F%2Ftracker.internetwarriors.net%3A1337%2Fannounce&tr=udp%3A%2F%2Ftracker.leechers-paradise.org%3A6969%2Fannounce&tr=udp%3A%2F%2Ftracker.coppersurfer.tk%3A6969%2Fannounce&tr=udp%3A%2F%2Ftracker.pirateparty.gr%3A6969%2Fannounce&tr=udp%3A%2F%2Ftracker.cyberia.is%3A6969%2Fannounce",
        "seeder": "351",
        "leecher": "217"
    },
    {
        "rank": "59",
        "title": "Greys.Anatomy.S17E02.HDTV.x264-PHOENiX[TGx]",
        "link": "magnet:?xt=urn:btih:74B5938EB5D18B15189A2DEC4E400AE5E080E19F&dn=Greys.Anatomy.S17E02.HDTV.x264-PHOENiX%5BTGx%5D&tr=udp%3A%2F%2Ftracker.coppersurfer.tk%3A6969%2Fannounce&tr=udp%3A%2F%2F9.rarbg.to%3A2920%2Fannounce&tr=udp%3A%2F%2Ftracker.opentrackr.org%3A1337&tr=udp%3A%2F%2Ftracker.internetwarriors.net%3A1337%2Fannounce&tr=udp%3A%2F%2Ftracker.leechers-paradise.org%3A6969%2Fannounce&tr=udp%3A%2F%2Ftracker.coppersurfer.tk%3A6969%2Fannounce&tr=udp%3A%2F%2Ftracker.pirateparty.gr%3A6969%2Fannounce&tr=udp%3A%2F%2Ftracker.cyberia.is%3A6969%2Fannounce",
        "seeder": "342",
        "leecher": "48"
    },
    {
        "rank": "60",
        "title": "This.Is.Us.S05E10.HDTV.x264-PHOENiX[TGx]",
        "link": "magnet:?xt=urn:btih:CB8EEE4BD36D5DF56E6488FE974C76FB9FCCFFA0&dn=This.Is.Us.S05E10.HDTV.x264-PHOENiX%5BTGx%5D&tr=udp%3A%2F%2Ftracker.coppersurfer.tk%3A6969%2Fannounce&tr=udp%3A%2F%2F9.rarbg.to%3A2920%2Fannounce&tr=udp%3A%2F%2Ftracker.opentrackr.org%3A1337&tr=udp%3A%2F%2Ftracker.internetwarriors.net%3A1337%2Fannounce&tr=udp%3A%2F%2Ftracker.leechers-paradise.org%3A6969%2Fannounce&tr=udp%3A%2F%2Ftracker.coppersurfer.tk%3A6969%2Fannounce&tr=udp%3A%2F%2Ftracker.pirateparty.gr%3A6969%2Fannounce&tr=udp%3A%2F%2Ftracker.cyberia.is%3A6969%2Fannounce",
        "seeder": "338",
        "leecher": "116"
    },
    {
        "rank": "61",
        "title": "Debris.S01E01.HDTV.x264-PHOENiX[TGx]",
        "link": "magnet:?xt=urn:btih:F32F390947B4BDB82130FA4418CFADE0422DFC7B&dn=Debris.S01E01.HDTV.x264-PHOENiX%5BTGx%5D&tr=udp%3A%2F%2Ftracker.coppersurfer.tk%3A6969%2Fannounce&tr=udp%3A%2F%2F9.rarbg.to%3A2920%2Fannounce&tr=udp%3A%2F%2Ftracker.opentrackr.org%3A1337&tr=udp%3A%2F%2Ftracker.internetwarriors.net%3A1337%2Fannounce&tr=udp%3A%2F%2Ftracker.leechers-paradise.org%3A6969%2Fannounce&tr=udp%3A%2F%2Ftracker.coppersurfer.tk%3A6969%2Fannounce&tr=udp%3A%2F%2Ftracker.pirateparty.gr%3A6969%2Fannounce&tr=udp%3A%2F%2Ftracker.cyberia.is%3A6969%2Fannounce",
        "seeder": "336",
        "leecher": "25"
    },
    {
        "rank": "62",
        "title": "WandaVision.S01E03.WEBRip.x264.AAC2.0-ION10",
        "link": "magnet:?xt=urn:btih:9E9D0958FA8A4B35823F7D519735D87C77E597E8&dn=WandaVision.S01E03.WEBRip.x264.AAC2.0-ION10&tr=udp%3A%2F%2Ftracker.coppersurfer.tk%3A6969%2Fannounce&tr=udp%3A%2F%2F9.rarbg.to%3A2920%2Fannounce&tr=udp%3A%2F%2Ftracker.opentrackr.org%3A1337&tr=udp%3A%2F%2Ftracker.internetwarriors.net%3A1337%2Fannounce&tr=udp%3A%2F%2Ftracker.leechers-paradise.org%3A6969%2Fannounce&tr=udp%3A%2F%2Ftracker.coppersurfer.tk%3A6969%2Fannounce&tr=udp%3A%2F%2Ftracker.pirateparty.gr%3A6969%2Fannounce&tr=udp%3A%2F%2Ftracker.cyberia.is%3A6969%2Fannounce",
        "seeder": "335",
        "leecher": "92"
    },
    {
        "rank": "63",
        "title": "Snowfall.S04E06.Say.a.Little.Prayer.HDTV.x264-CRiMSON[TGx]",
        "link": "magnet:?xt=urn:btih:0EBE6DC13F6E4A3E93A23F4E6D0D396637FE7E73&dn=Snowfall.S04E06.Say.a.Little.Prayer.HDTV.x264-CRiMSON%5BTGx%5D&tr=udp%3A%2F%2Ftracker.coppersurfer.tk%3A6969%2Fannounce&tr=udp%3A%2F%2F9.rarbg.to%3A2920%2Fannounce&tr=udp%3A%2F%2Ftracker.opentrackr.org%3A1337&tr=udp%3A%2F%2Ftracker.internetwarriors.net%3A1337%2Fannounce&tr=udp%3A%2F%2Ftracker.leechers-paradise.org%3A6969%2Fannounce&tr=udp%3A%2F%2Ftracker.coppersurfer.tk%3A6969%2Fannounce&tr=udp%3A%2F%2Ftracker.pirateparty.gr%3A6969%2Fannounce&tr=udp%3A%2F%2Ftracker.cyberia.is%3A6969%2Fannounce",
        "seeder": "334",
        "leecher": "53"
    },
    {
        "rank": "64",
        "title": "The.Blacklist.S08E04.HDTV.x264-PHOENiX[TGx]",
        "link": "magnet:?xt=urn:btih:E57A1FBDBB1AD0635697B3E42FCE39F596389C11&dn=The.Blacklist.S08E04.HDTV.x264-PHOENiX%5BTGx%5D&tr=udp%3A%2F%2Ftracker.coppersurfer.tk%3A6969%2Fannounce&tr=udp%3A%2F%2F9.rarbg.to%3A2920%2Fannounce&tr=udp%3A%2F%2Ftracker.opentrackr.org%3A1337&tr=udp%3A%2F%2Ftracker.internetwarriors.net%3A1337%2Fannounce&tr=udp%3A%2F%2Ftracker.leechers-paradise.org%3A6969%2Fannounce&tr=udp%3A%2F%2Ftracker.coppersurfer.tk%3A6969%2Fannounce&tr=udp%3A%2F%2Ftracker.pirateparty.gr%3A6969%2Fannounce&tr=udp%3A%2F%2Ftracker.cyberia.is%3A6969%2Fannounce",
        "seeder": "334",
        "leecher": "19"
    },
    {
        "rank": "65",
        "title": "Legacies.S03E08.WEB.x264-PHOENiX[TGx]",
        "link": "magnet:?xt=urn:btih:B003089B148DFC2626D7CC261059690FBFB2AC58&dn=Legacies.S03E08.WEB.x264-PHOENiX%5BTGx%5D&tr=udp%3A%2F%2Ftracker.coppersurfer.tk%3A6969%2Fannounce&tr=udp%3A%2F%2F9.rarbg.to%3A2920%2Fannounce&tr=udp%3A%2F%2Ftracker.opentrackr.org%3A1337&tr=udp%3A%2F%2Ftracker.internetwarriors.net%3A1337%2Fannounce&tr=udp%3A%2F%2Ftracker.leechers-paradise.org%3A6969%2Fannounce&tr=udp%3A%2F%2Ftracker.coppersurfer.tk%3A6969%2Fannounce&tr=udp%3A%2F%2Ftracker.pirateparty.gr%3A6969%2Fannounce&tr=udp%3A%2F%2Ftracker.cyberia.is%3A6969%2Fannounce",
        "seeder": "326",
        "leecher": "54"
    },
    {
        "rank": "66",
        "title": "WWE Monday Night Raw 2021 03 29 HDTV x264-NWCHD [TJET]",
        "link": "magnet:?xt=urn:btih:FA41B27914BD4E9A4AF0444E478F2340B8776C90&dn=WWE+Monday+Night+Raw+2021+03+29+HDTV+x264-NWCHD+%5BTJET%5D&tr=udp%3A%2F%2Ftracker.coppersurfer.tk%3A6969%2Fannounce&tr=udp%3A%2F%2F9.rarbg.to%3A2920%2Fannounce&tr=udp%3A%2F%2Ftracker.opentrackr.org%3A1337&tr=udp%3A%2F%2Ftracker.internetwarriors.net%3A1337%2Fannounce&tr=udp%3A%2F%2Ftracker.leechers-paradise.org%3A6969%2Fannounce&tr=udp%3A%2F%2Ftracker.coppersurfer.tk%3A6969%2Fannounce&tr=udp%3A%2F%2Ftracker.pirateparty.gr%3A6969%2Fannounce&tr=udp%3A%2F%2Ftracker.cyberia.is%3A6969%2Fannounce",
        "seeder": "325",
        "leecher": "38"
    },
    {
        "rank": "67",
        "title": "The.Blacklist.S08E05.HDTV.x264-PHOENiX[TGx]",
        "link": "magnet:?xt=urn:btih:9244610F2C88DA39CE79CFBC7C7F094F9CF779FB&dn=The.Blacklist.S08E05.HDTV.x264-PHOENiX%5BTGx%5D&tr=udp%3A%2F%2Ftracker.coppersurfer.tk%3A6969%2Fannounce&tr=udp%3A%2F%2F9.rarbg.to%3A2920%2Fannounce&tr=udp%3A%2F%2Ftracker.opentrackr.org%3A1337&tr=udp%3A%2F%2Ftracker.internetwarriors.net%3A1337%2Fannounce&tr=udp%3A%2F%2Ftracker.leechers-paradise.org%3A6969%2Fannounce&tr=udp%3A%2F%2Ftracker.coppersurfer.tk%3A6969%2Fannounce&tr=udp%3A%2F%2Ftracker.pirateparty.gr%3A6969%2Fannounce&tr=udp%3A%2F%2Ftracker.cyberia.is%3A6969%2Fannounce",
        "seeder": "325",
        "leecher": "28"
    },
    {
        "rank": "68",
        "title": "New.Amsterdam.S03E03.HDTV.x264-PHOENiX[TGx]",
        "link": "magnet:?xt=urn:btih:EED3CB4519EB6A53224CB33A3083688DD3E5F8E5&dn=New.Amsterdam.S03E03.HDTV.x264-PHOENiX%5BTGx%5D&tr=udp%3A%2F%2Ftracker.coppersurfer.tk%3A6969%2Fannounce&tr=udp%3A%2F%2F9.rarbg.to%3A2920%2Fannounce&tr=udp%3A%2F%2Ftracker.opentrackr.org%3A1337&tr=udp%3A%2F%2Ftracker.internetwarriors.net%3A1337%2Fannounce&tr=udp%3A%2F%2Ftracker.leechers-paradise.org%3A6969%2Fannounce&tr=udp%3A%2F%2Ftracker.coppersurfer.tk%3A6969%2Fannounce&tr=udp%3A%2F%2Ftracker.pirateparty.gr%3A6969%2Fannounce&tr=udp%3A%2F%2Ftracker.cyberia.is%3A6969%2Fannounce",
        "seeder": "315",
        "leecher": "76"
    },
    {
        "rank": "69",
        "title": "Greys.Anatomy.S17E03.HDTV.x264-PHOENiX[TGx]",
        "link": "magnet:?xt=urn:btih:93AB8F1E2C7F5D380A89EA92E9FD6F48E4C45CB7&dn=Greys.Anatomy.S17E03.HDTV.x264-PHOENiX%5BTGx%5D&tr=udp%3A%2F%2Ftracker.coppersurfer.tk%3A6969%2Fannounce&tr=udp%3A%2F%2F9.rarbg.to%3A2920%2Fannounce&tr=udp%3A%2F%2Ftracker.opentrackr.org%3A1337&tr=udp%3A%2F%2Ftracker.internetwarriors.net%3A1337%2Fannounce&tr=udp%3A%2F%2Ftracker.leechers-paradise.org%3A6969%2Fannounce&tr=udp%3A%2F%2Ftracker.coppersurfer.tk%3A6969%2Fannounce&tr=udp%3A%2F%2Ftracker.pirateparty.gr%3A6969%2Fannounce&tr=udp%3A%2F%2Ftracker.cyberia.is%3A6969%2Fannounce",
        "seeder": "315",
        "leecher": "51"
    },
    {
        "rank": "70",
        "title": "Station.19.S04E08.HDTV.x264-PHOENiX[TGx]",
        "link": "magnet:?xt=urn:btih:BDD16A44C43177B7ED69BFDAC262A38D4D0EFEF9&dn=Station.19.S04E08.HDTV.x264-PHOENiX%5BTGx%5D&tr=udp%3A%2F%2Ftracker.coppersurfer.tk%3A6969%2Fannounce&tr=udp%3A%2F%2F9.rarbg.to%3A2920%2Fannounce&tr=udp%3A%2F%2Ftracker.opentrackr.org%3A1337&tr=udp%3A%2F%2Ftracker.internetwarriors.net%3A1337%2Fannounce&tr=udp%3A%2F%2Ftracker.leechers-paradise.org%3A6969%2Fannounce&tr=udp%3A%2F%2Ftracker.coppersurfer.tk%3A6969%2Fannounce&tr=udp%3A%2F%2Ftracker.pirateparty.gr%3A6969%2Fannounce&tr=udp%3A%2F%2Ftracker.cyberia.is%3A6969%2Fannounce",
        "seeder": "310",
        "leecher": "60"
    },
    {
        "rank": "71",
        "title": "The.Blacklist.S08E06.XviD-AFG[TGx]",
        "link": "magnet:?xt=urn:btih:2C7919C145114A179416F891FA2E618D18124913&dn=The.Blacklist.S08E06.XviD-AFG%5BTGx%5D&tr=udp%3A%2F%2Ftracker.coppersurfer.tk%3A6969%2Fannounce&tr=udp%3A%2F%2F9.rarbg.to%3A2920%2Fannounce&tr=udp%3A%2F%2Ftracker.opentrackr.org%3A1337&tr=udp%3A%2F%2Ftracker.internetwarriors.net%3A1337%2Fannounce&tr=udp%3A%2F%2Ftracker.leechers-paradise.org%3A6969%2Fannounce&tr=udp%3A%2F%2Ftracker.coppersurfer.tk%3A6969%2Fannounce&tr=udp%3A%2F%2Ftracker.pirateparty.gr%3A6969%2Fannounce&tr=udp%3A%2F%2Ftracker.cyberia.is%3A6969%2Fannounce",
        "seeder": "310",
        "leecher": "31"
    },
    {
        "rank": "72",
        "title": "Greys.Anatomy.S17E05.HDTV.x264-PHOENiX[TGx]",
        "link": "magnet:?xt=urn:btih:6D2854A489DB403E8968AD8FF1DA229FFFB5F6A1&dn=Greys.Anatomy.S17E05.HDTV.x264-PHOENiX%5BTGx%5D&tr=udp%3A%2F%2Ftracker.coppersurfer.tk%3A6969%2Fannounce&tr=udp%3A%2F%2F9.rarbg.to%3A2920%2Fannounce&tr=udp%3A%2F%2Ftracker.opentrackr.org%3A1337&tr=udp%3A%2F%2Ftracker.internetwarriors.net%3A1337%2Fannounce&tr=udp%3A%2F%2Ftracker.leechers-paradise.org%3A6969%2Fannounce&tr=udp%3A%2F%2Ftracker.coppersurfer.tk%3A6969%2Fannounce&tr=udp%3A%2F%2Ftracker.pirateparty.gr%3A6969%2Fannounce&tr=udp%3A%2F%2Ftracker.cyberia.is%3A6969%2Fannounce",
        "seeder": "310",
        "leecher": "35"
    },
    {
        "rank": "73",
        "title": "Debris.S01E02.HDTV.x264-PHOENiX[TGx]",
        "link": "magnet:?xt=urn:btih:0A852223881872A5C29888DEF273CDE4B5EA4A8F&dn=Debris.S01E02.HDTV.x264-PHOENiX%5BTGx%5D&tr=udp%3A%2F%2Ftracker.coppersurfer.tk%3A6969%2Fannounce&tr=udp%3A%2F%2F9.rarbg.to%3A2920%2Fannounce&tr=udp%3A%2F%2Ftracker.opentrackr.org%3A1337&tr=udp%3A%2F%2Ftracker.internetwarriors.net%3A1337%2Fannounce&tr=udp%3A%2F%2Ftracker.leechers-paradise.org%3A6969%2Fannounce&tr=udp%3A%2F%2Ftracker.coppersurfer.tk%3A6969%2Fannounce&tr=udp%3A%2F%2Ftracker.pirateparty.gr%3A6969%2Fannounce&tr=udp%3A%2F%2Ftracker.cyberia.is%3A6969%2Fannounce",
        "seeder": "309",
        "leecher": "23"
    },
    {
        "rank": "74",
        "title": "The.Blacklist.S08E01.HDTV.x264-PHOENiX[TGx]",
        "link": "magnet:?xt=urn:btih:12F1EAD33925C9FE04628B6A03F203298177F7D7&dn=The.Blacklist.S08E01.HDTV.x264-PHOENiX%5BTGx%5D&tr=udp%3A%2F%2Ftracker.coppersurfer.tk%3A6969%2Fannounce&tr=udp%3A%2F%2F9.rarbg.to%3A2920%2Fannounce&tr=udp%3A%2F%2Ftracker.opentrackr.org%3A1337&tr=udp%3A%2F%2Ftracker.internetwarriors.net%3A1337%2Fannounce&tr=udp%3A%2F%2Ftracker.leechers-paradise.org%3A6969%2Fannounce&tr=udp%3A%2F%2Ftracker.coppersurfer.tk%3A6969%2Fannounce&tr=udp%3A%2F%2Ftracker.pirateparty.gr%3A6969%2Fannounce&tr=udp%3A%2F%2Ftracker.cyberia.is%3A6969%2Fannounce",
        "seeder": "307",
        "leecher": "30"
    },
    {
        "rank": "75",
        "title": "Invincible.2021.S01E04.WEBRip.x264-PHOENiX[TGx]",
        "link": "magnet:?xt=urn:btih:02997EFF68D0D69201D8BD0B2AD76434DB6175C9&dn=Invincible.2021.S01E04.WEBRip.x264-PHOENiX%5BTGx%5D&tr=udp%3A%2F%2Ftracker.coppersurfer.tk%3A6969%2Fannounce&tr=udp%3A%2F%2F9.rarbg.to%3A2920%2Fannounce&tr=udp%3A%2F%2Ftracker.opentrackr.org%3A1337&tr=udp%3A%2F%2Ftracker.internetwarriors.net%3A1337%2Fannounce&tr=udp%3A%2F%2Ftracker.leechers-paradise.org%3A6969%2Fannounce&tr=udp%3A%2F%2Ftracker.coppersurfer.tk%3A6969%2Fannounce&tr=udp%3A%2F%2Ftracker.pirateparty.gr%3A6969%2Fannounce&tr=udp%3A%2F%2Ftracker.cyberia.is%3A6969%2Fannounce",
        "seeder": "300",
        "leecher": "123"
    },
    {
        "rank": "76",
        "title": "New.Amsterdam.2018.S03E02.HDTV.x264-PHOENiX[TGx]",
        "link": "magnet:?xt=urn:btih:7CA7CAE68BF0A091639A0D2CEA27FFFA59FA7168&dn=New.Amsterdam.2018.S03E02.HDTV.x264-PHOENiX%5BTGx%5D&tr=udp%3A%2F%2Ftracker.coppersurfer.tk%3A6969%2Fannounce&tr=udp%3A%2F%2F9.rarbg.to%3A2920%2Fannounce&tr=udp%3A%2F%2Ftracker.opentrackr.org%3A1337&tr=udp%3A%2F%2Ftracker.internetwarriors.net%3A1337%2Fannounce&tr=udp%3A%2F%2Ftracker.leechers-paradise.org%3A6969%2Fannounce&tr=udp%3A%2F%2Ftracker.coppersurfer.tk%3A6969%2Fannounce&tr=udp%3A%2F%2Ftracker.pirateparty.gr%3A6969%2Fannounce&tr=udp%3A%2F%2Ftracker.cyberia.is%3A6969%2Fannounce",
        "seeder": "299",
        "leecher": "60"
    },
    {
        "rank": "77",
        "title": "New.Amsterdam.2018.S03E01.WEB.x264-PHOENiX[TGx]",
        "link": "magnet:?xt=urn:btih:09091703A893B0524196A0168D904E5E11A57D3B&dn=New.Amsterdam.2018.S03E01.WEB.x264-PHOENiX%5BTGx%5D&tr=udp%3A%2F%2Ftracker.coppersurfer.tk%3A6969%2Fannounce&tr=udp%3A%2F%2F9.rarbg.to%3A2920%2Fannounce&tr=udp%3A%2F%2Ftracker.opentrackr.org%3A1337&tr=udp%3A%2F%2Ftracker.internetwarriors.net%3A1337%2Fannounce&tr=udp%3A%2F%2Ftracker.leechers-paradise.org%3A6969%2Fannounce&tr=udp%3A%2F%2Ftracker.coppersurfer.tk%3A6969%2Fannounce&tr=udp%3A%2F%2Ftracker.pirateparty.gr%3A6969%2Fannounce&tr=udp%3A%2F%2Ftracker.cyberia.is%3A6969%2Fannounce",
        "seeder": "298",
        "leecher": "55"
    },
    {
        "rank": "78",
        "title": "The.Flash.2014.S07E01.HDTV.x264-PHOENiX[TGx]",
        "link": "magnet:?xt=urn:btih:A11264196083EF44C813550F611C8BAC77CC45FC&dn=The.Flash.2014.S07E01.HDTV.x264-PHOENiX%5BTGx%5D&tr=udp%3A%2F%2Ftracker.coppersurfer.tk%3A6969%2Fannounce&tr=udp%3A%2F%2F9.rarbg.to%3A2920%2Fannounce&tr=udp%3A%2F%2Ftracker.opentrackr.org%3A1337&tr=udp%3A%2F%2Ftracker.internetwarriors.net%3A1337%2Fannounce&tr=udp%3A%2F%2Ftracker.leechers-paradise.org%3A6969%2Fannounce&tr=udp%3A%2F%2Ftracker.coppersurfer.tk%3A6969%2Fannounce&tr=udp%3A%2F%2Ftracker.pirateparty.gr%3A6969%2Fannounce&tr=udp%3A%2F%2Ftracker.cyberia.is%3A6969%2Fannounce",
        "seeder": "296",
        "leecher": "64"
    },
    {
        "rank": "79",
        "title": "UFC.257.PPV.Poirier.vs.McGregor.HDTV.x264-NOGGINS[TGx]",
        "link": "magnet:?xt=urn:btih:76DF0A3AB9EED9E295E0C17FC7CEE6A9E3DE5A61&dn=UFC.257.PPV.Poirier.vs.McGregor.HDTV.x264-NOGGINS%5BTGx%5D&tr=udp%3A%2F%2Ftracker.coppersurfer.tk%3A6969%2Fannounce&tr=udp%3A%2F%2F9.rarbg.to%3A2920%2Fannounce&tr=udp%3A%2F%2Ftracker.opentrackr.org%3A1337&tr=udp%3A%2F%2Ftracker.internetwarriors.net%3A1337%2Fannounce&tr=udp%3A%2F%2Ftracker.leechers-paradise.org%3A6969%2Fannounce&tr=udp%3A%2F%2Ftracker.coppersurfer.tk%3A6969%2Fannounce&tr=udp%3A%2F%2Ftracker.pirateparty.gr%3A6969%2Fannounce&tr=udp%3A%2F%2Ftracker.cyberia.is%3A6969%2Fannounce",
        "seeder": "287",
        "leecher": "4"
    },
    {
        "rank": "80",
        "title": "The Office US Season 1 2 3 4 5 6 7 8 9 - threesixtyp",
        "link": "magnet:?xt=urn:btih:2D302DD91CEFE563A7EDD5C5BBF45FF75978027E&dn=The+Office+US+Season+1+2+3+4+5+6+7+8+9+-+threesixtyp&tr=udp%3A%2F%2Ftracker.coppersurfer.tk%3A6969%2Fannounce&tr=udp%3A%2F%2F9.rarbg.to%3A2920%2Fannounce&tr=udp%3A%2F%2Ftracker.opentrackr.org%3A1337&tr=udp%3A%2F%2Ftracker.internetwarriors.net%3A1337%2Fannounce&tr=udp%3A%2F%2Ftracker.leechers-paradise.org%3A6969%2Fannounce&tr=udp%3A%2F%2Ftracker.coppersurfer.tk%3A6969%2Fannounce&tr=udp%3A%2F%2Ftracker.pirateparty.gr%3A6969%2Fannounce&tr=udp%3A%2F%2Ftracker.cyberia.is%3A6969%2Fannounce",
        "seeder": "284",
        "leecher": "705"
    },
    {
        "rank": "81",
        "title": "The.Boys.S02E01.WEB.x264-PHOENiX[TGx]",
        "link": "magnet:?xt=urn:btih:CC4A702FA7C639BEA0857DF5699502073EE7E6A5&dn=The.Boys.S02E01.WEB.x264-PHOENiX%5BTGx%5D&tr=udp%3A%2F%2Ftracker.coppersurfer.tk%3A6969%2Fannounce&tr=udp%3A%2F%2F9.rarbg.to%3A2920%2Fannounce&tr=udp%3A%2F%2Ftracker.opentrackr.org%3A1337&tr=udp%3A%2F%2Ftracker.internetwarriors.net%3A1337%2Fannounce&tr=udp%3A%2F%2Ftracker.leechers-paradise.org%3A6969%2Fannounce&tr=udp%3A%2F%2Ftracker.coppersurfer.tk%3A6969%2Fannounce&tr=udp%3A%2F%2Ftracker.pirateparty.gr%3A6969%2Fannounce&tr=udp%3A%2F%2Ftracker.cyberia.is%3A6969%2Fannounce",
        "seeder": "283",
        "leecher": "8"
    },
    {
        "rank": "82",
        "title": "The.Boys.S02E03.WEB.x264-PHOENiX[TGx]",
        "link": "magnet:?xt=urn:btih:5D5CCA847D9F49B70109644B4E83F459FB4602E7&dn=The.Boys.S02E03.WEB.x264-PHOENiX%5BTGx%5D&tr=udp%3A%2F%2Ftracker.coppersurfer.tk%3A6969%2Fannounce&tr=udp%3A%2F%2F9.rarbg.to%3A2920%2Fannounce&tr=udp%3A%2F%2Ftracker.opentrackr.org%3A1337&tr=udp%3A%2F%2Ftracker.internetwarriors.net%3A1337%2Fannounce&tr=udp%3A%2F%2Ftracker.leechers-paradise.org%3A6969%2Fannounce&tr=udp%3A%2F%2Ftracker.coppersurfer.tk%3A6969%2Fannounce&tr=udp%3A%2F%2Ftracker.pirateparty.gr%3A6969%2Fannounce&tr=udp%3A%2F%2Ftracker.cyberia.is%3A6969%2Fannounce",
        "seeder": "281",
        "leecher": "6"
    },
    {
        "rank": "83",
        "title": "Young.Sheldon.S04E11.HDTV.x264-PHOENiX[TGx]",
        "link": "magnet:?xt=urn:btih:34953A76686796720FA6E1CE5CE027F5C6EA9BCD&dn=Young.Sheldon.S04E11.HDTV.x264-PHOENiX%5BTGx%5D&tr=udp%3A%2F%2Ftracker.coppersurfer.tk%3A6969%2Fannounce&tr=udp%3A%2F%2F9.rarbg.to%3A2920%2Fannounce&tr=udp%3A%2F%2Ftracker.opentrackr.org%3A1337&tr=udp%3A%2F%2Ftracker.internetwarriors.net%3A1337%2Fannounce&tr=udp%3A%2F%2Ftracker.leechers-paradise.org%3A6969%2Fannounce&tr=udp%3A%2F%2Ftracker.coppersurfer.tk%3A6969%2Fannounce&tr=udp%3A%2F%2Ftracker.pirateparty.gr%3A6969%2Fannounce&tr=udp%3A%2F%2Ftracker.cyberia.is%3A6969%2Fannounce",
        "seeder": "280",
        "leecher": "64"
    },
    {
        "rank": "84",
        "title": "Legacies.S03E07.HDTV.x264-PHOENiX[TGx]",
        "link": "magnet:?xt=urn:btih:5604BB1E5C0AA36E8D22DBB0790FD6D550C97EAC&dn=Legacies.S03E07.HDTV.x264-PHOENiX%5BTGx%5D&tr=udp%3A%2F%2Ftracker.coppersurfer.tk%3A6969%2Fannounce&tr=udp%3A%2F%2F9.rarbg.to%3A2920%2Fannounce&tr=udp%3A%2F%2Ftracker.opentrackr.org%3A1337&tr=udp%3A%2F%2Ftracker.internetwarriors.net%3A1337%2Fannounce&tr=udp%3A%2F%2Ftracker.leechers-paradise.org%3A6969%2Fannounce&tr=udp%3A%2F%2Ftracker.coppersurfer.tk%3A6969%2Fannounce&tr=udp%3A%2F%2Ftracker.pirateparty.gr%3A6969%2Fannounce&tr=udp%3A%2F%2Ftracker.cyberia.is%3A6969%2Fannounce",
        "seeder": "278",
        "leecher": "45"
    },
    {
        "rank": "85",
        "title": "SEAL.Team.S04E09.WEB.x264-PHOENiX[TGx]",
        "link": "magnet:?xt=urn:btih:8E8872E0E5685B96BC63F60D2ABFE8942D54E864&dn=SEAL.Team.S04E09.WEB.x264-PHOENiX%5BTGx%5D&tr=udp%3A%2F%2Ftracker.coppersurfer.tk%3A6969%2Fannounce&tr=udp%3A%2F%2F9.rarbg.to%3A2920%2Fannounce&tr=udp%3A%2F%2Ftracker.opentrackr.org%3A1337&tr=udp%3A%2F%2Ftracker.internetwarriors.net%3A1337%2Fannounce&tr=udp%3A%2F%2Ftracker.leechers-paradise.org%3A6969%2Fannounce&tr=udp%3A%2F%2Ftracker.coppersurfer.tk%3A6969%2Fannounce&tr=udp%3A%2F%2Ftracker.pirateparty.gr%3A6969%2Fannounce&tr=udp%3A%2F%2Ftracker.cyberia.is%3A6969%2Fannounce",
        "seeder": "275",
        "leecher": "33"
    },
    {
        "rank": "86",
        "title": "The.Blacklist.S08E02.HDTV.x264-PHOENiX[TGx]",
        "link": "magnet:?xt=urn:btih:37CE9CC6E4B0C2C6EA582D75B275D6055B36AEA0&dn=The.Blacklist.S08E02.HDTV.x264-PHOENiX%5BTGx%5D&tr=udp%3A%2F%2Ftracker.coppersurfer.tk%3A6969%2Fannounce&tr=udp%3A%2F%2F9.rarbg.to%3A2920%2Fannounce&tr=udp%3A%2F%2Ftracker.opentrackr.org%3A1337&tr=udp%3A%2F%2Ftracker.internetwarriors.net%3A1337%2Fannounce&tr=udp%3A%2F%2Ftracker.leechers-paradise.org%3A6969%2Fannounce&tr=udp%3A%2F%2Ftracker.coppersurfer.tk%3A6969%2Fannounce&tr=udp%3A%2F%2Ftracker.pirateparty.gr%3A6969%2Fannounce&tr=udp%3A%2F%2Ftracker.cyberia.is%3A6969%2Fannounce",
        "seeder": "273",
        "leecher": "21"
    },
    {
        "rank": "87",
        "title": "The.Boys.S02E02.WEB.x264-PHOENiX[TGx]",
        "link": "magnet:?xt=urn:btih:3BEEF42A42BD1B1609E33174455327449538C0F4&dn=The.Boys.S02E02.WEB.x264-PHOENiX%5BTGx%5D&tr=udp%3A%2F%2Ftracker.coppersurfer.tk%3A6969%2Fannounce&tr=udp%3A%2F%2F9.rarbg.to%3A2920%2Fannounce&tr=udp%3A%2F%2Ftracker.opentrackr.org%3A1337&tr=udp%3A%2F%2Ftracker.internetwarriors.net%3A1337%2Fannounce&tr=udp%3A%2F%2Ftracker.leechers-paradise.org%3A6969%2Fannounce&tr=udp%3A%2F%2Ftracker.coppersurfer.tk%3A6969%2Fannounce&tr=udp%3A%2F%2Ftracker.pirateparty.gr%3A6969%2Fannounce&tr=udp%3A%2F%2Ftracker.cyberia.is%3A6969%2Fannounce",
        "seeder": "271",
        "leecher": "8"
    },
    {
        "rank": "88",
        "title": "WandaVision.S01E09.WEB.x264-PHOENiX[TGx]",
        "link": "magnet:?xt=urn:btih:2F41B0F73B374024FF0BEAAD98DC4327CBA5CCF4&dn=WandaVision.S01E09.WEB.x264-PHOENiX%5BTGx%5D&tr=udp%3A%2F%2Ftracker.coppersurfer.tk%3A6969%2Fannounce&tr=udp%3A%2F%2F9.rarbg.to%3A2920%2Fannounce&tr=udp%3A%2F%2Ftracker.opentrackr.org%3A1337&tr=udp%3A%2F%2Ftracker.internetwarriors.net%3A1337%2Fannounce&tr=udp%3A%2F%2Ftracker.leechers-paradise.org%3A6969%2Fannounce&tr=udp%3A%2F%2Ftracker.coppersurfer.tk%3A6969%2Fannounce&tr=udp%3A%2F%2Ftracker.pirateparty.gr%3A6969%2Fannounce&tr=udp%3A%2F%2Ftracker.cyberia.is%3A6969%2Fannounce",
        "seeder": "268",
        "leecher": "21"
    },
    {
        "rank": "89",
        "title": "Debris.S01E03.HDTV.x264-PHOENiX[TGx]",
        "link": "magnet:?xt=urn:btih:FFA3D85D4A6B006AADAC80BE364816632F619B0C&dn=Debris.S01E03.HDTV.x264-PHOENiX%5BTGx%5D&tr=udp%3A%2F%2Ftracker.coppersurfer.tk%3A6969%2Fannounce&tr=udp%3A%2F%2F9.rarbg.to%3A2920%2Fannounce&tr=udp%3A%2F%2Ftracker.opentrackr.org%3A1337&tr=udp%3A%2F%2Ftracker.internetwarriors.net%3A1337%2Fannounce&tr=udp%3A%2F%2Ftracker.leechers-paradise.org%3A6969%2Fannounce&tr=udp%3A%2F%2Ftracker.coppersurfer.tk%3A6969%2Fannounce&tr=udp%3A%2F%2Ftracker.pirateparty.gr%3A6969%2Fannounce&tr=udp%3A%2F%2Ftracker.cyberia.is%3A6969%2Fannounce",
        "seeder": "265",
        "leecher": "9"
    },
    {
        "rank": "90",
        "title": "All.American.S03E08.HDTV.x264-PHOENiX[TGx]",
        "link": "magnet:?xt=urn:btih:D1E54B21377E912183776978941AD7C91D7EFCA3&dn=All.American.S03E08.HDTV.x264-PHOENiX%5BTGx%5D&tr=udp%3A%2F%2Ftracker.coppersurfer.tk%3A6969%2Fannounce&tr=udp%3A%2F%2F9.rarbg.to%3A2920%2Fannounce&tr=udp%3A%2F%2Ftracker.opentrackr.org%3A1337&tr=udp%3A%2F%2Ftracker.internetwarriors.net%3A1337%2Fannounce&tr=udp%3A%2F%2Ftracker.leechers-paradise.org%3A6969%2Fannounce&tr=udp%3A%2F%2Ftracker.coppersurfer.tk%3A6969%2Fannounce&tr=udp%3A%2F%2Ftracker.pirateparty.gr%3A6969%2Fannounce&tr=udp%3A%2F%2Ftracker.cyberia.is%3A6969%2Fannounce",
        "seeder": "257",
        "leecher": "27"
    },
    {
        "rank": "91",
        "title": "The.Good.Doctor.S04E11.HDTV.x264-PHOENiX[TGx]",
        "link": "magnet:?xt=urn:btih:D6AE356C4E6ADB6538BA1012318077758CFEDC97&dn=The.Good.Doctor.S04E11.HDTV.x264-PHOENiX%5BTGx%5D&tr=udp%3A%2F%2Ftracker.coppersurfer.tk%3A6969%2Fannounce&tr=udp%3A%2F%2F9.rarbg.to%3A2920%2Fannounce&tr=udp%3A%2F%2Ftracker.opentrackr.org%3A1337&tr=udp%3A%2F%2Ftracker.internetwarriors.net%3A1337%2Fannounce&tr=udp%3A%2F%2Ftracker.leechers-paradise.org%3A6969%2Fannounce&tr=udp%3A%2F%2Ftracker.coppersurfer.tk%3A6969%2Fannounce&tr=udp%3A%2F%2Ftracker.pirateparty.gr%3A6969%2Fannounce&tr=udp%3A%2F%2Ftracker.cyberia.is%3A6969%2Fannounce",
        "seeder": "255",
        "leecher": "63"
    },
    {
        "rank": "92",
        "title": "Chicago.PD.S08E09.HDTV.x264-PHOENiX[TGx]",
        "link": "magnet:?xt=urn:btih:5937B52EFE7321AC37A3C7E7AFB2700E7B6240C9&dn=Chicago.PD.S08E09.HDTV.x264-PHOENiX%5BTGx%5D&tr=udp%3A%2F%2Ftracker.coppersurfer.tk%3A6969%2Fannounce&tr=udp%3A%2F%2F9.rarbg.to%3A2920%2Fannounce&tr=udp%3A%2F%2Ftracker.opentrackr.org%3A1337&tr=udp%3A%2F%2Ftracker.internetwarriors.net%3A1337%2Fannounce&tr=udp%3A%2F%2Ftracker.leechers-paradise.org%3A6969%2Fannounce&tr=udp%3A%2F%2Ftracker.coppersurfer.tk%3A6969%2Fannounce&tr=udp%3A%2F%2Ftracker.pirateparty.gr%3A6969%2Fannounce&tr=udp%3A%2F%2Ftracker.cyberia.is%3A6969%2Fannounce",
        "seeder": "253",
        "leecher": "31"
    },
    {
        "rank": "93",
        "title": "UFC.259.540p.HDTV.H264.Fight-BB",
        "link": "magnet:?xt=urn:btih:56C65A379DB9046660166C5BB5D983BB2C99F14A&dn=UFC.259.540p.HDTV.H264.Fight-BB&tr=udp%3A%2F%2Ftracker.coppersurfer.tk%3A6969%2Fannounce&tr=udp%3A%2F%2F9.rarbg.to%3A2920%2Fannounce&tr=udp%3A%2F%2Ftracker.opentrackr.org%3A1337&tr=udp%3A%2F%2Ftracker.internetwarriors.net%3A1337%2Fannounce&tr=udp%3A%2F%2Ftracker.leechers-paradise.org%3A6969%2Fannounce&tr=udp%3A%2F%2Ftracker.coppersurfer.tk%3A6969%2Fannounce&tr=udp%3A%2F%2Ftracker.pirateparty.gr%3A6969%2Fannounce&tr=udp%3A%2F%2Ftracker.cyberia.is%3A6969%2Fannounce",
        "seeder": "253",
        "leecher": "1"
    },
    {
        "rank": "94",
        "title": "Station.19.S04E07.HDTV.x264-PHOENiX[TGx]",
        "link": "magnet:?xt=urn:btih:2DCDDCD22D158501190E6CEA2CE90C289891F6ED&dn=Station.19.S04E07.HDTV.x264-PHOENiX%5BTGx%5D&tr=udp%3A%2F%2Ftracker.coppersurfer.tk%3A6969%2Fannounce&tr=udp%3A%2F%2F9.rarbg.to%3A2920%2Fannounce&tr=udp%3A%2F%2Ftracker.opentrackr.org%3A1337&tr=udp%3A%2F%2Ftracker.internetwarriors.net%3A1337%2Fannounce&tr=udp%3A%2F%2Ftracker.leechers-paradise.org%3A6969%2Fannounce&tr=udp%3A%2F%2Ftracker.coppersurfer.tk%3A6969%2Fannounce&tr=udp%3A%2F%2Ftracker.pirateparty.gr%3A6969%2Fannounce&tr=udp%3A%2F%2Ftracker.cyberia.is%3A6969%2Fannounce",
        "seeder": "249",
        "leecher": "35"
    },
    {
        "rank": "95",
        "title": "All.American.S03E07.HDTV.x264-PHOENiX[TGx]",
        "link": "magnet:?xt=urn:btih:37BF91E01ECE4DAF250877F8E00F8502356D2AB4&dn=All.American.S03E07.HDTV.x264-PHOENiX%5BTGx%5D&tr=udp%3A%2F%2Ftracker.coppersurfer.tk%3A6969%2Fannounce&tr=udp%3A%2F%2F9.rarbg.to%3A2920%2Fannounce&tr=udp%3A%2F%2Ftracker.opentrackr.org%3A1337&tr=udp%3A%2F%2Ftracker.internetwarriors.net%3A1337%2Fannounce&tr=udp%3A%2F%2Ftracker.leechers-paradise.org%3A6969%2Fannounce&tr=udp%3A%2F%2Ftracker.coppersurfer.tk%3A6969%2Fannounce&tr=udp%3A%2F%2Ftracker.pirateparty.gr%3A6969%2Fannounce&tr=udp%3A%2F%2Ftracker.cyberia.is%3A6969%2Fannounce",
        "seeder": "246",
        "leecher": "23"
    },
    {
        "rank": "96",
        "title": "The.Equalizer.2021.S01E04.HDTV.x264-PHOENiX[TGx]",
        "link": "magnet:?xt=urn:btih:915FB3272DF5D55CAEB944E4C737921BC25889C6&dn=The.Equalizer.2021.S01E04.HDTV.x264-PHOENiX%5BTGx%5D&tr=udp%3A%2F%2Ftracker.coppersurfer.tk%3A6969%2Fannounce&tr=udp%3A%2F%2F9.rarbg.to%3A2920%2Fannounce&tr=udp%3A%2F%2Ftracker.opentrackr.org%3A1337&tr=udp%3A%2F%2Ftracker.internetwarriors.net%3A1337%2Fannounce&tr=udp%3A%2F%2Ftracker.leechers-paradise.org%3A6969%2Fannounce&tr=udp%3A%2F%2Ftracker.coppersurfer.tk%3A6969%2Fannounce&tr=udp%3A%2F%2Ftracker.pirateparty.gr%3A6969%2Fannounce&tr=udp%3A%2F%2Ftracker.cyberia.is%3A6969%2Fannounce",
        "seeder": "246",
        "leecher": "13"
    },
    {
        "rank": "97",
        "title": "The.Walking.Dead.S10E18.WEB.x264-PHOENiX[TGx]",
        "link": "magnet:?xt=urn:btih:4FE00E44321334305C7D1286F8DC9EF949B4371F&dn=The.Walking.Dead.S10E18.WEB.x264-PHOENiX%5BTGx%5D&tr=udp%3A%2F%2Ftracker.coppersurfer.tk%3A6969%2Fannounce&tr=udp%3A%2F%2F9.rarbg.to%3A2920%2Fannounce&tr=udp%3A%2F%2Ftracker.opentrackr.org%3A1337&tr=udp%3A%2F%2Ftracker.internetwarriors.net%3A1337%2Fannounce&tr=udp%3A%2F%2Ftracker.leechers-paradise.org%3A6969%2Fannounce&tr=udp%3A%2F%2Ftracker.coppersurfer.tk%3A6969%2Fannounce&tr=udp%3A%2F%2Ftracker.pirateparty.gr%3A6969%2Fannounce&tr=udp%3A%2F%2Ftracker.cyberia.is%3A6969%2Fannounce",
        "seeder": "244",
        "leecher": "50"
    },
    {
        "rank": "98",
        "title": "The.Equalizer.2021.S01E01.HDTV.x264-PHOENiX[TGx]",
        "link": "magnet:?xt=urn:btih:D7D6900B53F7C95310652FE7C42D8EF19C21B60B&dn=The.Equalizer.2021.S01E01.HDTV.x264-PHOENiX%5BTGx%5D&tr=udp%3A%2F%2Ftracker.coppersurfer.tk%3A6969%2Fannounce&tr=udp%3A%2F%2F9.rarbg.to%3A2920%2Fannounce&tr=udp%3A%2F%2Ftracker.opentrackr.org%3A1337&tr=udp%3A%2F%2Ftracker.internetwarriors.net%3A1337%2Fannounce&tr=udp%3A%2F%2Ftracker.leechers-paradise.org%3A6969%2Fannounce&tr=udp%3A%2F%2Ftracker.coppersurfer.tk%3A6969%2Fannounce&tr=udp%3A%2F%2Ftracker.pirateparty.gr%3A6969%2Fannounce&tr=udp%3A%2F%2Ftracker.cyberia.is%3A6969%2Fannounce",
        "seeder": "242",
        "leecher": "18"
    },
    {
        "rank": "99",
        "title": "The.Equalizer.2021.S01E02.HDTV.x264-PHOENiX[TGx]",
        "link": "magnet:?xt=urn:btih:3D866FDD6ED504C82F3DDAB086F453C8ABA44DAC&dn=The.Equalizer.2021.S01E02.HDTV.x264-PHOENiX%5BTGx%5D&tr=udp%3A%2F%2Ftracker.coppersurfer.tk%3A6969%2Fannounce&tr=udp%3A%2F%2F9.rarbg.to%3A2920%2Fannounce&tr=udp%3A%2F%2Ftracker.opentrackr.org%3A1337&tr=udp%3A%2F%2Ftracker.internetwarriors.net%3A1337%2Fannounce&tr=udp%3A%2F%2Ftracker.leechers-paradise.org%3A6969%2Fannounce&tr=udp%3A%2F%2Ftracker.coppersurfer.tk%3A6969%2Fannounce&tr=udp%3A%2F%2Ftracker.pirateparty.gr%3A6969%2Fannounce&tr=udp%3A%2F%2Ftracker.cyberia.is%3A6969%2Fannounce",
        "seeder": "241",
        "leecher": "11"
    },
    {
        "rank": "100",
        "title": "Invincible 2021 S01E01 XviD-AFG",
        "link": "magnet:?xt=urn:btih:1964D9534519A76571D071F2444EB54B886EE908&dn=Invincible+2021+S01E01+XviD-AFG&tr=udp%3A%2F%2Ftracker.coppersurfer.tk%3A6969%2Fannounce&tr=udp%3A%2F%2F9.rarbg.to%3A2920%2Fannounce&tr=udp%3A%2F%2Ftracker.opentrackr.org%3A1337&tr=udp%3A%2F%2Ftracker.internetwarriors.net%3A1337%2Fannounce&tr=udp%3A%2F%2Ftracker.leechers-paradise.org%3A6969%2Fannounce&tr=udp%3A%2F%2Ftracker.coppersurfer.tk%3A6969%2Fannounce&tr=udp%3A%2F%2Ftracker.pirateparty.gr%3A6969%2Fannounce&tr=udp%3A%2F%2Ftracker.cyberia.is%3A6969%2Fannounce",
        "seeder": "239",
        "leecher": "101"
    }
]
