[
    {
        "rank": "1",
        "title": "Pulsions 3 [Marc Dorcel 2021] XXX WEB-DL mp4",
        "link": "magnet:?xt=urn:btih:4A93332FD48585EB2FDE01E3F46B867EA3885B49&dn=Pulsions+3+%5BMarc+Dorcel+2021%5D+XXX+WEB-DL+mp4&tr=udp%3A%2F%2Ftracker.coppersurfer.tk%3A6969%2Fannounce&tr=udp%3A%2F%2F9.rarbg.to%3A2920%2Fannounce&tr=udp%3A%2F%2Ftracker.opentrackr.org%3A1337&tr=udp%3A%2F%2Ftracker.internetwarriors.net%3A1337%2Fannounce&tr=udp%3A%2F%2Ftracker.leechers-paradise.org%3A6969%2Fannounce&tr=udp%3A%2F%2Ftracker.coppersurfer.tk%3A6969%2Fannounce&tr=udp%3A%2F%2Ftracker.pirateparty.gr%3A6969%2Fannounce&tr=udp%3A%2F%2Ftracker.cyberia.is%3A6969%2Fannounce",
        "seeder": "1039",
        "leecher": "206"
    },
    {
        "rank": "2",
        "title": "Backdoor Beauties 8 [Babes 2021] XXX WEB-DL Split Scenes",
        "link": "magnet:?xt=urn:btih:9AB9A432AFEB926E49E4CB0397A2A9B75FE6C88D&dn=Backdoor+Beauties+8+%5BBabes+2021%5D+XXX+WEB-DL+Split+Scenes&tr=udp%3A%2F%2Ftracker.coppersurfer.tk%3A6969%2Fannounce&tr=udp%3A%2F%2F9.rarbg.to%3A2920%2Fannounce&tr=udp%3A%2F%2Ftracker.opentrackr.org%3A1337&tr=udp%3A%2F%2Ftracker.internetwarriors.net%3A1337%2Fannounce&tr=udp%3A%2F%2Ftracker.leechers-paradise.org%3A6969%2Fannounce&tr=udp%3A%2F%2Ftracker.coppersurfer.tk%3A6969%2Fannounce&tr=udp%3A%2F%2Ftracker.pirateparty.gr%3A6969%2Fannounce&tr=udp%3A%2F%2Ftracker.cyberia.is%3A6969%2Fannounce",
        "seeder": "695",
        "leecher": "350"
    },
    {
        "rank": "3",
        "title": "LegalPorno - Hot morning anal with beautiful latina Veronica Lea",
        "link": "magnet:?xt=urn:btih:18CD4773ABEA3F4119DDF72D9C8B124CCE68CB78&dn=LegalPorno+-+Hot+morning+anal+with+beautiful+latina+Veronica+Lea&tr=udp%3A%2F%2Ftracker.coppersurfer.tk%3A6969%2Fannounce&tr=udp%3A%2F%2F9.rarbg.to%3A2920%2Fannounce&tr=udp%3A%2F%2Ftracker.opentrackr.org%3A1337&tr=udp%3A%2F%2Ftracker.internetwarriors.net%3A1337%2Fannounce&tr=udp%3A%2F%2Ftracker.leechers-paradise.org%3A6969%2Fannounce&tr=udp%3A%2F%2Ftracker.coppersurfer.tk%3A6969%2Fannounce&tr=udp%3A%2F%2Ftracker.pirateparty.gr%3A6969%2Fannounce&tr=udp%3A%2F%2Ftracker.cyberia.is%3A6969%2Fannounce",
        "seeder": "662",
        "leecher": "118"
    },
    {
        "rank": "4",
        "title": "MomSwap 21 03 29 Karen Fisher And Syren De Mer Swapping Needy B",
        "link": "magnet:?xt=urn:btih:AC76848B91EB4A3915179B25FDDD3BB6D6FCBF35&dn=MomSwap+21+03+29+Karen+Fisher+And+Syren+De+Mer+Swapping+Needy+B&tr=udp%3A%2F%2Ftracker.coppersurfer.tk%3A6969%2Fannounce&tr=udp%3A%2F%2F9.rarbg.to%3A2920%2Fannounce&tr=udp%3A%2F%2Ftracker.opentrackr.org%3A1337&tr=udp%3A%2F%2Ftracker.internetwarriors.net%3A1337%2Fannounce&tr=udp%3A%2F%2Ftracker.leechers-paradise.org%3A6969%2Fannounce&tr=udp%3A%2F%2Ftracker.coppersurfer.tk%3A6969%2Fannounce&tr=udp%3A%2F%2Ftracker.pirateparty.gr%3A6969%2Fannounce&tr=udp%3A%2F%2Ftracker.cyberia.is%3A6969%2Fannounce",
        "seeder": "592",
        "leecher": "61"
    },
    {
        "rank": "5",
        "title": "LegalPorno - Veronica Leal enjoys hardcore DP with 4 huge cocks",
        "link": "magnet:?xt=urn:btih:6CA524037775B2D5C853F1AD56D8936A42BC4795&dn=LegalPorno+-+Veronica+Leal+enjoys+hardcore+DP+with+4+huge+cocks&tr=udp%3A%2F%2Ftracker.coppersurfer.tk%3A6969%2Fannounce&tr=udp%3A%2F%2F9.rarbg.to%3A2920%2Fannounce&tr=udp%3A%2F%2Ftracker.opentrackr.org%3A1337&tr=udp%3A%2F%2Ftracker.internetwarriors.net%3A1337%2Fannounce&tr=udp%3A%2F%2Ftracker.leechers-paradise.org%3A6969%2Fannounce&tr=udp%3A%2F%2Ftracker.coppersurfer.tk%3A6969%2Fannounce&tr=udp%3A%2F%2Ftracker.pirateparty.gr%3A6969%2Fannounce&tr=udp%3A%2F%2Ftracker.cyberia.is%3A6969%2Fannounce",
        "seeder": "566",
        "leecher": "119"
    },
    {
        "rank": "6",
        "title": "LegalPorno - Adelle Sabelle First Piss scene, 3on1 DP rough face",
        "link": "magnet:?xt=urn:btih:A2154F508EA7B5E21163556DDF82E2342C288B90&dn=LegalPorno+-+Adelle+Sabelle+First+Piss+scene%2C+3on1+DP+rough+face&tr=udp%3A%2F%2Ftracker.coppersurfer.tk%3A6969%2Fannounce&tr=udp%3A%2F%2F9.rarbg.to%3A2920%2Fannounce&tr=udp%3A%2F%2Ftracker.opentrackr.org%3A1337&tr=udp%3A%2F%2Ftracker.internetwarriors.net%3A1337%2Fannounce&tr=udp%3A%2F%2Ftracker.leechers-paradise.org%3A6969%2Fannounce&tr=udp%3A%2F%2Ftracker.coppersurfer.tk%3A6969%2Fannounce&tr=udp%3A%2F%2Ftracker.pirateparty.gr%3A6969%2Fannounce&tr=udp%3A%2F%2Ftracker.cyberia.is%3A6969%2Fannounce",
        "seeder": "542",
        "leecher": "102"
    },
    {
        "rank": "7",
        "title": "DadCrush 21 03 27 Kali Roses Stepdaughter Knows How To Bargain",
        "link": "magnet:?xt=urn:btih:234C458E7CCD03F1DD0DCB8AF996F4B543CEA915&dn=DadCrush+21+03+27+Kali+Roses+Stepdaughter+Knows+How+To+Bargain&tr=udp%3A%2F%2Ftracker.coppersurfer.tk%3A6969%2Fannounce&tr=udp%3A%2F%2F9.rarbg.to%3A2920%2Fannounce&tr=udp%3A%2F%2Ftracker.opentrackr.org%3A1337&tr=udp%3A%2F%2Ftracker.internetwarriors.net%3A1337%2Fannounce&tr=udp%3A%2F%2Ftracker.leechers-paradise.org%3A6969%2Fannounce&tr=udp%3A%2F%2Ftracker.coppersurfer.tk%3A6969%2Fannounce&tr=udp%3A%2F%2Ftracker.pirateparty.gr%3A6969%2Fannounce&tr=udp%3A%2F%2Ftracker.cyberia.is%3A6969%2Fannounce",
        "seeder": "534",
        "leecher": "53"
    },
    {
        "rank": "8",
        "title": "[ExploitedCollegeGirls] Jade Diamond - 18 year old (01.04.2021)",
        "link": "magnet:?xt=urn:btih:FF60F23C9C9F3672FEF2A33B29248E958A339F4A&dn=%5BExploitedCollegeGirls%5D+Jade+Diamond+-+18+year+old+%2801.04.2021%29&tr=udp%3A%2F%2Ftracker.coppersurfer.tk%3A6969%2Fannounce&tr=udp%3A%2F%2F9.rarbg.to%3A2920%2Fannounce&tr=udp%3A%2F%2Ftracker.opentrackr.org%3A1337&tr=udp%3A%2F%2Ftracker.internetwarriors.net%3A1337%2Fannounce&tr=udp%3A%2F%2Ftracker.leechers-paradise.org%3A6969%2Fannounce&tr=udp%3A%2F%2Ftracker.coppersurfer.tk%3A6969%2Fannounce&tr=udp%3A%2F%2Ftracker.pirateparty.gr%3A6969%2Fannounce&tr=udp%3A%2F%2Ftracker.cyberia.is%3A6969%2Fannounce",
        "seeder": "532",
        "leecher": "80"
    },
    {
        "rank": "9",
        "title": "JulesJordan - Angela White, Gabbie Carter - Battle For Big Breas",
        "link": "magnet:?xt=urn:btih:0C9BF776A375A02A3CAE72C1AF9D79A6472036B9&dn=JulesJordan+-+Angela+White%2C+Gabbie+Carter+-+Battle+For+Big+Breas&tr=udp%3A%2F%2Ftracker.coppersurfer.tk%3A6969%2Fannounce&tr=udp%3A%2F%2F9.rarbg.to%3A2920%2Fannounce&tr=udp%3A%2F%2Ftracker.opentrackr.org%3A1337&tr=udp%3A%2F%2Ftracker.internetwarriors.net%3A1337%2Fannounce&tr=udp%3A%2F%2Ftracker.leechers-paradise.org%3A6969%2Fannounce&tr=udp%3A%2F%2Ftracker.coppersurfer.tk%3A6969%2Fannounce&tr=udp%3A%2F%2Ftracker.pirateparty.gr%3A6969%2Fannounce&tr=udp%3A%2F%2Ftracker.cyberia.is%3A6969%2Fannounce",
        "seeder": "529",
        "leecher": "269"
    },
    {
        "rank": "10",
        "title": "Tushy 21 03 14 Little Caprice  480p mp4",
        "link": "magnet:?xt=urn:btih:5167AC74AE2BC1DC8217D9D9F650397D03565CF0&dn=Tushy+21+03+14+Little+Caprice++480p+mp4&tr=udp%3A%2F%2Ftracker.coppersurfer.tk%3A6969%2Fannounce&tr=udp%3A%2F%2F9.rarbg.to%3A2920%2Fannounce&tr=udp%3A%2F%2Ftracker.opentrackr.org%3A1337&tr=udp%3A%2F%2Ftracker.internetwarriors.net%3A1337%2Fannounce&tr=udp%3A%2F%2Ftracker.leechers-paradise.org%3A6969%2Fannounce&tr=udp%3A%2F%2Ftracker.coppersurfer.tk%3A6969%2Fannounce&tr=udp%3A%2F%2Ftracker.pirateparty.gr%3A6969%2Fannounce&tr=udp%3A%2F%2Ftracker.cyberia.is%3A6969%2Fannounce",
        "seeder": "523",
        "leecher": "58"
    },
    {
        "rank": "11",
        "title": "Natural.Beauties.14.XXX.DVDRiP.X264-LOVEXXX",
        "link": "magnet:?xt=urn:btih:7D3D24683EC4AB4958A8A1F61A7AD19B6DD7134C&dn=Natural.Beauties.14.XXX.DVDRiP.X264-LOVEXXX&tr=udp%3A%2F%2Ftracker.coppersurfer.tk%3A6969%2Fannounce&tr=udp%3A%2F%2F9.rarbg.to%3A2920%2Fannounce&tr=udp%3A%2F%2Ftracker.opentrackr.org%3A1337&tr=udp%3A%2F%2Ftracker.internetwarriors.net%3A1337%2Fannounce&tr=udp%3A%2F%2Ftracker.leechers-paradise.org%3A6969%2Fannounce&tr=udp%3A%2F%2Ftracker.coppersurfer.tk%3A6969%2Fannounce&tr=udp%3A%2F%2Ftracker.pirateparty.gr%3A6969%2Fannounce&tr=udp%3A%2F%2Ftracker.cyberia.is%3A6969%2Fannounce",
        "seeder": "520",
        "leecher": "196"
    },
    {
        "rank": "12",
        "title": "LegalPorno - Drunk on Pee Anna de Ville and Laura Fiorentino hav",
        "link": "magnet:?xt=urn:btih:FB1EE9DF337317B38FD3F5A78176F61E676D7367&dn=LegalPorno+-+Drunk+on+Pee+Anna+de+Ville+and+Laura+Fiorentino+hav&tr=udp%3A%2F%2Ftracker.coppersurfer.tk%3A6969%2Fannounce&tr=udp%3A%2F%2F9.rarbg.to%3A2920%2Fannounce&tr=udp%3A%2F%2Ftracker.opentrackr.org%3A1337&tr=udp%3A%2F%2Ftracker.internetwarriors.net%3A1337%2Fannounce&tr=udp%3A%2F%2Ftracker.leechers-paradise.org%3A6969%2Fannounce&tr=udp%3A%2F%2Ftracker.coppersurfer.tk%3A6969%2Fannounce&tr=udp%3A%2F%2Ftracker.pirateparty.gr%3A6969%2Fannounce&tr=udp%3A%2F%2Ftracker.cyberia.is%3A6969%2Fannounce",
        "seeder": "471",
        "leecher": "148"
    },
    {
        "rank": "13",
        "title": "FamilyStrokes 21 04 01 Jane Rogers And Jessica Ryan  480p mp4",
        "link": "magnet:?xt=urn:btih:45A6C858C41CA735E1A430BA1B05ABFE2AC14592&dn=FamilyStrokes+21+04+01+Jane+Rogers+And+Jessica+Ryan++480p+mp4&tr=udp%3A%2F%2Ftracker.coppersurfer.tk%3A6969%2Fannounce&tr=udp%3A%2F%2F9.rarbg.to%3A2920%2Fannounce&tr=udp%3A%2F%2Ftracker.opentrackr.org%3A1337&tr=udp%3A%2F%2Ftracker.internetwarriors.net%3A1337%2Fannounce&tr=udp%3A%2F%2Ftracker.leechers-paradise.org%3A6969%2Fannounce&tr=udp%3A%2F%2Ftracker.coppersurfer.tk%3A6969%2Fannounce&tr=udp%3A%2F%2Ftracker.pirateparty.gr%3A6969%2Fannounce&tr=udp%3A%2F%2Ftracker.cyberia.is%3A6969%2Fannounce",
        "seeder": "471",
        "leecher": "154"
    },
    {
        "rank": "14",
        "title": "ExxxtraSmall 21 04 01 Lana Roy Tiny Prankster Gets What She Des",
        "link": "magnet:?xt=urn:btih:083D164F63EC128AA536E7010F799F3ACEC83DDC&dn=ExxxtraSmall+21+04+01+Lana+Roy+Tiny+Prankster+Gets+What+She+Des&tr=udp%3A%2F%2Ftracker.coppersurfer.tk%3A6969%2Fannounce&tr=udp%3A%2F%2F9.rarbg.to%3A2920%2Fannounce&tr=udp%3A%2F%2Ftracker.opentrackr.org%3A1337&tr=udp%3A%2F%2Ftracker.internetwarriors.net%3A1337%2Fannounce&tr=udp%3A%2F%2Ftracker.leechers-paradise.org%3A6969%2Fannounce&tr=udp%3A%2F%2Ftracker.coppersurfer.tk%3A6969%2Fannounce&tr=udp%3A%2F%2Ftracker.pirateparty.gr%3A6969%2Fannounce&tr=udp%3A%2F%2Ftracker.cyberia.is%3A6969%2Fannounce",
        "seeder": "457",
        "leecher": "104"
    },
    {
        "rank": "15",
        "title": "BangBus 21 03 31 Honey Hayes  480p mp4",
        "link": "magnet:?xt=urn:btih:57BF95582E8A976D0DF973E9D4F8131C71020BE9&dn=BangBus+21+03+31+Honey+Hayes++480p+mp4&tr=udp%3A%2F%2Ftracker.coppersurfer.tk%3A6969%2Fannounce&tr=udp%3A%2F%2F9.rarbg.to%3A2920%2Fannounce&tr=udp%3A%2F%2Ftracker.opentrackr.org%3A1337&tr=udp%3A%2F%2Ftracker.internetwarriors.net%3A1337%2Fannounce&tr=udp%3A%2F%2Ftracker.leechers-paradise.org%3A6969%2Fannounce&tr=udp%3A%2F%2Ftracker.coppersurfer.tk%3A6969%2Fannounce&tr=udp%3A%2F%2Ftracker.pirateparty.gr%3A6969%2Fannounce&tr=udp%3A%2F%2Ftracker.cyberia.is%3A6969%2Fannounce",
        "seeder": "451",
        "leecher": "56"
    },
    {
        "rank": "16",
        "title": "Naughty Office Vol. 75 [Naughty America 2021] XXX WEB-DL Split S",
        "link": "magnet:?xt=urn:btih:40442BABC3B5B04D37D8F51BE6DA67AB272DC2C5&dn=Naughty+Office+Vol.+75+%5BNaughty+America+2021%5D+XXX+WEB-DL+Split+S&tr=udp%3A%2F%2Ftracker.coppersurfer.tk%3A6969%2Fannounce&tr=udp%3A%2F%2F9.rarbg.to%3A2920%2Fannounce&tr=udp%3A%2F%2Ftracker.opentrackr.org%3A1337&tr=udp%3A%2F%2Ftracker.internetwarriors.net%3A1337%2Fannounce&tr=udp%3A%2F%2Ftracker.leechers-paradise.org%3A6969%2Fannounce&tr=udp%3A%2F%2Ftracker.coppersurfer.tk%3A6969%2Fannounce&tr=udp%3A%2F%2Ftracker.pirateparty.gr%3A6969%2Fannounce&tr=udp%3A%2F%2Ftracker.cyberia.is%3A6969%2Fannounce",
        "seeder": "447",
        "leecher": "155"
    },
    {
        "rank": "17",
        "title": "LegalPorno - Cris Bathory's first triple penetration with DP, DA",
        "link": "magnet:?xt=urn:btih:827E554D0E07533898C88DE77B6AD8B69BC6C00D&dn=LegalPorno+-+Cris+Bathory%27s+first+triple+penetration+with+DP%2C+DA&tr=udp%3A%2F%2Ftracker.coppersurfer.tk%3A6969%2Fannounce&tr=udp%3A%2F%2F9.rarbg.to%3A2920%2Fannounce&tr=udp%3A%2F%2Ftracker.opentrackr.org%3A1337&tr=udp%3A%2F%2Ftracker.internetwarriors.net%3A1337%2Fannounce&tr=udp%3A%2F%2Ftracker.leechers-paradise.org%3A6969%2Fannounce&tr=udp%3A%2F%2Ftracker.coppersurfer.tk%3A6969%2Fannounce&tr=udp%3A%2F%2Ftracker.pirateparty.gr%3A6969%2Fannounce&tr=udp%3A%2F%2Ftracker.cyberia.is%3A6969%2Fannounce",
        "seeder": "440",
        "leecher": "93"
    },
    {
        "rank": "18",
        "title": "PervMom 21 03 28 Canela Skin Make Me Scream Like Her  480p mp4",
        "link": "magnet:?xt=urn:btih:DC3E1EE4EDD1874D605F3B74CB2315CD536806EC&dn=PervMom+21+03+28+Canela+Skin+Make+Me+Scream+Like+Her++480p+mp4&tr=udp%3A%2F%2Ftracker.coppersurfer.tk%3A6969%2Fannounce&tr=udp%3A%2F%2F9.rarbg.to%3A2920%2Fannounce&tr=udp%3A%2F%2Ftracker.opentrackr.org%3A1337&tr=udp%3A%2F%2Ftracker.internetwarriors.net%3A1337%2Fannounce&tr=udp%3A%2F%2Ftracker.leechers-paradise.org%3A6969%2Fannounce&tr=udp%3A%2F%2Ftracker.coppersurfer.tk%3A6969%2Fannounce&tr=udp%3A%2F%2Ftracker.pirateparty.gr%3A6969%2Fannounce&tr=udp%3A%2F%2Ftracker.cyberia.is%3A6969%2Fannounce",
        "seeder": "402",
        "leecher": "38"
    },
    {
        "rank": "19",
        "title": "RKPrime 21 03 30 Kendra Sunderland No Rest For Cheats  480p mp4",
        "link": "magnet:?xt=urn:btih:2BDFC1D6B7EC4D58E65F9F0E617EEFD8F5216D69&dn=RKPrime+21+03+30+Kendra+Sunderland+No+Rest+For+Cheats++480p+mp4&tr=udp%3A%2F%2Ftracker.coppersurfer.tk%3A6969%2Fannounce&tr=udp%3A%2F%2F9.rarbg.to%3A2920%2Fannounce&tr=udp%3A%2F%2Ftracker.opentrackr.org%3A1337&tr=udp%3A%2F%2Ftracker.internetwarriors.net%3A1337%2Fannounce&tr=udp%3A%2F%2Ftracker.leechers-paradise.org%3A6969%2Fannounce&tr=udp%3A%2F%2Ftracker.coppersurfer.tk%3A6969%2Fannounce&tr=udp%3A%2F%2Ftracker.pirateparty.gr%3A6969%2Fannounce&tr=udp%3A%2F%2Ftracker.cyberia.is%3A6969%2Fannounce",
        "seeder": "387",
        "leecher": "47"
    },
    {
        "rank": "20",
        "title": "BackroomCastingCouch 21 03 15 Sammi Anal  480p mp4",
        "link": "magnet:?xt=urn:btih:63D5D8C062B8EF4BEBBD25A31D974CC5D66B3774&dn=BackroomCastingCouch+21+03+15+Sammi+Anal++480p+mp4&tr=udp%3A%2F%2Ftracker.coppersurfer.tk%3A6969%2Fannounce&tr=udp%3A%2F%2F9.rarbg.to%3A2920%2Fannounce&tr=udp%3A%2F%2Ftracker.opentrackr.org%3A1337&tr=udp%3A%2F%2Ftracker.internetwarriors.net%3A1337%2Fannounce&tr=udp%3A%2F%2Ftracker.leechers-paradise.org%3A6969%2Fannounce&tr=udp%3A%2F%2Ftracker.coppersurfer.tk%3A6969%2Fannounce&tr=udp%3A%2F%2Ftracker.pirateparty.gr%3A6969%2Fannounce&tr=udp%3A%2F%2Ftracker.cyberia.is%3A6969%2Fannounce",
        "seeder": "382",
        "leecher": "68"
    },
    {
        "rank": "21",
        "title": "FreeUseFantasy 21 03 31 Sabrina Snow And Nikki Sweet  480p mp4",
        "link": "magnet:?xt=urn:btih:83ED3E3A1B367E51836B46061379B032F825D49B&dn=FreeUseFantasy+21+03+31+Sabrina+Snow+And+Nikki+Sweet++480p+mp4&tr=udp%3A%2F%2Ftracker.coppersurfer.tk%3A6969%2Fannounce&tr=udp%3A%2F%2F9.rarbg.to%3A2920%2Fannounce&tr=udp%3A%2F%2Ftracker.opentrackr.org%3A1337&tr=udp%3A%2F%2Ftracker.internetwarriors.net%3A1337%2Fannounce&tr=udp%3A%2F%2Ftracker.leechers-paradise.org%3A6969%2Fannounce&tr=udp%3A%2F%2Ftracker.coppersurfer.tk%3A6969%2Fannounce&tr=udp%3A%2F%2Ftracker.pirateparty.gr%3A6969%2Fannounce&tr=udp%3A%2F%2Ftracker.cyberia.is%3A6969%2Fannounce",
        "seeder": "358",
        "leecher": "54"
    },
    {
        "rank": "22",
        "title": "MyPervyFamily 21 03 26 Misty Quinn Busty Stepsister Seduction",
        "link": "magnet:?xt=urn:btih:A343AA2C2B812D16E1CBF057C7CE73900A2A1F1F&dn=MyPervyFamily+21+03+26+Misty+Quinn+Busty+Stepsister+Seduction&tr=udp%3A%2F%2Ftracker.coppersurfer.tk%3A6969%2Fannounce&tr=udp%3A%2F%2F9.rarbg.to%3A2920%2Fannounce&tr=udp%3A%2F%2Ftracker.opentrackr.org%3A1337&tr=udp%3A%2F%2Ftracker.internetwarriors.net%3A1337%2Fannounce&tr=udp%3A%2F%2Ftracker.leechers-paradise.org%3A6969%2Fannounce&tr=udp%3A%2F%2Ftracker.coppersurfer.tk%3A6969%2Fannounce&tr=udp%3A%2F%2Ftracker.pirateparty.gr%3A6969%2Fannounce&tr=udp%3A%2F%2Ftracker.cyberia.is%3A6969%2Fannounce",
        "seeder": "333",
        "leecher": "28"
    },
    {
        "rank": "23",
        "title": "LA.Sluts.01.XXX.DVDRiP.X264-LOVEXXX",
        "link": "magnet:?xt=urn:btih:5A6A639DD85AC963623A5D69961E0614742B35CF&dn=LA.Sluts.01.XXX.DVDRiP.X264-LOVEXXX&tr=udp%3A%2F%2Ftracker.coppersurfer.tk%3A6969%2Fannounce&tr=udp%3A%2F%2F9.rarbg.to%3A2920%2Fannounce&tr=udp%3A%2F%2Ftracker.opentrackr.org%3A1337&tr=udp%3A%2F%2Ftracker.internetwarriors.net%3A1337%2Fannounce&tr=udp%3A%2F%2Ftracker.leechers-paradise.org%3A6969%2Fannounce&tr=udp%3A%2F%2Ftracker.coppersurfer.tk%3A6969%2Fannounce&tr=udp%3A%2F%2Ftracker.pirateparty.gr%3A6969%2Fannounce&tr=udp%3A%2F%2Ftracker.cyberia.is%3A6969%2Fannounce",
        "seeder": "330",
        "leecher": "105"
    },
    {
        "rank": "24",
        "title": "LegalPorno - Francesca Palma Dominated by 3 BBC, Balls Deep Anal",
        "link": "magnet:?xt=urn:btih:40FA05C6C76263F63741F05ED5CD293C177D0427&dn=LegalPorno+-+Francesca+Palma+Dominated+by+3+BBC%2C+Balls+Deep+Anal&tr=udp%3A%2F%2Ftracker.coppersurfer.tk%3A6969%2Fannounce&tr=udp%3A%2F%2F9.rarbg.to%3A2920%2Fannounce&tr=udp%3A%2F%2Ftracker.opentrackr.org%3A1337&tr=udp%3A%2F%2Ftracker.internetwarriors.net%3A1337%2Fannounce&tr=udp%3A%2F%2Ftracker.leechers-paradise.org%3A6969%2Fannounce&tr=udp%3A%2F%2Ftracker.coppersurfer.tk%3A6969%2Fannounce&tr=udp%3A%2F%2Ftracker.pirateparty.gr%3A6969%2Fannounce&tr=udp%3A%2F%2Ftracker.cyberia.is%3A6969%2Fannounce",
        "seeder": "328",
        "leecher": "113"
    },
    {
        "rank": "25",
        "title": "Continuous Massive Semen Bukkake Chiharu",
        "link": "magnet:?xt=urn:btih:8538333C9C42EC0BEA9B4E8CA3AB44F7A5EB18A3&dn=Continuous+Massive+Semen+Bukkake+Chiharu&tr=udp%3A%2F%2Ftracker.coppersurfer.tk%3A6969%2Fannounce&tr=udp%3A%2F%2F9.rarbg.to%3A2920%2Fannounce&tr=udp%3A%2F%2Ftracker.opentrackr.org%3A1337&tr=udp%3A%2F%2Ftracker.internetwarriors.net%3A1337%2Fannounce&tr=udp%3A%2F%2Ftracker.leechers-paradise.org%3A6969%2Fannounce&tr=udp%3A%2F%2Ftracker.coppersurfer.tk%3A6969%2Fannounce&tr=udp%3A%2F%2Ftracker.pirateparty.gr%3A6969%2Fannounce&tr=udp%3A%2F%2Ftracker.cyberia.is%3A6969%2Fannounce",
        "seeder": "328",
        "leecher": "179"
    },
    {
        "rank": "26",
        "title": "A Hotwife Blindfolded 5 [New Sensations 2021] XXX WEB-DL Split S",
        "link": "magnet:?xt=urn:btih:4D461B98477C76FC4E2EF1F411CE2E839DF4F659&dn=A+Hotwife+Blindfolded+5+%5BNew+Sensations+2021%5D+XXX+WEB-DL+Split+S&tr=udp%3A%2F%2Ftracker.coppersurfer.tk%3A6969%2Fannounce&tr=udp%3A%2F%2F9.rarbg.to%3A2920%2Fannounce&tr=udp%3A%2F%2Ftracker.opentrackr.org%3A1337&tr=udp%3A%2F%2Ftracker.internetwarriors.net%3A1337%2Fannounce&tr=udp%3A%2F%2Ftracker.leechers-paradise.org%3A6969%2Fannounce&tr=udp%3A%2F%2Ftracker.coppersurfer.tk%3A6969%2Fannounce&tr=udp%3A%2F%2Ftracker.pirateparty.gr%3A6969%2Fannounce&tr=udp%3A%2F%2Ftracker.cyberia.is%3A6969%2Fannounce",
        "seeder": "316",
        "leecher": "106"
    },
    {
        "rank": "27",
        "title": "MomDrips 21 03 26 Mckenzie Lee Great Misunderstanding  480p mp4",
        "link": "magnet:?xt=urn:btih:5B8F6632CA5CBA647C68F6C0C2C7B83E0F5C522C&dn=MomDrips+21+03+26+Mckenzie+Lee+Great+Misunderstanding++480p+mp4&tr=udp%3A%2F%2Ftracker.coppersurfer.tk%3A6969%2Fannounce&tr=udp%3A%2F%2F9.rarbg.to%3A2920%2Fannounce&tr=udp%3A%2F%2Ftracker.opentrackr.org%3A1337&tr=udp%3A%2F%2Ftracker.internetwarriors.net%3A1337%2Fannounce&tr=udp%3A%2F%2Ftracker.leechers-paradise.org%3A6969%2Fannounce&tr=udp%3A%2F%2Ftracker.coppersurfer.tk%3A6969%2Fannounce&tr=udp%3A%2F%2Ftracker.pirateparty.gr%3A6969%2Fannounce&tr=udp%3A%2F%2Ftracker.cyberia.is%3A6969%2Fannounce",
        "seeder": "314",
        "leecher": "32"
    },
    {
        "rank": "28",
        "title": "BlackedRaw - Nala Brooks - Come Here Daddy",
        "link": "magnet:?xt=urn:btih:2C6E25DA6922E2C9269378498DA9F33CF6016BF1&dn=BlackedRaw+-+Nala+Brooks+-+Come+Here+Daddy&tr=udp%3A%2F%2Ftracker.coppersurfer.tk%3A6969%2Fannounce&tr=udp%3A%2F%2F9.rarbg.to%3A2920%2Fannounce&tr=udp%3A%2F%2Ftracker.opentrackr.org%3A1337&tr=udp%3A%2F%2Ftracker.internetwarriors.net%3A1337%2Fannounce&tr=udp%3A%2F%2Ftracker.leechers-paradise.org%3A6969%2Fannounce&tr=udp%3A%2F%2Ftracker.coppersurfer.tk%3A6969%2Fannounce&tr=udp%3A%2F%2Ftracker.pirateparty.gr%3A6969%2Fannounce&tr=udp%3A%2F%2Ftracker.cyberia.is%3A6969%2Fannounce",
        "seeder": "309",
        "leecher": "142"
    },
    {
        "rank": "29",
        "title": "RKPrime 21 03 23 Kayla Kayden Unexpected Package  480p mp4",
        "link": "magnet:?xt=urn:btih:B5DBB8966391202EA64E742EAE6A2A5A8856104D&dn=RKPrime+21+03+23+Kayla+Kayden+Unexpected+Package++480p+mp4&tr=udp%3A%2F%2Ftracker.coppersurfer.tk%3A6969%2Fannounce&tr=udp%3A%2F%2F9.rarbg.to%3A2920%2Fannounce&tr=udp%3A%2F%2Ftracker.opentrackr.org%3A1337&tr=udp%3A%2F%2Ftracker.internetwarriors.net%3A1337%2Fannounce&tr=udp%3A%2F%2Ftracker.leechers-paradise.org%3A6969%2Fannounce&tr=udp%3A%2F%2Ftracker.coppersurfer.tk%3A6969%2Fannounce&tr=udp%3A%2F%2Ftracker.pirateparty.gr%3A6969%2Fannounce&tr=udp%3A%2F%2Ftracker.cyberia.is%3A6969%2Fannounce",
        "seeder": "309",
        "leecher": "30"
    },
    {
        "rank": "30",
        "title": "Ebony.Power.Agent.2.XXX.DVDRiP.X264-LOVEXXX",
        "link": "magnet:?xt=urn:btih:C33338CE5BCB2DEB36535E05147C12350C797064&dn=Ebony.Power.Agent.2.XXX.DVDRiP.X264-LOVEXXX&tr=udp%3A%2F%2Ftracker.coppersurfer.tk%3A6969%2Fannounce&tr=udp%3A%2F%2F9.rarbg.to%3A2920%2Fannounce&tr=udp%3A%2F%2Ftracker.opentrackr.org%3A1337&tr=udp%3A%2F%2Ftracker.internetwarriors.net%3A1337%2Fannounce&tr=udp%3A%2F%2Ftracker.leechers-paradise.org%3A6969%2Fannounce&tr=udp%3A%2F%2Ftracker.coppersurfer.tk%3A6969%2Fannounce&tr=udp%3A%2F%2Ftracker.pirateparty.gr%3A6969%2Fannounce&tr=udp%3A%2F%2Ftracker.cyberia.is%3A6969%2Fannounce",
        "seeder": "302",
        "leecher": "98"
    },
    {
        "rank": "31",
        "title": "SexMex 21 04 01 Angie Miller Photographers Fantasy  480p mp4",
        "link": "magnet:?xt=urn:btih:DBB496147C06AC635046C8B44672A251B3CBD775&dn=SexMex+21+04+01+Angie+Miller+Photographers+Fantasy++480p+mp4&tr=udp%3A%2F%2Ftracker.coppersurfer.tk%3A6969%2Fannounce&tr=udp%3A%2F%2F9.rarbg.to%3A2920%2Fannounce&tr=udp%3A%2F%2Ftracker.opentrackr.org%3A1337&tr=udp%3A%2F%2Ftracker.internetwarriors.net%3A1337%2Fannounce&tr=udp%3A%2F%2Ftracker.leechers-paradise.org%3A6969%2Fannounce&tr=udp%3A%2F%2Ftracker.coppersurfer.tk%3A6969%2Fannounce&tr=udp%3A%2F%2Ftracker.pirateparty.gr%3A6969%2Fannounce&tr=udp%3A%2F%2Ftracker.cyberia.is%3A6969%2Fannounce",
        "seeder": "302",
        "leecher": "70"
    },
    {
        "rank": "32",
        "title": "BrattySis 21 03 26 Hime Marie And Kylie Rocket My Step Sisters",
        "link": "magnet:?xt=urn:btih:5DFF3764885DD6856B5F535A901C6934DAF5A02F&dn=BrattySis+21+03+26+Hime+Marie+And+Kylie+Rocket+My+Step+Sisters&tr=udp%3A%2F%2Ftracker.coppersurfer.tk%3A6969%2Fannounce&tr=udp%3A%2F%2F9.rarbg.to%3A2920%2Fannounce&tr=udp%3A%2F%2Ftracker.opentrackr.org%3A1337&tr=udp%3A%2F%2Ftracker.internetwarriors.net%3A1337%2Fannounce&tr=udp%3A%2F%2Ftracker.leechers-paradise.org%3A6969%2Fannounce&tr=udp%3A%2F%2Ftracker.coppersurfer.tk%3A6969%2Fannounce&tr=udp%3A%2F%2Ftracker.pirateparty.gr%3A6969%2Fannounce&tr=udp%3A%2F%2Ftracker.cyberia.is%3A6969%2Fannounce",
        "seeder": "302",
        "leecher": "24"
    },
    {
        "rank": "33",
        "title": "MyWifesHotFriend 21 03 31 Madi Laine  480p mp4",
        "link": "magnet:?xt=urn:btih:9A62686E5FB3409D8A60A59D11EBFF8484EBFFA5&dn=MyWifesHotFriend+21+03+31+Madi+Laine++480p+mp4&tr=udp%3A%2F%2Ftracker.coppersurfer.tk%3A6969%2Fannounce&tr=udp%3A%2F%2F9.rarbg.to%3A2920%2Fannounce&tr=udp%3A%2F%2Ftracker.opentrackr.org%3A1337&tr=udp%3A%2F%2Ftracker.internetwarriors.net%3A1337%2Fannounce&tr=udp%3A%2F%2Ftracker.leechers-paradise.org%3A6969%2Fannounce&tr=udp%3A%2F%2Ftracker.coppersurfer.tk%3A6969%2Fannounce&tr=udp%3A%2F%2Ftracker.pirateparty.gr%3A6969%2Fannounce&tr=udp%3A%2F%2Ftracker.cyberia.is%3A6969%2Fannounce",
        "seeder": "301",
        "leecher": "78"
    },
    {
        "rank": "34",
        "title": "MommysBoy 21 03 31 Chloe Cherry And Sheena Ryder Family Interve",
        "link": "magnet:?xt=urn:btih:E9DFB4E32C3E2780D8AB5BD2FF07C1044F2E1602&dn=MommysBoy+21+03+31+Chloe+Cherry+And+Sheena+Ryder+Family+Interve&tr=udp%3A%2F%2Ftracker.coppersurfer.tk%3A6969%2Fannounce&tr=udp%3A%2F%2F9.rarbg.to%3A2920%2Fannounce&tr=udp%3A%2F%2Ftracker.opentrackr.org%3A1337&tr=udp%3A%2F%2Ftracker.internetwarriors.net%3A1337%2Fannounce&tr=udp%3A%2F%2Ftracker.leechers-paradise.org%3A6969%2Fannounce&tr=udp%3A%2F%2Ftracker.coppersurfer.tk%3A6969%2Fannounce&tr=udp%3A%2F%2Ftracker.pirateparty.gr%3A6969%2Fannounce&tr=udp%3A%2F%2Ftracker.cyberia.is%3A6969%2Fannounce",
        "seeder": "300",
        "leecher": "41"
    },
    {
        "rank": "35",
        "title": "BlackedRaw 21 03 15 Venera Maxima  480p mp4",
        "link": "magnet:?xt=urn:btih:890C3437529B678E2DFF8A7A86A3006FF2D7B85D&dn=BlackedRaw+21+03+15+Venera+Maxima++480p+mp4&tr=udp%3A%2F%2Ftracker.coppersurfer.tk%3A6969%2Fannounce&tr=udp%3A%2F%2F9.rarbg.to%3A2920%2Fannounce&tr=udp%3A%2F%2Ftracker.opentrackr.org%3A1337&tr=udp%3A%2F%2Ftracker.internetwarriors.net%3A1337%2Fannounce&tr=udp%3A%2F%2Ftracker.leechers-paradise.org%3A6969%2Fannounce&tr=udp%3A%2F%2Ftracker.coppersurfer.tk%3A6969%2Fannounce&tr=udp%3A%2F%2Ftracker.pirateparty.gr%3A6969%2Fannounce&tr=udp%3A%2F%2Ftracker.cyberia.is%3A6969%2Fannounce",
        "seeder": "298",
        "leecher": "98"
    },
    {
        "rank": "36",
        "title": "My Friends Hot Girl Vol. 34 [Naughty America 2021] XXX WEB-DL Sp",
        "link": "magnet:?xt=urn:btih:7BC4F82C069C5F8DC5AF33F6E8AD963BCFAD6E6F&dn=My+Friends+Hot+Girl+Vol.+34+%5BNaughty+America+2021%5D+XXX+WEB-DL+Sp&tr=udp%3A%2F%2Ftracker.coppersurfer.tk%3A6969%2Fannounce&tr=udp%3A%2F%2F9.rarbg.to%3A2920%2Fannounce&tr=udp%3A%2F%2Ftracker.opentrackr.org%3A1337&tr=udp%3A%2F%2Ftracker.internetwarriors.net%3A1337%2Fannounce&tr=udp%3A%2F%2Ftracker.leechers-paradise.org%3A6969%2Fannounce&tr=udp%3A%2F%2Ftracker.coppersurfer.tk%3A6969%2Fannounce&tr=udp%3A%2F%2Ftracker.pirateparty.gr%3A6969%2Fannounce&tr=udp%3A%2F%2Ftracker.cyberia.is%3A6969%2Fannounce",
        "seeder": "288",
        "leecher": "86"
    },
    {
        "rank": "37",
        "title": "WoodmanCastingX - Elena Lux - Casting X",
        "link": "magnet:?xt=urn:btih:36CC0C093C6901E9D77A17DFA99D6A2D64BB1C8D&dn=WoodmanCastingX+-+Elena+Lux+-+Casting+X&tr=udp%3A%2F%2Ftracker.coppersurfer.tk%3A6969%2Fannounce&tr=udp%3A%2F%2F9.rarbg.to%3A2920%2Fannounce&tr=udp%3A%2F%2Ftracker.opentrackr.org%3A1337&tr=udp%3A%2F%2Ftracker.internetwarriors.net%3A1337%2Fannounce&tr=udp%3A%2F%2Ftracker.leechers-paradise.org%3A6969%2Fannounce&tr=udp%3A%2F%2Ftracker.coppersurfer.tk%3A6969%2Fannounce&tr=udp%3A%2F%2Ftracker.pirateparty.gr%3A6969%2Fannounce&tr=udp%3A%2F%2Ftracker.cyberia.is%3A6969%2Fannounce",
        "seeder": "284",
        "leecher": "19"
    },
    {
        "rank": "38",
        "title": "Watch Your Wife [Naughty America 2021] XXX WEB-DL Split Scenes",
        "link": "magnet:?xt=urn:btih:AB648FA30ACFE47A1FBC404A76E9F57AFD9D9B5A&dn=Watch+Your+Wife+%5BNaughty+America+2021%5D+XXX+WEB-DL+Split+Scenes&tr=udp%3A%2F%2Ftracker.coppersurfer.tk%3A6969%2Fannounce&tr=udp%3A%2F%2F9.rarbg.to%3A2920%2Fannounce&tr=udp%3A%2F%2Ftracker.opentrackr.org%3A1337&tr=udp%3A%2F%2Ftracker.internetwarriors.net%3A1337%2Fannounce&tr=udp%3A%2F%2Ftracker.leechers-paradise.org%3A6969%2Fannounce&tr=udp%3A%2F%2Ftracker.coppersurfer.tk%3A6969%2Fannounce&tr=udp%3A%2F%2Ftracker.pirateparty.gr%3A6969%2Fannounce&tr=udp%3A%2F%2Ftracker.cyberia.is%3A6969%2Fannounce",
        "seeder": "273",
        "leecher": "98"
    },
    {
        "rank": "39",
        "title": "The.Most.Beautiful.Girls.In.Porn.4.DiSC1.XXX.DVDRip.x264-ROXXX",
        "link": "magnet:?xt=urn:btih:7937EC24786F8FF53B177CD6394C826BF3CF3C4F&dn=The.Most.Beautiful.Girls.In.Porn.4.DiSC1.XXX.DVDRip.x264-ROXXX&tr=udp%3A%2F%2Ftracker.coppersurfer.tk%3A6969%2Fannounce&tr=udp%3A%2F%2F9.rarbg.to%3A2920%2Fannounce&tr=udp%3A%2F%2Ftracker.opentrackr.org%3A1337&tr=udp%3A%2F%2Ftracker.internetwarriors.net%3A1337%2Fannounce&tr=udp%3A%2F%2Ftracker.leechers-paradise.org%3A6969%2Fannounce&tr=udp%3A%2F%2Ftracker.coppersurfer.tk%3A6969%2Fannounce&tr=udp%3A%2F%2Ftracker.pirateparty.gr%3A6969%2Fannounce&tr=udp%3A%2F%2Ftracker.cyberia.is%3A6969%2Fannounce",
        "seeder": "271",
        "leecher": "24"
    },
    {
        "rank": "40",
        "title": "BrazzersExxtra 21 04 01 Agatha Vega Vegas Not Vegan She Eats Co",
        "link": "magnet:?xt=urn:btih:6D8E6BDC66E855C8DB27528762E3C20B23CB08F7&dn=BrazzersExxtra+21+04+01+Agatha+Vega+Vegas+Not+Vegan+She+Eats+Co&tr=udp%3A%2F%2Ftracker.coppersurfer.tk%3A6969%2Fannounce&tr=udp%3A%2F%2F9.rarbg.to%3A2920%2Fannounce&tr=udp%3A%2F%2Ftracker.opentrackr.org%3A1337&tr=udp%3A%2F%2Ftracker.internetwarriors.net%3A1337%2Fannounce&tr=udp%3A%2F%2Ftracker.leechers-paradise.org%3A6969%2Fannounce&tr=udp%3A%2F%2Ftracker.coppersurfer.tk%3A6969%2Fannounce&tr=udp%3A%2F%2Ftracker.pirateparty.gr%3A6969%2Fannounce&tr=udp%3A%2F%2Ftracker.cyberia.is%3A6969%2Fannounce",
        "seeder": "270",
        "leecher": "64"
    },
    {
        "rank": "41",
        "title": "LegalPorno - Alyssa Reece Vs 3 BBC with balls deep DAP",
        "link": "magnet:?xt=urn:btih:47AFFC4142A21C0AE4584F2E33FCADAB25F3B376&dn=LegalPorno+-+Alyssa+Reece+Vs+3+BBC+with+balls+deep+DAP&tr=udp%3A%2F%2Ftracker.coppersurfer.tk%3A6969%2Fannounce&tr=udp%3A%2F%2F9.rarbg.to%3A2920%2Fannounce&tr=udp%3A%2F%2Ftracker.opentrackr.org%3A1337&tr=udp%3A%2F%2Ftracker.internetwarriors.net%3A1337%2Fannounce&tr=udp%3A%2F%2Ftracker.leechers-paradise.org%3A6969%2Fannounce&tr=udp%3A%2F%2Ftracker.coppersurfer.tk%3A6969%2Fannounce&tr=udp%3A%2F%2Ftracker.pirateparty.gr%3A6969%2Fannounce&tr=udp%3A%2F%2Ftracker.cyberia.is%3A6969%2Fannounce",
        "seeder": "267",
        "leecher": "71"
    },
    {
        "rank": "42",
        "title": "BrazzersExxtra 21 03 21 Gabbie Carter Featherfall  480p mp4",
        "link": "magnet:?xt=urn:btih:32F1B5D1673D2E709C9FAB5623B3177530635FB5&dn=BrazzersExxtra+21+03+21+Gabbie+Carter+Featherfall++480p+mp4&tr=udp%3A%2F%2Ftracker.coppersurfer.tk%3A6969%2Fannounce&tr=udp%3A%2F%2F9.rarbg.to%3A2920%2Fannounce&tr=udp%3A%2F%2Ftracker.opentrackr.org%3A1337&tr=udp%3A%2F%2Ftracker.internetwarriors.net%3A1337%2Fannounce&tr=udp%3A%2F%2Ftracker.leechers-paradise.org%3A6969%2Fannounce&tr=udp%3A%2F%2Ftracker.coppersurfer.tk%3A6969%2Fannounce&tr=udp%3A%2F%2Ftracker.pirateparty.gr%3A6969%2Fannounce&tr=udp%3A%2F%2Ftracker.cyberia.is%3A6969%2Fannounce",
        "seeder": "253",
        "leecher": "25"
    },
    {
        "rank": "43",
        "title": "NubileFilms 21 04 01 Vina Sky April 2021 Fantasy Of The Month",
        "link": "magnet:?xt=urn:btih:2FE2BED3E62BC15AEEB42BB9315F54BB656B7D90&dn=NubileFilms+21+04+01+Vina+Sky+April+2021+Fantasy+Of+The+Month&tr=udp%3A%2F%2Ftracker.coppersurfer.tk%3A6969%2Fannounce&tr=udp%3A%2F%2F9.rarbg.to%3A2920%2Fannounce&tr=udp%3A%2F%2Ftracker.opentrackr.org%3A1337&tr=udp%3A%2F%2Ftracker.internetwarriors.net%3A1337%2Fannounce&tr=udp%3A%2F%2Ftracker.leechers-paradise.org%3A6969%2Fannounce&tr=udp%3A%2F%2Ftracker.coppersurfer.tk%3A6969%2Fannounce&tr=udp%3A%2F%2Ftracker.pirateparty.gr%3A6969%2Fannounce&tr=udp%3A%2F%2Ftracker.cyberia.is%3A6969%2Fannounce",
        "seeder": "252",
        "leecher": "50"
    },
    {
        "rank": "44",
        "title": "FakeHostel 21 04 01 Sofia Lee And Myss Alessandra  480p mp4",
        "link": "magnet:?xt=urn:btih:05B40F7225889D0473223BDF32DCA5CEA47F99FF&dn=FakeHostel+21+04+01+Sofia+Lee+And+Myss+Alessandra++480p+mp4&tr=udp%3A%2F%2Ftracker.coppersurfer.tk%3A6969%2Fannounce&tr=udp%3A%2F%2F9.rarbg.to%3A2920%2Fannounce&tr=udp%3A%2F%2Ftracker.opentrackr.org%3A1337&tr=udp%3A%2F%2Ftracker.internetwarriors.net%3A1337%2Fannounce&tr=udp%3A%2F%2Ftracker.leechers-paradise.org%3A6969%2Fannounce&tr=udp%3A%2F%2Ftracker.coppersurfer.tk%3A6969%2Fannounce&tr=udp%3A%2F%2Ftracker.pirateparty.gr%3A6969%2Fannounce&tr=udp%3A%2F%2Ftracker.cyberia.is%3A6969%2Fannounce",
        "seeder": "242",
        "leecher": "50"
    },
    {
        "rank": "45",
        "title": "BrazzersExxtra 21 04 01 Alina Ali Dick Slap Piggyback  480p mp4",
        "link": "magnet:?xt=urn:btih:2042C31B9AF5A750D983095BD9A79E6C72D9757A&dn=BrazzersExxtra+21+04+01+Alina+Ali+Dick+Slap+Piggyback++480p+mp4&tr=udp%3A%2F%2Ftracker.coppersurfer.tk%3A6969%2Fannounce&tr=udp%3A%2F%2F9.rarbg.to%3A2920%2Fannounce&tr=udp%3A%2F%2Ftracker.opentrackr.org%3A1337&tr=udp%3A%2F%2Ftracker.internetwarriors.net%3A1337%2Fannounce&tr=udp%3A%2F%2Ftracker.leechers-paradise.org%3A6969%2Fannounce&tr=udp%3A%2F%2Ftracker.coppersurfer.tk%3A6969%2Fannounce&tr=udp%3A%2F%2Ftracker.pirateparty.gr%3A6969%2Fannounce&tr=udp%3A%2F%2Ftracker.cyberia.is%3A6969%2Fannounce",
        "seeder": "241",
        "leecher": "61"
    },
    {
        "rank": "46",
        "title": "Let.Me.Watch.2.XXX.DVDRip.x264-STARLETS",
        "link": "magnet:?xt=urn:btih:6817AF49D4A2C5BBC48ECE7371CD584DD6CDE1E0&dn=Let.Me.Watch.2.XXX.DVDRip.x264-STARLETS&tr=udp%3A%2F%2Ftracker.coppersurfer.tk%3A6969%2Fannounce&tr=udp%3A%2F%2F9.rarbg.to%3A2920%2Fannounce&tr=udp%3A%2F%2Ftracker.opentrackr.org%3A1337&tr=udp%3A%2F%2Ftracker.internetwarriors.net%3A1337%2Fannounce&tr=udp%3A%2F%2Ftracker.leechers-paradise.org%3A6969%2Fannounce&tr=udp%3A%2F%2Ftracker.coppersurfer.tk%3A6969%2Fannounce&tr=udp%3A%2F%2Ftracker.pirateparty.gr%3A6969%2Fannounce&tr=udp%3A%2F%2Ftracker.cyberia.is%3A6969%2Fannounce",
        "seeder": "240",
        "leecher": "85"
    },
    {
        "rank": "47",
        "title": "[BlackedRaw] Nala Brooks - Come Here Daddy (29.03.2021)",
        "link": "magnet:?xt=urn:btih:75EACE9CA719288B52B64D4D05A349BAA09542B2&dn=%5BBlackedRaw%5D+Nala+Brooks+-+Come+Here+Daddy+%2829.03.2021%29&tr=udp%3A%2F%2Ftracker.coppersurfer.tk%3A6969%2Fannounce&tr=udp%3A%2F%2F9.rarbg.to%3A2920%2Fannounce&tr=udp%3A%2F%2Ftracker.opentrackr.org%3A1337&tr=udp%3A%2F%2Ftracker.internetwarriors.net%3A1337%2Fannounce&tr=udp%3A%2F%2Ftracker.leechers-paradise.org%3A6969%2Fannounce&tr=udp%3A%2F%2Ftracker.coppersurfer.tk%3A6969%2Fannounce&tr=udp%3A%2F%2Ftracker.pirateparty.gr%3A6969%2Fannounce&tr=udp%3A%2F%2Ftracker.cyberia.is%3A6969%2Fannounce",
        "seeder": "238",
        "leecher": "36"
    },
    {
        "rank": "48",
        "title": "TeensLoveBlackCocks 21 03 30 Chloe Temple My Dads Huge College",
        "link": "magnet:?xt=urn:btih:20F72EC0C5F4E72E318C39F5FC04F30416E3CBD6&dn=TeensLoveBlackCocks+21+03+30+Chloe+Temple+My+Dads+Huge+College&tr=udp%3A%2F%2Ftracker.coppersurfer.tk%3A6969%2Fannounce&tr=udp%3A%2F%2F9.rarbg.to%3A2920%2Fannounce&tr=udp%3A%2F%2Ftracker.opentrackr.org%3A1337&tr=udp%3A%2F%2Ftracker.internetwarriors.net%3A1337%2Fannounce&tr=udp%3A%2F%2Ftracker.leechers-paradise.org%3A6969%2Fannounce&tr=udp%3A%2F%2Ftracker.coppersurfer.tk%3A6969%2Fannounce&tr=udp%3A%2F%2Ftracker.pirateparty.gr%3A6969%2Fannounce&tr=udp%3A%2F%2Ftracker.cyberia.is%3A6969%2Fannounce",
        "seeder": "237",
        "leecher": "34"
    },
    {
        "rank": "49",
        "title": "Mom Bush 2 [MYLF 2021] XXX WEB-DL Split Scenes",
        "link": "magnet:?xt=urn:btih:20DE64A132A3F33F33DFDEEC15475963E0016F72&dn=Mom+Bush+2+%5BMYLF+2021%5D+XXX+WEB-DL+Split+Scenes&tr=udp%3A%2F%2Ftracker.coppersurfer.tk%3A6969%2Fannounce&tr=udp%3A%2F%2F9.rarbg.to%3A2920%2Fannounce&tr=udp%3A%2F%2Ftracker.opentrackr.org%3A1337&tr=udp%3A%2F%2Ftracker.internetwarriors.net%3A1337%2Fannounce&tr=udp%3A%2F%2Ftracker.leechers-paradise.org%3A6969%2Fannounce&tr=udp%3A%2F%2Ftracker.coppersurfer.tk%3A6969%2Fannounce&tr=udp%3A%2F%2Ftracker.pirateparty.gr%3A6969%2Fannounce&tr=udp%3A%2F%2Ftracker.cyberia.is%3A6969%2Fannounce",
        "seeder": "235",
        "leecher": "52"
    },
    {
        "rank": "50",
        "title": "Shoplyfter 21 03 17 Percy Sires And Blake Blossom Busty Blonde",
        "link": "magnet:?xt=urn:btih:D3886F7FAFE76BC9AD40703DBB65EB843F70B07F&dn=Shoplyfter+21+03+17+Percy+Sires+And+Blake+Blossom+Busty+Blonde&tr=udp%3A%2F%2Ftracker.coppersurfer.tk%3A6969%2Fannounce&tr=udp%3A%2F%2F9.rarbg.to%3A2920%2Fannounce&tr=udp%3A%2F%2Ftracker.opentrackr.org%3A1337&tr=udp%3A%2F%2Ftracker.internetwarriors.net%3A1337%2Fannounce&tr=udp%3A%2F%2Ftracker.leechers-paradise.org%3A6969%2Fannounce&tr=udp%3A%2F%2Ftracker.coppersurfer.tk%3A6969%2Fannounce&tr=udp%3A%2F%2Ftracker.pirateparty.gr%3A6969%2Fannounce&tr=udp%3A%2F%2Ftracker.cyberia.is%3A6969%2Fannounce",
        "seeder": "234",
        "leecher": "11"
    },
    {
        "rank": "51",
        "title": "SisLovesMe 21 03 26 Maya Wolfe Help Me Stepsis  480p mp4",
        "link": "magnet:?xt=urn:btih:6F6B08FF54DCE84128D71854E7C0EB52B3A52151&dn=SisLovesMe+21+03+26+Maya+Wolfe+Help+Me+Stepsis++480p+mp4&tr=udp%3A%2F%2Ftracker.coppersurfer.tk%3A6969%2Fannounce&tr=udp%3A%2F%2F9.rarbg.to%3A2920%2Fannounce&tr=udp%3A%2F%2Ftracker.opentrackr.org%3A1337&tr=udp%3A%2F%2Ftracker.internetwarriors.net%3A1337%2Fannounce&tr=udp%3A%2F%2Ftracker.leechers-paradise.org%3A6969%2Fannounce&tr=udp%3A%2F%2Ftracker.coppersurfer.tk%3A6969%2Fannounce&tr=udp%3A%2F%2Ftracker.pirateparty.gr%3A6969%2Fannounce&tr=udp%3A%2F%2Ftracker.cyberia.is%3A6969%2Fannounce",
        "seeder": "232",
        "leecher": "27"
    },
    {
        "rank": "52",
        "title": "TeenFidelity E459 Stacy Cruz  480p mp4",
        "link": "magnet:?xt=urn:btih:11A199A0C521D7999E26FBE4A99AE81CAF940468&dn=TeenFidelity+E459+Stacy+Cruz++480p+mp4&tr=udp%3A%2F%2Ftracker.coppersurfer.tk%3A6969%2Fannounce&tr=udp%3A%2F%2F9.rarbg.to%3A2920%2Fannounce&tr=udp%3A%2F%2Ftracker.opentrackr.org%3A1337&tr=udp%3A%2F%2Ftracker.internetwarriors.net%3A1337%2Fannounce&tr=udp%3A%2F%2Ftracker.leechers-paradise.org%3A6969%2Fannounce&tr=udp%3A%2F%2Ftracker.coppersurfer.tk%3A6969%2Fannounce&tr=udp%3A%2F%2Ftracker.pirateparty.gr%3A6969%2Fannounce&tr=udp%3A%2F%2Ftracker.cyberia.is%3A6969%2Fannounce",
        "seeder": "232",
        "leecher": "20"
    },
    {
        "rank": "53",
        "title": "Shoplyfter 21 03 31 Harley Haze Catching A Dognapper  480p mp4",
        "link": "magnet:?xt=urn:btih:867375533F7BD4060EE1077F96788FD0E1B4EAA7&dn=Shoplyfter+21+03+31+Harley+Haze+Catching+A+Dognapper++480p+mp4&tr=udp%3A%2F%2Ftracker.coppersurfer.tk%3A6969%2Fannounce&tr=udp%3A%2F%2F9.rarbg.to%3A2920%2Fannounce&tr=udp%3A%2F%2Ftracker.opentrackr.org%3A1337&tr=udp%3A%2F%2Ftracker.internetwarriors.net%3A1337%2Fannounce&tr=udp%3A%2F%2Ftracker.leechers-paradise.org%3A6969%2Fannounce&tr=udp%3A%2F%2Ftracker.coppersurfer.tk%3A6969%2Fannounce&tr=udp%3A%2F%2Ftracker.pirateparty.gr%3A6969%2Fannounce&tr=udp%3A%2F%2Ftracker.cyberia.is%3A6969%2Fannounce",
        "seeder": "230",
        "leecher": "34"
    },
    {
        "rank": "54",
        "title": "Shoplyfter 21 03 24 Charly Summer The Obvious Thief  480p mp4",
        "link": "magnet:?xt=urn:btih:C8C7E0E4B7FEE65FC8A841A24C004804864F05BD&dn=Shoplyfter+21+03+24+Charly+Summer+The+Obvious+Thief++480p+mp4&tr=udp%3A%2F%2Ftracker.coppersurfer.tk%3A6969%2Fannounce&tr=udp%3A%2F%2F9.rarbg.to%3A2920%2Fannounce&tr=udp%3A%2F%2Ftracker.opentrackr.org%3A1337&tr=udp%3A%2F%2Ftracker.internetwarriors.net%3A1337%2Fannounce&tr=udp%3A%2F%2Ftracker.leechers-paradise.org%3A6969%2Fannounce&tr=udp%3A%2F%2Ftracker.coppersurfer.tk%3A6969%2Fannounce&tr=udp%3A%2F%2Ftracker.pirateparty.gr%3A6969%2Fannounce&tr=udp%3A%2F%2Ftracker.cyberia.is%3A6969%2Fannounce",
        "seeder": "227",
        "leecher": "22"
    },
    {
        "rank": "55",
        "title": "StepSiblingsCaught 21 04 01 Lulu Chu April 2021 Flavor Of The M",
        "link": "magnet:?xt=urn:btih:51CF93B3C2D93547E0C3119F05B5101970D3E1E0&dn=StepSiblingsCaught+21+04+01+Lulu+Chu+April+2021+Flavor+Of+The+M&tr=udp%3A%2F%2Ftracker.coppersurfer.tk%3A6969%2Fannounce&tr=udp%3A%2F%2F9.rarbg.to%3A2920%2Fannounce&tr=udp%3A%2F%2Ftracker.opentrackr.org%3A1337&tr=udp%3A%2F%2Ftracker.internetwarriors.net%3A1337%2Fannounce&tr=udp%3A%2F%2Ftracker.leechers-paradise.org%3A6969%2Fannounce&tr=udp%3A%2F%2Ftracker.coppersurfer.tk%3A6969%2Fannounce&tr=udp%3A%2F%2Ftracker.pirateparty.gr%3A6969%2Fannounce&tr=udp%3A%2F%2Ftracker.cyberia.is%3A6969%2Fannounce",
        "seeder": "224",
        "leecher": "40"
    },
    {
        "rank": "56",
        "title": "Family Swap [Nubiles 2021] XXX WEB-DL 540p Split Scenes",
        "link": "magnet:?xt=urn:btih:18BCD77B733069DE0B926DCA7735D59C32D056BE&dn=Family+Swap+%5BNubiles+2021%5D+XXX+WEB-DL+540p+Split+Scenes&tr=udp%3A%2F%2Ftracker.coppersurfer.tk%3A6969%2Fannounce&tr=udp%3A%2F%2F9.rarbg.to%3A2920%2Fannounce&tr=udp%3A%2F%2Ftracker.opentrackr.org%3A1337&tr=udp%3A%2F%2Ftracker.internetwarriors.net%3A1337%2Fannounce&tr=udp%3A%2F%2Ftracker.leechers-paradise.org%3A6969%2Fannounce&tr=udp%3A%2F%2Ftracker.coppersurfer.tk%3A6969%2Fannounce&tr=udp%3A%2F%2Ftracker.pirateparty.gr%3A6969%2Fannounce&tr=udp%3A%2F%2Ftracker.cyberia.is%3A6969%2Fannounce",
        "seeder": "223",
        "leecher": "25"
    },
    {
        "rank": "57",
        "title": "TabooHeat 21 03 27 Cory Chase Stuck At Home With My Stepmom  48",
        "link": "magnet:?xt=urn:btih:30AEB0E3A3FF241130BDD2F802657119FA68F44B&dn=TabooHeat+21+03+27+Cory+Chase+Stuck+At+Home+With+My+Stepmom++48&tr=udp%3A%2F%2Ftracker.coppersurfer.tk%3A6969%2Fannounce&tr=udp%3A%2F%2F9.rarbg.to%3A2920%2Fannounce&tr=udp%3A%2F%2Ftracker.opentrackr.org%3A1337&tr=udp%3A%2F%2Ftracker.internetwarriors.net%3A1337%2Fannounce&tr=udp%3A%2F%2Ftracker.leechers-paradise.org%3A6969%2Fannounce&tr=udp%3A%2F%2Ftracker.coppersurfer.tk%3A6969%2Fannounce&tr=udp%3A%2F%2Ftracker.pirateparty.gr%3A6969%2Fannounce&tr=udp%3A%2F%2Ftracker.cyberia.is%3A6969%2Fannounce",
        "seeder": "219",
        "leecher": "22"
    },
    {
        "rank": "58",
        "title": "RKPrime 21 03 28 Gabriela Lopez Dear Diary I Need To Get My Pus",
        "link": "magnet:?xt=urn:btih:71ED715AF3641B6CD3B7E48024EDF205C047C242&dn=RKPrime+21+03+28+Gabriela+Lopez+Dear+Diary+I+Need+To+Get+My+Pus&tr=udp%3A%2F%2Ftracker.coppersurfer.tk%3A6969%2Fannounce&tr=udp%3A%2F%2F9.rarbg.to%3A2920%2Fannounce&tr=udp%3A%2F%2Ftracker.opentrackr.org%3A1337&tr=udp%3A%2F%2Ftracker.internetwarriors.net%3A1337%2Fannounce&tr=udp%3A%2F%2Ftracker.leechers-paradise.org%3A6969%2Fannounce&tr=udp%3A%2F%2Ftracker.coppersurfer.tk%3A6969%2Fannounce&tr=udp%3A%2F%2Ftracker.pirateparty.gr%3A6969%2Fannounce&tr=udp%3A%2F%2Ftracker.cyberia.is%3A6969%2Fannounce",
        "seeder": "216",
        "leecher": "19"
    },
    {
        "rank": "59",
        "title": "BrazzersExxtra 21 03 14 Aidra Fox My SisterInLaw For Breakfast",
        "link": "magnet:?xt=urn:btih:608B91DFFB7D29C342E31730CEFC672B42FA90C4&dn=BrazzersExxtra+21+03+14+Aidra+Fox+My+SisterInLaw+For+Breakfast&tr=udp%3A%2F%2Ftracker.coppersurfer.tk%3A6969%2Fannounce&tr=udp%3A%2F%2F9.rarbg.to%3A2920%2Fannounce&tr=udp%3A%2F%2Ftracker.opentrackr.org%3A1337&tr=udp%3A%2F%2Ftracker.internetwarriors.net%3A1337%2Fannounce&tr=udp%3A%2F%2Ftracker.leechers-paradise.org%3A6969%2Fannounce&tr=udp%3A%2F%2Ftracker.coppersurfer.tk%3A6969%2Fannounce&tr=udp%3A%2F%2Ftracker.pirateparty.gr%3A6969%2Fannounce&tr=udp%3A%2F%2Ftracker.cyberia.is%3A6969%2Fannounce",
        "seeder": "215",
        "leecher": "12"
    },
    {
        "rank": "60",
        "title": "Old Enough For A Creampie [Porn Pros 2021] XXX WEB-DL Split Scen",
        "link": "magnet:?xt=urn:btih:74870FE0918491AEFE01B2D6AA82CA8030077814&dn=Old+Enough+For+A+Creampie+%5BPorn+Pros+2021%5D+XXX+WEB-DL+Split+Scen&tr=udp%3A%2F%2Ftracker.coppersurfer.tk%3A6969%2Fannounce&tr=udp%3A%2F%2F9.rarbg.to%3A2920%2Fannounce&tr=udp%3A%2F%2Ftracker.opentrackr.org%3A1337&tr=udp%3A%2F%2Ftracker.internetwarriors.net%3A1337%2Fannounce&tr=udp%3A%2F%2Ftracker.leechers-paradise.org%3A6969%2Fannounce&tr=udp%3A%2F%2Ftracker.coppersurfer.tk%3A6969%2Fannounce&tr=udp%3A%2F%2Ftracker.pirateparty.gr%3A6969%2Fannounce&tr=udp%3A%2F%2Ftracker.cyberia.is%3A6969%2Fannounce",
        "seeder": "211",
        "leecher": "48"
    },
    {
        "rank": "61",
        "title": "PerfectFuckingStrangers 21 04 01 Alex Coal  480p mp4",
        "link": "magnet:?xt=urn:btih:7AA2F90CCC1D3440F56264C4F448FD7C9C13F5D9&dn=PerfectFuckingStrangers+21+04+01+Alex+Coal++480p+mp4&tr=udp%3A%2F%2Ftracker.coppersurfer.tk%3A6969%2Fannounce&tr=udp%3A%2F%2F9.rarbg.to%3A2920%2Fannounce&tr=udp%3A%2F%2Ftracker.opentrackr.org%3A1337&tr=udp%3A%2F%2Ftracker.internetwarriors.net%3A1337%2Fannounce&tr=udp%3A%2F%2Ftracker.leechers-paradise.org%3A6969%2Fannounce&tr=udp%3A%2F%2Ftracker.coppersurfer.tk%3A6969%2Fannounce&tr=udp%3A%2F%2Ftracker.pirateparty.gr%3A6969%2Fannounce&tr=udp%3A%2F%2Ftracker.cyberia.is%3A6969%2Fannounce",
        "seeder": "210",
        "leecher": "76"
    },
    {
        "rank": "62",
        "title": "BackroomCastingCouch - Lexus Love - 18 years old",
        "link": "magnet:?xt=urn:btih:2484B6B3EA9EE73A43F437C717350E4715E127D6&dn=BackroomCastingCouch+-+Lexus+Love+-+18+years+old&tr=udp%3A%2F%2Ftracker.coppersurfer.tk%3A6969%2Fannounce&tr=udp%3A%2F%2F9.rarbg.to%3A2920%2Fannounce&tr=udp%3A%2F%2Ftracker.opentrackr.org%3A1337&tr=udp%3A%2F%2Ftracker.internetwarriors.net%3A1337%2Fannounce&tr=udp%3A%2F%2Ftracker.leechers-paradise.org%3A6969%2Fannounce&tr=udp%3A%2F%2Ftracker.coppersurfer.tk%3A6969%2Fannounce&tr=udp%3A%2F%2Ftracker.pirateparty.gr%3A6969%2Fannounce&tr=udp%3A%2F%2Ftracker.cyberia.is%3A6969%2Fannounce",
        "seeder": "210",
        "leecher": "19"
    },
    {
        "rank": "63",
        "title": "BrazzersExxtra 21 03 29 Romi Rain Rain On Romi  480p mp4",
        "link": "magnet:?xt=urn:btih:8043A31A808C564DAEC53D3736D98DE002C4056A&dn=BrazzersExxtra+21+03+29+Romi+Rain+Rain+On+Romi++480p+mp4&tr=udp%3A%2F%2Ftracker.coppersurfer.tk%3A6969%2Fannounce&tr=udp%3A%2F%2F9.rarbg.to%3A2920%2Fannounce&tr=udp%3A%2F%2Ftracker.opentrackr.org%3A1337&tr=udp%3A%2F%2Ftracker.internetwarriors.net%3A1337%2Fannounce&tr=udp%3A%2F%2Ftracker.leechers-paradise.org%3A6969%2Fannounce&tr=udp%3A%2F%2Ftracker.coppersurfer.tk%3A6969%2Fannounce&tr=udp%3A%2F%2Ftracker.pirateparty.gr%3A6969%2Fannounce&tr=udp%3A%2F%2Ftracker.cyberia.is%3A6969%2Fannounce",
        "seeder": "209",
        "leecher": "21"
    },
    {
        "rank": "64",
        "title": "One night and two days set up by",
        "link": "magnet:?xt=urn:btih:743CA867C5C86F4D5A9FA5A6A415B0A8624905F5&dn=One+night+and+two+days+set+up+by&tr=udp%3A%2F%2Ftracker.coppersurfer.tk%3A6969%2Fannounce&tr=udp%3A%2F%2F9.rarbg.to%3A2920%2Fannounce&tr=udp%3A%2F%2Ftracker.opentrackr.org%3A1337&tr=udp%3A%2F%2Ftracker.internetwarriors.net%3A1337%2Fannounce&tr=udp%3A%2F%2Ftracker.leechers-paradise.org%3A6969%2Fannounce&tr=udp%3A%2F%2Ftracker.coppersurfer.tk%3A6969%2Fannounce&tr=udp%3A%2F%2Ftracker.pirateparty.gr%3A6969%2Fannounce&tr=udp%3A%2F%2Ftracker.cyberia.is%3A6969%2Fannounce",
        "seeder": "209",
        "leecher": "69"
    },
    {
        "rank": "65",
        "title": "KinkyFamily 21 03 30 Penelope Kay Busty Stepsis Needs My Cock",
        "link": "magnet:?xt=urn:btih:F41F4F343902C4AF0C039B21E9427946EEC7B8D1&dn=KinkyFamily+21+03+30+Penelope+Kay+Busty+Stepsis+Needs+My+Cock&tr=udp%3A%2F%2Ftracker.coppersurfer.tk%3A6969%2Fannounce&tr=udp%3A%2F%2F9.rarbg.to%3A2920%2Fannounce&tr=udp%3A%2F%2Ftracker.opentrackr.org%3A1337&tr=udp%3A%2F%2Ftracker.internetwarriors.net%3A1337%2Fannounce&tr=udp%3A%2F%2Ftracker.leechers-paradise.org%3A6969%2Fannounce&tr=udp%3A%2F%2Ftracker.coppersurfer.tk%3A6969%2Fannounce&tr=udp%3A%2F%2Ftracker.pirateparty.gr%3A6969%2Fannounce&tr=udp%3A%2F%2Ftracker.cyberia.is%3A6969%2Fannounce",
        "seeder": "207",
        "leecher": "50"
    },
    {
        "rank": "66",
        "title": "BrazzersExxtra 21 03 30 Judy Jolie And Skye Blue Conflicting Th",
        "link": "magnet:?xt=urn:btih:C86775A1C81BCD5C908D889AF789DF5ACB57A715&dn=BrazzersExxtra+21+03+30+Judy+Jolie+And+Skye+Blue+Conflicting+Th&tr=udp%3A%2F%2Ftracker.coppersurfer.tk%3A6969%2Fannounce&tr=udp%3A%2F%2F9.rarbg.to%3A2920%2Fannounce&tr=udp%3A%2F%2Ftracker.opentrackr.org%3A1337&tr=udp%3A%2F%2Ftracker.internetwarriors.net%3A1337%2Fannounce&tr=udp%3A%2F%2Ftracker.leechers-paradise.org%3A6969%2Fannounce&tr=udp%3A%2F%2Ftracker.coppersurfer.tk%3A6969%2Fannounce&tr=udp%3A%2F%2Ftracker.pirateparty.gr%3A6969%2Fannounce&tr=udp%3A%2F%2Ftracker.cyberia.is%3A6969%2Fannounce",
        "seeder": "205",
        "leecher": "27"
    },
    {
        "rank": "67",
        "title": "BrazzersExxtra 21 03 24 Kayley Gunner And Jenna Starr  480p mp4",
        "link": "magnet:?xt=urn:btih:AA066EF42E47DFDE8B01A35523369D3080BAD048&dn=BrazzersExxtra+21+03+24+Kayley+Gunner+And+Jenna+Starr++480p+mp4&tr=udp%3A%2F%2Ftracker.coppersurfer.tk%3A6969%2Fannounce&tr=udp%3A%2F%2F9.rarbg.to%3A2920%2Fannounce&tr=udp%3A%2F%2Ftracker.opentrackr.org%3A1337&tr=udp%3A%2F%2Ftracker.internetwarriors.net%3A1337%2Fannounce&tr=udp%3A%2F%2Ftracker.leechers-paradise.org%3A6969%2Fannounce&tr=udp%3A%2F%2Ftracker.coppersurfer.tk%3A6969%2Fannounce&tr=udp%3A%2F%2Ftracker.pirateparty.gr%3A6969%2Fannounce&tr=udp%3A%2F%2Ftracker.cyberia.is%3A6969%2Fannounce",
        "seeder": "204",
        "leecher": "18"
    },
    {
        "rank": "68",
        "title": "[Tushy] Emelie Crystal, Sara Bell - Three Steps (28.03.2021)",
        "link": "magnet:?xt=urn:btih:65AE22A1EAAA2A80353EE02BDB7D66F72EE58914&dn=%5BTushy%5D+Emelie+Crystal%2C+Sara+Bell+-+Three+Steps+%2828.03.2021%29&tr=udp%3A%2F%2Ftracker.coppersurfer.tk%3A6969%2Fannounce&tr=udp%3A%2F%2F9.rarbg.to%3A2920%2Fannounce&tr=udp%3A%2F%2Ftracker.opentrackr.org%3A1337&tr=udp%3A%2F%2Ftracker.internetwarriors.net%3A1337%2Fannounce&tr=udp%3A%2F%2Ftracker.leechers-paradise.org%3A6969%2Fannounce&tr=udp%3A%2F%2Ftracker.coppersurfer.tk%3A6969%2Fannounce&tr=udp%3A%2F%2Ftracker.pirateparty.gr%3A6969%2Fannounce&tr=udp%3A%2F%2Ftracker.cyberia.is%3A6969%2Fannounce",
        "seeder": "203",
        "leecher": "11"
    },
    {
        "rank": "69",
        "title": "Anal.UNCUT.XXX.DVDRiP.X264-LOVEXXX",
        "link": "magnet:?xt=urn:btih:F960F38D545D0D95A18BD34B4833F64663E3FED1&dn=Anal.UNCUT.XXX.DVDRiP.X264-LOVEXXX&tr=udp%3A%2F%2Ftracker.coppersurfer.tk%3A6969%2Fannounce&tr=udp%3A%2F%2F9.rarbg.to%3A2920%2Fannounce&tr=udp%3A%2F%2Ftracker.opentrackr.org%3A1337&tr=udp%3A%2F%2Ftracker.internetwarriors.net%3A1337%2Fannounce&tr=udp%3A%2F%2Ftracker.leechers-paradise.org%3A6969%2Fannounce&tr=udp%3A%2F%2Ftracker.coppersurfer.tk%3A6969%2Fannounce&tr=udp%3A%2F%2Ftracker.pirateparty.gr%3A6969%2Fannounce&tr=udp%3A%2F%2Ftracker.cyberia.is%3A6969%2Fannounce",
        "seeder": "203",
        "leecher": "51"
    },
    {
        "rank": "70",
        "title": "AnalMom 21 03 25 Canela Skin Cheater Gets It From Behind  480p",
        "link": "magnet:?xt=urn:btih:013D1C6C772A7138B98F7E814C76C5CEB541F126&dn=AnalMom+21+03+25+Canela+Skin+Cheater+Gets+It+From+Behind++480p&tr=udp%3A%2F%2Ftracker.coppersurfer.tk%3A6969%2Fannounce&tr=udp%3A%2F%2F9.rarbg.to%3A2920%2Fannounce&tr=udp%3A%2F%2Ftracker.opentrackr.org%3A1337&tr=udp%3A%2F%2Ftracker.internetwarriors.net%3A1337%2Fannounce&tr=udp%3A%2F%2Ftracker.leechers-paradise.org%3A6969%2Fannounce&tr=udp%3A%2F%2Ftracker.coppersurfer.tk%3A6969%2Fannounce&tr=udp%3A%2F%2Ftracker.pirateparty.gr%3A6969%2Fannounce&tr=udp%3A%2F%2Ftracker.cyberia.is%3A6969%2Fannounce",
        "seeder": "203",
        "leecher": "12"
    },
    {
        "rank": "71",
        "title": "Creampie SEX Lifted",
        "link": "magnet:?xt=urn:btih:A5A4A3F2C096608F61878487798C45A7686A7E7B&dn=Creampie+SEX+Lifted&tr=udp%3A%2F%2Ftracker.coppersurfer.tk%3A6969%2Fannounce&tr=udp%3A%2F%2F9.rarbg.to%3A2920%2Fannounce&tr=udp%3A%2F%2Ftracker.opentrackr.org%3A1337&tr=udp%3A%2F%2Ftracker.internetwarriors.net%3A1337%2Fannounce&tr=udp%3A%2F%2Ftracker.leechers-paradise.org%3A6969%2Fannounce&tr=udp%3A%2F%2Ftracker.coppersurfer.tk%3A6969%2Fannounce&tr=udp%3A%2F%2Ftracker.pirateparty.gr%3A6969%2Fannounce&tr=udp%3A%2F%2Ftracker.cyberia.is%3A6969%2Fannounce",
        "seeder": "202",
        "leecher": "48"
    },
    {
        "rank": "72",
        "title": "Performers.Of.The.Year.2020.XXX.DVDRip.x264-STARLETS",
        "link": "magnet:?xt=urn:btih:66C84CB99C8648CAEDD40822F44A16D8C2670750&dn=Performers.Of.The.Year.2020.XXX.DVDRip.x264-STARLETS&tr=udp%3A%2F%2Ftracker.coppersurfer.tk%3A6969%2Fannounce&tr=udp%3A%2F%2F9.rarbg.to%3A2920%2Fannounce&tr=udp%3A%2F%2Ftracker.opentrackr.org%3A1337&tr=udp%3A%2F%2Ftracker.internetwarriors.net%3A1337%2Fannounce&tr=udp%3A%2F%2Ftracker.leechers-paradise.org%3A6969%2Fannounce&tr=udp%3A%2F%2Ftracker.coppersurfer.tk%3A6969%2Fannounce&tr=udp%3A%2F%2Ftracker.pirateparty.gr%3A6969%2Fannounce&tr=udp%3A%2F%2Ftracker.cyberia.is%3A6969%2Fannounce",
        "seeder": "201",
        "leecher": "94"
    },
    {
        "rank": "73",
        "title": "SexMex 21 03 31 Silvia Santez Addicted To Milk 2  480p mp4",
        "link": "magnet:?xt=urn:btih:AB44C2E1007E19896FA54949BDBDD07C1099FCF7&dn=SexMex+21+03+31+Silvia+Santez+Addicted+To+Milk+2++480p+mp4&tr=udp%3A%2F%2Ftracker.coppersurfer.tk%3A6969%2Fannounce&tr=udp%3A%2F%2F9.rarbg.to%3A2920%2Fannounce&tr=udp%3A%2F%2Ftracker.opentrackr.org%3A1337&tr=udp%3A%2F%2Ftracker.internetwarriors.net%3A1337%2Fannounce&tr=udp%3A%2F%2Ftracker.leechers-paradise.org%3A6969%2Fannounce&tr=udp%3A%2F%2Ftracker.coppersurfer.tk%3A6969%2Fannounce&tr=udp%3A%2F%2Ftracker.pirateparty.gr%3A6969%2Fannounce&tr=udp%3A%2F%2Ftracker.cyberia.is%3A6969%2Fannounce",
        "seeder": "200",
        "leecher": "31"
    },
    {
        "rank": "74",
        "title": "RKPrime 21 03 31 Stacy Bloom Busting On The Anal Bead Thief  48",
        "link": "magnet:?xt=urn:btih:534FCB528E0D999CBE36B42DB9114050C981E0C0&dn=RKPrime+21+03+31+Stacy+Bloom+Busting+On+The+Anal+Bead+Thief++48&tr=udp%3A%2F%2Ftracker.coppersurfer.tk%3A6969%2Fannounce&tr=udp%3A%2F%2F9.rarbg.to%3A2920%2Fannounce&tr=udp%3A%2F%2Ftracker.opentrackr.org%3A1337&tr=udp%3A%2F%2Ftracker.internetwarriors.net%3A1337%2Fannounce&tr=udp%3A%2F%2Ftracker.leechers-paradise.org%3A6969%2Fannounce&tr=udp%3A%2F%2Ftracker.coppersurfer.tk%3A6969%2Fannounce&tr=udp%3A%2F%2Ftracker.pirateparty.gr%3A6969%2Fannounce&tr=udp%3A%2F%2Ftracker.cyberia.is%3A6969%2Fannounce",
        "seeder": "200",
        "leecher": "38"
    },
    {
        "rank": "75",
        "title": "StepSiblingsCaught 21 03 29 Clara Trinity And Scarlet Skies  48",
        "link": "magnet:?xt=urn:btih:44098B124ECE9AAE22E797420882CD1A9D69470D&dn=StepSiblingsCaught+21+03+29+Clara+Trinity+And+Scarlet+Skies++48&tr=udp%3A%2F%2Ftracker.coppersurfer.tk%3A6969%2Fannounce&tr=udp%3A%2F%2F9.rarbg.to%3A2920%2Fannounce&tr=udp%3A%2F%2Ftracker.opentrackr.org%3A1337&tr=udp%3A%2F%2Ftracker.internetwarriors.net%3A1337%2Fannounce&tr=udp%3A%2F%2Ftracker.leechers-paradise.org%3A6969%2Fannounce&tr=udp%3A%2F%2Ftracker.coppersurfer.tk%3A6969%2Fannounce&tr=udp%3A%2F%2Ftracker.pirateparty.gr%3A6969%2Fannounce&tr=udp%3A%2F%2Ftracker.cyberia.is%3A6969%2Fannounce",
        "seeder": "199",
        "leecher": "11"
    },
    {
        "rank": "76",
        "title": "RealWifeStories 21 03 20 Tru Kait Fuck My Wife While I Watch  4",
        "link": "magnet:?xt=urn:btih:D630867F8DA7E2D2A66D9844843C160B0BD7CE00&dn=RealWifeStories+21+03+20+Tru+Kait+Fuck+My+Wife+While+I+Watch++4&tr=udp%3A%2F%2Ftracker.coppersurfer.tk%3A6969%2Fannounce&tr=udp%3A%2F%2F9.rarbg.to%3A2920%2Fannounce&tr=udp%3A%2F%2Ftracker.opentrackr.org%3A1337&tr=udp%3A%2F%2Ftracker.internetwarriors.net%3A1337%2Fannounce&tr=udp%3A%2F%2Ftracker.leechers-paradise.org%3A6969%2Fannounce&tr=udp%3A%2F%2Ftracker.coppersurfer.tk%3A6969%2Fannounce&tr=udp%3A%2F%2Ftracker.pirateparty.gr%3A6969%2Fannounce&tr=udp%3A%2F%2Ftracker.cyberia.is%3A6969%2Fannounce",
        "seeder": "199",
        "leecher": "16"
    },
    {
        "rank": "77",
        "title": "MommysBoy 21 03 17 Reagan Foxx Some Quality Family Time  480p m",
        "link": "magnet:?xt=urn:btih:834E4CDF39A74D43E8EF14980A264B137A8BD686&dn=MommysBoy+21+03+17+Reagan+Foxx+Some+Quality+Family+Time++480p+m&tr=udp%3A%2F%2Ftracker.coppersurfer.tk%3A6969%2Fannounce&tr=udp%3A%2F%2F9.rarbg.to%3A2920%2Fannounce&tr=udp%3A%2F%2Ftracker.opentrackr.org%3A1337&tr=udp%3A%2F%2Ftracker.internetwarriors.net%3A1337%2Fannounce&tr=udp%3A%2F%2Ftracker.leechers-paradise.org%3A6969%2Fannounce&tr=udp%3A%2F%2Ftracker.coppersurfer.tk%3A6969%2Fannounce&tr=udp%3A%2F%2Ftracker.pirateparty.gr%3A6969%2Fannounce&tr=udp%3A%2F%2Ftracker.cyberia.is%3A6969%2Fannounce",
        "seeder": "198",
        "leecher": "12"
    },
    {
        "rank": "78",
        "title": "LegalPorno - Sabrina Ice Fucked with Anal Fisting, Balls Deep An",
        "link": "magnet:?xt=urn:btih:F92E36A27FD8B81695FD6EF254FCCEB4ECCCD8C2&dn=LegalPorno+-+Sabrina+Ice+Fucked+with+Anal+Fisting%2C+Balls+Deep+An&tr=udp%3A%2F%2Ftracker.coppersurfer.tk%3A6969%2Fannounce&tr=udp%3A%2F%2F9.rarbg.to%3A2920%2Fannounce&tr=udp%3A%2F%2Ftracker.opentrackr.org%3A1337&tr=udp%3A%2F%2Ftracker.internetwarriors.net%3A1337%2Fannounce&tr=udp%3A%2F%2Ftracker.leechers-paradise.org%3A6969%2Fannounce&tr=udp%3A%2F%2Ftracker.coppersurfer.tk%3A6969%2Fannounce&tr=udp%3A%2F%2Ftracker.pirateparty.gr%3A6969%2Fannounce&tr=udp%3A%2F%2Ftracker.cyberia.is%3A6969%2Fannounce",
        "seeder": "195",
        "leecher": "75"
    },
    {
        "rank": "79",
        "title": "[LegalPorno] Lina Arian, Mary Jane, Giada Sgh GIO1730 (01.04.21)",
        "link": "magnet:?xt=urn:btih:005A516B063F84C6CEA6CB5AD2A913AC5D1E434C&dn=%5BLegalPorno%5D+Lina+Arian%2C+Mary+Jane%2C+Giada+Sgh+GIO1730+%2801.04.21%29&tr=udp%3A%2F%2Ftracker.coppersurfer.tk%3A6969%2Fannounce&tr=udp%3A%2F%2F9.rarbg.to%3A2920%2Fannounce&tr=udp%3A%2F%2Ftracker.opentrackr.org%3A1337&tr=udp%3A%2F%2Ftracker.internetwarriors.net%3A1337%2Fannounce&tr=udp%3A%2F%2Ftracker.leechers-paradise.org%3A6969%2Fannounce&tr=udp%3A%2F%2Ftracker.coppersurfer.tk%3A6969%2Fannounce&tr=udp%3A%2F%2Ftracker.pirateparty.gr%3A6969%2Fannounce&tr=udp%3A%2F%2Ftracker.cyberia.is%3A6969%2Fannounce",
        "seeder": "195",
        "leecher": "52"
    },
    {
        "rank": "80",
        "title": "SexMex 21 03 30 Citah Hot Doctor  480p mp4",
        "link": "magnet:?xt=urn:btih:782957339AD6399D86F0BE56DD6E1E733E3BEA55&dn=SexMex+21+03+30+Citah+Hot+Doctor++480p+mp4&tr=udp%3A%2F%2Ftracker.coppersurfer.tk%3A6969%2Fannounce&tr=udp%3A%2F%2F9.rarbg.to%3A2920%2Fannounce&tr=udp%3A%2F%2Ftracker.opentrackr.org%3A1337&tr=udp%3A%2F%2Ftracker.internetwarriors.net%3A1337%2Fannounce&tr=udp%3A%2F%2Ftracker.leechers-paradise.org%3A6969%2Fannounce&tr=udp%3A%2F%2Ftracker.coppersurfer.tk%3A6969%2Fannounce&tr=udp%3A%2F%2Ftracker.pirateparty.gr%3A6969%2Fannounce&tr=udp%3A%2F%2Ftracker.cyberia.is%3A6969%2Fannounce",
        "seeder": "195",
        "leecher": "23"
    },
    {
        "rank": "81",
        "title": "One Exception [PornFidelity 2021] XXX WEB-DL Split Scenes",
        "link": "magnet:?xt=urn:btih:8630698895C43C529127BBBF2C0BABD20C2D9623&dn=One+Exception+%5BPornFidelity+2021%5D+XXX+WEB-DL+Split+Scenes&tr=udp%3A%2F%2Ftracker.coppersurfer.tk%3A6969%2Fannounce&tr=udp%3A%2F%2F9.rarbg.to%3A2920%2Fannounce&tr=udp%3A%2F%2Ftracker.opentrackr.org%3A1337&tr=udp%3A%2F%2Ftracker.internetwarriors.net%3A1337%2Fannounce&tr=udp%3A%2F%2Ftracker.leechers-paradise.org%3A6969%2Fannounce&tr=udp%3A%2F%2Ftracker.coppersurfer.tk%3A6969%2Fannounce&tr=udp%3A%2F%2Ftracker.pirateparty.gr%3A6969%2Fannounce&tr=udp%3A%2F%2Ftracker.cyberia.is%3A6969%2Fannounce",
        "seeder": "195",
        "leecher": "79"
    },
    {
        "rank": "82",
        "title": "Sweaty And Slut",
        "link": "magnet:?xt=urn:btih:24AF198B62445772CB3047BD22667EFF198FDC44&dn=Sweaty+And+Slut&tr=udp%3A%2F%2Ftracker.coppersurfer.tk%3A6969%2Fannounce&tr=udp%3A%2F%2F9.rarbg.to%3A2920%2Fannounce&tr=udp%3A%2F%2Ftracker.opentrackr.org%3A1337&tr=udp%3A%2F%2Ftracker.internetwarriors.net%3A1337%2Fannounce&tr=udp%3A%2F%2Ftracker.leechers-paradise.org%3A6969%2Fannounce&tr=udp%3A%2F%2Ftracker.coppersurfer.tk%3A6969%2Fannounce&tr=udp%3A%2F%2Ftracker.pirateparty.gr%3A6969%2Fannounce&tr=udp%3A%2F%2Ftracker.cyberia.is%3A6969%2Fannounce",
        "seeder": "194",
        "leecher": "68"
    },
    {
        "rank": "83",
        "title": "BrazzersExxtra 21 03 19 Kira Queen And Liya Silver Watch Me Ins",
        "link": "magnet:?xt=urn:btih:B5CFAC7442A043AFAA4345D030BFF8714C2B0AF8&dn=BrazzersExxtra+21+03+19+Kira+Queen+And+Liya+Silver+Watch+Me+Ins&tr=udp%3A%2F%2Ftracker.coppersurfer.tk%3A6969%2Fannounce&tr=udp%3A%2F%2F9.rarbg.to%3A2920%2Fannounce&tr=udp%3A%2F%2Ftracker.opentrackr.org%3A1337&tr=udp%3A%2F%2Ftracker.internetwarriors.net%3A1337%2Fannounce&tr=udp%3A%2F%2Ftracker.leechers-paradise.org%3A6969%2Fannounce&tr=udp%3A%2F%2Ftracker.coppersurfer.tk%3A6969%2Fannounce&tr=udp%3A%2F%2Ftracker.pirateparty.gr%3A6969%2Fannounce&tr=udp%3A%2F%2Ftracker.cyberia.is%3A6969%2Fannounce",
        "seeder": "193",
        "leecher": "12"
    },
    {
        "rank": "84",
        "title": "NetVideoGirls 21 03 16 Jamie  480p mp4",
        "link": "magnet:?xt=urn:btih:EB5AA9D67E5E7793A0AACCFA0D0EAFEE184581CF&dn=NetVideoGirls+21+03+16+Jamie++480p+mp4&tr=udp%3A%2F%2Ftracker.coppersurfer.tk%3A6969%2Fannounce&tr=udp%3A%2F%2F9.rarbg.to%3A2920%2Fannounce&tr=udp%3A%2F%2Ftracker.opentrackr.org%3A1337&tr=udp%3A%2F%2Ftracker.internetwarriors.net%3A1337%2Fannounce&tr=udp%3A%2F%2Ftracker.leechers-paradise.org%3A6969%2Fannounce&tr=udp%3A%2F%2Ftracker.coppersurfer.tk%3A6969%2Fannounce&tr=udp%3A%2F%2Ftracker.pirateparty.gr%3A6969%2Fannounce&tr=udp%3A%2F%2Ftracker.cyberia.is%3A6969%2Fannounce",
        "seeder": "191",
        "leecher": "76"
    },
    {
        "rank": "85",
        "title": "Deeper 20 10 22 Gabbie Carter And Nia Nacci  480p mp4",
        "link": "magnet:?xt=urn:btih:4D908AADF20FD62CC335CB1B2DA535EAEDE0AD03&dn=Deeper+20+10+22+Gabbie+Carter+And+Nia+Nacci++480p+mp4&tr=udp%3A%2F%2Ftracker.coppersurfer.tk%3A6969%2Fannounce&tr=udp%3A%2F%2F9.rarbg.to%3A2920%2Fannounce&tr=udp%3A%2F%2Ftracker.opentrackr.org%3A1337&tr=udp%3A%2F%2Ftracker.internetwarriors.net%3A1337%2Fannounce&tr=udp%3A%2F%2Ftracker.leechers-paradise.org%3A6969%2Fannounce&tr=udp%3A%2F%2Ftracker.coppersurfer.tk%3A6969%2Fannounce&tr=udp%3A%2F%2Ftracker.pirateparty.gr%3A6969%2Fannounce&tr=udp%3A%2F%2Ftracker.cyberia.is%3A6969%2Fannounce",
        "seeder": "191",
        "leecher": "10"
    },
    {
        "rank": "86",
        "title": "MyLifeInMiami 21 03 31 Rose Monroe Twerk Queen  480p mp4",
        "link": "magnet:?xt=urn:btih:A2AB82AFEF650FC085335ECAB7591FB0EE4CD12F&dn=MyLifeInMiami+21+03+31+Rose+Monroe+Twerk+Queen++480p+mp4&tr=udp%3A%2F%2Ftracker.coppersurfer.tk%3A6969%2Fannounce&tr=udp%3A%2F%2F9.rarbg.to%3A2920%2Fannounce&tr=udp%3A%2F%2Ftracker.opentrackr.org%3A1337&tr=udp%3A%2F%2Ftracker.internetwarriors.net%3A1337%2Fannounce&tr=udp%3A%2F%2Ftracker.leechers-paradise.org%3A6969%2Fannounce&tr=udp%3A%2F%2Ftracker.coppersurfer.tk%3A6969%2Fannounce&tr=udp%3A%2F%2Ftracker.pirateparty.gr%3A6969%2Fannounce&tr=udp%3A%2F%2Ftracker.cyberia.is%3A6969%2Fannounce",
        "seeder": "190",
        "leecher": "36"
    },
    {
        "rank": "87",
        "title": "DevilsFilm 21 03 31 Angel Youngs Shes More Stacked Than Her Mom",
        "link": "magnet:?xt=urn:btih:345809961BFDA15B24CA1D170562891BDBBD272D&dn=DevilsFilm+21+03+31+Angel+Youngs+Shes+More+Stacked+Than+Her+Mom&tr=udp%3A%2F%2Ftracker.coppersurfer.tk%3A6969%2Fannounce&tr=udp%3A%2F%2F9.rarbg.to%3A2920%2Fannounce&tr=udp%3A%2F%2Ftracker.opentrackr.org%3A1337&tr=udp%3A%2F%2Ftracker.internetwarriors.net%3A1337%2Fannounce&tr=udp%3A%2F%2Ftracker.leechers-paradise.org%3A6969%2Fannounce&tr=udp%3A%2F%2Ftracker.coppersurfer.tk%3A6969%2Fannounce&tr=udp%3A%2F%2Ftracker.pirateparty.gr%3A6969%2Fannounce&tr=udp%3A%2F%2Ftracker.cyberia.is%3A6969%2Fannounce",
        "seeder": "190",
        "leecher": "23"
    },
    {
        "rank": "88",
        "title": "PureTaboo 21 03 30 Victoria Voxxx One Mans Trash  480p mp4",
        "link": "magnet:?xt=urn:btih:639AE1CDCF1D1EA6D2BD393BFA9F06C2B463D910&dn=PureTaboo+21+03+30+Victoria+Voxxx+One+Mans+Trash++480p+mp4&tr=udp%3A%2F%2Ftracker.coppersurfer.tk%3A6969%2Fannounce&tr=udp%3A%2F%2F9.rarbg.to%3A2920%2Fannounce&tr=udp%3A%2F%2Ftracker.opentrackr.org%3A1337&tr=udp%3A%2F%2Ftracker.internetwarriors.net%3A1337%2Fannounce&tr=udp%3A%2F%2Ftracker.leechers-paradise.org%3A6969%2Fannounce&tr=udp%3A%2F%2Ftracker.coppersurfer.tk%3A6969%2Fannounce&tr=udp%3A%2F%2Ftracker.pirateparty.gr%3A6969%2Fannounce&tr=udp%3A%2F%2Ftracker.cyberia.is%3A6969%2Fannounce",
        "seeder": "187",
        "leecher": "37"
    },
    {
        "rank": "89",
        "title": "RKPrime 21 03 29 Kendra Sunderland Dripping Wet  480p mp4",
        "link": "magnet:?xt=urn:btih:1F46AD7A212D008BA0AFBB8E83CC102D202D10BF&dn=RKPrime+21+03+29+Kendra+Sunderland+Dripping+Wet++480p+mp4&tr=udp%3A%2F%2Ftracker.coppersurfer.tk%3A6969%2Fannounce&tr=udp%3A%2F%2F9.rarbg.to%3A2920%2Fannounce&tr=udp%3A%2F%2Ftracker.opentrackr.org%3A1337&tr=udp%3A%2F%2Ftracker.internetwarriors.net%3A1337%2Fannounce&tr=udp%3A%2F%2Ftracker.leechers-paradise.org%3A6969%2Fannounce&tr=udp%3A%2F%2Ftracker.coppersurfer.tk%3A6969%2Fannounce&tr=udp%3A%2F%2Ftracker.pirateparty.gr%3A6969%2Fannounce&tr=udp%3A%2F%2Ftracker.cyberia.is%3A6969%2Fannounce",
        "seeder": "186",
        "leecher": "22"
    },
    {
        "rank": "90",
        "title": "Loan4K E02 Suzie  480p mp4",
        "link": "magnet:?xt=urn:btih:FCCEB6B363F2827A22E9A460A131EC8070707100&dn=Loan4K+E02+Suzie++480p+mp4&tr=udp%3A%2F%2Ftracker.coppersurfer.tk%3A6969%2Fannounce&tr=udp%3A%2F%2F9.rarbg.to%3A2920%2Fannounce&tr=udp%3A%2F%2Ftracker.opentrackr.org%3A1337&tr=udp%3A%2F%2Ftracker.internetwarriors.net%3A1337%2Fannounce&tr=udp%3A%2F%2Ftracker.leechers-paradise.org%3A6969%2Fannounce&tr=udp%3A%2F%2Ftracker.coppersurfer.tk%3A6969%2Fannounce&tr=udp%3A%2F%2Ftracker.pirateparty.gr%3A6969%2Fannounce&tr=udp%3A%2F%2Ftracker.cyberia.is%3A6969%2Fannounce",
        "seeder": "183",
        "leecher": "28"
    },
    {
        "rank": "91",
        "title": "BlacksOnBlondes 21 03 30 Kayla Kayden  480p mp4",
        "link": "magnet:?xt=urn:btih:1B99275F1D8DAF2EDA5ADEC531F121786106390A&dn=BlacksOnBlondes+21+03+30+Kayla+Kayden++480p+mp4&tr=udp%3A%2F%2Ftracker.coppersurfer.tk%3A6969%2Fannounce&tr=udp%3A%2F%2F9.rarbg.to%3A2920%2Fannounce&tr=udp%3A%2F%2Ftracker.opentrackr.org%3A1337&tr=udp%3A%2F%2Ftracker.internetwarriors.net%3A1337%2Fannounce&tr=udp%3A%2F%2Ftracker.leechers-paradise.org%3A6969%2Fannounce&tr=udp%3A%2F%2Ftracker.coppersurfer.tk%3A6969%2Fannounce&tr=udp%3A%2F%2Ftracker.pirateparty.gr%3A6969%2Fannounce&tr=udp%3A%2F%2Ftracker.cyberia.is%3A6969%2Fannounce",
        "seeder": "183",
        "leecher": "16"
    },
    {
        "rank": "92",
        "title": "FamilySwap 21 03 25 Christie Stevens And Kenzie Reeves  480p mp",
        "link": "magnet:?xt=urn:btih:B841F82EFD5D535E52AE081E5A44AF890E34FAF0&dn=FamilySwap+21+03+25+Christie+Stevens+And+Kenzie+Reeves++480p+mp&tr=udp%3A%2F%2Ftracker.coppersurfer.tk%3A6969%2Fannounce&tr=udp%3A%2F%2F9.rarbg.to%3A2920%2Fannounce&tr=udp%3A%2F%2Ftracker.opentrackr.org%3A1337&tr=udp%3A%2F%2Ftracker.internetwarriors.net%3A1337%2Fannounce&tr=udp%3A%2F%2Ftracker.leechers-paradise.org%3A6969%2Fannounce&tr=udp%3A%2F%2Ftracker.coppersurfer.tk%3A6969%2Fannounce&tr=udp%3A%2F%2Ftracker.pirateparty.gr%3A6969%2Fannounce&tr=udp%3A%2F%2Ftracker.cyberia.is%3A6969%2Fannounce",
        "seeder": "181",
        "leecher": "12"
    },
    {
        "rank": "93",
        "title": "First Anal Vol. 11 [Tushy 2021] XXX WEB-DL Split Scenes",
        "link": "magnet:?xt=urn:btih:CA86C81501B4D22072A11990FDEE9845509A1F2B&dn=First+Anal+Vol.+11+%5BTushy+2021%5D+XXX+WEB-DL+Split+Scenes&tr=udp%3A%2F%2Ftracker.coppersurfer.tk%3A6969%2Fannounce&tr=udp%3A%2F%2F9.rarbg.to%3A2920%2Fannounce&tr=udp%3A%2F%2Ftracker.opentrackr.org%3A1337&tr=udp%3A%2F%2Ftracker.internetwarriors.net%3A1337%2Fannounce&tr=udp%3A%2F%2Ftracker.leechers-paradise.org%3A6969%2Fannounce&tr=udp%3A%2F%2Ftracker.coppersurfer.tk%3A6969%2Fannounce&tr=udp%3A%2F%2Ftracker.pirateparty.gr%3A6969%2Fannounce&tr=udp%3A%2F%2Ftracker.cyberia.is%3A6969%2Fannounce",
        "seeder": "181",
        "leecher": "45"
    },
    {
        "rank": "94",
        "title": "DayWithAPornstar 21 03 31 Luxury Girl Is Anal About Cleaning  4",
        "link": "magnet:?xt=urn:btih:DE8D2983E2BD7D1C93F5FA60D58EDA7C67EF21A6&dn=DayWithAPornstar+21+03+31+Luxury+Girl+Is+Anal+About+Cleaning++4&tr=udp%3A%2F%2Ftracker.coppersurfer.tk%3A6969%2Fannounce&tr=udp%3A%2F%2F9.rarbg.to%3A2920%2Fannounce&tr=udp%3A%2F%2Ftracker.opentrackr.org%3A1337&tr=udp%3A%2F%2Ftracker.internetwarriors.net%3A1337%2Fannounce&tr=udp%3A%2F%2Ftracker.leechers-paradise.org%3A6969%2Fannounce&tr=udp%3A%2F%2Ftracker.coppersurfer.tk%3A6969%2Fannounce&tr=udp%3A%2F%2Ftracker.pirateparty.gr%3A6969%2Fannounce&tr=udp%3A%2F%2Ftracker.cyberia.is%3A6969%2Fannounce",
        "seeder": "180",
        "leecher": "27"
    },
    {
        "rank": "95",
        "title": "PornstarsLikeItBig 21 03 29 Phoenix Marie Joyride  480p mp4",
        "link": "magnet:?xt=urn:btih:CD11CDC232CF3CA91EB67DB02587E69F08E6E8F6&dn=PornstarsLikeItBig+21+03+29+Phoenix+Marie+Joyride++480p+mp4&tr=udp%3A%2F%2Ftracker.coppersurfer.tk%3A6969%2Fannounce&tr=udp%3A%2F%2F9.rarbg.to%3A2920%2Fannounce&tr=udp%3A%2F%2Ftracker.opentrackr.org%3A1337&tr=udp%3A%2F%2Ftracker.internetwarriors.net%3A1337%2Fannounce&tr=udp%3A%2F%2Ftracker.leechers-paradise.org%3A6969%2Fannounce&tr=udp%3A%2F%2Ftracker.coppersurfer.tk%3A6969%2Fannounce&tr=udp%3A%2F%2Ftracker.pirateparty.gr%3A6969%2Fannounce&tr=udp%3A%2F%2Ftracker.cyberia.is%3A6969%2Fannounce",
        "seeder": "180",
        "leecher": "18"
    },
    {
        "rank": "96",
        "title": "Mom 21 04 01 Ariela Donovan And Lily Joy  480p mp4",
        "link": "magnet:?xt=urn:btih:9264A7B42A826065AD1FBBEE81F475500D33074B&dn=Mom+21+04+01+Ariela+Donovan+And+Lily+Joy++480p+mp4&tr=udp%3A%2F%2Ftracker.coppersurfer.tk%3A6969%2Fannounce&tr=udp%3A%2F%2F9.rarbg.to%3A2920%2Fannounce&tr=udp%3A%2F%2Ftracker.opentrackr.org%3A1337&tr=udp%3A%2F%2Ftracker.internetwarriors.net%3A1337%2Fannounce&tr=udp%3A%2F%2Ftracker.leechers-paradise.org%3A6969%2Fannounce&tr=udp%3A%2F%2Ftracker.coppersurfer.tk%3A6969%2Fannounce&tr=udp%3A%2F%2Ftracker.pirateparty.gr%3A6969%2Fannounce&tr=udp%3A%2F%2Ftracker.cyberia.is%3A6969%2Fannounce",
        "seeder": "179",
        "leecher": "50"
    },
    {
        "rank": "97",
        "title": "FreeUseFantasy 21 03 10 Sofie Reyez Extra Lovey Stepbro  480p m",
        "link": "magnet:?xt=urn:btih:82FCDEA785AEE0E43A6BDB6D1D14FD2A6918CBDA&dn=FreeUseFantasy+21+03+10+Sofie+Reyez+Extra+Lovey+Stepbro++480p+m&tr=udp%3A%2F%2Ftracker.coppersurfer.tk%3A6969%2Fannounce&tr=udp%3A%2F%2F9.rarbg.to%3A2920%2Fannounce&tr=udp%3A%2F%2Ftracker.opentrackr.org%3A1337&tr=udp%3A%2F%2Ftracker.internetwarriors.net%3A1337%2Fannounce&tr=udp%3A%2F%2Ftracker.leechers-paradise.org%3A6969%2Fannounce&tr=udp%3A%2F%2Ftracker.coppersurfer.tk%3A6969%2Fannounce&tr=udp%3A%2F%2Ftracker.pirateparty.gr%3A6969%2Fannounce&tr=udp%3A%2F%2Ftracker.cyberia.is%3A6969%2Fannounce",
        "seeder": "179",
        "leecher": "11"
    },
    {
        "rank": "98",
        "title": "TeamSkeetXLuxuryGirl 21 03 09 Luxury Girl Massaging My Stepmom",
        "link": "magnet:?xt=urn:btih:086456AA88E403D8CA02A55298A309BB78FF2DC5&dn=TeamSkeetXLuxuryGirl+21+03+09+Luxury+Girl+Massaging+My+Stepmom&tr=udp%3A%2F%2Ftracker.coppersurfer.tk%3A6969%2Fannounce&tr=udp%3A%2F%2F9.rarbg.to%3A2920%2Fannounce&tr=udp%3A%2F%2Ftracker.opentrackr.org%3A1337&tr=udp%3A%2F%2Ftracker.internetwarriors.net%3A1337%2Fannounce&tr=udp%3A%2F%2Ftracker.leechers-paradise.org%3A6969%2Fannounce&tr=udp%3A%2F%2Ftracker.coppersurfer.tk%3A6969%2Fannounce&tr=udp%3A%2F%2Ftracker.pirateparty.gr%3A6969%2Fannounce&tr=udp%3A%2F%2Ftracker.cyberia.is%3A6969%2Fannounce",
        "seeder": "179",
        "leecher": "1"
    },
    {
        "rank": "99",
        "title": "BackroomCastingCouch - Alisha - 19 year old",
        "link": "magnet:?xt=urn:btih:229255C1EA293F2C82FB1CAFE86DDB7782DFB69F&dn=BackroomCastingCouch+-+Alisha+-+19+year+old&tr=udp%3A%2F%2Ftracker.coppersurfer.tk%3A6969%2Fannounce&tr=udp%3A%2F%2F9.rarbg.to%3A2920%2Fannounce&tr=udp%3A%2F%2Ftracker.opentrackr.org%3A1337&tr=udp%3A%2F%2Ftracker.internetwarriors.net%3A1337%2Fannounce&tr=udp%3A%2F%2Ftracker.leechers-paradise.org%3A6969%2Fannounce&tr=udp%3A%2F%2Ftracker.coppersurfer.tk%3A6969%2Fannounce&tr=udp%3A%2F%2Ftracker.pirateparty.gr%3A6969%2Fannounce&tr=udp%3A%2F%2Ftracker.cyberia.is%3A6969%2Fannounce",
        "seeder": "178",
        "leecher": "42"
    },
    {
        "rank": "100",
        "title": "My Friends Hot Mom Vol. 89 [Naughty America 2021] XXX WEB-DL Spl",
        "link": "magnet:?xt=urn:btih:61972600B197DFCBBDF43CE2357D61853A15CA8E&dn=My+Friends+Hot+Mom+Vol.+89+%5BNaughty+America+2021%5D+XXX+WEB-DL+Spl&tr=udp%3A%2F%2Ftracker.coppersurfer.tk%3A6969%2Fannounce&tr=udp%3A%2F%2F9.rarbg.to%3A2920%2Fannounce&tr=udp%3A%2F%2Ftracker.opentrackr.org%3A1337&tr=udp%3A%2F%2Ftracker.internetwarriors.net%3A1337%2Fannounce&tr=udp%3A%2F%2Ftracker.leechers-paradise.org%3A6969%2Fannounce&tr=udp%3A%2F%2Ftracker.coppersurfer.tk%3A6969%2Fannounce&tr=udp%3A%2F%2Ftracker.pirateparty.gr%3A6969%2Fannounce&tr=udp%3A%2F%2Ftracker.cyberia.is%3A6969%2Fannounce",
        "seeder": "178",
        "leecher": "56"
    }
]
