[
    {
        "rank": "1",
        "title": "Learn & Master Guitar Complete [1-20] DVDRip",
        "link": "magnet:?xt=urn:btih:DE8132850FFED6C428462693422F4C3AC9926ADB&dn=Learn+%26+Master+Guitar+Complete+%5B1-20%5D+DVDRip&tr=udp%3A%2F%2Ftracker.coppersurfer.tk%3A6969%2Fannounce&tr=udp%3A%2F%2F9.rarbg.to%3A2920%2Fannounce&tr=udp%3A%2F%2Ftracker.opentrackr.org%3A1337&tr=udp%3A%2F%2Ftracker.internetwarriors.net%3A1337%2Fannounce&tr=udp%3A%2F%2Ftracker.leechers-paradise.org%3A6969%2Fannounce&tr=udp%3A%2F%2Ftracker.coppersurfer.tk%3A6969%2Fannounce&tr=udp%3A%2F%2Ftracker.pirateparty.gr%3A6969%2Fannounce&tr=udp%3A%2F%2Ftracker.cyberia.is%3A6969%2Fannounce",
        "seeder": "44",
        "leecher": "1"
    },
    {
        "rank": "2",
        "title": "Bob Marley - Legend (Greatest Hits) 1080p (musicfromrizzo upl)",
        "link": "magnet:?xt=urn:btih:73CE88BACA98F44AF2961336F864B36EB6801DA8&dn=Bob+Marley+-+Legend+%28Greatest+Hits%29+1080p+%28musicfromrizzo+upl%29&tr=udp%3A%2F%2Ftracker.coppersurfer.tk%3A6969%2Fannounce&tr=udp%3A%2F%2F9.rarbg.to%3A2920%2Fannounce&tr=udp%3A%2F%2Ftracker.opentrackr.org%3A1337&tr=udp%3A%2F%2Ftracker.internetwarriors.net%3A1337%2Fannounce&tr=udp%3A%2F%2Ftracker.leechers-paradise.org%3A6969%2Fannounce&tr=udp%3A%2F%2Ftracker.coppersurfer.tk%3A6969%2Fannounce&tr=udp%3A%2F%2Ftracker.pirateparty.gr%3A6969%2Fannounce&tr=udp%3A%2F%2Ftracker.cyberia.is%3A6969%2Fannounce",
        "seeder": "41",
        "leecher": "12"
    },
    {
        "rank": "3",
        "title": "Madonna - The Virgin Tour (1985) 1080p Dual audio musicfromrizzo",
        "link": "magnet:?xt=urn:btih:DD8E3141BCB71191201E626EB27F8A1CB9A94695&dn=Madonna+-+The+Virgin+Tour+%281985%29+1080p+Dual+audio+musicfromrizzo&tr=udp%3A%2F%2Ftracker.coppersurfer.tk%3A6969%2Fannounce&tr=udp%3A%2F%2F9.rarbg.to%3A2920%2Fannounce&tr=udp%3A%2F%2Ftracker.opentrackr.org%3A1337&tr=udp%3A%2F%2Ftracker.internetwarriors.net%3A1337%2Fannounce&tr=udp%3A%2F%2Ftracker.leechers-paradise.org%3A6969%2Fannounce&tr=udp%3A%2F%2Ftracker.coppersurfer.tk%3A6969%2Fannounce&tr=udp%3A%2F%2Ftracker.pirateparty.gr%3A6969%2Fannounce&tr=udp%3A%2F%2Ftracker.cyberia.is%3A6969%2Fannounce",
        "seeder": "30",
        "leecher": "31"
    },
    {
        "rank": "4",
        "title": "GuitarTricks.com Learn Guitar Tricks Video Lessons Tutorial",
        "link": "magnet:?xt=urn:btih:A7AB33380966908334CC6CF6190792EE40AF5173&dn=GuitarTricks.com+Learn+Guitar+Tricks+Video+Lessons+Tutorial&tr=udp%3A%2F%2Ftracker.coppersurfer.tk%3A6969%2Fannounce&tr=udp%3A%2F%2F9.rarbg.to%3A2920%2Fannounce&tr=udp%3A%2F%2Ftracker.opentrackr.org%3A1337&tr=udp%3A%2F%2Ftracker.internetwarriors.net%3A1337%2Fannounce&tr=udp%3A%2F%2Ftracker.leechers-paradise.org%3A6969%2Fannounce&tr=udp%3A%2F%2Ftracker.coppersurfer.tk%3A6969%2Fannounce&tr=udp%3A%2F%2Ftracker.pirateparty.gr%3A6969%2Fannounce&tr=udp%3A%2F%2Ftracker.cyberia.is%3A6969%2Fannounce",
        "seeder": "29",
        "leecher": "2"
    },
    {
        "rank": "5",
        "title": "Jimi.Hendrix.Experience.Live.In.Maui.1970.2020.720p.MBLURAY.x264",
        "link": "magnet:?xt=urn:btih:52FB441A99777179735EB71B852EC5D8B251501D&dn=Jimi.Hendrix.Experience.Live.In.Maui.1970.2020.720p.MBLURAY.x264&tr=udp%3A%2F%2Ftracker.coppersurfer.tk%3A6969%2Fannounce&tr=udp%3A%2F%2F9.rarbg.to%3A2920%2Fannounce&tr=udp%3A%2F%2Ftracker.opentrackr.org%3A1337&tr=udp%3A%2F%2Ftracker.internetwarriors.net%3A1337%2Fannounce&tr=udp%3A%2F%2Ftracker.leechers-paradise.org%3A6969%2Fannounce&tr=udp%3A%2F%2Ftracker.coppersurfer.tk%3A6969%2Fannounce&tr=udp%3A%2F%2Ftracker.pirateparty.gr%3A6969%2Fannounce&tr=udp%3A%2F%2Ftracker.cyberia.is%3A6969%2Fannounce",
        "seeder": "25",
        "leecher": "4"
    },
    {
        "rank": "6",
        "title": "Jimi.Hendrix.Experience.Live.in.Maui.1970.2020.1080p.Concert.x",
        "link": "magnet:?xt=urn:btih:FCED8B1A786753C87AB6D0267F1B9F9CF00ECA2A&dn=Jimi.Hendrix.Experience.Live.in.Maui.1970.2020.1080p.Concert.x&tr=udp%3A%2F%2Ftracker.coppersurfer.tk%3A6969%2Fannounce&tr=udp%3A%2F%2F9.rarbg.to%3A2920%2Fannounce&tr=udp%3A%2F%2Ftracker.opentrackr.org%3A1337&tr=udp%3A%2F%2Ftracker.internetwarriors.net%3A1337%2Fannounce&tr=udp%3A%2F%2Ftracker.leechers-paradise.org%3A6969%2Fannounce&tr=udp%3A%2F%2Ftracker.coppersurfer.tk%3A6969%2Fannounce&tr=udp%3A%2F%2Ftracker.pirateparty.gr%3A6969%2Fannounce&tr=udp%3A%2F%2Ftracker.cyberia.is%3A6969%2Fannounce",
        "seeder": "24",
        "leecher": "1"
    },
    {
        "rank": "7",
        "title": "Fleetwood Mac - 'Rumours' CD Album Concert 2160p musicfromrizzo",
        "link": "magnet:?xt=urn:btih:24AC48469FE827FAAD4FF0DA671B0472247B2E88&dn=Fleetwood+Mac+-+%27Rumours%27+CD+Album+Concert+2160p+musicfromrizzo&tr=udp%3A%2F%2Ftracker.coppersurfer.tk%3A6969%2Fannounce&tr=udp%3A%2F%2F9.rarbg.to%3A2920%2Fannounce&tr=udp%3A%2F%2Ftracker.opentrackr.org%3A1337&tr=udp%3A%2F%2Ftracker.internetwarriors.net%3A1337%2Fannounce&tr=udp%3A%2F%2Ftracker.leechers-paradise.org%3A6969%2Fannounce&tr=udp%3A%2F%2Ftracker.coppersurfer.tk%3A6969%2Fannounce&tr=udp%3A%2F%2Ftracker.pirateparty.gr%3A6969%2Fannounce&tr=udp%3A%2F%2Ftracker.cyberia.is%3A6969%2Fannounce",
        "seeder": "21",
        "leecher": "3"
    },
    {
        "rank": "8",
        "title": "Earth Wind and Fire (Live 1999) 2160p LPCM (musicfromrizzo)",
        "link": "magnet:?xt=urn:btih:06AB8FA6C5C80A1AD08F0976A1D943B9E10BD699&dn=Earth+Wind+and+Fire+%28Live+1999%29+2160p+LPCM+%28musicfromrizzo%29&tr=udp%3A%2F%2Ftracker.coppersurfer.tk%3A6969%2Fannounce&tr=udp%3A%2F%2F9.rarbg.to%3A2920%2Fannounce&tr=udp%3A%2F%2Ftracker.opentrackr.org%3A1337&tr=udp%3A%2F%2Ftracker.internetwarriors.net%3A1337%2Fannounce&tr=udp%3A%2F%2Ftracker.leechers-paradise.org%3A6969%2Fannounce&tr=udp%3A%2F%2Ftracker.coppersurfer.tk%3A6969%2Fannounce&tr=udp%3A%2F%2Ftracker.pirateparty.gr%3A6969%2Fannounce&tr=udp%3A%2F%2Ftracker.cyberia.is%3A6969%2Fannounce",
        "seeder": "20",
        "leecher": "5"
    },
    {
        "rank": "9",
        "title": "Bob Dylan's 30th Anniversary Concert (1992) - x264 AC3 [=Faith=]",
        "link": "magnet:?xt=urn:btih:52D413081D6E023F187BDC8FB1F02893AE50931D&dn=Bob+Dylan%27s+30th+Anniversary+Concert+%281992%29+-+x264+AC3+%5B%3DFaith%3D%5D&tr=udp%3A%2F%2Ftracker.coppersurfer.tk%3A6969%2Fannounce&tr=udp%3A%2F%2F9.rarbg.to%3A2920%2Fannounce&tr=udp%3A%2F%2Ftracker.opentrackr.org%3A1337&tr=udp%3A%2F%2Ftracker.internetwarriors.net%3A1337%2Fannounce&tr=udp%3A%2F%2Ftracker.leechers-paradise.org%3A6969%2Fannounce&tr=udp%3A%2F%2Ftracker.coppersurfer.tk%3A6969%2Fannounce&tr=udp%3A%2F%2Ftracker.pirateparty.gr%3A6969%2Fannounce&tr=udp%3A%2F%2Ftracker.cyberia.is%3A6969%2Fannounce",
        "seeder": "20",
        "leecher": "3"
    },
    {
        "rank": "10",
        "title": "Beyonce - Lemonade WEBRip 1080p [iBooM] [P2PDL]",
        "link": "magnet:?xt=urn:btih:201112FB34D40F6CDD1D8D044FC07F390C279188&dn=Beyonce+-+Lemonade+WEBRip+1080p+%5BiBooM%5D+%5BP2PDL%5D&tr=udp%3A%2F%2Ftracker.coppersurfer.tk%3A6969%2Fannounce&tr=udp%3A%2F%2F9.rarbg.to%3A2920%2Fannounce&tr=udp%3A%2F%2Ftracker.opentrackr.org%3A1337&tr=udp%3A%2F%2Ftracker.internetwarriors.net%3A1337%2Fannounce&tr=udp%3A%2F%2Ftracker.leechers-paradise.org%3A6969%2Fannounce&tr=udp%3A%2F%2Ftracker.coppersurfer.tk%3A6969%2Fannounce&tr=udp%3A%2F%2Ftracker.pirateparty.gr%3A6969%2Fannounce&tr=udp%3A%2F%2Ftracker.cyberia.is%3A6969%2Fannounce",
        "seeder": "19",
        "leecher": "1"
    },
    {
        "rank": "11",
        "title": "Eric Clapton - 2019-09-21 - Crossroads Guitar Festival",
        "link": "magnet:?xt=urn:btih:3CCEB17A1883DCB35EA6BE0EABD8FC9C9D8A605D&dn=Eric+Clapton+-+2019-09-21+-+Crossroads+Guitar+Festival&tr=udp%3A%2F%2Ftracker.coppersurfer.tk%3A6969%2Fannounce&tr=udp%3A%2F%2F9.rarbg.to%3A2920%2Fannounce&tr=udp%3A%2F%2Ftracker.opentrackr.org%3A1337&tr=udp%3A%2F%2Ftracker.internetwarriors.net%3A1337%2Fannounce&tr=udp%3A%2F%2Ftracker.leechers-paradise.org%3A6969%2Fannounce&tr=udp%3A%2F%2Ftracker.coppersurfer.tk%3A6969%2Fannounce&tr=udp%3A%2F%2Ftracker.pirateparty.gr%3A6969%2Fannounce&tr=udp%3A%2F%2Ftracker.cyberia.is%3A6969%2Fannounce",
        "seeder": "16",
        "leecher": "1"
    },
    {
        "rank": "12",
        "title": "Michael Jackson Music Videos Collection",
        "link": "magnet:?xt=urn:btih:1E59AC229D8BC964B7C3AF980CCABCF5BBD26C7F&dn=Michael+Jackson+Music+Videos+Collection&tr=udp%3A%2F%2Ftracker.coppersurfer.tk%3A6969%2Fannounce&tr=udp%3A%2F%2F9.rarbg.to%3A2920%2Fannounce&tr=udp%3A%2F%2Ftracker.opentrackr.org%3A1337&tr=udp%3A%2F%2Ftracker.internetwarriors.net%3A1337%2Fannounce&tr=udp%3A%2F%2Ftracker.leechers-paradise.org%3A6969%2Fannounce&tr=udp%3A%2F%2Ftracker.coppersurfer.tk%3A6969%2Fannounce&tr=udp%3A%2F%2Ftracker.pirateparty.gr%3A6969%2Fannounce&tr=udp%3A%2F%2Ftracker.cyberia.is%3A6969%2Fannounce",
        "seeder": "16",
        "leecher": "0"
    },
    {
        "rank": "13",
        "title": "Whitney Houston - Greatest Hits (videos) 2160p musicfromrizzo",
        "link": "magnet:?xt=urn:btih:51213E87555EC28E285DAA4E82654C16C18EE3C5&dn=Whitney+Houston+-+Greatest+Hits+%28videos%29+2160p+musicfromrizzo&tr=udp%3A%2F%2Ftracker.coppersurfer.tk%3A6969%2Fannounce&tr=udp%3A%2F%2F9.rarbg.to%3A2920%2Fannounce&tr=udp%3A%2F%2Ftracker.opentrackr.org%3A1337&tr=udp%3A%2F%2Ftracker.internetwarriors.net%3A1337%2Fannounce&tr=udp%3A%2F%2Ftracker.leechers-paradise.org%3A6969%2Fannounce&tr=udp%3A%2F%2Ftracker.coppersurfer.tk%3A6969%2Fannounce&tr=udp%3A%2F%2Ftracker.pirateparty.gr%3A6969%2Fannounce&tr=udp%3A%2F%2Ftracker.cyberia.is%3A6969%2Fannounce",
        "seeder": "14",
        "leecher": "11"
    },
    {
        "rank": "14",
        "title": "The Bee Gees - One Night Only 1080p DTS-HD 5.1 (musicfromrizzo)",
        "link": "magnet:?xt=urn:btih:A86557089C70DB8463ABB97F451B8FB6A5AB0BB0&dn=The+Bee+Gees+-+One+Night+Only+1080p+DTS-HD+5.1+%28musicfromrizzo%29&tr=udp%3A%2F%2Ftracker.coppersurfer.tk%3A6969%2Fannounce&tr=udp%3A%2F%2F9.rarbg.to%3A2920%2Fannounce&tr=udp%3A%2F%2Ftracker.opentrackr.org%3A1337&tr=udp%3A%2F%2Ftracker.internetwarriors.net%3A1337%2Fannounce&tr=udp%3A%2F%2Ftracker.leechers-paradise.org%3A6969%2Fannounce&tr=udp%3A%2F%2Ftracker.coppersurfer.tk%3A6969%2Fannounce&tr=udp%3A%2F%2Ftracker.pirateparty.gr%3A6969%2Fannounce&tr=udp%3A%2F%2Ftracker.cyberia.is%3A6969%2Fannounce",
        "seeder": "14",
        "leecher": "1"
    },
    {
        "rank": "15",
        "title": "Concert.for.George.Tribute.COMPLETE.2002.DVD(Untouched)@M.J108-{",
        "link": "magnet:?xt=urn:btih:8AA2EB32FCE803749F764C7995FAB0DE0CBC500E&dn=Concert.for.George.Tribute.COMPLETE.2002.DVD%28Untouched%29%40M.J108-%7B&tr=udp%3A%2F%2Ftracker.coppersurfer.tk%3A6969%2Fannounce&tr=udp%3A%2F%2F9.rarbg.to%3A2920%2Fannounce&tr=udp%3A%2F%2Ftracker.opentrackr.org%3A1337&tr=udp%3A%2F%2Ftracker.internetwarriors.net%3A1337%2Fannounce&tr=udp%3A%2F%2Ftracker.leechers-paradise.org%3A6969%2Fannounce&tr=udp%3A%2F%2Ftracker.coppersurfer.tk%3A6969%2Fannounce&tr=udp%3A%2F%2Ftracker.pirateparty.gr%3A6969%2Fannounce&tr=udp%3A%2F%2Ftracker.cyberia.is%3A6969%2Fannounce",
        "seeder": "14",
        "leecher": "0"
    },
    {
        "rank": "16",
        "title": "Led.Zeppelin.The.Song.Remains.The.Same.1976.1080p.BluRay-SARTRE",
        "link": "magnet:?xt=urn:btih:53AEA9C56BF1CFBE68EC59CA2F09CC86AB20BAD9&dn=Led.Zeppelin.The.Song.Remains.The.Same.1976.1080p.BluRay-SARTRE&tr=udp%3A%2F%2Ftracker.coppersurfer.tk%3A6969%2Fannounce&tr=udp%3A%2F%2F9.rarbg.to%3A2920%2Fannounce&tr=udp%3A%2F%2Ftracker.opentrackr.org%3A1337&tr=udp%3A%2F%2Ftracker.internetwarriors.net%3A1337%2Fannounce&tr=udp%3A%2F%2Ftracker.leechers-paradise.org%3A6969%2Fannounce&tr=udp%3A%2F%2Ftracker.coppersurfer.tk%3A6969%2Fannounce&tr=udp%3A%2F%2Ftracker.pirateparty.gr%3A6969%2Fannounce&tr=udp%3A%2F%2Ftracker.cyberia.is%3A6969%2Fannounce",
        "seeder": "13",
        "leecher": "3"
    },
    {
        "rank": "17",
        "title": "Taylor Swift - Folklore The Long Pond Studio Sessions 2020",
        "link": "magnet:?xt=urn:btih:6F5AB0E67B9234517DD18D81487869FEA192DFD1&dn=Taylor+Swift+-+Folklore+The+Long+Pond+Studio+Sessions+2020&tr=udp%3A%2F%2Ftracker.coppersurfer.tk%3A6969%2Fannounce&tr=udp%3A%2F%2F9.rarbg.to%3A2920%2Fannounce&tr=udp%3A%2F%2Ftracker.opentrackr.org%3A1337&tr=udp%3A%2F%2Ftracker.internetwarriors.net%3A1337%2Fannounce&tr=udp%3A%2F%2Ftracker.leechers-paradise.org%3A6969%2Fannounce&tr=udp%3A%2F%2Ftracker.coppersurfer.tk%3A6969%2Fannounce&tr=udp%3A%2F%2Ftracker.pirateparty.gr%3A6969%2Fannounce&tr=udp%3A%2F%2Ftracker.cyberia.is%3A6969%2Fannounce",
        "seeder": "12",
        "leecher": "2"
    },
    {
        "rank": "18",
        "title": "Bruce.Springsteen.The.River.Tour.Tempe.1980.1080p.HEVC.DTSHD-MA",
        "link": "magnet:?xt=urn:btih:3CB765930614FF99314B53D8579ACC935DDB347E&dn=Bruce.Springsteen.The.River.Tour.Tempe.1980.1080p.HEVC.DTSHD-MA&tr=udp%3A%2F%2Ftracker.coppersurfer.tk%3A6969%2Fannounce&tr=udp%3A%2F%2F9.rarbg.to%3A2920%2Fannounce&tr=udp%3A%2F%2Ftracker.opentrackr.org%3A1337&tr=udp%3A%2F%2Ftracker.internetwarriors.net%3A1337%2Fannounce&tr=udp%3A%2F%2Ftracker.leechers-paradise.org%3A6969%2Fannounce&tr=udp%3A%2F%2Ftracker.coppersurfer.tk%3A6969%2Fannounce&tr=udp%3A%2F%2Ftracker.pirateparty.gr%3A6969%2Fannounce&tr=udp%3A%2F%2Ftracker.cyberia.is%3A6969%2Fannounce",
        "seeder": "12",
        "leecher": "0"
    },
    {
        "rank": "19",
        "title": "LIVE AID, Concert for Africa Vol.1 [1985] DVD9",
        "link": "magnet:?xt=urn:btih:E25BC6D235F00AB7929B16D185F365B2BCF82873&dn=LIVE+AID%2C+Concert+for+Africa+Vol.1+%5B1985%5D+DVD9&tr=udp%3A%2F%2Ftracker.coppersurfer.tk%3A6969%2Fannounce&tr=udp%3A%2F%2F9.rarbg.to%3A2920%2Fannounce&tr=udp%3A%2F%2Ftracker.opentrackr.org%3A1337&tr=udp%3A%2F%2Ftracker.internetwarriors.net%3A1337%2Fannounce&tr=udp%3A%2F%2Ftracker.leechers-paradise.org%3A6969%2Fannounce&tr=udp%3A%2F%2Ftracker.coppersurfer.tk%3A6969%2Fannounce&tr=udp%3A%2F%2Ftracker.pirateparty.gr%3A6969%2Fannounce&tr=udp%3A%2F%2Ftracker.cyberia.is%3A6969%2Fannounce",
        "seeder": "12",
        "leecher": "3"
    },
    {
        "rank": "20",
        "title": "Dire Straits - 1979-02-16 - Rockpalast - DVD5",
        "link": "magnet:?xt=urn:btih:F98630C2950E0CD7F144951F804A8405E8D533B0&dn=Dire+Straits+-+1979-02-16+-+Rockpalast+-+DVD5&tr=udp%3A%2F%2Ftracker.coppersurfer.tk%3A6969%2Fannounce&tr=udp%3A%2F%2F9.rarbg.to%3A2920%2Fannounce&tr=udp%3A%2F%2Ftracker.opentrackr.org%3A1337&tr=udp%3A%2F%2Ftracker.internetwarriors.net%3A1337%2Fannounce&tr=udp%3A%2F%2Ftracker.leechers-paradise.org%3A6969%2Fannounce&tr=udp%3A%2F%2Ftracker.coppersurfer.tk%3A6969%2Fannounce&tr=udp%3A%2F%2Ftracker.pirateparty.gr%3A6969%2Fannounce&tr=udp%3A%2F%2Ftracker.cyberia.is%3A6969%2Fannounce",
        "seeder": "11",
        "leecher": "1"
    },
    {
        "rank": "21",
        "title": "Frank.Zappa.Baby.Snakes.1979.DVDRip.AVC.AC3.mkv",
        "link": "magnet:?xt=urn:btih:C8E2A4ED7D130D66D03CA622931CB37839B462C0&dn=Frank.Zappa.Baby.Snakes.1979.DVDRip.AVC.AC3.mkv&tr=udp%3A%2F%2Ftracker.coppersurfer.tk%3A6969%2Fannounce&tr=udp%3A%2F%2F9.rarbg.to%3A2920%2Fannounce&tr=udp%3A%2F%2Ftracker.opentrackr.org%3A1337&tr=udp%3A%2F%2Ftracker.internetwarriors.net%3A1337%2Fannounce&tr=udp%3A%2F%2Ftracker.leechers-paradise.org%3A6969%2Fannounce&tr=udp%3A%2F%2Ftracker.coppersurfer.tk%3A6969%2Fannounce&tr=udp%3A%2F%2Ftracker.pirateparty.gr%3A6969%2Fannounce&tr=udp%3A%2F%2Ftracker.cyberia.is%3A6969%2Fannounce",
        "seeder": "11",
        "leecher": "0"
    },
    {
        "rank": "22",
        "title": "Pulse - [Pink Floyd - Concert] (1994) - DvdRip x264  - [=Faith=]",
        "link": "magnet:?xt=urn:btih:F31BEEE2417A2464EDE97C5AC39D974F29C79426&dn=Pulse+-+%5BPink+Floyd+-+Concert%5D+%281994%29+-+DvdRip+x264++-+%5B%3DFaith%3D%5D&tr=udp%3A%2F%2Ftracker.coppersurfer.tk%3A6969%2Fannounce&tr=udp%3A%2F%2F9.rarbg.to%3A2920%2Fannounce&tr=udp%3A%2F%2Ftracker.opentrackr.org%3A1337&tr=udp%3A%2F%2Ftracker.internetwarriors.net%3A1337%2Fannounce&tr=udp%3A%2F%2Ftracker.leechers-paradise.org%3A6969%2Fannounce&tr=udp%3A%2F%2Ftracker.coppersurfer.tk%3A6969%2Fannounce&tr=udp%3A%2F%2Ftracker.pirateparty.gr%3A6969%2Fannounce&tr=udp%3A%2F%2Ftracker.cyberia.is%3A6969%2Fannounce",
        "seeder": "11",
        "leecher": "4"
    },
    {
        "rank": "23",
        "title": "Queen - 1986 - Live At Wembley Stadium [DVD-rip, mkv, h264]",
        "link": "magnet:?xt=urn:btih:B860CA36203FF7E50F623051E468F243BABE4A01&dn=Queen+-+1986+-+Live+At+Wembley+Stadium+%5BDVD-rip%2C+mkv%2C+h264%5D&tr=udp%3A%2F%2Ftracker.coppersurfer.tk%3A6969%2Fannounce&tr=udp%3A%2F%2F9.rarbg.to%3A2920%2Fannounce&tr=udp%3A%2F%2Ftracker.opentrackr.org%3A1337&tr=udp%3A%2F%2Ftracker.internetwarriors.net%3A1337%2Fannounce&tr=udp%3A%2F%2Ftracker.leechers-paradise.org%3A6969%2Fannounce&tr=udp%3A%2F%2Ftracker.coppersurfer.tk%3A6969%2Fannounce&tr=udp%3A%2F%2Ftracker.pirateparty.gr%3A6969%2Fannounce&tr=udp%3A%2F%2Ftracker.cyberia.is%3A6969%2Fannounce",
        "seeder": "11",
        "leecher": "1"
    },
    {
        "rank": "24",
        "title": "Tina Turner - One Last Time Live In Concert (2000) [DVD9]",
        "link": "magnet:?xt=urn:btih:5AB19F4514C31546014689232F1B0E739EAF5432&dn=Tina+Turner+-+One+Last+Time+Live+In+Concert+%282000%29+%5BDVD9%5D&tr=udp%3A%2F%2Ftracker.coppersurfer.tk%3A6969%2Fannounce&tr=udp%3A%2F%2F9.rarbg.to%3A2920%2Fannounce&tr=udp%3A%2F%2Ftracker.opentrackr.org%3A1337&tr=udp%3A%2F%2Ftracker.internetwarriors.net%3A1337%2Fannounce&tr=udp%3A%2F%2Ftracker.leechers-paradise.org%3A6969%2Fannounce&tr=udp%3A%2F%2Ftracker.coppersurfer.tk%3A6969%2Fannounce&tr=udp%3A%2F%2Ftracker.pirateparty.gr%3A6969%2Fannounce&tr=udp%3A%2F%2Ftracker.cyberia.is%3A6969%2Fannounce",
        "seeder": "11",
        "leecher": "3"
    },
    {
        "rank": "25",
        "title": "Alice in Chains .-. Mtv Unplugged",
        "link": "magnet:?xt=urn:btih:B22DADF41416685720A447CBB495DF97D8600289&dn=Alice+in+Chains+.-.+Mtv+Unplugged&tr=udp%3A%2F%2Ftracker.coppersurfer.tk%3A6969%2Fannounce&tr=udp%3A%2F%2F9.rarbg.to%3A2920%2Fannounce&tr=udp%3A%2F%2Ftracker.opentrackr.org%3A1337&tr=udp%3A%2F%2Ftracker.internetwarriors.net%3A1337%2Fannounce&tr=udp%3A%2F%2Ftracker.leechers-paradise.org%3A6969%2Fannounce&tr=udp%3A%2F%2Ftracker.coppersurfer.tk%3A6969%2Fannounce&tr=udp%3A%2F%2Ftracker.pirateparty.gr%3A6969%2Fannounce&tr=udp%3A%2F%2Ftracker.cyberia.is%3A6969%2Fannounce",
        "seeder": "11",
        "leecher": "0"
    },
    {
        "rank": "26",
        "title": "Jeff Beck & Santana - 1986-06-01 - Karuizawa Japan - DVD5",
        "link": "magnet:?xt=urn:btih:FDD0198C9140F4CF930339EAD8EEA86E8F2C0633&dn=Jeff+Beck+%26amp%3B+Santana+-+1986-06-01+-+Karuizawa+Japan+-+DVD5&tr=udp%3A%2F%2Ftracker.coppersurfer.tk%3A6969%2Fannounce&tr=udp%3A%2F%2F9.rarbg.to%3A2920%2Fannounce&tr=udp%3A%2F%2Ftracker.opentrackr.org%3A1337&tr=udp%3A%2F%2Ftracker.internetwarriors.net%3A1337%2Fannounce&tr=udp%3A%2F%2Ftracker.leechers-paradise.org%3A6969%2Fannounce&tr=udp%3A%2F%2Ftracker.coppersurfer.tk%3A6969%2Fannounce&tr=udp%3A%2F%2Ftracker.pirateparty.gr%3A6969%2Fannounce&tr=udp%3A%2F%2Ftracker.cyberia.is%3A6969%2Fannounce",
        "seeder": "10",
        "leecher": "2"
    },
    {
        "rank": "27",
        "title": "Dire Straits - 1992-06-28 - Basel",
        "link": "magnet:?xt=urn:btih:BA7D80F333779E0C78E4A0323CB261C1F68C4B2F&dn=Dire+Straits+-+1992-06-28+-+Basel&tr=udp%3A%2F%2Ftracker.coppersurfer.tk%3A6969%2Fannounce&tr=udp%3A%2F%2F9.rarbg.to%3A2920%2Fannounce&tr=udp%3A%2F%2Ftracker.opentrackr.org%3A1337&tr=udp%3A%2F%2Ftracker.internetwarriors.net%3A1337%2Fannounce&tr=udp%3A%2F%2Ftracker.leechers-paradise.org%3A6969%2Fannounce&tr=udp%3A%2F%2Ftracker.coppersurfer.tk%3A6969%2Fannounce&tr=udp%3A%2F%2Ftracker.pirateparty.gr%3A6969%2Fannounce&tr=udp%3A%2F%2Ftracker.cyberia.is%3A6969%2Fannounce",
        "seeder": "10",
        "leecher": "0"
    },
    {
        "rank": "28",
        "title": "Led Zeppelin.The.Song.Remains.The.Same.1976.1080p.HEVC.DTS-MA",
        "link": "magnet:?xt=urn:btih:D9D3F92BCFFB509401E87A0FEBFEA85B172A3D70&dn=Led+Zeppelin.The.Song.Remains.The.Same.1976.1080p.HEVC.DTS-MA&tr=udp%3A%2F%2Ftracker.coppersurfer.tk%3A6969%2Fannounce&tr=udp%3A%2F%2F9.rarbg.to%3A2920%2Fannounce&tr=udp%3A%2F%2Ftracker.opentrackr.org%3A1337&tr=udp%3A%2F%2Ftracker.internetwarriors.net%3A1337%2Fannounce&tr=udp%3A%2F%2Ftracker.leechers-paradise.org%3A6969%2Fannounce&tr=udp%3A%2F%2Ftracker.coppersurfer.tk%3A6969%2Fannounce&tr=udp%3A%2F%2Ftracker.pirateparty.gr%3A6969%2Fannounce&tr=udp%3A%2F%2Ftracker.cyberia.is%3A6969%2Fannounce",
        "seeder": "10",
        "leecher": "3"
    },
    {
        "rank": "29",
        "title": "Elvis Presley in Person (1973) concert from DVD (musicfromrizzo)",
        "link": "magnet:?xt=urn:btih:C36933F5FDCFDB365A18E9D8A836AC2C2EF6C780&dn=Elvis+Presley+in+Person+%281973%29+concert+from+DVD+%28musicfromrizzo%29&tr=udp%3A%2F%2Ftracker.coppersurfer.tk%3A6969%2Fannounce&tr=udp%3A%2F%2F9.rarbg.to%3A2920%2Fannounce&tr=udp%3A%2F%2Ftracker.opentrackr.org%3A1337&tr=udp%3A%2F%2Ftracker.internetwarriors.net%3A1337%2Fannounce&tr=udp%3A%2F%2Ftracker.leechers-paradise.org%3A6969%2Fannounce&tr=udp%3A%2F%2Ftracker.coppersurfer.tk%3A6969%2Fannounce&tr=udp%3A%2F%2Ftracker.pirateparty.gr%3A6969%2Fannounce&tr=udp%3A%2F%2Ftracker.cyberia.is%3A6969%2Fannounce",
        "seeder": "10",
        "leecher": "0"
    },
    {
        "rank": "30",
        "title": "LIVE AID, Concert for Africa Vol.4 [1985] DVD9",
        "link": "magnet:?xt=urn:btih:D008C624B23EBAE75736CD2743AA6E0818D2AE9B&dn=LIVE+AID%2C+Concert+for+Africa+Vol.4+%5B1985%5D+DVD9&tr=udp%3A%2F%2Ftracker.coppersurfer.tk%3A6969%2Fannounce&tr=udp%3A%2F%2F9.rarbg.to%3A2920%2Fannounce&tr=udp%3A%2F%2Ftracker.opentrackr.org%3A1337&tr=udp%3A%2F%2Ftracker.internetwarriors.net%3A1337%2Fannounce&tr=udp%3A%2F%2Ftracker.leechers-paradise.org%3A6969%2Fannounce&tr=udp%3A%2F%2Ftracker.coppersurfer.tk%3A6969%2Fannounce&tr=udp%3A%2F%2Ftracker.pirateparty.gr%3A6969%2Fannounce&tr=udp%3A%2F%2Ftracker.cyberia.is%3A6969%2Fannounce",
        "seeder": "10",
        "leecher": "4"
    },
    {
        "rank": "31",
        "title": "ABBA Music Videos Collection",
        "link": "magnet:?xt=urn:btih:6B6497CD34FEE74467C52623C409A857F5EA25C8&dn=ABBA+Music+Videos+Collection&tr=udp%3A%2F%2Ftracker.coppersurfer.tk%3A6969%2Fannounce&tr=udp%3A%2F%2F9.rarbg.to%3A2920%2Fannounce&tr=udp%3A%2F%2Ftracker.opentrackr.org%3A1337&tr=udp%3A%2F%2Ftracker.internetwarriors.net%3A1337%2Fannounce&tr=udp%3A%2F%2Ftracker.leechers-paradise.org%3A6969%2Fannounce&tr=udp%3A%2F%2Ftracker.coppersurfer.tk%3A6969%2Fannounce&tr=udp%3A%2F%2Ftracker.pirateparty.gr%3A6969%2Fannounce&tr=udp%3A%2F%2Ftracker.cyberia.is%3A6969%2Fannounce",
        "seeder": "10",
        "leecher": "1"
    },
    {
        "rank": "32",
        "title": "David Nilsson outperforms Elton John 2160p musicfromrizzo",
        "link": "magnet:?xt=urn:btih:13CEB7D1435511A98431A97D0805069E1C41029D&dn=David+Nilsson+outperforms+Elton+John+2160p+musicfromrizzo&tr=udp%3A%2F%2Ftracker.coppersurfer.tk%3A6969%2Fannounce&tr=udp%3A%2F%2F9.rarbg.to%3A2920%2Fannounce&tr=udp%3A%2F%2Ftracker.opentrackr.org%3A1337&tr=udp%3A%2F%2Ftracker.internetwarriors.net%3A1337%2Fannounce&tr=udp%3A%2F%2Ftracker.leechers-paradise.org%3A6969%2Fannounce&tr=udp%3A%2F%2Ftracker.coppersurfer.tk%3A6969%2Fannounce&tr=udp%3A%2F%2Ftracker.pirateparty.gr%3A6969%2Fannounce&tr=udp%3A%2F%2Ftracker.cyberia.is%3A6969%2Fannounce",
        "seeder": "9",
        "leecher": "4"
    },
    {
        "rank": "33",
        "title": "David Nilsson outperforms Roy Orbison 2160p musicfromrizzo",
        "link": "magnet:?xt=urn:btih:1CA9567AE988F6A56C1ABCE36BA17543DEDD495D&dn=David+Nilsson+outperforms+Roy+Orbison+2160p+musicfromrizzo&tr=udp%3A%2F%2Ftracker.coppersurfer.tk%3A6969%2Fannounce&tr=udp%3A%2F%2F9.rarbg.to%3A2920%2Fannounce&tr=udp%3A%2F%2Ftracker.opentrackr.org%3A1337&tr=udp%3A%2F%2Ftracker.internetwarriors.net%3A1337%2Fannounce&tr=udp%3A%2F%2Ftracker.leechers-paradise.org%3A6969%2Fannounce&tr=udp%3A%2F%2Ftracker.coppersurfer.tk%3A6969%2Fannounce&tr=udp%3A%2F%2Ftracker.pirateparty.gr%3A6969%2Fannounce&tr=udp%3A%2F%2Ftracker.cyberia.is%3A6969%2Fannounce",
        "seeder": "9",
        "leecher": "1"
    },
    {
        "rank": "34",
        "title": "Andre Rieu Magic of the musicals 1080p DTSHD LPCM musicfromrizzo",
        "link": "magnet:?xt=urn:btih:2BD63930361B400712E2CCE79C7C89960AA24874&dn=Andre+Rieu+Magic+of+the+musicals+1080p+DTSHD+LPCM+musicfromrizzo&tr=udp%3A%2F%2Ftracker.coppersurfer.tk%3A6969%2Fannounce&tr=udp%3A%2F%2F9.rarbg.to%3A2920%2Fannounce&tr=udp%3A%2F%2Ftracker.opentrackr.org%3A1337&tr=udp%3A%2F%2Ftracker.internetwarriors.net%3A1337%2Fannounce&tr=udp%3A%2F%2Ftracker.leechers-paradise.org%3A6969%2Fannounce&tr=udp%3A%2F%2Ftracker.coppersurfer.tk%3A6969%2Fannounce&tr=udp%3A%2F%2Ftracker.pirateparty.gr%3A6969%2Fannounce&tr=udp%3A%2F%2Ftracker.cyberia.is%3A6969%2Fannounce",
        "seeder": "9",
        "leecher": "3"
    },
    {
        "rank": "35",
        "title": "John Lennon Video Anthology - 3x DVD5",
        "link": "magnet:?xt=urn:btih:CA3147DC682FFCD196AE5828E4AA97EA1BCE4FC8&dn=John+Lennon+Video+Anthology+-+3x+DVD5&tr=udp%3A%2F%2Ftracker.coppersurfer.tk%3A6969%2Fannounce&tr=udp%3A%2F%2F9.rarbg.to%3A2920%2Fannounce&tr=udp%3A%2F%2Ftracker.opentrackr.org%3A1337&tr=udp%3A%2F%2Ftracker.internetwarriors.net%3A1337%2Fannounce&tr=udp%3A%2F%2Ftracker.leechers-paradise.org%3A6969%2Fannounce&tr=udp%3A%2F%2Ftracker.coppersurfer.tk%3A6969%2Fannounce&tr=udp%3A%2F%2Ftracker.pirateparty.gr%3A6969%2Fannounce&tr=udp%3A%2F%2Ftracker.cyberia.is%3A6969%2Fannounce",
        "seeder": "9",
        "leecher": "0"
    },
    {
        "rank": "36",
        "title": "Leonard.Cohen.Live.in.Dublin.2014.1080p.BluRay.x265.DTSMA-SARTRE",
        "link": "magnet:?xt=urn:btih:4E5189D2BEF592734DE252B9A3FBC67E09D0F787&dn=Leonard.Cohen.Live.in.Dublin.2014.1080p.BluRay.x265.DTSMA-SARTRE&tr=udp%3A%2F%2Ftracker.coppersurfer.tk%3A6969%2Fannounce&tr=udp%3A%2F%2F9.rarbg.to%3A2920%2Fannounce&tr=udp%3A%2F%2Ftracker.opentrackr.org%3A1337&tr=udp%3A%2F%2Ftracker.internetwarriors.net%3A1337%2Fannounce&tr=udp%3A%2F%2Ftracker.leechers-paradise.org%3A6969%2Fannounce&tr=udp%3A%2F%2Ftracker.coppersurfer.tk%3A6969%2Fannounce&tr=udp%3A%2F%2Ftracker.pirateparty.gr%3A6969%2Fannounce&tr=udp%3A%2F%2Ftracker.cyberia.is%3A6969%2Fannounce",
        "seeder": "9",
        "leecher": "1"
    },
    {
        "rank": "37",
        "title": "Pink Floyd - 1980-02-27 - The Wall - Nassau Colliseum",
        "link": "magnet:?xt=urn:btih:941776F1BA5F16BAE97CCEE02A0D2517C5ACA160&dn=Pink+Floyd+-+1980-02-27+-+The+Wall+-+Nassau+Colliseum&tr=udp%3A%2F%2Ftracker.coppersurfer.tk%3A6969%2Fannounce&tr=udp%3A%2F%2F9.rarbg.to%3A2920%2Fannounce&tr=udp%3A%2F%2Ftracker.opentrackr.org%3A1337&tr=udp%3A%2F%2Ftracker.internetwarriors.net%3A1337%2Fannounce&tr=udp%3A%2F%2Ftracker.leechers-paradise.org%3A6969%2Fannounce&tr=udp%3A%2F%2Ftracker.coppersurfer.tk%3A6969%2Fannounce&tr=udp%3A%2F%2Ftracker.pirateparty.gr%3A6969%2Fannounce&tr=udp%3A%2F%2Ftracker.cyberia.is%3A6969%2Fannounce",
        "seeder": "9",
        "leecher": "0"
    },
    {
        "rank": "38",
        "title": "LIVE AID, Concert for Africa Vol.3 [1985] DVD9",
        "link": "magnet:?xt=urn:btih:A5E5A8FFC36D25826E67578E154BBF0FC547A2D9&dn=LIVE+AID%2C+Concert+for+Africa+Vol.3+%5B1985%5D+DVD9&tr=udp%3A%2F%2Ftracker.coppersurfer.tk%3A6969%2Fannounce&tr=udp%3A%2F%2F9.rarbg.to%3A2920%2Fannounce&tr=udp%3A%2F%2Ftracker.opentrackr.org%3A1337&tr=udp%3A%2F%2Ftracker.internetwarriors.net%3A1337%2Fannounce&tr=udp%3A%2F%2Ftracker.leechers-paradise.org%3A6969%2Fannounce&tr=udp%3A%2F%2Ftracker.coppersurfer.tk%3A6969%2Fannounce&tr=udp%3A%2F%2Ftracker.pirateparty.gr%3A6969%2Fannounce&tr=udp%3A%2F%2Ftracker.cyberia.is%3A6969%2Fannounce",
        "seeder": "9",
        "leecher": "3"
    },
    {
        "rank": "39",
        "title": "The BiG 4 Metallica Slayer Megadeth Anthrax Live in Sofia 2010 7",
        "link": "magnet:?xt=urn:btih:6E9485297A96B4019A34C2B73F1B120C12B313BF&dn=The+BiG+4+Metallica+Slayer+Megadeth+Anthrax+Live+in+Sofia+2010+7&tr=udp%3A%2F%2Ftracker.coppersurfer.tk%3A6969%2Fannounce&tr=udp%3A%2F%2F9.rarbg.to%3A2920%2Fannounce&tr=udp%3A%2F%2Ftracker.opentrackr.org%3A1337&tr=udp%3A%2F%2Ftracker.internetwarriors.net%3A1337%2Fannounce&tr=udp%3A%2F%2Ftracker.leechers-paradise.org%3A6969%2Fannounce&tr=udp%3A%2F%2Ftracker.coppersurfer.tk%3A6969%2Fannounce&tr=udp%3A%2F%2Ftracker.pirateparty.gr%3A6969%2Fannounce&tr=udp%3A%2F%2Ftracker.cyberia.is%3A6969%2Fannounce",
        "seeder": "9",
        "leecher": "0"
    },
    {
        "rank": "40",
        "title": "Michael.Jackson.LiVE.History.Tour.Munich.1997.720p.HDTV.AAC.x264",
        "link": "magnet:?xt=urn:btih:DE0125053BCC1BEC4C4B38CB20E4849B24EAC5EC&dn=Michael.Jackson.LiVE.History.Tour.Munich.1997.720p.HDTV.AAC.x264&tr=udp%3A%2F%2Ftracker.coppersurfer.tk%3A6969%2Fannounce&tr=udp%3A%2F%2F9.rarbg.to%3A2920%2Fannounce&tr=udp%3A%2F%2Ftracker.opentrackr.org%3A1337&tr=udp%3A%2F%2Ftracker.internetwarriors.net%3A1337%2Fannounce&tr=udp%3A%2F%2Ftracker.leechers-paradise.org%3A6969%2Fannounce&tr=udp%3A%2F%2Ftracker.coppersurfer.tk%3A6969%2Fannounce&tr=udp%3A%2F%2Ftracker.pirateparty.gr%3A6969%2Fannounce&tr=udp%3A%2F%2Ftracker.cyberia.is%3A6969%2Fannounce",
        "seeder": "9",
        "leecher": "1"
    },
    {
        "rank": "41",
        "title": "Tom Jones (Best of) (1989) 1080p (musicfromrizzo)",
        "link": "magnet:?xt=urn:btih:6CC476E23A874EEF6B6C375B4567262E22333098&dn=Tom+Jones+%28Best+of%29+%281989%29+1080p+%28musicfromrizzo%29&tr=udp%3A%2F%2Ftracker.coppersurfer.tk%3A6969%2Fannounce&tr=udp%3A%2F%2F9.rarbg.to%3A2920%2Fannounce&tr=udp%3A%2F%2Ftracker.opentrackr.org%3A1337&tr=udp%3A%2F%2Ftracker.internetwarriors.net%3A1337%2Fannounce&tr=udp%3A%2F%2Ftracker.leechers-paradise.org%3A6969%2Fannounce&tr=udp%3A%2F%2Ftracker.coppersurfer.tk%3A6969%2Fannounce&tr=udp%3A%2F%2Ftracker.pirateparty.gr%3A6969%2Fannounce&tr=udp%3A%2F%2Ftracker.cyberia.is%3A6969%2Fannounce",
        "seeder": "8",
        "leecher": "1"
    },
    {
        "rank": "42",
        "title": "Van Halen - 1991-12-04 - Dallas Texas - DVD5",
        "link": "magnet:?xt=urn:btih:FC65B97B87404B3ACF91DE2CDB2E8F731B5ECF26&dn=Van+Halen+-+1991-12-04+-+Dallas+Texas+-+DVD5&tr=udp%3A%2F%2Ftracker.coppersurfer.tk%3A6969%2Fannounce&tr=udp%3A%2F%2F9.rarbg.to%3A2920%2Fannounce&tr=udp%3A%2F%2Ftracker.opentrackr.org%3A1337&tr=udp%3A%2F%2Ftracker.internetwarriors.net%3A1337%2Fannounce&tr=udp%3A%2F%2Ftracker.leechers-paradise.org%3A6969%2Fannounce&tr=udp%3A%2F%2Ftracker.coppersurfer.tk%3A6969%2Fannounce&tr=udp%3A%2F%2Ftracker.pirateparty.gr%3A6969%2Fannounce&tr=udp%3A%2F%2Ftracker.cyberia.is%3A6969%2Fannounce",
        "seeder": "8",
        "leecher": "1"
    },
    {
        "rank": "43",
        "title": "Frank Zappa - 1973-08-21 - Opopoppa Stockholm - 2x DVD5",
        "link": "magnet:?xt=urn:btih:878B356F17293A5F52727C72373D0921E1FDCD56&dn=Frank+Zappa+-+1973-08-21+-+Opopoppa+Stockholm+-+2x+DVD5&tr=udp%3A%2F%2Ftracker.coppersurfer.tk%3A6969%2Fannounce&tr=udp%3A%2F%2F9.rarbg.to%3A2920%2Fannounce&tr=udp%3A%2F%2Ftracker.opentrackr.org%3A1337&tr=udp%3A%2F%2Ftracker.internetwarriors.net%3A1337%2Fannounce&tr=udp%3A%2F%2Ftracker.leechers-paradise.org%3A6969%2Fannounce&tr=udp%3A%2F%2Ftracker.coppersurfer.tk%3A6969%2Fannounce&tr=udp%3A%2F%2Ftracker.pirateparty.gr%3A6969%2Fannounce&tr=udp%3A%2F%2Ftracker.cyberia.is%3A6969%2Fannounce",
        "seeder": "8",
        "leecher": "2"
    },
    {
        "rank": "44",
        "title": "Various Artists - 1991 - Guitar Legends - Expo '92 - 6x DVD9",
        "link": "magnet:?xt=urn:btih:C85C3559D37A8D332150D12CBFC0BB1F39746732&dn=Various+Artists+-+1991+-+Guitar+Legends+-+Expo+%2792+-+6x+DVD9&tr=udp%3A%2F%2Ftracker.coppersurfer.tk%3A6969%2Fannounce&tr=udp%3A%2F%2F9.rarbg.to%3A2920%2Fannounce&tr=udp%3A%2F%2Ftracker.opentrackr.org%3A1337&tr=udp%3A%2F%2Ftracker.internetwarriors.net%3A1337%2Fannounce&tr=udp%3A%2F%2Ftracker.leechers-paradise.org%3A6969%2Fannounce&tr=udp%3A%2F%2Ftracker.coppersurfer.tk%3A6969%2Fannounce&tr=udp%3A%2F%2Ftracker.pirateparty.gr%3A6969%2Fannounce&tr=udp%3A%2F%2Ftracker.cyberia.is%3A6969%2Fannounce",
        "seeder": "8",
        "leecher": "1"
    },
    {
        "rank": "45",
        "title": "The Ramones - 1978-12-28 - Live In Winterland - DVD5",
        "link": "magnet:?xt=urn:btih:1113BCDFA970B2C1FA2C653B4553E256DD70AE25&dn=The+Ramones+-+1978-12-28+-+Live+In+Winterland+-+DVD5&tr=udp%3A%2F%2Ftracker.coppersurfer.tk%3A6969%2Fannounce&tr=udp%3A%2F%2F9.rarbg.to%3A2920%2Fannounce&tr=udp%3A%2F%2Ftracker.opentrackr.org%3A1337&tr=udp%3A%2F%2Ftracker.internetwarriors.net%3A1337%2Fannounce&tr=udp%3A%2F%2Ftracker.leechers-paradise.org%3A6969%2Fannounce&tr=udp%3A%2F%2Ftracker.coppersurfer.tk%3A6969%2Fannounce&tr=udp%3A%2F%2Ftracker.pirateparty.gr%3A6969%2Fannounce&tr=udp%3A%2F%2Ftracker.cyberia.is%3A6969%2Fannounce",
        "seeder": "8",
        "leecher": "1"
    },
    {
        "rank": "46",
        "title": "Nick Mason's Saucerful of Secrets - 2018-09-24 - Roundhouse",
        "link": "magnet:?xt=urn:btih:65FC155A58864195C1EDEAF23B72626E8EF665F3&dn=Nick+Mason%27s+Saucerful+of+Secrets+-+2018-09-24+-+Roundhouse&tr=udp%3A%2F%2Ftracker.coppersurfer.tk%3A6969%2Fannounce&tr=udp%3A%2F%2F9.rarbg.to%3A2920%2Fannounce&tr=udp%3A%2F%2Ftracker.opentrackr.org%3A1337&tr=udp%3A%2F%2Ftracker.internetwarriors.net%3A1337%2Fannounce&tr=udp%3A%2F%2Ftracker.leechers-paradise.org%3A6969%2Fannounce&tr=udp%3A%2F%2Ftracker.coppersurfer.tk%3A6969%2Fannounce&tr=udp%3A%2F%2Ftracker.pirateparty.gr%3A6969%2Fannounce&tr=udp%3A%2F%2Ftracker.cyberia.is%3A6969%2Fannounce",
        "seeder": "8",
        "leecher": "0"
    },
    {
        "rank": "47",
        "title": "George Harrison - Dark Horse Collection Vol 2 (All Green) DVD",
        "link": "magnet:?xt=urn:btih:5DB2824E5D9650C904CE6EA018D0A3759C5809E3&dn=George+Harrison+-+Dark+Horse+Collection+Vol+2+%28All+Green%29+DVD&tr=udp%3A%2F%2Ftracker.coppersurfer.tk%3A6969%2Fannounce&tr=udp%3A%2F%2F9.rarbg.to%3A2920%2Fannounce&tr=udp%3A%2F%2Ftracker.opentrackr.org%3A1337&tr=udp%3A%2F%2Ftracker.internetwarriors.net%3A1337%2Fannounce&tr=udp%3A%2F%2Ftracker.leechers-paradise.org%3A6969%2Fannounce&tr=udp%3A%2F%2Ftracker.coppersurfer.tk%3A6969%2Fannounce&tr=udp%3A%2F%2Ftracker.pirateparty.gr%3A6969%2Fannounce&tr=udp%3A%2F%2Ftracker.cyberia.is%3A6969%2Fannounce",
        "seeder": "8",
        "leecher": "0"
    },
    {
        "rank": "48",
        "title": "Supertramp - Live in Paris 1080p Hits DTS-AC3 (musicfromrizzo)",
        "link": "magnet:?xt=urn:btih:3ADB76DCD07E04BFBBB0DDC83A2071AC37B3DF8B&dn=Supertramp+-+Live+in+Paris+1080p+Hits+DTS-AC3+%28musicfromrizzo%29&tr=udp%3A%2F%2Ftracker.coppersurfer.tk%3A6969%2Fannounce&tr=udp%3A%2F%2F9.rarbg.to%3A2920%2Fannounce&tr=udp%3A%2F%2Ftracker.opentrackr.org%3A1337&tr=udp%3A%2F%2Ftracker.internetwarriors.net%3A1337%2Fannounce&tr=udp%3A%2F%2Ftracker.leechers-paradise.org%3A6969%2Fannounce&tr=udp%3A%2F%2Ftracker.coppersurfer.tk%3A6969%2Fannounce&tr=udp%3A%2F%2Ftracker.pirateparty.gr%3A6969%2Fannounce&tr=udp%3A%2F%2Ftracker.cyberia.is%3A6969%2Fannounce",
        "seeder": "8",
        "leecher": "0"
    },
    {
        "rank": "49",
        "title": "The Bee Gees - One For All Tour Live in Australia 1989 1080p AC3",
        "link": "magnet:?xt=urn:btih:0DC18F953EAF88F42AC946A2E6D9D43A2AE274B0&dn=The+Bee+Gees+-+One+For+All+Tour+Live+in+Australia+1989+1080p+AC3&tr=udp%3A%2F%2Ftracker.coppersurfer.tk%3A6969%2Fannounce&tr=udp%3A%2F%2F9.rarbg.to%3A2920%2Fannounce&tr=udp%3A%2F%2Ftracker.opentrackr.org%3A1337&tr=udp%3A%2F%2Ftracker.internetwarriors.net%3A1337%2Fannounce&tr=udp%3A%2F%2Ftracker.leechers-paradise.org%3A6969%2Fannounce&tr=udp%3A%2F%2Ftracker.coppersurfer.tk%3A6969%2Fannounce&tr=udp%3A%2F%2Ftracker.pirateparty.gr%3A6969%2Fannounce&tr=udp%3A%2F%2Ftracker.cyberia.is%3A6969%2Fannounce",
        "seeder": "8",
        "leecher": "0"
    },
    {
        "rank": "50",
        "title": "George Michael - MTV Unplugged 1996 DVD5",
        "link": "magnet:?xt=urn:btih:93B05893844142D275935F94C3616D6A1EDD81DF&dn=George+Michael+-+MTV+Unplugged+1996+DVD5&tr=udp%3A%2F%2Ftracker.coppersurfer.tk%3A6969%2Fannounce&tr=udp%3A%2F%2F9.rarbg.to%3A2920%2Fannounce&tr=udp%3A%2F%2Ftracker.opentrackr.org%3A1337&tr=udp%3A%2F%2Ftracker.internetwarriors.net%3A1337%2Fannounce&tr=udp%3A%2F%2Ftracker.leechers-paradise.org%3A6969%2Fannounce&tr=udp%3A%2F%2Ftracker.coppersurfer.tk%3A6969%2Fannounce&tr=udp%3A%2F%2Ftracker.pirateparty.gr%3A6969%2Fannounce&tr=udp%3A%2F%2Ftracker.cyberia.is%3A6969%2Fannounce",
        "seeder": "8",
        "leecher": "1"
    },
    {
        "rank": "51",
        "title": "Pink Floyd Video Anthology (Blu-Ray Edition) Disc 2",
        "link": "magnet:?xt=urn:btih:449BDD30A6EDC00E499998609D60933A5FF93F0E&dn=Pink+Floyd+Video+Anthology+%28Blu-Ray+Edition%29+Disc+2&tr=udp%3A%2F%2Ftracker.coppersurfer.tk%3A6969%2Fannounce&tr=udp%3A%2F%2F9.rarbg.to%3A2920%2Fannounce&tr=udp%3A%2F%2Ftracker.opentrackr.org%3A1337&tr=udp%3A%2F%2Ftracker.internetwarriors.net%3A1337%2Fannounce&tr=udp%3A%2F%2Ftracker.leechers-paradise.org%3A6969%2Fannounce&tr=udp%3A%2F%2Ftracker.coppersurfer.tk%3A6969%2Fannounce&tr=udp%3A%2F%2Ftracker.pirateparty.gr%3A6969%2Fannounce&tr=udp%3A%2F%2Ftracker.cyberia.is%3A6969%2Fannounce",
        "seeder": "8",
        "leecher": "3"
    },
    {
        "rank": "52",
        "title": "John.Mayer.Where.The.Light.Is.Live.In.LA.720p.MBluRay.x264-HD",
        "link": "magnet:?xt=urn:btih:5A563DA05448CC44B9948D6660C6F595BA44806A&dn=John.Mayer.Where.The.Light.Is.Live.In.LA.720p.MBluRay.x264-HD&tr=udp%3A%2F%2Ftracker.coppersurfer.tk%3A6969%2Fannounce&tr=udp%3A%2F%2F9.rarbg.to%3A2920%2Fannounce&tr=udp%3A%2F%2Ftracker.opentrackr.org%3A1337&tr=udp%3A%2F%2Ftracker.internetwarriors.net%3A1337%2Fannounce&tr=udp%3A%2F%2Ftracker.leechers-paradise.org%3A6969%2Fannounce&tr=udp%3A%2F%2Ftracker.coppersurfer.tk%3A6969%2Fannounce&tr=udp%3A%2F%2Ftracker.pirateparty.gr%3A6969%2Fannounce&tr=udp%3A%2F%2Ftracker.cyberia.is%3A6969%2Fannounce",
        "seeder": "8",
        "leecher": "3"
    },
    {
        "rank": "53",
        "title": "John Patitucci - Bass Guitar Lessons & Techniques",
        "link": "magnet:?xt=urn:btih:758E9405F09DA594B8A2B3F47CA98F06ABEF27D4&dn=John+Patitucci+-+Bass+Guitar+Lessons+%26+Techniques&tr=udp%3A%2F%2Ftracker.coppersurfer.tk%3A6969%2Fannounce&tr=udp%3A%2F%2F9.rarbg.to%3A2920%2Fannounce&tr=udp%3A%2F%2Ftracker.opentrackr.org%3A1337&tr=udp%3A%2F%2Ftracker.internetwarriors.net%3A1337%2Fannounce&tr=udp%3A%2F%2Ftracker.leechers-paradise.org%3A6969%2Fannounce&tr=udp%3A%2F%2Ftracker.coppersurfer.tk%3A6969%2Fannounce&tr=udp%3A%2F%2Ftracker.pirateparty.gr%3A6969%2Fannounce&tr=udp%3A%2F%2Ftracker.cyberia.is%3A6969%2Fannounce",
        "seeder": "8",
        "leecher": "1"
    },
    {
        "rank": "54",
        "title": "Old Shoebox Music 64",
        "link": "magnet:?xt=urn:btih:94679FD11275E8AA81F1D162BFAA291BA7D1CEF9&dn=Old+Shoebox+Music+64&tr=udp%3A%2F%2Ftracker.coppersurfer.tk%3A6969%2Fannounce&tr=udp%3A%2F%2F9.rarbg.to%3A2920%2Fannounce&tr=udp%3A%2F%2Ftracker.opentrackr.org%3A1337&tr=udp%3A%2F%2Ftracker.internetwarriors.net%3A1337%2Fannounce&tr=udp%3A%2F%2Ftracker.leechers-paradise.org%3A6969%2Fannounce&tr=udp%3A%2F%2Ftracker.coppersurfer.tk%3A6969%2Fannounce&tr=udp%3A%2F%2Ftracker.pirateparty.gr%3A6969%2Fannounce&tr=udp%3A%2F%2Ftracker.cyberia.is%3A6969%2Fannounce",
        "seeder": "7",
        "leecher": "12"
    },
    {
        "rank": "55",
        "title": "Old Shoebox Music 63",
        "link": "magnet:?xt=urn:btih:E2A399CEBEE5F82AECBBB020C1CCFB36FE773247&dn=Old+Shoebox+Music+63&tr=udp%3A%2F%2Ftracker.coppersurfer.tk%3A6969%2Fannounce&tr=udp%3A%2F%2F9.rarbg.to%3A2920%2Fannounce&tr=udp%3A%2F%2Ftracker.opentrackr.org%3A1337&tr=udp%3A%2F%2Ftracker.internetwarriors.net%3A1337%2Fannounce&tr=udp%3A%2F%2Ftracker.leechers-paradise.org%3A6969%2Fannounce&tr=udp%3A%2F%2Ftracker.coppersurfer.tk%3A6969%2Fannounce&tr=udp%3A%2F%2Ftracker.pirateparty.gr%3A6969%2Fannounce&tr=udp%3A%2F%2Ftracker.cyberia.is%3A6969%2Fannounce",
        "seeder": "7",
        "leecher": "2"
    },
    {
        "rank": "56",
        "title": "Genesis - 1972-03-20 - Popshop - Belgium - DVD5",
        "link": "magnet:?xt=urn:btih:28B73B91663E864441E24C60A9C162E421402D67&dn=Genesis+-+1972-03-20+-+Popshop+-+Belgium+-+DVD5&tr=udp%3A%2F%2Ftracker.coppersurfer.tk%3A6969%2Fannounce&tr=udp%3A%2F%2F9.rarbg.to%3A2920%2Fannounce&tr=udp%3A%2F%2Ftracker.opentrackr.org%3A1337&tr=udp%3A%2F%2Ftracker.internetwarriors.net%3A1337%2Fannounce&tr=udp%3A%2F%2Ftracker.leechers-paradise.org%3A6969%2Fannounce&tr=udp%3A%2F%2Ftracker.coppersurfer.tk%3A6969%2Fannounce&tr=udp%3A%2F%2Ftracker.pirateparty.gr%3A6969%2Fannounce&tr=udp%3A%2F%2Ftracker.cyberia.is%3A6969%2Fannounce",
        "seeder": "7",
        "leecher": "0"
    },
    {
        "rank": "57",
        "title": "Procol Harum - 1967-1968 - French TV Appearances - DVD5",
        "link": "magnet:?xt=urn:btih:424352408BC8359F61C1FF9497B40B7AFBF3EC81&dn=Procol+Harum+-+1967-1968+-+French+TV+Appearances+-+DVD5&tr=udp%3A%2F%2Ftracker.coppersurfer.tk%3A6969%2Fannounce&tr=udp%3A%2F%2F9.rarbg.to%3A2920%2Fannounce&tr=udp%3A%2F%2Ftracker.opentrackr.org%3A1337&tr=udp%3A%2F%2Ftracker.internetwarriors.net%3A1337%2Fannounce&tr=udp%3A%2F%2Ftracker.leechers-paradise.org%3A6969%2Fannounce&tr=udp%3A%2F%2Ftracker.coppersurfer.tk%3A6969%2Fannounce&tr=udp%3A%2F%2Ftracker.pirateparty.gr%3A6969%2Fannounce&tr=udp%3A%2F%2Ftracker.cyberia.is%3A6969%2Fannounce",
        "seeder": "7",
        "leecher": "0"
    },
    {
        "rank": "58",
        "title": "Tears For Fears - The Seeds Of Love (Super Deluxe) (2020) BluRay",
        "link": "magnet:?xt=urn:btih:43D46CEB3FF48ED8E618D25DDAC5E5EE1099C11C&dn=Tears+For+Fears+-+The+Seeds+Of+Love+%28Super+Deluxe%29+%282020%29+BluRay&tr=udp%3A%2F%2Ftracker.coppersurfer.tk%3A6969%2Fannounce&tr=udp%3A%2F%2F9.rarbg.to%3A2920%2Fannounce&tr=udp%3A%2F%2Ftracker.opentrackr.org%3A1337&tr=udp%3A%2F%2Ftracker.internetwarriors.net%3A1337%2Fannounce&tr=udp%3A%2F%2Ftracker.leechers-paradise.org%3A6969%2Fannounce&tr=udp%3A%2F%2Ftracker.coppersurfer.tk%3A6969%2Fannounce&tr=udp%3A%2F%2Ftracker.pirateparty.gr%3A6969%2Fannounce&tr=udp%3A%2F%2Ftracker.cyberia.is%3A6969%2Fannounce",
        "seeder": "7",
        "leecher": "0"
    },
    {
        "rank": "59",
        "title": "Mike Oldfield - 1981-08-09 - Nottingham UK - DVD5",
        "link": "magnet:?xt=urn:btih:89A3EBC5ADE2B3DA97A0CBA3029B338DD731C3C0&dn=Mike+Oldfield+-+1981-08-09+-+Nottingham+UK+-+DVD5&tr=udp%3A%2F%2Ftracker.coppersurfer.tk%3A6969%2Fannounce&tr=udp%3A%2F%2F9.rarbg.to%3A2920%2Fannounce&tr=udp%3A%2F%2Ftracker.opentrackr.org%3A1337&tr=udp%3A%2F%2Ftracker.internetwarriors.net%3A1337%2Fannounce&tr=udp%3A%2F%2Ftracker.leechers-paradise.org%3A6969%2Fannounce&tr=udp%3A%2F%2Ftracker.coppersurfer.tk%3A6969%2Fannounce&tr=udp%3A%2F%2Ftracker.pirateparty.gr%3A6969%2Fannounce&tr=udp%3A%2F%2Ftracker.cyberia.is%3A6969%2Fannounce",
        "seeder": "7",
        "leecher": "0"
    },
    {
        "rank": "60",
        "title": "Fleetwood Mac - A Musical History - DVD5",
        "link": "magnet:?xt=urn:btih:851C5E713F10E9CE456881E1C8F4B6F37714A2D2&dn=Fleetwood+Mac+-+A+Musical+History+-+DVD5&tr=udp%3A%2F%2Ftracker.coppersurfer.tk%3A6969%2Fannounce&tr=udp%3A%2F%2F9.rarbg.to%3A2920%2Fannounce&tr=udp%3A%2F%2Ftracker.opentrackr.org%3A1337&tr=udp%3A%2F%2Ftracker.internetwarriors.net%3A1337%2Fannounce&tr=udp%3A%2F%2Ftracker.leechers-paradise.org%3A6969%2Fannounce&tr=udp%3A%2F%2Ftracker.coppersurfer.tk%3A6969%2Fannounce&tr=udp%3A%2F%2Ftracker.pirateparty.gr%3A6969%2Fannounce&tr=udp%3A%2F%2Ftracker.cyberia.is%3A6969%2Fannounce",
        "seeder": "7",
        "leecher": "0"
    },
    {
        "rank": "61",
        "title": "David Gilmour & Roger Daltrey - 1992-12-04 - Cali Colombia",
        "link": "magnet:?xt=urn:btih:ED904EC2E833E31182015E8A1F1D8ABFAC861D42&dn=David+Gilmour+%26amp%3B+Roger+Daltrey+-+1992-12-04+-+Cali+Colombia&tr=udp%3A%2F%2Ftracker.coppersurfer.tk%3A6969%2Fannounce&tr=udp%3A%2F%2F9.rarbg.to%3A2920%2Fannounce&tr=udp%3A%2F%2Ftracker.opentrackr.org%3A1337&tr=udp%3A%2F%2Ftracker.internetwarriors.net%3A1337%2Fannounce&tr=udp%3A%2F%2Ftracker.leechers-paradise.org%3A6969%2Fannounce&tr=udp%3A%2F%2Ftracker.coppersurfer.tk%3A6969%2Fannounce&tr=udp%3A%2F%2Ftracker.pirateparty.gr%3A6969%2Fannounce&tr=udp%3A%2F%2Ftracker.cyberia.is%3A6969%2Fannounce",
        "seeder": "7",
        "leecher": "2"
    },
    {
        "rank": "62",
        "title": "George Harrison - Quiet Legend A&E Biography DVD",
        "link": "magnet:?xt=urn:btih:B5B6673B6D333FD5DF84F8078478DAF650BE009E&dn=George+Harrison+-+Quiet+Legend+A%26amp%3BE+Biography+DVD&tr=udp%3A%2F%2Ftracker.coppersurfer.tk%3A6969%2Fannounce&tr=udp%3A%2F%2F9.rarbg.to%3A2920%2Fannounce&tr=udp%3A%2F%2Ftracker.opentrackr.org%3A1337&tr=udp%3A%2F%2Ftracker.internetwarriors.net%3A1337%2Fannounce&tr=udp%3A%2F%2Ftracker.leechers-paradise.org%3A6969%2Fannounce&tr=udp%3A%2F%2Ftracker.coppersurfer.tk%3A6969%2Fannounce&tr=udp%3A%2F%2Ftracker.pirateparty.gr%3A6969%2Fannounce&tr=udp%3A%2F%2Ftracker.cyberia.is%3A6969%2Fannounce",
        "seeder": "7",
        "leecher": "0"
    },
    {
        "rank": "63",
        "title": "Pink Floyd - 1994-04-21 - Oakland Coliseum - DVD5",
        "link": "magnet:?xt=urn:btih:411229BA193EEC9EAC954415589043FEBFC37587&dn=Pink+Floyd+-+1994-04-21+-+Oakland+Coliseum+-+DVD5&tr=udp%3A%2F%2Ftracker.coppersurfer.tk%3A6969%2Fannounce&tr=udp%3A%2F%2F9.rarbg.to%3A2920%2Fannounce&tr=udp%3A%2F%2Ftracker.opentrackr.org%3A1337&tr=udp%3A%2F%2Ftracker.internetwarriors.net%3A1337%2Fannounce&tr=udp%3A%2F%2Ftracker.leechers-paradise.org%3A6969%2Fannounce&tr=udp%3A%2F%2Ftracker.coppersurfer.tk%3A6969%2Fannounce&tr=udp%3A%2F%2Ftracker.pirateparty.gr%3A6969%2Fannounce&tr=udp%3A%2F%2Ftracker.cyberia.is%3A6969%2Fannounce",
        "seeder": "7",
        "leecher": "2"
    },
    {
        "rank": "64",
        "title": "Various Artists - 1988 - Rock & Roll Hall Of Fame",
        "link": "magnet:?xt=urn:btih:E6A6740FB58063AC18FB57FE08873081DFB8FB37&dn=Various+Artists+-+1988+-+Rock+%26amp%3B+Roll+Hall+Of+Fame&tr=udp%3A%2F%2Ftracker.coppersurfer.tk%3A6969%2Fannounce&tr=udp%3A%2F%2F9.rarbg.to%3A2920%2Fannounce&tr=udp%3A%2F%2Ftracker.opentrackr.org%3A1337&tr=udp%3A%2F%2Ftracker.internetwarriors.net%3A1337%2Fannounce&tr=udp%3A%2F%2Ftracker.leechers-paradise.org%3A6969%2Fannounce&tr=udp%3A%2F%2Ftracker.coppersurfer.tk%3A6969%2Fannounce&tr=udp%3A%2F%2Ftracker.pirateparty.gr%3A6969%2Fannounce&tr=udp%3A%2F%2Ftracker.cyberia.is%3A6969%2Fannounce",
        "seeder": "7",
        "leecher": "0"
    },
    {
        "rank": "65",
        "title": "Miles Davis Septet - North Sea Jazz Festival, 1985-07-13",
        "link": "magnet:?xt=urn:btih:16101C0993BC7DCFCEB99D853741EA71F69CC72D&dn=Miles+Davis+Septet+-+North+Sea+Jazz+Festival%2C+1985-07-13&tr=udp%3A%2F%2Ftracker.coppersurfer.tk%3A6969%2Fannounce&tr=udp%3A%2F%2F9.rarbg.to%3A2920%2Fannounce&tr=udp%3A%2F%2Ftracker.opentrackr.org%3A1337&tr=udp%3A%2F%2Ftracker.internetwarriors.net%3A1337%2Fannounce&tr=udp%3A%2F%2Ftracker.leechers-paradise.org%3A6969%2Fannounce&tr=udp%3A%2F%2Ftracker.coppersurfer.tk%3A6969%2Fannounce&tr=udp%3A%2F%2Ftracker.pirateparty.gr%3A6969%2Fannounce&tr=udp%3A%2F%2Ftracker.cyberia.is%3A6969%2Fannounce",
        "seeder": "7",
        "leecher": "0"
    },
    {
        "rank": "66",
        "title": "Bruce Springsteen - 2018-10-31 - On Broadway - Bluray",
        "link": "magnet:?xt=urn:btih:914640B8E0B2E9F2DB95B576A418BA453CACCB23&dn=Bruce+Springsteen+-+2018-10-31+-+On+Broadway+-+Bluray&tr=udp%3A%2F%2Ftracker.coppersurfer.tk%3A6969%2Fannounce&tr=udp%3A%2F%2F9.rarbg.to%3A2920%2Fannounce&tr=udp%3A%2F%2Ftracker.opentrackr.org%3A1337&tr=udp%3A%2F%2Ftracker.internetwarriors.net%3A1337%2Fannounce&tr=udp%3A%2F%2Ftracker.leechers-paradise.org%3A6969%2Fannounce&tr=udp%3A%2F%2Ftracker.coppersurfer.tk%3A6969%2Fannounce&tr=udp%3A%2F%2Ftracker.pirateparty.gr%3A6969%2Fannounce&tr=udp%3A%2F%2Ftracker.cyberia.is%3A6969%2Fannounce",
        "seeder": "7",
        "leecher": "0"
    },
    {
        "rank": "67",
        "title": "Roxy Music - 2018-12-07 - BBC4 - A Musical History - DVD5",
        "link": "magnet:?xt=urn:btih:036025F9660CC9E7744CC7B1D2D42D0671879BA0&dn=Roxy+Music+-+2018-12-07+-+BBC4+-+A+Musical+History+-+DVD5&tr=udp%3A%2F%2Ftracker.coppersurfer.tk%3A6969%2Fannounce&tr=udp%3A%2F%2F9.rarbg.to%3A2920%2Fannounce&tr=udp%3A%2F%2Ftracker.opentrackr.org%3A1337&tr=udp%3A%2F%2Ftracker.internetwarriors.net%3A1337%2Fannounce&tr=udp%3A%2F%2Ftracker.leechers-paradise.org%3A6969%2Fannounce&tr=udp%3A%2F%2Ftracker.coppersurfer.tk%3A6969%2Fannounce&tr=udp%3A%2F%2Ftracker.pirateparty.gr%3A6969%2Fannounce&tr=udp%3A%2F%2Ftracker.cyberia.is%3A6969%2Fannounce",
        "seeder": "7",
        "leecher": "0"
    },
    {
        "rank": "68",
        "title": "The.Doors.Live.at.the.Isle.of.Wight.Festival.1970.1080p.x265.DTS",
        "link": "magnet:?xt=urn:btih:174AB881255BC4C1B747DB3AB9961177E5425BA7&dn=The.Doors.Live.at.the.Isle.of.Wight.Festival.1970.1080p.x265.DTS&tr=udp%3A%2F%2Ftracker.coppersurfer.tk%3A6969%2Fannounce&tr=udp%3A%2F%2F9.rarbg.to%3A2920%2Fannounce&tr=udp%3A%2F%2Ftracker.opentrackr.org%3A1337&tr=udp%3A%2F%2Ftracker.internetwarriors.net%3A1337%2Fannounce&tr=udp%3A%2F%2Ftracker.leechers-paradise.org%3A6969%2Fannounce&tr=udp%3A%2F%2Ftracker.coppersurfer.tk%3A6969%2Fannounce&tr=udp%3A%2F%2Ftracker.pirateparty.gr%3A6969%2Fannounce&tr=udp%3A%2F%2Ftracker.cyberia.is%3A6969%2Fannounce",
        "seeder": "7",
        "leecher": "2"
    },
    {
        "rank": "69",
        "title": "LIVE AID, Concert for Africa Vol.2 [1985] DVD9",
        "link": "magnet:?xt=urn:btih:54017056E91EF78201B3074CFF0A41A8739058F1&dn=LIVE+AID%2C+Concert+for+Africa+Vol.2+%5B1985%5D+DVD9&tr=udp%3A%2F%2Ftracker.coppersurfer.tk%3A6969%2Fannounce&tr=udp%3A%2F%2F9.rarbg.to%3A2920%2Fannounce&tr=udp%3A%2F%2Ftracker.opentrackr.org%3A1337&tr=udp%3A%2F%2Ftracker.internetwarriors.net%3A1337%2Fannounce&tr=udp%3A%2F%2Ftracker.leechers-paradise.org%3A6969%2Fannounce&tr=udp%3A%2F%2Ftracker.coppersurfer.tk%3A6969%2Fannounce&tr=udp%3A%2F%2Ftracker.pirateparty.gr%3A6969%2Fannounce&tr=udp%3A%2F%2Ftracker.cyberia.is%3A6969%2Fannounce",
        "seeder": "7",
        "leecher": "4"
    },
    {
        "rank": "70",
        "title": "Neil Young - 2018-07-03 - Fox Theatre - Detroit - 1080p60",
        "link": "magnet:?xt=urn:btih:7EDB111EB6F318AE482DAB18440BF72D451B0BC7&dn=Neil+Young+-+2018-07-03+-+Fox+Theatre+-+Detroit+-+1080p60&tr=udp%3A%2F%2Ftracker.coppersurfer.tk%3A6969%2Fannounce&tr=udp%3A%2F%2F9.rarbg.to%3A2920%2Fannounce&tr=udp%3A%2F%2Ftracker.opentrackr.org%3A1337&tr=udp%3A%2F%2Ftracker.internetwarriors.net%3A1337%2Fannounce&tr=udp%3A%2F%2Ftracker.leechers-paradise.org%3A6969%2Fannounce&tr=udp%3A%2F%2Ftracker.coppersurfer.tk%3A6969%2Fannounce&tr=udp%3A%2F%2Ftracker.pirateparty.gr%3A6969%2Fannounce&tr=udp%3A%2F%2Ftracker.cyberia.is%3A6969%2Fannounce",
        "seeder": "7",
        "leecher": "0"
    },
    {
        "rank": "71",
        "title": "Whitney Houston Greatest Hits (music videos) (musicfromrizzo)",
        "link": "magnet:?xt=urn:btih:772218391FBD055CE5DC9C8787D9D2AA76FCFBBE&dn=Whitney+Houston+Greatest+Hits+%28music+videos%29+%28musicfromrizzo%29&tr=udp%3A%2F%2Ftracker.coppersurfer.tk%3A6969%2Fannounce&tr=udp%3A%2F%2F9.rarbg.to%3A2920%2Fannounce&tr=udp%3A%2F%2Ftracker.opentrackr.org%3A1337&tr=udp%3A%2F%2Ftracker.internetwarriors.net%3A1337%2Fannounce&tr=udp%3A%2F%2Ftracker.leechers-paradise.org%3A6969%2Fannounce&tr=udp%3A%2F%2Ftracker.coppersurfer.tk%3A6969%2Fannounce&tr=udp%3A%2F%2Ftracker.pirateparty.gr%3A6969%2Fannounce&tr=udp%3A%2F%2Ftracker.cyberia.is%3A6969%2Fannounce",
        "seeder": "7",
        "leecher": "0"
    },
    {
        "rank": "72",
        "title": "Foo Fighters - 2012 - Live At Lollapalooza Brasil - HD 1080i",
        "link": "magnet:?xt=urn:btih:43FB1566D217DB1A89D589FF10EC76E4EE9C229C&dn=Foo+Fighters+-+2012+-+Live+At+Lollapalooza+Brasil+-+HD+1080i&tr=udp%3A%2F%2Ftracker.coppersurfer.tk%3A6969%2Fannounce&tr=udp%3A%2F%2F9.rarbg.to%3A2920%2Fannounce&tr=udp%3A%2F%2Ftracker.opentrackr.org%3A1337&tr=udp%3A%2F%2Ftracker.internetwarriors.net%3A1337%2Fannounce&tr=udp%3A%2F%2Ftracker.leechers-paradise.org%3A6969%2Fannounce&tr=udp%3A%2F%2Ftracker.coppersurfer.tk%3A6969%2Fannounce&tr=udp%3A%2F%2Ftracker.pirateparty.gr%3A6969%2Fannounce&tr=udp%3A%2F%2Ftracker.cyberia.is%3A6969%2Fannounce",
        "seeder": "7",
        "leecher": "0"
    },
    {
        "rank": "73",
        "title": "Steely Dan - Aja - VH1 Classic Albums - MVG",
        "link": "magnet:?xt=urn:btih:D0DC79BD6EB5FD38807C8A26A33AFCE5CF6E7F1C&dn=Steely+Dan+-+Aja+-+VH1+Classic+Albums+-+MVG&tr=udp%3A%2F%2Ftracker.coppersurfer.tk%3A6969%2Fannounce&tr=udp%3A%2F%2F9.rarbg.to%3A2920%2Fannounce&tr=udp%3A%2F%2Ftracker.opentrackr.org%3A1337&tr=udp%3A%2F%2Ftracker.internetwarriors.net%3A1337%2Fannounce&tr=udp%3A%2F%2Ftracker.leechers-paradise.org%3A6969%2Fannounce&tr=udp%3A%2F%2Ftracker.coppersurfer.tk%3A6969%2Fannounce&tr=udp%3A%2F%2Ftracker.pirateparty.gr%3A6969%2Fannounce&tr=udp%3A%2F%2Ftracker.cyberia.is%3A6969%2Fannounce",
        "seeder": "7",
        "leecher": "0"
    },
    {
        "rank": "74",
        "title": "Stevie Ray Vaughan & Joe Satriani - 1990-01-30 - Unplugged",
        "link": "magnet:?xt=urn:btih:C449730BBE202BB624343DE6A99C2D92CB5854D5&dn=Stevie+Ray+Vaughan+%26amp%3B+Joe+Satriani+-+1990-01-30+-+Unplugged&tr=udp%3A%2F%2Ftracker.coppersurfer.tk%3A6969%2Fannounce&tr=udp%3A%2F%2F9.rarbg.to%3A2920%2Fannounce&tr=udp%3A%2F%2Ftracker.opentrackr.org%3A1337&tr=udp%3A%2F%2Ftracker.internetwarriors.net%3A1337%2Fannounce&tr=udp%3A%2F%2Ftracker.leechers-paradise.org%3A6969%2Fannounce&tr=udp%3A%2F%2Ftracker.coppersurfer.tk%3A6969%2Fannounce&tr=udp%3A%2F%2Ftracker.pirateparty.gr%3A6969%2Fannounce&tr=udp%3A%2F%2Ftracker.cyberia.is%3A6969%2Fannounce",
        "seeder": "7",
        "leecher": "0"
    },
    {
        "rank": "75",
        "title": "Pink Floyd Video Anthology (Blu-Ray Edition) Disc 1",
        "link": "magnet:?xt=urn:btih:A506B66D95C77DF0CE1D6AFA76B481180269FAA7&dn=Pink+Floyd+Video+Anthology+%28Blu-Ray+Edition%29+Disc+1&tr=udp%3A%2F%2Ftracker.coppersurfer.tk%3A6969%2Fannounce&tr=udp%3A%2F%2F9.rarbg.to%3A2920%2Fannounce&tr=udp%3A%2F%2Ftracker.opentrackr.org%3A1337&tr=udp%3A%2F%2Ftracker.internetwarriors.net%3A1337%2Fannounce&tr=udp%3A%2F%2Ftracker.leechers-paradise.org%3A6969%2Fannounce&tr=udp%3A%2F%2Ftracker.coppersurfer.tk%3A6969%2Fannounce&tr=udp%3A%2F%2Ftracker.pirateparty.gr%3A6969%2Fannounce&tr=udp%3A%2F%2Ftracker.cyberia.is%3A6969%2Fannounce",
        "seeder": "7",
        "leecher": "2"
    },
    {
        "rank": "76",
        "title": "Fleetwood Mac 2004-07-11 Englewood 2x DVD5",
        "link": "magnet:?xt=urn:btih:F7C70C4338EDB4842538E33B788F95AA6AB18AAB&dn=Fleetwood+Mac+2004-07-11+Englewood+2x+DVD5&tr=udp%3A%2F%2Ftracker.coppersurfer.tk%3A6969%2Fannounce&tr=udp%3A%2F%2F9.rarbg.to%3A2920%2Fannounce&tr=udp%3A%2F%2Ftracker.opentrackr.org%3A1337&tr=udp%3A%2F%2Ftracker.internetwarriors.net%3A1337%2Fannounce&tr=udp%3A%2F%2Ftracker.leechers-paradise.org%3A6969%2Fannounce&tr=udp%3A%2F%2Ftracker.coppersurfer.tk%3A6969%2Fannounce&tr=udp%3A%2F%2Ftracker.pirateparty.gr%3A6969%2Fannounce&tr=udp%3A%2F%2Ftracker.cyberia.is%3A6969%2Fannounce",
        "seeder": "7",
        "leecher": "0"
    },
    {
        "rank": "77",
        "title": "Music.Video.Collection-i0",
        "link": "magnet:?xt=urn:btih:4C547D6333DA430E0EA4EBBA304BAC1EE1857DF1&dn=Music.Video.Collection-i0&tr=udp%3A%2F%2Ftracker.coppersurfer.tk%3A6969%2Fannounce&tr=udp%3A%2F%2F9.rarbg.to%3A2920%2Fannounce&tr=udp%3A%2F%2Ftracker.opentrackr.org%3A1337&tr=udp%3A%2F%2Ftracker.internetwarriors.net%3A1337%2Fannounce&tr=udp%3A%2F%2Ftracker.leechers-paradise.org%3A6969%2Fannounce&tr=udp%3A%2F%2Ftracker.coppersurfer.tk%3A6969%2Fannounce&tr=udp%3A%2F%2Ftracker.pirateparty.gr%3A6969%2Fannounce&tr=udp%3A%2F%2Ftracker.cyberia.is%3A6969%2Fannounce",
        "seeder": "7",
        "leecher": "3"
    },
    {
        "rank": "78",
        "title": "Queen - Live At Wembley Stadium 1986 [25th Anniversary Edition]",
        "link": "magnet:?xt=urn:btih:360E8992B13E442CB5033A594A07AC0BBCEB6A4B&dn=Queen+-+Live+At+Wembley+Stadium+1986+%5B25th+Anniversary+Edition%5D&tr=udp%3A%2F%2Ftracker.coppersurfer.tk%3A6969%2Fannounce&tr=udp%3A%2F%2F9.rarbg.to%3A2920%2Fannounce&tr=udp%3A%2F%2Ftracker.opentrackr.org%3A1337&tr=udp%3A%2F%2Ftracker.internetwarriors.net%3A1337%2Fannounce&tr=udp%3A%2F%2Ftracker.leechers-paradise.org%3A6969%2Fannounce&tr=udp%3A%2F%2Ftracker.coppersurfer.tk%3A6969%2Fannounce&tr=udp%3A%2F%2Ftracker.pirateparty.gr%3A6969%2Fannounce&tr=udp%3A%2F%2Ftracker.cyberia.is%3A6969%2Fannounce",
        "seeder": "7",
        "leecher": "0"
    },
    {
        "rank": "79",
        "title": "Rigoletto (1982) Luciano Pavarotti It (multisubs)",
        "link": "magnet:?xt=urn:btih:4FF37A6774BF637EC65484F5EDF067AEBB714333&dn=Rigoletto+%281982%29+Luciano+Pavarotti+It+%28multisubs%29&tr=udp%3A%2F%2Ftracker.coppersurfer.tk%3A6969%2Fannounce&tr=udp%3A%2F%2F9.rarbg.to%3A2920%2Fannounce&tr=udp%3A%2F%2Ftracker.opentrackr.org%3A1337&tr=udp%3A%2F%2Ftracker.internetwarriors.net%3A1337%2Fannounce&tr=udp%3A%2F%2Ftracker.leechers-paradise.org%3A6969%2Fannounce&tr=udp%3A%2F%2Ftracker.coppersurfer.tk%3A6969%2Fannounce&tr=udp%3A%2F%2Ftracker.pirateparty.gr%3A6969%2Fannounce&tr=udp%3A%2F%2Ftracker.cyberia.is%3A6969%2Fannounce",
        "seeder": "7",
        "leecher": "0"
    },
    {
        "rank": "80",
        "title": "Stevie Ray Vaughan & Double Trouble - Live at the El Mocambo (19",
        "link": "magnet:?xt=urn:btih:25EA9C1E94643F7322A1595AC9A80E5A58202ABD&dn=Stevie+Ray+Vaughan+%26+Double+Trouble+-+Live+at+the+El+Mocambo+%2819&tr=udp%3A%2F%2Ftracker.coppersurfer.tk%3A6969%2Fannounce&tr=udp%3A%2F%2F9.rarbg.to%3A2920%2Fannounce&tr=udp%3A%2F%2Ftracker.opentrackr.org%3A1337&tr=udp%3A%2F%2Ftracker.internetwarriors.net%3A1337%2Fannounce&tr=udp%3A%2F%2Ftracker.leechers-paradise.org%3A6969%2Fannounce&tr=udp%3A%2F%2Ftracker.coppersurfer.tk%3A6969%2Fannounce&tr=udp%3A%2F%2Ftracker.pirateparty.gr%3A6969%2Fannounce&tr=udp%3A%2F%2Ftracker.cyberia.is%3A6969%2Fannounce",
        "seeder": "7",
        "leecher": "1"
    },
    {
        "rank": "81",
        "title": "Tom Jones At this moment jpg mp4 2160p dual AC3 (musicfromrizzo)",
        "link": "magnet:?xt=urn:btih:91471A85F1064B94A547B70C5E381C1CA85991F4&dn=Tom+Jones+At+this+moment+jpg+mp4+2160p+dual+AC3+%28musicfromrizzo%29&tr=udp%3A%2F%2Ftracker.coppersurfer.tk%3A6969%2Fannounce&tr=udp%3A%2F%2F9.rarbg.to%3A2920%2Fannounce&tr=udp%3A%2F%2Ftracker.opentrackr.org%3A1337&tr=udp%3A%2F%2Ftracker.internetwarriors.net%3A1337%2Fannounce&tr=udp%3A%2F%2Ftracker.leechers-paradise.org%3A6969%2Fannounce&tr=udp%3A%2F%2Ftracker.coppersurfer.tk%3A6969%2Fannounce&tr=udp%3A%2F%2Ftracker.pirateparty.gr%3A6969%2Fannounce&tr=udp%3A%2F%2Ftracker.cyberia.is%3A6969%2Fannounce",
        "seeder": "6",
        "leecher": "2"
    },
    {
        "rank": "82",
        "title": "Helmut Lotti goes Classic (III) 1080p picks (musicfromrizzo)",
        "link": "magnet:?xt=urn:btih:124A2BE31554331947E83F58375C701823602AEC&dn=Helmut+Lotti+goes+Classic+%28III%29+1080p+picks+%28musicfromrizzo%29&tr=udp%3A%2F%2Ftracker.coppersurfer.tk%3A6969%2Fannounce&tr=udp%3A%2F%2F9.rarbg.to%3A2920%2Fannounce&tr=udp%3A%2F%2Ftracker.opentrackr.org%3A1337&tr=udp%3A%2F%2Ftracker.internetwarriors.net%3A1337%2Fannounce&tr=udp%3A%2F%2Ftracker.leechers-paradise.org%3A6969%2Fannounce&tr=udp%3A%2F%2Ftracker.coppersurfer.tk%3A6969%2Fannounce&tr=udp%3A%2F%2Ftracker.pirateparty.gr%3A6969%2Fannounce&tr=udp%3A%2F%2Ftracker.cyberia.is%3A6969%2Fannounce",
        "seeder": "6",
        "leecher": "1"
    },
    {
        "rank": "83",
        "title": "Stray Cats - 1981-07-16 - Sartory-Sale Koln - Germany - DVD5",
        "link": "magnet:?xt=urn:btih:6E91D7DB90DF458FE9AB5539223A7CE0269BB48D&dn=Stray+Cats+-+1981-07-16+-+Sartory-Sale+Koln+-+Germany+-+DVD5&tr=udp%3A%2F%2Ftracker.coppersurfer.tk%3A6969%2Fannounce&tr=udp%3A%2F%2F9.rarbg.to%3A2920%2Fannounce&tr=udp%3A%2F%2Ftracker.opentrackr.org%3A1337&tr=udp%3A%2F%2Ftracker.internetwarriors.net%3A1337%2Fannounce&tr=udp%3A%2F%2Ftracker.leechers-paradise.org%3A6969%2Fannounce&tr=udp%3A%2F%2Ftracker.coppersurfer.tk%3A6969%2Fannounce&tr=udp%3A%2F%2Ftracker.pirateparty.gr%3A6969%2Fannounce&tr=udp%3A%2F%2Ftracker.cyberia.is%3A6969%2Fannounce",
        "seeder": "6",
        "leecher": "0"
    },
    {
        "rank": "84",
        "title": "Leonard.Cohen.Live.in.London.2009.1080p.DVDRip.HEVC.FLAC-SARTRE",
        "link": "magnet:?xt=urn:btih:B85E128CDB86871CBC1CF109C031F389245D1118&dn=Leonard.Cohen.Live.in.London.2009.1080p.DVDRip.HEVC.FLAC-SARTRE&tr=udp%3A%2F%2Ftracker.coppersurfer.tk%3A6969%2Fannounce&tr=udp%3A%2F%2F9.rarbg.to%3A2920%2Fannounce&tr=udp%3A%2F%2Ftracker.opentrackr.org%3A1337&tr=udp%3A%2F%2Ftracker.internetwarriors.net%3A1337%2Fannounce&tr=udp%3A%2F%2Ftracker.leechers-paradise.org%3A6969%2Fannounce&tr=udp%3A%2F%2Ftracker.coppersurfer.tk%3A6969%2Fannounce&tr=udp%3A%2F%2Ftracker.pirateparty.gr%3A6969%2Fannounce&tr=udp%3A%2F%2Ftracker.cyberia.is%3A6969%2Fannounce",
        "seeder": "6",
        "leecher": "1"
    },
    {
        "rank": "85",
        "title": "Iron Butterfly - 1968-1970 - Early Video Collection - DVD5",
        "link": "magnet:?xt=urn:btih:392835025BEE836738C5EBEF78A08990506F7351&dn=Iron+Butterfly+-+1968-1970+-+Early+Video+Collection+-+DVD5&tr=udp%3A%2F%2Ftracker.coppersurfer.tk%3A6969%2Fannounce&tr=udp%3A%2F%2F9.rarbg.to%3A2920%2Fannounce&tr=udp%3A%2F%2Ftracker.opentrackr.org%3A1337&tr=udp%3A%2F%2Ftracker.internetwarriors.net%3A1337%2Fannounce&tr=udp%3A%2F%2Ftracker.leechers-paradise.org%3A6969%2Fannounce&tr=udp%3A%2F%2Ftracker.coppersurfer.tk%3A6969%2Fannounce&tr=udp%3A%2F%2Ftracker.pirateparty.gr%3A6969%2Fannounce&tr=udp%3A%2F%2Ftracker.cyberia.is%3A6969%2Fannounce",
        "seeder": "6",
        "leecher": "0"
    },
    {
        "rank": "86",
        "title": "The Rolling Stones - 1995-02-25 - Johannesburg - 2x DVD5",
        "link": "magnet:?xt=urn:btih:67A5BB8D0B973203225B2F20D068292488CF50E6&dn=The+Rolling+Stones+-+1995-02-25+-+Johannesburg+-+2x+DVD5&tr=udp%3A%2F%2Ftracker.coppersurfer.tk%3A6969%2Fannounce&tr=udp%3A%2F%2F9.rarbg.to%3A2920%2Fannounce&tr=udp%3A%2F%2Ftracker.opentrackr.org%3A1337&tr=udp%3A%2F%2Ftracker.internetwarriors.net%3A1337%2Fannounce&tr=udp%3A%2F%2Ftracker.leechers-paradise.org%3A6969%2Fannounce&tr=udp%3A%2F%2Ftracker.coppersurfer.tk%3A6969%2Fannounce&tr=udp%3A%2F%2Ftracker.pirateparty.gr%3A6969%2Fannounce&tr=udp%3A%2F%2Ftracker.cyberia.is%3A6969%2Fannounce",
        "seeder": "6",
        "leecher": "1"
    },
    {
        "rank": "87",
        "title": "The Doors - Live At The Bowl '68 2012 FLAC MKV (oan)",
        "link": "magnet:?xt=urn:btih:D5C11ACFAC67F7483FCD683C7CB6471C49C124DB&dn=The+Doors+-+Live+At+The+Bowl+%2768+2012+FLAC+MKV+%28oan%29&tr=udp%3A%2F%2Ftracker.coppersurfer.tk%3A6969%2Fannounce&tr=udp%3A%2F%2F9.rarbg.to%3A2920%2Fannounce&tr=udp%3A%2F%2Ftracker.opentrackr.org%3A1337&tr=udp%3A%2F%2Ftracker.internetwarriors.net%3A1337%2Fannounce&tr=udp%3A%2F%2Ftracker.leechers-paradise.org%3A6969%2Fannounce&tr=udp%3A%2F%2Ftracker.coppersurfer.tk%3A6969%2Fannounce&tr=udp%3A%2F%2Ftracker.pirateparty.gr%3A6969%2Fannounce&tr=udp%3A%2F%2Ftracker.cyberia.is%3A6969%2Fannounce",
        "seeder": "6",
        "leecher": "3"
    },
    {
        "rank": "88",
        "title": "Johnny Winter  2007-05-12 Rockpalast",
        "link": "magnet:?xt=urn:btih:700008AD9F268D9276738A9195407B0F95E0CE63&dn=Johnny+Winter++2007-05-12+Rockpalast&tr=udp%3A%2F%2Ftracker.coppersurfer.tk%3A6969%2Fannounce&tr=udp%3A%2F%2F9.rarbg.to%3A2920%2Fannounce&tr=udp%3A%2F%2Ftracker.opentrackr.org%3A1337&tr=udp%3A%2F%2Ftracker.internetwarriors.net%3A1337%2Fannounce&tr=udp%3A%2F%2Ftracker.leechers-paradise.org%3A6969%2Fannounce&tr=udp%3A%2F%2Ftracker.coppersurfer.tk%3A6969%2Fannounce&tr=udp%3A%2F%2Ftracker.pirateparty.gr%3A6969%2Fannounce&tr=udp%3A%2F%2Ftracker.cyberia.is%3A6969%2Fannounce",
        "seeder": "6",
        "leecher": "1"
    },
    {
        "rank": "89",
        "title": "Fleetwood Mac - 1977 - Live in Tokyo - DVD5",
        "link": "magnet:?xt=urn:btih:0DD39E6746D1939AB13409E65FA5CCF766F449B0&dn=Fleetwood+Mac+-+1977+-+Live+in+Tokyo+-+DVD5&tr=udp%3A%2F%2Ftracker.coppersurfer.tk%3A6969%2Fannounce&tr=udp%3A%2F%2F9.rarbg.to%3A2920%2Fannounce&tr=udp%3A%2F%2Ftracker.opentrackr.org%3A1337&tr=udp%3A%2F%2Ftracker.internetwarriors.net%3A1337%2Fannounce&tr=udp%3A%2F%2Ftracker.leechers-paradise.org%3A6969%2Fannounce&tr=udp%3A%2F%2Ftracker.coppersurfer.tk%3A6969%2Fannounce&tr=udp%3A%2F%2Ftracker.pirateparty.gr%3A6969%2Fannounce&tr=udp%3A%2F%2Ftracker.cyberia.is%3A6969%2Fannounce",
        "seeder": "6",
        "leecher": "0"
    },
    {
        "rank": "90",
        "title": "Ringo Starr - The Video Collection Vol. 1",
        "link": "magnet:?xt=urn:btih:AA768F39245776B0BE5506A060B68C80619B64CD&dn=Ringo+Starr+-+The+Video+Collection+Vol.+1&tr=udp%3A%2F%2Ftracker.coppersurfer.tk%3A6969%2Fannounce&tr=udp%3A%2F%2F9.rarbg.to%3A2920%2Fannounce&tr=udp%3A%2F%2Ftracker.opentrackr.org%3A1337&tr=udp%3A%2F%2Ftracker.internetwarriors.net%3A1337%2Fannounce&tr=udp%3A%2F%2Ftracker.leechers-paradise.org%3A6969%2Fannounce&tr=udp%3A%2F%2Ftracker.coppersurfer.tk%3A6969%2Fannounce&tr=udp%3A%2F%2Ftracker.pirateparty.gr%3A6969%2Fannounce&tr=udp%3A%2F%2Ftracker.cyberia.is%3A6969%2Fannounce",
        "seeder": "6",
        "leecher": "0"
    },
    {
        "rank": "91",
        "title": "Oasis - 2004-06-24 - Pyramid Stage Glastonbury - DVD5",
        "link": "magnet:?xt=urn:btih:80AF9F2A23361E7A5BD99E31C79ADA0FD6733F9B&dn=Oasis+-+2004-06-24+-+Pyramid+Stage+Glastonbury+-+DVD5&tr=udp%3A%2F%2Ftracker.coppersurfer.tk%3A6969%2Fannounce&tr=udp%3A%2F%2F9.rarbg.to%3A2920%2Fannounce&tr=udp%3A%2F%2Ftracker.opentrackr.org%3A1337&tr=udp%3A%2F%2Ftracker.internetwarriors.net%3A1337%2Fannounce&tr=udp%3A%2F%2Ftracker.leechers-paradise.org%3A6969%2Fannounce&tr=udp%3A%2F%2Ftracker.coppersurfer.tk%3A6969%2Fannounce&tr=udp%3A%2F%2Ftracker.pirateparty.gr%3A6969%2Fannounce&tr=udp%3A%2F%2Ftracker.cyberia.is%3A6969%2Fannounce",
        "seeder": "6",
        "leecher": "0"
    },
    {
        "rank": "92",
        "title": "Grateful Dead - 1993 - VH1 - Truckin' With The Dead",
        "link": "magnet:?xt=urn:btih:A5BDED6E23CF2387020127229E52A2EF34D6EA56&dn=Grateful+Dead+-+1993+-+VH1+-+Truckin%27+With+The+Dead&tr=udp%3A%2F%2Ftracker.coppersurfer.tk%3A6969%2Fannounce&tr=udp%3A%2F%2F9.rarbg.to%3A2920%2Fannounce&tr=udp%3A%2F%2Ftracker.opentrackr.org%3A1337&tr=udp%3A%2F%2Ftracker.internetwarriors.net%3A1337%2Fannounce&tr=udp%3A%2F%2Ftracker.leechers-paradise.org%3A6969%2Fannounce&tr=udp%3A%2F%2Ftracker.coppersurfer.tk%3A6969%2Fannounce&tr=udp%3A%2F%2Ftracker.pirateparty.gr%3A6969%2Fannounce&tr=udp%3A%2F%2Ftracker.cyberia.is%3A6969%2Fannounce",
        "seeder": "6",
        "leecher": "0"
    },
    {
        "rank": "93",
        "title": "Jethro Tull - 1999-06-15 - Ohne Filter Extra, Germany - DVD5",
        "link": "magnet:?xt=urn:btih:D895F2CAA347AC34C2BCFC45461ABBAC7FE8FD5E&dn=Jethro+Tull+-+1999-06-15+-+Ohne+Filter+Extra%2C+Germany+-+DVD5&tr=udp%3A%2F%2Ftracker.coppersurfer.tk%3A6969%2Fannounce&tr=udp%3A%2F%2F9.rarbg.to%3A2920%2Fannounce&tr=udp%3A%2F%2Ftracker.opentrackr.org%3A1337&tr=udp%3A%2F%2Ftracker.internetwarriors.net%3A1337%2Fannounce&tr=udp%3A%2F%2Ftracker.leechers-paradise.org%3A6969%2Fannounce&tr=udp%3A%2F%2Ftracker.coppersurfer.tk%3A6969%2Fannounce&tr=udp%3A%2F%2Ftracker.pirateparty.gr%3A6969%2Fannounce&tr=udp%3A%2F%2Ftracker.cyberia.is%3A6969%2Fannounce",
        "seeder": "6",
        "leecher": "2"
    },
    {
        "rank": "94",
        "title": "Gary Moore - 1984-01-21 - Chippenham, UK - DVD5",
        "link": "magnet:?xt=urn:btih:CEB6C93019A222D5F9B2CBBC6A90CE44754D454A&dn=Gary+Moore+-+1984-01-21+-+Chippenham%2C+UK+-+DVD5&tr=udp%3A%2F%2Ftracker.coppersurfer.tk%3A6969%2Fannounce&tr=udp%3A%2F%2F9.rarbg.to%3A2920%2Fannounce&tr=udp%3A%2F%2Ftracker.opentrackr.org%3A1337&tr=udp%3A%2F%2Ftracker.internetwarriors.net%3A1337%2Fannounce&tr=udp%3A%2F%2Ftracker.leechers-paradise.org%3A6969%2Fannounce&tr=udp%3A%2F%2Ftracker.coppersurfer.tk%3A6969%2Fannounce&tr=udp%3A%2F%2Ftracker.pirateparty.gr%3A6969%2Fannounce&tr=udp%3A%2F%2Ftracker.cyberia.is%3A6969%2Fannounce",
        "seeder": "6",
        "leecher": "0"
    },
    {
        "rank": "95",
        "title": "George Harrison - Dark Horse Collection Vol 1 (All Green) DVD",
        "link": "magnet:?xt=urn:btih:727408CA3BCE3164233351312208079D96676F25&dn=George+Harrison+-+Dark+Horse+Collection+Vol+1+%28All+Green%29+DVD&tr=udp%3A%2F%2Ftracker.coppersurfer.tk%3A6969%2Fannounce&tr=udp%3A%2F%2F9.rarbg.to%3A2920%2Fannounce&tr=udp%3A%2F%2Ftracker.opentrackr.org%3A1337&tr=udp%3A%2F%2Ftracker.internetwarriors.net%3A1337%2Fannounce&tr=udp%3A%2F%2Ftracker.leechers-paradise.org%3A6969%2Fannounce&tr=udp%3A%2F%2Ftracker.coppersurfer.tk%3A6969%2Fannounce&tr=udp%3A%2F%2Ftracker.pirateparty.gr%3A6969%2Fannounce&tr=udp%3A%2F%2Ftracker.cyberia.is%3A6969%2Fannounce",
        "seeder": "6",
        "leecher": "0"
    },
    {
        "rank": "96",
        "title": "Lou Reed - 2000-04-24 - Rockpalast Dusseldorf",
        "link": "magnet:?xt=urn:btih:E1DA37B0F0D410893DA962CB1D44B6C0CF579A96&dn=Lou+Reed+-+2000-04-24+-+Rockpalast+Dusseldorf&tr=udp%3A%2F%2Ftracker.coppersurfer.tk%3A6969%2Fannounce&tr=udp%3A%2F%2F9.rarbg.to%3A2920%2Fannounce&tr=udp%3A%2F%2Ftracker.opentrackr.org%3A1337&tr=udp%3A%2F%2Ftracker.internetwarriors.net%3A1337%2Fannounce&tr=udp%3A%2F%2Ftracker.leechers-paradise.org%3A6969%2Fannounce&tr=udp%3A%2F%2Ftracker.coppersurfer.tk%3A6969%2Fannounce&tr=udp%3A%2F%2Ftracker.pirateparty.gr%3A6969%2Fannounce&tr=udp%3A%2F%2Ftracker.cyberia.is%3A6969%2Fannounce",
        "seeder": "6",
        "leecher": "2"
    },
    {
        "rank": "97",
        "title": "Jimi Hendrix - 1967-1972 - French TV Archives",
        "link": "magnet:?xt=urn:btih:6F58A2159CBD3B9B8C13A5294A125A3406D3E0D7&dn=Jimi+Hendrix+-+1967-1972+-+French+TV+Archives&tr=udp%3A%2F%2Ftracker.coppersurfer.tk%3A6969%2Fannounce&tr=udp%3A%2F%2F9.rarbg.to%3A2920%2Fannounce&tr=udp%3A%2F%2Ftracker.opentrackr.org%3A1337&tr=udp%3A%2F%2Ftracker.internetwarriors.net%3A1337%2Fannounce&tr=udp%3A%2F%2Ftracker.leechers-paradise.org%3A6969%2Fannounce&tr=udp%3A%2F%2Ftracker.coppersurfer.tk%3A6969%2Fannounce&tr=udp%3A%2F%2Ftracker.pirateparty.gr%3A6969%2Fannounce&tr=udp%3A%2F%2Ftracker.cyberia.is%3A6969%2Fannounce",
        "seeder": "6",
        "leecher": "0"
    },
    {
        "rank": "98",
        "title": "Grateful Dead - 1972-04-21 - Beat Club - 720p",
        "link": "magnet:?xt=urn:btih:5C64F56D7520C57A1A2B774E75450669C190C05A&dn=Grateful+Dead+-+1972-04-21+-+Beat+Club+-+720p&tr=udp%3A%2F%2Ftracker.coppersurfer.tk%3A6969%2Fannounce&tr=udp%3A%2F%2F9.rarbg.to%3A2920%2Fannounce&tr=udp%3A%2F%2Ftracker.opentrackr.org%3A1337&tr=udp%3A%2F%2Ftracker.internetwarriors.net%3A1337%2Fannounce&tr=udp%3A%2F%2Ftracker.leechers-paradise.org%3A6969%2Fannounce&tr=udp%3A%2F%2Ftracker.coppersurfer.tk%3A6969%2Fannounce&tr=udp%3A%2F%2Ftracker.pirateparty.gr%3A6969%2Fannounce&tr=udp%3A%2F%2Ftracker.cyberia.is%3A6969%2Fannounce",
        "seeder": "6",
        "leecher": "1"
    },
    {
        "rank": "99",
        "title": "Jimi Hendrix - Band Of Gypsys - DVD5",
        "link": "magnet:?xt=urn:btih:66052F1E61DAA6EC941BEF68FD7F02464B350B0B&dn=Jimi+Hendrix+-+Band+Of+Gypsys+-+DVD5&tr=udp%3A%2F%2Ftracker.coppersurfer.tk%3A6969%2Fannounce&tr=udp%3A%2F%2F9.rarbg.to%3A2920%2Fannounce&tr=udp%3A%2F%2Ftracker.opentrackr.org%3A1337&tr=udp%3A%2F%2Ftracker.internetwarriors.net%3A1337%2Fannounce&tr=udp%3A%2F%2Ftracker.leechers-paradise.org%3A6969%2Fannounce&tr=udp%3A%2F%2Ftracker.coppersurfer.tk%3A6969%2Fannounce&tr=udp%3A%2F%2Ftracker.pirateparty.gr%3A6969%2Fannounce&tr=udp%3A%2F%2Ftracker.cyberia.is%3A6969%2Fannounce",
        "seeder": "6",
        "leecher": "0"
    },
    {
        "rank": "100",
        "title": "Paul McCartney - Junk - DVD5",
        "link": "magnet:?xt=urn:btih:3C0CBD85786895D96B77AAD0F00E4D2853D0A6F6&dn=Paul+McCartney+-+Junk+-+DVD5&tr=udp%3A%2F%2Ftracker.coppersurfer.tk%3A6969%2Fannounce&tr=udp%3A%2F%2F9.rarbg.to%3A2920%2Fannounce&tr=udp%3A%2F%2Ftracker.opentrackr.org%3A1337&tr=udp%3A%2F%2Ftracker.internetwarriors.net%3A1337%2Fannounce&tr=udp%3A%2F%2Ftracker.leechers-paradise.org%3A6969%2Fannounce&tr=udp%3A%2F%2Ftracker.coppersurfer.tk%3A6969%2Fannounce&tr=udp%3A%2F%2Ftracker.pirateparty.gr%3A6969%2Fannounce&tr=udp%3A%2F%2Ftracker.cyberia.is%3A6969%2Fannounce",
        "seeder": "6",
        "leecher": "1"
    }
]
