[
    {
        "rank": "1",
        "title": "Forbidden Knowledge - 101 Things No One Should Know How to Do",
        "link": "magnet:?xt=urn:btih:A855EFE0EF64C6BE64DC500CF7463BFDD960CDFC&dn=Forbidden+Knowledge+-+101+Things+No+One+Should+Know+How+to+Do&tr=udp%3A%2F%2Ftracker.coppersurfer.tk%3A6969%2Fannounce&tr=udp%3A%2F%2F9.rarbg.to%3A2920%2Fannounce&tr=udp%3A%2F%2Ftracker.opentrackr.org%3A1337&tr=udp%3A%2F%2Ftracker.internetwarriors.net%3A1337%2Fannounce&tr=udp%3A%2F%2Ftracker.leechers-paradise.org%3A6969%2Fannounce&tr=udp%3A%2F%2Ftracker.coppersurfer.tk%3A6969%2Fannounce&tr=udp%3A%2F%2Ftracker.pirateparty.gr%3A6969%2Fannounce&tr=udp%3A%2F%2Ftracker.cyberia.is%3A6969%2Fannounce",
        "seeder": "260",
        "leecher": "6"
    },
    {
        "rank": "2",
        "title": "Microsoft leaked source code archive_2020-09-24",
        "link": "magnet:?xt=urn:btih:3D8B16242B56A3AAFB8DA7B5FC83EF993EBCF35B&dn=Microsoft+leaked+source+code+archive_2020-09-24&tr=udp%3A%2F%2Ftracker.coppersurfer.tk%3A6969%2Fannounce&tr=udp%3A%2F%2F9.rarbg.to%3A2920%2Fannounce&tr=udp%3A%2F%2Ftracker.opentrackr.org%3A1337&tr=udp%3A%2F%2Ftracker.internetwarriors.net%3A1337%2Fannounce&tr=udp%3A%2F%2Ftracker.leechers-paradise.org%3A6969%2Fannounce&tr=udp%3A%2F%2Ftracker.coppersurfer.tk%3A6969%2Fannounce&tr=udp%3A%2F%2Ftracker.pirateparty.gr%3A6969%2Fannounce&tr=udp%3A%2F%2Ftracker.cyberia.is%3A6969%2Fannounce",
        "seeder": "205",
        "leecher": "48"
    },
    {
        "rank": "3",
        "title": "Python All-In-One for Dummies",
        "link": "magnet:?xt=urn:btih:F60E849F18020861F74421F0EEA90F8310A5B8C9&dn=Python+All-In-One+for+Dummies&tr=udp%3A%2F%2Ftracker.coppersurfer.tk%3A6969%2Fannounce&tr=udp%3A%2F%2F9.rarbg.to%3A2920%2Fannounce&tr=udp%3A%2F%2Ftracker.opentrackr.org%3A1337&tr=udp%3A%2F%2Ftracker.internetwarriors.net%3A1337%2Fannounce&tr=udp%3A%2F%2Ftracker.leechers-paradise.org%3A6969%2Fannounce&tr=udp%3A%2F%2Ftracker.coppersurfer.tk%3A6969%2Fannounce&tr=udp%3A%2F%2Ftracker.pirateparty.gr%3A6969%2Fannounce&tr=udp%3A%2F%2Ftracker.cyberia.is%3A6969%2Fannounce",
        "seeder": "186",
        "leecher": "6"
    },
    {
        "rank": "4",
        "title": "A Promised Land by Barack Obama EPUB",
        "link": "magnet:?xt=urn:btih:BC5A6EE8BE94E2CD100CC3B3B9AC233BCF9230EB&dn=A+Promised+Land+by+Barack+Obama+EPUB&tr=udp%3A%2F%2Ftracker.coppersurfer.tk%3A6969%2Fannounce&tr=udp%3A%2F%2F9.rarbg.to%3A2920%2Fannounce&tr=udp%3A%2F%2Ftracker.opentrackr.org%3A1337&tr=udp%3A%2F%2Ftracker.internetwarriors.net%3A1337%2Fannounce&tr=udp%3A%2F%2Ftracker.leechers-paradise.org%3A6969%2Fannounce&tr=udp%3A%2F%2Ftracker.coppersurfer.tk%3A6969%2Fannounce&tr=udp%3A%2F%2Ftracker.pirateparty.gr%3A6969%2Fannounce&tr=udp%3A%2F%2Ftracker.cyberia.is%3A6969%2Fannounce",
        "seeder": "176",
        "leecher": "1"
    },
    {
        "rank": "5",
        "title": "40 Assorted Books Collection PDF-EPUB Pack 127",
        "link": "magnet:?xt=urn:btih:83287D31C957D3F6C16E2EF97F30010685073692&dn=40+Assorted+Books+Collection+PDF-EPUB+Pack+127&tr=udp%3A%2F%2Ftracker.coppersurfer.tk%3A6969%2Fannounce&tr=udp%3A%2F%2F9.rarbg.to%3A2920%2Fannounce&tr=udp%3A%2F%2Ftracker.opentrackr.org%3A1337&tr=udp%3A%2F%2Ftracker.internetwarriors.net%3A1337%2Fannounce&tr=udp%3A%2F%2Ftracker.leechers-paradise.org%3A6969%2Fannounce&tr=udp%3A%2F%2Ftracker.coppersurfer.tk%3A6969%2Fannounce&tr=udp%3A%2F%2Ftracker.pirateparty.gr%3A6969%2Fannounce&tr=udp%3A%2F%2Ftracker.cyberia.is%3A6969%2Fannounce",
        "seeder": "172",
        "leecher": "240"
    },
    {
        "rank": "6",
        "title": "The 100 Best Business Books of All Time (2016) (EPUB) [WWRG]",
        "link": "magnet:?xt=urn:btih:7AD8A2B653160D8F5A9521624BFDF71D3BC82444&dn=The+100+Best+Business+Books+of+All+Time+%282016%29+%28EPUB%29+%5BWWRG%5D&tr=udp%3A%2F%2Ftracker.coppersurfer.tk%3A6969%2Fannounce&tr=udp%3A%2F%2F9.rarbg.to%3A2920%2Fannounce&tr=udp%3A%2F%2Ftracker.opentrackr.org%3A1337&tr=udp%3A%2F%2Ftracker.internetwarriors.net%3A1337%2Fannounce&tr=udp%3A%2F%2Ftracker.leechers-paradise.org%3A6969%2Fannounce&tr=udp%3A%2F%2Ftracker.coppersurfer.tk%3A6969%2Fannounce&tr=udp%3A%2F%2Ftracker.pirateparty.gr%3A6969%2Fannounce&tr=udp%3A%2F%2Ftracker.cyberia.is%3A6969%2Fannounce",
        "seeder": "165",
        "leecher": "10"
    },
    {
        "rank": "7",
        "title": "Rich Dad Poor Dad by Robert T. Kiyosaki EPUB",
        "link": "magnet:?xt=urn:btih:A948077C69CAF509F32575A4E1B40A23AE7ED5B1&dn=Rich+Dad+Poor+Dad+by+Robert+T.+Kiyosaki+EPUB&tr=udp%3A%2F%2Ftracker.coppersurfer.tk%3A6969%2Fannounce&tr=udp%3A%2F%2F9.rarbg.to%3A2920%2Fannounce&tr=udp%3A%2F%2Ftracker.opentrackr.org%3A1337&tr=udp%3A%2F%2Ftracker.internetwarriors.net%3A1337%2Fannounce&tr=udp%3A%2F%2Ftracker.leechers-paradise.org%3A6969%2Fannounce&tr=udp%3A%2F%2Ftracker.coppersurfer.tk%3A6969%2Fannounce&tr=udp%3A%2F%2Ftracker.pirateparty.gr%3A6969%2Fannounce&tr=udp%3A%2F%2Ftracker.cyberia.is%3A6969%2Fannounce",
        "seeder": "152",
        "leecher": "2"
    },
    {
        "rank": "8",
        "title": "All Dune books + short stories + extras ePUB",
        "link": "magnet:?xt=urn:btih:4C35CAE8BEB1607C900847EBDDF264D881D06267&dn=All+Dune+books+%2B+short+stories+%2B+extras+ePUB&tr=udp%3A%2F%2Ftracker.coppersurfer.tk%3A6969%2Fannounce&tr=udp%3A%2F%2F9.rarbg.to%3A2920%2Fannounce&tr=udp%3A%2F%2Ftracker.opentrackr.org%3A1337&tr=udp%3A%2F%2Ftracker.internetwarriors.net%3A1337%2Fannounce&tr=udp%3A%2F%2Ftracker.leechers-paradise.org%3A6969%2Fannounce&tr=udp%3A%2F%2Ftracker.coppersurfer.tk%3A6969%2Fannounce&tr=udp%3A%2F%2Ftracker.pirateparty.gr%3A6969%2Fannounce&tr=udp%3A%2F%2Ftracker.cyberia.is%3A6969%2Fannounce",
        "seeder": "150",
        "leecher": "9"
    },
    {
        "rank": "9",
        "title": "60 Assorted Magazines PDF March 30 2021 Pack 2",
        "link": "magnet:?xt=urn:btih:A132A284BDADDDA443A6D804443916070B1894C9&dn=60+Assorted+Magazines+PDF+March+30+2021+Pack+2&tr=udp%3A%2F%2Ftracker.coppersurfer.tk%3A6969%2Fannounce&tr=udp%3A%2F%2F9.rarbg.to%3A2920%2Fannounce&tr=udp%3A%2F%2Ftracker.opentrackr.org%3A1337&tr=udp%3A%2F%2Ftracker.internetwarriors.net%3A1337%2Fannounce&tr=udp%3A%2F%2Ftracker.leechers-paradise.org%3A6969%2Fannounce&tr=udp%3A%2F%2Ftracker.coppersurfer.tk%3A6969%2Fannounce&tr=udp%3A%2F%2Ftracker.pirateparty.gr%3A6969%2Fannounce&tr=udp%3A%2F%2Ftracker.cyberia.is%3A6969%2Fannounce",
        "seeder": "143",
        "leecher": "518"
    },
    {
        "rank": "10",
        "title": "Artistic Nudes By Various Photographers",
        "link": "magnet:?xt=urn:btih:AEBF7B26FFAFC4347179817AD18BDBDB8AA65DBA&dn=Artistic+Nudes+By+Various+Photographers&tr=udp%3A%2F%2Ftracker.coppersurfer.tk%3A6969%2Fannounce&tr=udp%3A%2F%2F9.rarbg.to%3A2920%2Fannounce&tr=udp%3A%2F%2Ftracker.opentrackr.org%3A1337&tr=udp%3A%2F%2Ftracker.internetwarriors.net%3A1337%2Fannounce&tr=udp%3A%2F%2Ftracker.leechers-paradise.org%3A6969%2Fannounce&tr=udp%3A%2F%2Ftracker.coppersurfer.tk%3A6969%2Fannounce&tr=udp%3A%2F%2Ftracker.pirateparty.gr%3A6969%2Fannounce&tr=udp%3A%2F%2Ftracker.cyberia.is%3A6969%2Fannounce",
        "seeder": "139",
        "leecher": "8"
    },
    {
        "rank": "11",
        "title": "40 Assorted Books Collection PDF-EPUB Pack 126",
        "link": "magnet:?xt=urn:btih:32F780FEAB4C60D1611124C1D66B16068F285069&dn=40+Assorted+Books+Collection+PDF-EPUB+Pack+126&tr=udp%3A%2F%2Ftracker.coppersurfer.tk%3A6969%2Fannounce&tr=udp%3A%2F%2F9.rarbg.to%3A2920%2Fannounce&tr=udp%3A%2F%2Ftracker.opentrackr.org%3A1337&tr=udp%3A%2F%2Ftracker.internetwarriors.net%3A1337%2Fannounce&tr=udp%3A%2F%2Ftracker.leechers-paradise.org%3A6969%2Fannounce&tr=udp%3A%2F%2Ftracker.coppersurfer.tk%3A6969%2Fannounce&tr=udp%3A%2F%2Ftracker.pirateparty.gr%3A6969%2Fannounce&tr=udp%3A%2F%2Ftracker.cyberia.is%3A6969%2Fannounce",
        "seeder": "138",
        "leecher": "97"
    },
    {
        "rank": "12",
        "title": "Limitless: Upgrade Your Brain ..  by Jim Kwik EPUB",
        "link": "magnet:?xt=urn:btih:413C1E65EBDC69F1A7F466E76AF5F777A249E812&dn=Limitless%3A+Upgrade+Your+Brain+..++by+Jim+Kwik+EPUB&tr=udp%3A%2F%2Ftracker.coppersurfer.tk%3A6969%2Fannounce&tr=udp%3A%2F%2F9.rarbg.to%3A2920%2Fannounce&tr=udp%3A%2F%2Ftracker.opentrackr.org%3A1337&tr=udp%3A%2F%2Ftracker.internetwarriors.net%3A1337%2Fannounce&tr=udp%3A%2F%2Ftracker.leechers-paradise.org%3A6969%2Fannounce&tr=udp%3A%2F%2Ftracker.coppersurfer.tk%3A6969%2Fannounce&tr=udp%3A%2F%2Ftracker.pirateparty.gr%3A6969%2Fannounce&tr=udp%3A%2F%2Ftracker.cyberia.is%3A6969%2Fannounce",
        "seeder": "133",
        "leecher": "2"
    },
    {
        "rank": "13",
        "title": "Influence! - 47 Forbidden Psychological Tactics You Can Use To M",
        "link": "magnet:?xt=urn:btih:4A8509B87ABB47DF7BC69B764AE4F8696F5A7201&dn=Influence%21+-+47+Forbidden+Psychological+Tactics+You+Can+Use+To+M&tr=udp%3A%2F%2Ftracker.coppersurfer.tk%3A6969%2Fannounce&tr=udp%3A%2F%2F9.rarbg.to%3A2920%2Fannounce&tr=udp%3A%2F%2Ftracker.opentrackr.org%3A1337&tr=udp%3A%2F%2Ftracker.internetwarriors.net%3A1337%2Fannounce&tr=udp%3A%2F%2Ftracker.leechers-paradise.org%3A6969%2Fannounce&tr=udp%3A%2F%2Ftracker.coppersurfer.tk%3A6969%2Fannounce&tr=udp%3A%2F%2Ftracker.pirateparty.gr%3A6969%2Fannounce&tr=udp%3A%2F%2Ftracker.cyberia.is%3A6969%2Fannounce",
        "seeder": "132",
        "leecher": "2"
    },
    {
        "rank": "14",
        "title": "The Encyclopedia of Ancient and Forbidden Knowledge",
        "link": "magnet:?xt=urn:btih:D691BFB0020DCC9C573A1127D44C7212D1E34D7E&dn=The+Encyclopedia+of+Ancient+and+Forbidden+Knowledge&tr=udp%3A%2F%2Ftracker.coppersurfer.tk%3A6969%2Fannounce&tr=udp%3A%2F%2F9.rarbg.to%3A2920%2Fannounce&tr=udp%3A%2F%2Ftracker.opentrackr.org%3A1337&tr=udp%3A%2F%2Ftracker.internetwarriors.net%3A1337%2Fannounce&tr=udp%3A%2F%2Ftracker.leechers-paradise.org%3A6969%2Fannounce&tr=udp%3A%2F%2Ftracker.coppersurfer.tk%3A6969%2Fannounce&tr=udp%3A%2F%2Ftracker.pirateparty.gr%3A6969%2Fannounce&tr=udp%3A%2F%2Ftracker.cyberia.is%3A6969%2Fannounce",
        "seeder": "130",
        "leecher": "3"
    },
    {
        "rank": "15",
        "title": "The Complete Chess Course (2016).epub Gooner",
        "link": "magnet:?xt=urn:btih:335D8778ED9E217CED256D700F78F4666A488348&dn=The+Complete+Chess+Course+%282016%29.epub+Gooner&tr=udp%3A%2F%2Ftracker.coppersurfer.tk%3A6969%2Fannounce&tr=udp%3A%2F%2F9.rarbg.to%3A2920%2Fannounce&tr=udp%3A%2F%2Ftracker.opentrackr.org%3A1337&tr=udp%3A%2F%2Ftracker.internetwarriors.net%3A1337%2Fannounce&tr=udp%3A%2F%2Ftracker.leechers-paradise.org%3A6969%2Fannounce&tr=udp%3A%2F%2Ftracker.coppersurfer.tk%3A6969%2Fannounce&tr=udp%3A%2F%2Ftracker.pirateparty.gr%3A6969%2Fannounce&tr=udp%3A%2F%2Ftracker.cyberia.is%3A6969%2Fannounce",
        "seeder": "130",
        "leecher": "1"
    },
    {
        "rank": "16",
        "title": "The Big Book Of Small House Designs 75 Award Winning Plans For Y",
        "link": "magnet:?xt=urn:btih:E56AF90E680AE914D271CB306087B77F1F5B8EA5&dn=The+Big+Book+Of+Small+House+Designs+75+Award+Winning+Plans+For+Y&tr=udp%3A%2F%2Ftracker.coppersurfer.tk%3A6969%2Fannounce&tr=udp%3A%2F%2F9.rarbg.to%3A2920%2Fannounce&tr=udp%3A%2F%2Ftracker.opentrackr.org%3A1337&tr=udp%3A%2F%2Ftracker.internetwarriors.net%3A1337%2Fannounce&tr=udp%3A%2F%2Ftracker.leechers-paradise.org%3A6969%2Fannounce&tr=udp%3A%2F%2Ftracker.coppersurfer.tk%3A6969%2Fannounce&tr=udp%3A%2F%2Ftracker.pirateparty.gr%3A6969%2Fannounce&tr=udp%3A%2F%2Ftracker.cyberia.is%3A6969%2Fannounce",
        "seeder": "126",
        "leecher": "7"
    },
    {
        "rank": "17",
        "title": "Playboy South Africa - March 2021",
        "link": "magnet:?xt=urn:btih:B09F87DF6F5375AF5BE09590665C9FCC94A0EDC7&dn=Playboy+South+Africa+-+March+2021&tr=udp%3A%2F%2Ftracker.coppersurfer.tk%3A6969%2Fannounce&tr=udp%3A%2F%2F9.rarbg.to%3A2920%2Fannounce&tr=udp%3A%2F%2Ftracker.opentrackr.org%3A1337&tr=udp%3A%2F%2Ftracker.internetwarriors.net%3A1337%2Fannounce&tr=udp%3A%2F%2Ftracker.leechers-paradise.org%3A6969%2Fannounce&tr=udp%3A%2F%2Ftracker.coppersurfer.tk%3A6969%2Fannounce&tr=udp%3A%2F%2Ftracker.pirateparty.gr%3A6969%2Fannounce&tr=udp%3A%2F%2Ftracker.cyberia.is%3A6969%2Fannounce",
        "seeder": "125",
        "leecher": "23"
    },
    {
        "rank": "18",
        "title": "Computer Programming JavaScript, Python, HTML, SQL, CSS The step",
        "link": "magnet:?xt=urn:btih:E7DF485CF22A974E1BA8F9D6DAC38270860B54BA&dn=Computer+Programming+JavaScript%2C+Python%2C+HTML%2C+SQL%2C+CSS+The+step&tr=udp%3A%2F%2Ftracker.coppersurfer.tk%3A6969%2Fannounce&tr=udp%3A%2F%2F9.rarbg.to%3A2920%2Fannounce&tr=udp%3A%2F%2Ftracker.opentrackr.org%3A1337&tr=udp%3A%2F%2Ftracker.internetwarriors.net%3A1337%2Fannounce&tr=udp%3A%2F%2Ftracker.leechers-paradise.org%3A6969%2Fannounce&tr=udp%3A%2F%2Ftracker.coppersurfer.tk%3A6969%2Fannounce&tr=udp%3A%2F%2Ftracker.pirateparty.gr%3A6969%2Fannounce&tr=udp%3A%2F%2Ftracker.cyberia.is%3A6969%2Fannounce",
        "seeder": "123",
        "leecher": "3"
    },
    {
        "rank": "19",
        "title": "How To Fix Absolutely Anything A Homeowners Guide",
        "link": "magnet:?xt=urn:btih:A1A9E51C83C6DFFEF5720E0B90F9C1F24BD9C4A3&dn=How+To+Fix+Absolutely+Anything+A+Homeowners+Guide&tr=udp%3A%2F%2Ftracker.coppersurfer.tk%3A6969%2Fannounce&tr=udp%3A%2F%2F9.rarbg.to%3A2920%2Fannounce&tr=udp%3A%2F%2Ftracker.opentrackr.org%3A1337&tr=udp%3A%2F%2Ftracker.internetwarriors.net%3A1337%2Fannounce&tr=udp%3A%2F%2Ftracker.leechers-paradise.org%3A6969%2Fannounce&tr=udp%3A%2F%2Ftracker.coppersurfer.tk%3A6969%2Fannounce&tr=udp%3A%2F%2Ftracker.pirateparty.gr%3A6969%2Fannounce&tr=udp%3A%2F%2Ftracker.cyberia.is%3A6969%2Fannounce",
        "seeder": "123",
        "leecher": "7"
    },
    {
        "rank": "20",
        "title": "What's Where on Earth Atlas - The World as You've Never Seen It",
        "link": "magnet:?xt=urn:btih:B2DBB9C096B4A6305EED35A999B9F2DF82025813&dn=What%27s+Where+on+Earth+Atlas+-+The+World+as+You%27ve+Never+Seen+It&tr=udp%3A%2F%2Ftracker.coppersurfer.tk%3A6969%2Fannounce&tr=udp%3A%2F%2F9.rarbg.to%3A2920%2Fannounce&tr=udp%3A%2F%2Ftracker.opentrackr.org%3A1337&tr=udp%3A%2F%2Ftracker.internetwarriors.net%3A1337%2Fannounce&tr=udp%3A%2F%2Ftracker.leechers-paradise.org%3A6969%2Fannounce&tr=udp%3A%2F%2Ftracker.coppersurfer.tk%3A6969%2Fannounce&tr=udp%3A%2F%2Ftracker.pirateparty.gr%3A6969%2Fannounce&tr=udp%3A%2F%2Ftracker.cyberia.is%3A6969%2Fannounce",
        "seeder": "123",
        "leecher": "1"
    },
    {
        "rank": "21",
        "title": "Microsoft PowerPoint, Visio and Word 2016 - Step by Step (2016)",
        "link": "magnet:?xt=urn:btih:90DD16E5028D45A3DE7A280D956FD0140EC9E1FB&dn=Microsoft+PowerPoint%2C+Visio+and+Word+2016+-+Step+by+Step+%282016%29&tr=udp%3A%2F%2Ftracker.coppersurfer.tk%3A6969%2Fannounce&tr=udp%3A%2F%2F9.rarbg.to%3A2920%2Fannounce&tr=udp%3A%2F%2Ftracker.opentrackr.org%3A1337&tr=udp%3A%2F%2Ftracker.internetwarriors.net%3A1337%2Fannounce&tr=udp%3A%2F%2Ftracker.leechers-paradise.org%3A6969%2Fannounce&tr=udp%3A%2F%2Ftracker.coppersurfer.tk%3A6969%2Fannounce&tr=udp%3A%2F%2Ftracker.pirateparty.gr%3A6969%2Fannounce&tr=udp%3A%2F%2Ftracker.cyberia.is%3A6969%2Fannounce",
        "seeder": "122",
        "leecher": "4"
    },
    {
        "rank": "22",
        "title": "60 Assorted Magazines PDF March 30 2021 Pack 1",
        "link": "magnet:?xt=urn:btih:17C215B46A8C6A979C11B3CCA758BF80623F2645&dn=60+Assorted+Magazines+PDF+March+30+2021+Pack+1&tr=udp%3A%2F%2Ftracker.coppersurfer.tk%3A6969%2Fannounce&tr=udp%3A%2F%2F9.rarbg.to%3A2920%2Fannounce&tr=udp%3A%2F%2Ftracker.opentrackr.org%3A1337&tr=udp%3A%2F%2Ftracker.internetwarriors.net%3A1337%2Fannounce&tr=udp%3A%2F%2Ftracker.leechers-paradise.org%3A6969%2Fannounce&tr=udp%3A%2F%2Ftracker.coppersurfer.tk%3A6969%2Fannounce&tr=udp%3A%2F%2Ftracker.pirateparty.gr%3A6969%2Fannounce&tr=udp%3A%2F%2Ftracker.cyberia.is%3A6969%2Fannounce",
        "seeder": "121",
        "leecher": "236"
    },
    {
        "rank": "23",
        "title": "The Subtle Art of Not Giving a Fuck (F*ck) by Mark Manson EPUB",
        "link": "magnet:?xt=urn:btih:8EA4A1CDBC3FDDAEEDBBB894FDFA3ACE940CBE38&dn=The+Subtle+Art+of+Not+Giving+a+Fuck+%28F%2Ack%29+by+Mark+Manson+EPUB&tr=udp%3A%2F%2Ftracker.coppersurfer.tk%3A6969%2Fannounce&tr=udp%3A%2F%2F9.rarbg.to%3A2920%2Fannounce&tr=udp%3A%2F%2Ftracker.opentrackr.org%3A1337&tr=udp%3A%2F%2Ftracker.internetwarriors.net%3A1337%2Fannounce&tr=udp%3A%2F%2Ftracker.leechers-paradise.org%3A6969%2Fannounce&tr=udp%3A%2F%2Ftracker.coppersurfer.tk%3A6969%2Fannounce&tr=udp%3A%2F%2Ftracker.pirateparty.gr%3A6969%2Fannounce&tr=udp%3A%2F%2Ftracker.cyberia.is%3A6969%2Fannounce",
        "seeder": "118",
        "leecher": "1"
    },
    {
        "rank": "24",
        "title": "Beyond Order: 12 More Rules for Life by Jordan B. Peterson EPUB",
        "link": "magnet:?xt=urn:btih:328588993691AB122EA6991EBFA461D661FA2B30&dn=Beyond+Order%3A+12+More+Rules+for+Life+by+Jordan+B.+Peterson+EPUB&tr=udp%3A%2F%2Ftracker.coppersurfer.tk%3A6969%2Fannounce&tr=udp%3A%2F%2F9.rarbg.to%3A2920%2Fannounce&tr=udp%3A%2F%2Ftracker.opentrackr.org%3A1337&tr=udp%3A%2F%2Ftracker.internetwarriors.net%3A1337%2Fannounce&tr=udp%3A%2F%2Ftracker.leechers-paradise.org%3A6969%2Fannounce&tr=udp%3A%2F%2Ftracker.coppersurfer.tk%3A6969%2Fannounce&tr=udp%3A%2F%2Ftracker.pirateparty.gr%3A6969%2Fannounce&tr=udp%3A%2F%2Ftracker.cyberia.is%3A6969%2Fannounce",
        "seeder": "116",
        "leecher": "4"
    },
    {
        "rank": "25",
        "title": "Playboy Sweden - March 2021",
        "link": "magnet:?xt=urn:btih:C1B2C5F63C4B10197B1E4515381E419A7EB179E6&dn=Playboy+Sweden+-+March+2021&tr=udp%3A%2F%2Ftracker.coppersurfer.tk%3A6969%2Fannounce&tr=udp%3A%2F%2F9.rarbg.to%3A2920%2Fannounce&tr=udp%3A%2F%2Ftracker.opentrackr.org%3A1337&tr=udp%3A%2F%2Ftracker.internetwarriors.net%3A1337%2Fannounce&tr=udp%3A%2F%2Ftracker.leechers-paradise.org%3A6969%2Fannounce&tr=udp%3A%2F%2Ftracker.coppersurfer.tk%3A6969%2Fannounce&tr=udp%3A%2F%2Ftracker.pirateparty.gr%3A6969%2Fannounce&tr=udp%3A%2F%2Ftracker.cyberia.is%3A6969%2Fannounce",
        "seeder": "115",
        "leecher": "8"
    },
    {
        "rank": "26",
        "title": "The Ultimate Art of War - A Step-by-Step Illustrated Guide to Su",
        "link": "magnet:?xt=urn:btih:F1094478F42D30D1BCB8EB34B18DE5D869CB713B&dn=The+Ultimate+Art+of+War+-+A+Step-by-Step+Illustrated+Guide+to+Su&tr=udp%3A%2F%2Ftracker.coppersurfer.tk%3A6969%2Fannounce&tr=udp%3A%2F%2F9.rarbg.to%3A2920%2Fannounce&tr=udp%3A%2F%2Ftracker.opentrackr.org%3A1337&tr=udp%3A%2F%2Ftracker.internetwarriors.net%3A1337%2Fannounce&tr=udp%3A%2F%2Ftracker.leechers-paradise.org%3A6969%2Fannounce&tr=udp%3A%2F%2Ftracker.coppersurfer.tk%3A6969%2Fannounce&tr=udp%3A%2F%2Ftracker.pirateparty.gr%3A6969%2Fannounce&tr=udp%3A%2F%2Ftracker.cyberia.is%3A6969%2Fannounce",
        "seeder": "115",
        "leecher": "0"
    },
    {
        "rank": "27",
        "title": "James S A Corey - The Expanse series sci-fi [epub]",
        "link": "magnet:?xt=urn:btih:4A34EB34B64774275BD43505D49D31336E96275A&dn=James+S+A+Corey+-+The+Expanse+series+sci-fi+%5Bepub%5D&tr=udp%3A%2F%2Ftracker.coppersurfer.tk%3A6969%2Fannounce&tr=udp%3A%2F%2F9.rarbg.to%3A2920%2Fannounce&tr=udp%3A%2F%2Ftracker.opentrackr.org%3A1337&tr=udp%3A%2F%2Ftracker.internetwarriors.net%3A1337%2Fannounce&tr=udp%3A%2F%2Ftracker.leechers-paradise.org%3A6969%2Fannounce&tr=udp%3A%2F%2Ftracker.coppersurfer.tk%3A6969%2Fannounce&tr=udp%3A%2F%2Ftracker.pirateparty.gr%3A6969%2Fannounce&tr=udp%3A%2F%2Ftracker.cyberia.is%3A6969%2Fannounce",
        "seeder": "115",
        "leecher": "2"
    },
    {
        "rank": "28",
        "title": "The Sentinel by Lee Child, Andrew Child EPUB",
        "link": "magnet:?xt=urn:btih:9AB20C8736B5E41AEDE2126280D99E301E6C11B7&dn=The+Sentinel+by+Lee+Child%2C+Andrew+Child+EPUB&tr=udp%3A%2F%2Ftracker.coppersurfer.tk%3A6969%2Fannounce&tr=udp%3A%2F%2F9.rarbg.to%3A2920%2Fannounce&tr=udp%3A%2F%2Ftracker.opentrackr.org%3A1337&tr=udp%3A%2F%2Ftracker.internetwarriors.net%3A1337%2Fannounce&tr=udp%3A%2F%2Ftracker.leechers-paradise.org%3A6969%2Fannounce&tr=udp%3A%2F%2Ftracker.coppersurfer.tk%3A6969%2Fannounce&tr=udp%3A%2F%2Ftracker.pirateparty.gr%3A6969%2Fannounce&tr=udp%3A%2F%2Ftracker.cyberia.is%3A6969%2Fannounce",
        "seeder": "114",
        "leecher": "0"
    },
    {
        "rank": "29",
        "title": "40 Assorted Books Collection PDF-EPUB Pack 125",
        "link": "magnet:?xt=urn:btih:C615A2E91F5BC9315262FF1BE69456862C8A2FCD&dn=40+Assorted+Books+Collection+PDF-EPUB+Pack+125&tr=udp%3A%2F%2Ftracker.coppersurfer.tk%3A6969%2Fannounce&tr=udp%3A%2F%2F9.rarbg.to%3A2920%2Fannounce&tr=udp%3A%2F%2Ftracker.opentrackr.org%3A1337&tr=udp%3A%2F%2Ftracker.internetwarriors.net%3A1337%2Fannounce&tr=udp%3A%2F%2Ftracker.leechers-paradise.org%3A6969%2Fannounce&tr=udp%3A%2F%2Ftracker.coppersurfer.tk%3A6969%2Fannounce&tr=udp%3A%2F%2Ftracker.pirateparty.gr%3A6969%2Fannounce&tr=udp%3A%2F%2Ftracker.cyberia.is%3A6969%2Fannounce",
        "seeder": "111",
        "leecher": "73"
    },
    {
        "rank": "30",
        "title": "Nude Art Photography By Eugene Vardanyan",
        "link": "magnet:?xt=urn:btih:30ACA5061E0F086142CD2F844705C6011440BDA7&dn=Nude+Art+Photography+By+Eugene+Vardanyan&tr=udp%3A%2F%2Ftracker.coppersurfer.tk%3A6969%2Fannounce&tr=udp%3A%2F%2F9.rarbg.to%3A2920%2Fannounce&tr=udp%3A%2F%2Ftracker.opentrackr.org%3A1337&tr=udp%3A%2F%2Ftracker.internetwarriors.net%3A1337%2Fannounce&tr=udp%3A%2F%2Ftracker.leechers-paradise.org%3A6969%2Fannounce&tr=udp%3A%2F%2Ftracker.coppersurfer.tk%3A6969%2Fannounce&tr=udp%3A%2F%2Ftracker.pirateparty.gr%3A6969%2Fannounce&tr=udp%3A%2F%2Ftracker.cyberia.is%3A6969%2Fannounce",
        "seeder": "110",
        "leecher": "18"
    },
    {
        "rank": "31",
        "title": "The Most Forbidden Knowledge - 151 Things NO ONE Should Know How",
        "link": "magnet:?xt=urn:btih:26003FA01BE9F1224353EE299C754387D0AD5CDE&dn=The+Most+Forbidden+Knowledge+-+151+Things+NO+ONE+Should+Know+How&tr=udp%3A%2F%2Ftracker.coppersurfer.tk%3A6969%2Fannounce&tr=udp%3A%2F%2F9.rarbg.to%3A2920%2Fannounce&tr=udp%3A%2F%2Ftracker.opentrackr.org%3A1337&tr=udp%3A%2F%2Ftracker.internetwarriors.net%3A1337%2Fannounce&tr=udp%3A%2F%2Ftracker.leechers-paradise.org%3A6969%2Fannounce&tr=udp%3A%2F%2Ftracker.coppersurfer.tk%3A6969%2Fannounce&tr=udp%3A%2F%2Ftracker.pirateparty.gr%3A6969%2Fannounce&tr=udp%3A%2F%2Ftracker.cyberia.is%3A6969%2Fannounce",
        "seeder": "110",
        "leecher": "1"
    },
    {
        "rank": "32",
        "title": "Stephen King Books Collection Epub & Mobi - Mantesh",
        "link": "magnet:?xt=urn:btih:37412A258C717A7567BFC3BF5ECE8F47F21390CF&dn=Stephen+King+Books+Collection+Epub+%26amp%3B+Mobi+-+Mantesh&tr=udp%3A%2F%2Ftracker.coppersurfer.tk%3A6969%2Fannounce&tr=udp%3A%2F%2F9.rarbg.to%3A2920%2Fannounce&tr=udp%3A%2F%2Ftracker.opentrackr.org%3A1337&tr=udp%3A%2F%2Ftracker.internetwarriors.net%3A1337%2Fannounce&tr=udp%3A%2F%2Ftracker.leechers-paradise.org%3A6969%2Fannounce&tr=udp%3A%2F%2Ftracker.coppersurfer.tk%3A6969%2Fannounce&tr=udp%3A%2F%2Ftracker.pirateparty.gr%3A6969%2Fannounce&tr=udp%3A%2F%2Ftracker.cyberia.is%3A6969%2Fannounce",
        "seeder": "109",
        "leecher": "3"
    },
    {
        "rank": "33",
        "title": "The Room Where It Happened: A White House Memoir by John Bolton",
        "link": "magnet:?xt=urn:btih:4DC1902E634E75C40A63285975D871DA37545CA0&dn=The+Room+Where+It+Happened%3A+A+White+House+Memoir+by+John+Bolton&tr=udp%3A%2F%2Ftracker.coppersurfer.tk%3A6969%2Fannounce&tr=udp%3A%2F%2F9.rarbg.to%3A2920%2Fannounce&tr=udp%3A%2F%2Ftracker.opentrackr.org%3A1337&tr=udp%3A%2F%2Ftracker.internetwarriors.net%3A1337%2Fannounce&tr=udp%3A%2F%2Ftracker.leechers-paradise.org%3A6969%2Fannounce&tr=udp%3A%2F%2Ftracker.coppersurfer.tk%3A6969%2Fannounce&tr=udp%3A%2F%2Ftracker.pirateparty.gr%3A6969%2Fannounce&tr=udp%3A%2F%2Ftracker.cyberia.is%3A6969%2Fannounce",
        "seeder": "107",
        "leecher": "0"
    },
    {
        "rank": "34",
        "title": "How To Win Friends and Influence People",
        "link": "magnet:?xt=urn:btih:0208735CF3FCE96C0A5B9ACCEC844AAFC08CEAF6&dn=How+To+Win+Friends+and+Influence+People&tr=udp%3A%2F%2Ftracker.coppersurfer.tk%3A6969%2Fannounce&tr=udp%3A%2F%2F9.rarbg.to%3A2920%2Fannounce&tr=udp%3A%2F%2Ftracker.opentrackr.org%3A1337&tr=udp%3A%2F%2Ftracker.internetwarriors.net%3A1337%2Fannounce&tr=udp%3A%2F%2Ftracker.leechers-paradise.org%3A6969%2Fannounce&tr=udp%3A%2F%2Ftracker.coppersurfer.tk%3A6969%2Fannounce&tr=udp%3A%2F%2Ftracker.pirateparty.gr%3A6969%2Fannounce&tr=udp%3A%2F%2Ftracker.cyberia.is%3A6969%2Fannounce",
        "seeder": "106",
        "leecher": "3"
    },
    {
        "rank": "35",
        "title": "Squirting Female Ejaculation and the G-spot (Sexy Little Guide B",
        "link": "magnet:?xt=urn:btih:A6AF229314BD4D95B3B00B92071DEFE8FCF76554&dn=Squirting+Female+Ejaculation+and+the+G-spot+%28Sexy+Little+Guide+B&tr=udp%3A%2F%2Ftracker.coppersurfer.tk%3A6969%2Fannounce&tr=udp%3A%2F%2F9.rarbg.to%3A2920%2Fannounce&tr=udp%3A%2F%2Ftracker.opentrackr.org%3A1337&tr=udp%3A%2F%2Ftracker.internetwarriors.net%3A1337%2Fannounce&tr=udp%3A%2F%2Ftracker.leechers-paradise.org%3A6969%2Fannounce&tr=udp%3A%2F%2Ftracker.coppersurfer.tk%3A6969%2Fannounce&tr=udp%3A%2F%2Ftracker.pirateparty.gr%3A6969%2Fannounce&tr=udp%3A%2F%2Ftracker.cyberia.is%3A6969%2Fannounce",
        "seeder": "105",
        "leecher": "2"
    },
    {
        "rank": "36",
        "title": "13 Things That Don't Make Sense by Michael Brooks EPUB",
        "link": "magnet:?xt=urn:btih:4C7C3EF78EB2E95536497F98DF9B58EEACD3C7E6&dn=13+Things+That+Don%27t+Make+Sense+by+Michael+Brooks+EPUB&tr=udp%3A%2F%2Ftracker.coppersurfer.tk%3A6969%2Fannounce&tr=udp%3A%2F%2F9.rarbg.to%3A2920%2Fannounce&tr=udp%3A%2F%2Ftracker.opentrackr.org%3A1337&tr=udp%3A%2F%2Ftracker.internetwarriors.net%3A1337%2Fannounce&tr=udp%3A%2F%2Ftracker.leechers-paradise.org%3A6969%2Fannounce&tr=udp%3A%2F%2Ftracker.coppersurfer.tk%3A6969%2Fannounce&tr=udp%3A%2F%2Ftracker.pirateparty.gr%3A6969%2Fannounce&tr=udp%3A%2F%2Ftracker.cyberia.is%3A6969%2Fannounce",
        "seeder": "103",
        "leecher": "7"
    },
    {
        "rank": "37",
        "title": "60 Assorted Magazines PDF March 29 2021 Pack 3",
        "link": "magnet:?xt=urn:btih:48C24CF4A25F1D1B120ED0F1E63B84490EF56246&dn=60+Assorted+Magazines+PDF+March+29+2021+Pack+3&tr=udp%3A%2F%2Ftracker.coppersurfer.tk%3A6969%2Fannounce&tr=udp%3A%2F%2F9.rarbg.to%3A2920%2Fannounce&tr=udp%3A%2F%2Ftracker.opentrackr.org%3A1337&tr=udp%3A%2F%2Ftracker.internetwarriors.net%3A1337%2Fannounce&tr=udp%3A%2F%2Ftracker.leechers-paradise.org%3A6969%2Fannounce&tr=udp%3A%2F%2Ftracker.coppersurfer.tk%3A6969%2Fannounce&tr=udp%3A%2F%2Ftracker.pirateparty.gr%3A6969%2Fannounce&tr=udp%3A%2F%2Ftracker.cyberia.is%3A6969%2Fannounce",
        "seeder": "102",
        "leecher": "141"
    },
    {
        "rank": "38",
        "title": "The Big Bang Theory Season 09 (720p) S09 Complete 9 MP4 [KoTuWa]",
        "link": "magnet:?xt=urn:btih:593518B5EF45ADE82B12CDF6DB331A0C040E2497&dn=The+Big+Bang+Theory+Season+09+%28720p%29+S09+Complete+9+MP4+%5BKoTuWa%5D&tr=udp%3A%2F%2Ftracker.coppersurfer.tk%3A6969%2Fannounce&tr=udp%3A%2F%2F9.rarbg.to%3A2920%2Fannounce&tr=udp%3A%2F%2Ftracker.opentrackr.org%3A1337&tr=udp%3A%2F%2Ftracker.internetwarriors.net%3A1337%2Fannounce&tr=udp%3A%2F%2Ftracker.leechers-paradise.org%3A6969%2Fannounce&tr=udp%3A%2F%2Ftracker.coppersurfer.tk%3A6969%2Fannounce&tr=udp%3A%2F%2Ftracker.pirateparty.gr%3A6969%2Fannounce&tr=udp%3A%2F%2Ftracker.cyberia.is%3A6969%2Fannounce",
        "seeder": "101",
        "leecher": "28"
    },
    {
        "rank": "39",
        "title": "How To Diagnose And Fix Everything Electronic 2nd Edition",
        "link": "magnet:?xt=urn:btih:B8928ADA110EA720DA7E452FFE56981787BE091D&dn=How+To+Diagnose+And+Fix+Everything+Electronic+2nd+Edition&tr=udp%3A%2F%2Ftracker.coppersurfer.tk%3A6969%2Fannounce&tr=udp%3A%2F%2F9.rarbg.to%3A2920%2Fannounce&tr=udp%3A%2F%2Ftracker.opentrackr.org%3A1337&tr=udp%3A%2F%2Ftracker.internetwarriors.net%3A1337%2Fannounce&tr=udp%3A%2F%2Ftracker.leechers-paradise.org%3A6969%2Fannounce&tr=udp%3A%2F%2Ftracker.coppersurfer.tk%3A6969%2Fannounce&tr=udp%3A%2F%2Ftracker.pirateparty.gr%3A6969%2Fannounce&tr=udp%3A%2F%2Ftracker.cyberia.is%3A6969%2Fannounce",
        "seeder": "99",
        "leecher": "2"
    },
    {
        "rank": "40",
        "title": "Mathematics in Minutes 200 Key Concepts Explained In An Instant",
        "link": "magnet:?xt=urn:btih:170CEA94D31086174A4343710EF92A6B0B95EE6C&dn=Mathematics+in+Minutes+200+Key+Concepts+Explained+In+An+Instant&tr=udp%3A%2F%2Ftracker.coppersurfer.tk%3A6969%2Fannounce&tr=udp%3A%2F%2F9.rarbg.to%3A2920%2Fannounce&tr=udp%3A%2F%2Ftracker.opentrackr.org%3A1337&tr=udp%3A%2F%2Ftracker.internetwarriors.net%3A1337%2Fannounce&tr=udp%3A%2F%2Ftracker.leechers-paradise.org%3A6969%2Fannounce&tr=udp%3A%2F%2Ftracker.coppersurfer.tk%3A6969%2Fannounce&tr=udp%3A%2F%2Ftracker.pirateparty.gr%3A6969%2Fannounce&tr=udp%3A%2F%2Ftracker.cyberia.is%3A6969%2Fannounce",
        "seeder": "99",
        "leecher": "0"
    },
    {
        "rank": "41",
        "title": "60 Assorted Magazines PDF March 29 2021 Pack 4",
        "link": "magnet:?xt=urn:btih:12857F01DCB5620829E10AB8DC58D85F9BD8DEC4&dn=60+Assorted+Magazines+PDF+March+29+2021+Pack+4&tr=udp%3A%2F%2Ftracker.coppersurfer.tk%3A6969%2Fannounce&tr=udp%3A%2F%2F9.rarbg.to%3A2920%2Fannounce&tr=udp%3A%2F%2Ftracker.opentrackr.org%3A1337&tr=udp%3A%2F%2Ftracker.internetwarriors.net%3A1337%2Fannounce&tr=udp%3A%2F%2Ftracker.leechers-paradise.org%3A6969%2Fannounce&tr=udp%3A%2F%2Ftracker.coppersurfer.tk%3A6969%2Fannounce&tr=udp%3A%2F%2Ftracker.pirateparty.gr%3A6969%2Fannounce&tr=udp%3A%2F%2Ftracker.cyberia.is%3A6969%2Fannounce",
        "seeder": "98",
        "leecher": "149"
    },
    {
        "rank": "42",
        "title": "WiFi Hacking for Beginners (2017) (Pdf,Epub,Azw3) Gooner",
        "link": "magnet:?xt=urn:btih:B36647A32DFA0D029A0637029122C5401487547B&dn=WiFi+Hacking+for+Beginners+%282017%29+%28Pdf%2CEpub%2CAzw3%29+Gooner&tr=udp%3A%2F%2Ftracker.coppersurfer.tk%3A6969%2Fannounce&tr=udp%3A%2F%2F9.rarbg.to%3A2920%2Fannounce&tr=udp%3A%2F%2Ftracker.opentrackr.org%3A1337&tr=udp%3A%2F%2Ftracker.internetwarriors.net%3A1337%2Fannounce&tr=udp%3A%2F%2Ftracker.leechers-paradise.org%3A6969%2Fannounce&tr=udp%3A%2F%2Ftracker.coppersurfer.tk%3A6969%2Fannounce&tr=udp%3A%2F%2Ftracker.pirateparty.gr%3A6969%2Fannounce&tr=udp%3A%2F%2Ftracker.cyberia.is%3A6969%2Fannounce",
        "seeder": "98",
        "leecher": "9"
    },
    {
        "rank": "43",
        "title": "Rhythm of War by Brandon Sanderson EPUB",
        "link": "magnet:?xt=urn:btih:391C7E9EB7B5E8F37FDAE3D82C4B1B34CBD7DCFE&dn=Rhythm+of+War+by+Brandon+Sanderson+EPUB&tr=udp%3A%2F%2Ftracker.coppersurfer.tk%3A6969%2Fannounce&tr=udp%3A%2F%2F9.rarbg.to%3A2920%2Fannounce&tr=udp%3A%2F%2Ftracker.opentrackr.org%3A1337&tr=udp%3A%2F%2Ftracker.internetwarriors.net%3A1337%2Fannounce&tr=udp%3A%2F%2Ftracker.leechers-paradise.org%3A6969%2Fannounce&tr=udp%3A%2F%2Ftracker.coppersurfer.tk%3A6969%2Fannounce&tr=udp%3A%2F%2Ftracker.pirateparty.gr%3A6969%2Fannounce&tr=udp%3A%2F%2Ftracker.cyberia.is%3A6969%2Fannounce",
        "seeder": "97",
        "leecher": "0"
    },
    {
        "rank": "44",
        "title": "UDEMY THE COMPLETE SOCIAL MEDIA MARKETING COURSE FOR ENTREPRENEU",
        "link": "magnet:?xt=urn:btih:08DAB1694A8450C05327D8CEA4CF42E4C3F115FC&dn=UDEMY+THE+COMPLETE+SOCIAL+MEDIA+MARKETING+COURSE+FOR+ENTREPRENEU&tr=udp%3A%2F%2Ftracker.coppersurfer.tk%3A6969%2Fannounce&tr=udp%3A%2F%2F9.rarbg.to%3A2920%2Fannounce&tr=udp%3A%2F%2Ftracker.opentrackr.org%3A1337&tr=udp%3A%2F%2Ftracker.internetwarriors.net%3A1337%2Fannounce&tr=udp%3A%2F%2Ftracker.leechers-paradise.org%3A6969%2Fannounce&tr=udp%3A%2F%2Ftracker.coppersurfer.tk%3A6969%2Fannounce&tr=udp%3A%2F%2Ftracker.pirateparty.gr%3A6969%2Fannounce&tr=udp%3A%2F%2Ftracker.cyberia.is%3A6969%2Fannounce",
        "seeder": "95",
        "leecher": "1"
    },
    {
        "rank": "45",
        "title": "The Complete Book of Home Organization - 200+ Tips and Projects",
        "link": "magnet:?xt=urn:btih:B2AD72A6BEBA61BBEC80E510FBF07B1866934846&dn=The+Complete+Book+of+Home+Organization+-+200%2B+Tips+and+Projects&tr=udp%3A%2F%2Ftracker.coppersurfer.tk%3A6969%2Fannounce&tr=udp%3A%2F%2F9.rarbg.to%3A2920%2Fannounce&tr=udp%3A%2F%2Ftracker.opentrackr.org%3A1337&tr=udp%3A%2F%2Ftracker.internetwarriors.net%3A1337%2Fannounce&tr=udp%3A%2F%2Ftracker.leechers-paradise.org%3A6969%2Fannounce&tr=udp%3A%2F%2Ftracker.coppersurfer.tk%3A6969%2Fannounce&tr=udp%3A%2F%2Ftracker.pirateparty.gr%3A6969%2Fannounce&tr=udp%3A%2F%2Ftracker.cyberia.is%3A6969%2Fannounce",
        "seeder": "94",
        "leecher": "1"
    },
    {
        "rank": "46",
        "title": "60 Amazing Full HD 4K And 8K Desktop Wallpapers Pack 11",
        "link": "magnet:?xt=urn:btih:99CB294046472E0F8718790DB83213BE5EEB814F&dn=60+Amazing+Full+HD+4K+And+8K+Desktop+Wallpapers+Pack+11&tr=udp%3A%2F%2Ftracker.coppersurfer.tk%3A6969%2Fannounce&tr=udp%3A%2F%2F9.rarbg.to%3A2920%2Fannounce&tr=udp%3A%2F%2Ftracker.opentrackr.org%3A1337&tr=udp%3A%2F%2Ftracker.internetwarriors.net%3A1337%2Fannounce&tr=udp%3A%2F%2Ftracker.leechers-paradise.org%3A6969%2Fannounce&tr=udp%3A%2F%2Ftracker.coppersurfer.tk%3A6969%2Fannounce&tr=udp%3A%2F%2Ftracker.pirateparty.gr%3A6969%2Fannounce&tr=udp%3A%2F%2Ftracker.cyberia.is%3A6969%2Fannounce",
        "seeder": "92",
        "leecher": "33"
    },
    {
        "rank": "47",
        "title": "Bartram's Encyclopedia of Herbal Medicine Containing over 900 en",
        "link": "magnet:?xt=urn:btih:2986AC6BBDF15B6E2E8B422B1625645CCFBC7265&dn=Bartram%27s+Encyclopedia+of+Herbal+Medicine+Containing+over+900+en&tr=udp%3A%2F%2Ftracker.coppersurfer.tk%3A6969%2Fannounce&tr=udp%3A%2F%2F9.rarbg.to%3A2920%2Fannounce&tr=udp%3A%2F%2Ftracker.opentrackr.org%3A1337&tr=udp%3A%2F%2Ftracker.internetwarriors.net%3A1337%2Fannounce&tr=udp%3A%2F%2Ftracker.leechers-paradise.org%3A6969%2Fannounce&tr=udp%3A%2F%2Ftracker.coppersurfer.tk%3A6969%2Fannounce&tr=udp%3A%2F%2Ftracker.pirateparty.gr%3A6969%2Fannounce&tr=udp%3A%2F%2Ftracker.cyberia.is%3A6969%2Fannounce",
        "seeder": "92",
        "leecher": "3"
    },
    {
        "rank": "48",
        "title": "The Ultimate Laptop Repairing Course",
        "link": "magnet:?xt=urn:btih:D81D06EAF98BDC0A6709A1915B0204DCC670B251&dn=The+Ultimate+Laptop+Repairing+Course&tr=udp%3A%2F%2Ftracker.coppersurfer.tk%3A6969%2Fannounce&tr=udp%3A%2F%2F9.rarbg.to%3A2920%2Fannounce&tr=udp%3A%2F%2Ftracker.opentrackr.org%3A1337&tr=udp%3A%2F%2Ftracker.internetwarriors.net%3A1337%2Fannounce&tr=udp%3A%2F%2Ftracker.leechers-paradise.org%3A6969%2Fannounce&tr=udp%3A%2F%2Ftracker.coppersurfer.tk%3A6969%2Fannounce&tr=udp%3A%2F%2Ftracker.pirateparty.gr%3A6969%2Fannounce&tr=udp%3A%2F%2Ftracker.cyberia.is%3A6969%2Fannounce",
        "seeder": "92",
        "leecher": "0"
    },
    {
        "rank": "49",
        "title": "VOLO 18 - Heavenly Body Issue - WORLD'S No 1 NUDE ART MAGAZINE",
        "link": "magnet:?xt=urn:btih:166222D529950F62286A03B642CCD8A5FA6E0A41&dn=VOLO+18+-+Heavenly+Body+Issue+-+WORLD%27S+No+1+NUDE+ART+MAGAZINE&tr=udp%3A%2F%2Ftracker.coppersurfer.tk%3A6969%2Fannounce&tr=udp%3A%2F%2F9.rarbg.to%3A2920%2Fannounce&tr=udp%3A%2F%2Ftracker.opentrackr.org%3A1337&tr=udp%3A%2F%2Ftracker.internetwarriors.net%3A1337%2Fannounce&tr=udp%3A%2F%2Ftracker.leechers-paradise.org%3A6969%2Fannounce&tr=udp%3A%2F%2Ftracker.coppersurfer.tk%3A6969%2Fannounce&tr=udp%3A%2F%2Ftracker.pirateparty.gr%3A6969%2Fannounce&tr=udp%3A%2F%2Ftracker.cyberia.is%3A6969%2Fannounce",
        "seeder": "91",
        "leecher": "5"
    },
    {
        "rank": "50",
        "title": "Mastering The Art Of Vaginal Massage A Man's Guide To Giving You",
        "link": "magnet:?xt=urn:btih:B88B975076260B69BA12AF6EA01EFF835E90156E&dn=Mastering+The+Art+Of+Vaginal+Massage+A+Man%27s+Guide+To+Giving+You&tr=udp%3A%2F%2Ftracker.coppersurfer.tk%3A6969%2Fannounce&tr=udp%3A%2F%2F9.rarbg.to%3A2920%2Fannounce&tr=udp%3A%2F%2Ftracker.opentrackr.org%3A1337&tr=udp%3A%2F%2Ftracker.internetwarriors.net%3A1337%2Fannounce&tr=udp%3A%2F%2Ftracker.leechers-paradise.org%3A6969%2Fannounce&tr=udp%3A%2F%2Ftracker.coppersurfer.tk%3A6969%2Fannounce&tr=udp%3A%2F%2Ftracker.pirateparty.gr%3A6969%2Fannounce&tr=udp%3A%2F%2Ftracker.cyberia.is%3A6969%2Fannounce",
        "seeder": "91",
        "leecher": "1"
    },
    {
        "rank": "51",
        "title": "Solar Electricity Basics Powering Your Home Or Office With Solar",
        "link": "magnet:?xt=urn:btih:C9870567C71E29AF6E6CE27AD10FC38B36399D9B&dn=Solar+Electricity+Basics+Powering+Your+Home+Or+Office+With+Solar&tr=udp%3A%2F%2Ftracker.coppersurfer.tk%3A6969%2Fannounce&tr=udp%3A%2F%2F9.rarbg.to%3A2920%2Fannounce&tr=udp%3A%2F%2Ftracker.opentrackr.org%3A1337&tr=udp%3A%2F%2Ftracker.internetwarriors.net%3A1337%2Fannounce&tr=udp%3A%2F%2Ftracker.leechers-paradise.org%3A6969%2Fannounce&tr=udp%3A%2F%2Ftracker.coppersurfer.tk%3A6969%2Fannounce&tr=udp%3A%2F%2Ftracker.pirateparty.gr%3A6969%2Fannounce&tr=udp%3A%2F%2Ftracker.cyberia.is%3A6969%2Fannounce",
        "seeder": "89",
        "leecher": "1"
    },
    {
        "rank": "52",
        "title": "Breath: The New Science of a Lost Art by James Nestor EPUB",
        "link": "magnet:?xt=urn:btih:E5B29463ED6DEE8A420F2E81E45B0FEC0284C649&dn=Breath%3A+The+New+Science+of+a+Lost+Art+by+James+Nestor+EPUB&tr=udp%3A%2F%2Ftracker.coppersurfer.tk%3A6969%2Fannounce&tr=udp%3A%2F%2F9.rarbg.to%3A2920%2Fannounce&tr=udp%3A%2F%2Ftracker.opentrackr.org%3A1337&tr=udp%3A%2F%2Ftracker.internetwarriors.net%3A1337%2Fannounce&tr=udp%3A%2F%2Ftracker.leechers-paradise.org%3A6969%2Fannounce&tr=udp%3A%2F%2Ftracker.coppersurfer.tk%3A6969%2Fannounce&tr=udp%3A%2F%2Ftracker.pirateparty.gr%3A6969%2Fannounce&tr=udp%3A%2F%2Ftracker.cyberia.is%3A6969%2Fannounce",
        "seeder": "89",
        "leecher": "0"
    },
    {
        "rank": "53",
        "title": "Deep Learning with Python -A Hands-on Introduction (2017) Gooner",
        "link": "magnet:?xt=urn:btih:E1EED9D6A62423ECDE25AA19765293A222780FCE&dn=Deep+Learning+with+Python+-A+Hands-on+Introduction+%282017%29+Gooner&tr=udp%3A%2F%2Ftracker.coppersurfer.tk%3A6969%2Fannounce&tr=udp%3A%2F%2F9.rarbg.to%3A2920%2Fannounce&tr=udp%3A%2F%2Ftracker.opentrackr.org%3A1337&tr=udp%3A%2F%2Ftracker.internetwarriors.net%3A1337%2Fannounce&tr=udp%3A%2F%2Ftracker.leechers-paradise.org%3A6969%2Fannounce&tr=udp%3A%2F%2Ftracker.coppersurfer.tk%3A6969%2Fannounce&tr=udp%3A%2F%2Ftracker.pirateparty.gr%3A6969%2Fannounce&tr=udp%3A%2F%2Ftracker.cyberia.is%3A6969%2Fannounce",
        "seeder": "89",
        "leecher": "1"
    },
    {
        "rank": "54",
        "title": "40 Assorted Books Collection PDF-EPUB Pack 124",
        "link": "magnet:?xt=urn:btih:D1463360C4EA48F6AF749D6A7CCB287991F4B2D5&dn=40+Assorted+Books+Collection+PDF-EPUB+Pack+124&tr=udp%3A%2F%2Ftracker.coppersurfer.tk%3A6969%2Fannounce&tr=udp%3A%2F%2F9.rarbg.to%3A2920%2Fannounce&tr=udp%3A%2F%2Ftracker.opentrackr.org%3A1337&tr=udp%3A%2F%2Ftracker.internetwarriors.net%3A1337%2Fannounce&tr=udp%3A%2F%2Ftracker.leechers-paradise.org%3A6969%2Fannounce&tr=udp%3A%2F%2Ftracker.coppersurfer.tk%3A6969%2Fannounce&tr=udp%3A%2F%2Ftracker.pirateparty.gr%3A6969%2Fannounce&tr=udp%3A%2F%2Ftracker.cyberia.is%3A6969%2Fannounce",
        "seeder": "88",
        "leecher": "72"
    },
    {
        "rank": "55",
        "title": "Gym For The Brain: 300 Riddles For Adults To Workout Their Mind",
        "link": "magnet:?xt=urn:btih:E8D4C4EA112048E5782DA1C3245E7E1DB2552545&dn=Gym+For+The+Brain%3A+300+Riddles+For+Adults+To+Workout+Their+Mind&tr=udp%3A%2F%2Ftracker.coppersurfer.tk%3A6969%2Fannounce&tr=udp%3A%2F%2F9.rarbg.to%3A2920%2Fannounce&tr=udp%3A%2F%2Ftracker.opentrackr.org%3A1337&tr=udp%3A%2F%2Ftracker.internetwarriors.net%3A1337%2Fannounce&tr=udp%3A%2F%2Ftracker.leechers-paradise.org%3A6969%2Fannounce&tr=udp%3A%2F%2Ftracker.coppersurfer.tk%3A6969%2Fannounce&tr=udp%3A%2F%2Ftracker.pirateparty.gr%3A6969%2Fannounce&tr=udp%3A%2F%2Ftracker.cyberia.is%3A6969%2Fannounce",
        "seeder": "87",
        "leecher": "0"
    },
    {
        "rank": "56",
        "title": "Never Split the Difference by Chris Voss EPUB",
        "link": "magnet:?xt=urn:btih:2EC05C79BA2674C1B29D1035942D090425ACD680&dn=Never+Split+the+Difference+by+Chris+Voss+EPUB&tr=udp%3A%2F%2Ftracker.coppersurfer.tk%3A6969%2Fannounce&tr=udp%3A%2F%2F9.rarbg.to%3A2920%2Fannounce&tr=udp%3A%2F%2Ftracker.opentrackr.org%3A1337&tr=udp%3A%2F%2Ftracker.internetwarriors.net%3A1337%2Fannounce&tr=udp%3A%2F%2Ftracker.leechers-paradise.org%3A6969%2Fannounce&tr=udp%3A%2F%2Ftracker.coppersurfer.tk%3A6969%2Fannounce&tr=udp%3A%2F%2Ftracker.pirateparty.gr%3A6969%2Fannounce&tr=udp%3A%2F%2Ftracker.cyberia.is%3A6969%2Fannounce",
        "seeder": "87",
        "leecher": "0"
    },
    {
        "rank": "57",
        "title": "Dad Jokes Too Punnier Than Ever more than 800 eye-rollers",
        "link": "magnet:?xt=urn:btih:4A5089B2F14D2CD27955AE4350155959BC12148E&dn=Dad+Jokes+Too+Punnier+Than+Ever+more+than+800+eye-rollers&tr=udp%3A%2F%2Ftracker.coppersurfer.tk%3A6969%2Fannounce&tr=udp%3A%2F%2F9.rarbg.to%3A2920%2Fannounce&tr=udp%3A%2F%2Ftracker.opentrackr.org%3A1337&tr=udp%3A%2F%2Ftracker.internetwarriors.net%3A1337%2Fannounce&tr=udp%3A%2F%2Ftracker.leechers-paradise.org%3A6969%2Fannounce&tr=udp%3A%2F%2Ftracker.coppersurfer.tk%3A6969%2Fannounce&tr=udp%3A%2F%2Ftracker.pirateparty.gr%3A6969%2Fannounce&tr=udp%3A%2F%2Ftracker.cyberia.is%3A6969%2Fannounce",
        "seeder": "85",
        "leecher": "3"
    },
    {
        "rank": "58",
        "title": "( DK ) 1000 Useful Words Build Vocabulary and Literacy Skills",
        "link": "magnet:?xt=urn:btih:B625942485D90E1CE4C9C05E7420AB1CE217E775&dn=%28+DK+%29+1000+Useful+Words+Build+Vocabulary+and+Literacy+Skills&tr=udp%3A%2F%2Ftracker.coppersurfer.tk%3A6969%2Fannounce&tr=udp%3A%2F%2F9.rarbg.to%3A2920%2Fannounce&tr=udp%3A%2F%2Ftracker.opentrackr.org%3A1337&tr=udp%3A%2F%2Ftracker.internetwarriors.net%3A1337%2Fannounce&tr=udp%3A%2F%2Ftracker.leechers-paradise.org%3A6969%2Fannounce&tr=udp%3A%2F%2Ftracker.coppersurfer.tk%3A6969%2Fannounce&tr=udp%3A%2F%2Ftracker.pirateparty.gr%3A6969%2Fannounce&tr=udp%3A%2F%2Ftracker.cyberia.is%3A6969%2Fannounce",
        "seeder": "85",
        "leecher": "1"
    },
    {
        "rank": "59",
        "title": "Teach Yourself Electricity and Electronics (6th Ed)(gnv64)",
        "link": "magnet:?xt=urn:btih:C9E23FE91B21B42C61722A5AC8132185C3DC8557&dn=Teach+Yourself+Electricity+and+Electronics+%286th+Ed%29%28gnv64%29&tr=udp%3A%2F%2Ftracker.coppersurfer.tk%3A6969%2Fannounce&tr=udp%3A%2F%2F9.rarbg.to%3A2920%2Fannounce&tr=udp%3A%2F%2Ftracker.opentrackr.org%3A1337&tr=udp%3A%2F%2Ftracker.internetwarriors.net%3A1337%2Fannounce&tr=udp%3A%2F%2Ftracker.leechers-paradise.org%3A6969%2Fannounce&tr=udp%3A%2F%2Ftracker.coppersurfer.tk%3A6969%2Fannounce&tr=udp%3A%2F%2Ftracker.pirateparty.gr%3A6969%2Fannounce&tr=udp%3A%2F%2Ftracker.cyberia.is%3A6969%2Fannounce",
        "seeder": "84",
        "leecher": "0"
    },
    {
        "rank": "60",
        "title": "How Memory Works -- and How to Make It Work for You",
        "link": "magnet:?xt=urn:btih:C5015E7D230B1B09F5F6456FA4B81DDCD8A33921&dn=How+Memory+Works+--+and+How+to+Make+It+Work+for+You&tr=udp%3A%2F%2Ftracker.coppersurfer.tk%3A6969%2Fannounce&tr=udp%3A%2F%2F9.rarbg.to%3A2920%2Fannounce&tr=udp%3A%2F%2Ftracker.opentrackr.org%3A1337&tr=udp%3A%2F%2Ftracker.internetwarriors.net%3A1337%2Fannounce&tr=udp%3A%2F%2Ftracker.leechers-paradise.org%3A6969%2Fannounce&tr=udp%3A%2F%2Ftracker.coppersurfer.tk%3A6969%2Fannounce&tr=udp%3A%2F%2Ftracker.pirateparty.gr%3A6969%2Fannounce&tr=udp%3A%2F%2Ftracker.cyberia.is%3A6969%2Fannounce",
        "seeder": "83",
        "leecher": "1"
    },
    {
        "rank": "61",
        "title": "Python Programming for Beginners - Learn Coding in 7 Days",
        "link": "magnet:?xt=urn:btih:ADD458FF76196DBFDFC4CF9D77B47E8CACA4A179&dn=Python+Programming+for+Beginners+-+Learn+Coding+in+7+Days&tr=udp%3A%2F%2Ftracker.coppersurfer.tk%3A6969%2Fannounce&tr=udp%3A%2F%2F9.rarbg.to%3A2920%2Fannounce&tr=udp%3A%2F%2Ftracker.opentrackr.org%3A1337&tr=udp%3A%2F%2Ftracker.internetwarriors.net%3A1337%2Fannounce&tr=udp%3A%2F%2Ftracker.leechers-paradise.org%3A6969%2Fannounce&tr=udp%3A%2F%2Ftracker.coppersurfer.tk%3A6969%2Fannounce&tr=udp%3A%2F%2Ftracker.pirateparty.gr%3A6969%2Fannounce&tr=udp%3A%2F%2Ftracker.cyberia.is%3A6969%2Fannounce",
        "seeder": "83",
        "leecher": "1"
    },
    {
        "rank": "62",
        "title": "Tor and the Dark Art of Anonymity deep web, kali linux, hacking",
        "link": "magnet:?xt=urn:btih:15A30C6371BBF9367991AD0DD3494E46E173F0A3&dn=Tor+and+the+Dark+Art+of+Anonymity+deep+web%2C+kali+linux%2C+hacking&tr=udp%3A%2F%2Ftracker.coppersurfer.tk%3A6969%2Fannounce&tr=udp%3A%2F%2F9.rarbg.to%3A2920%2Fannounce&tr=udp%3A%2F%2Ftracker.opentrackr.org%3A1337&tr=udp%3A%2F%2Ftracker.internetwarriors.net%3A1337%2Fannounce&tr=udp%3A%2F%2Ftracker.leechers-paradise.org%3A6969%2Fannounce&tr=udp%3A%2F%2Ftracker.coppersurfer.tk%3A6969%2Fannounce&tr=udp%3A%2F%2Ftracker.pirateparty.gr%3A6969%2Fannounce&tr=udp%3A%2F%2Ftracker.cyberia.is%3A6969%2Fannounce",
        "seeder": "83",
        "leecher": "1"
    },
    {
        "rank": "63",
        "title": "40 Assorted Books Collection PDF-EPUB Pack 123",
        "link": "magnet:?xt=urn:btih:522CD016AEC24D76B152D904B26A5A3B96086D2A&dn=40+Assorted+Books+Collection+PDF-EPUB+Pack+123&tr=udp%3A%2F%2Ftracker.coppersurfer.tk%3A6969%2Fannounce&tr=udp%3A%2F%2F9.rarbg.to%3A2920%2Fannounce&tr=udp%3A%2F%2Ftracker.opentrackr.org%3A1337&tr=udp%3A%2F%2Ftracker.internetwarriors.net%3A1337%2Fannounce&tr=udp%3A%2F%2Ftracker.leechers-paradise.org%3A6969%2Fannounce&tr=udp%3A%2F%2Ftracker.coppersurfer.tk%3A6969%2Fannounce&tr=udp%3A%2F%2Ftracker.pirateparty.gr%3A6969%2Fannounce&tr=udp%3A%2F%2Ftracker.cyberia.is%3A6969%2Fannounce",
        "seeder": "81",
        "leecher": "49"
    },
    {
        "rank": "64",
        "title": "NUDE Magazine \u2013 Landscape Issue - Issue 21 March 2021",
        "link": "magnet:?xt=urn:btih:E61C55F096E158B08E7DE88EE49AC99BD7A99670&dn=NUDE+Magazine+%26ndash%3B+Landscape+Issue+-+Issue+21+March+2021&tr=udp%3A%2F%2Ftracker.coppersurfer.tk%3A6969%2Fannounce&tr=udp%3A%2F%2F9.rarbg.to%3A2920%2Fannounce&tr=udp%3A%2F%2Ftracker.opentrackr.org%3A1337&tr=udp%3A%2F%2Ftracker.internetwarriors.net%3A1337%2Fannounce&tr=udp%3A%2F%2Ftracker.leechers-paradise.org%3A6969%2Fannounce&tr=udp%3A%2F%2Ftracker.coppersurfer.tk%3A6969%2Fannounce&tr=udp%3A%2F%2Ftracker.pirateparty.gr%3A6969%2Fannounce&tr=udp%3A%2F%2Ftracker.cyberia.is%3A6969%2Fannounce",
        "seeder": "81",
        "leecher": "2"
    },
    {
        "rank": "65",
        "title": "Bodyweight Training Encyclopedia +90 Exercises",
        "link": "magnet:?xt=urn:btih:6EF51F818EF874C1965709A5A1CB7203431A494A&dn=Bodyweight+Training+Encyclopedia+%2B90+Exercises&tr=udp%3A%2F%2Ftracker.coppersurfer.tk%3A6969%2Fannounce&tr=udp%3A%2F%2F9.rarbg.to%3A2920%2Fannounce&tr=udp%3A%2F%2Ftracker.opentrackr.org%3A1337&tr=udp%3A%2F%2Ftracker.internetwarriors.net%3A1337%2Fannounce&tr=udp%3A%2F%2Ftracker.leechers-paradise.org%3A6969%2Fannounce&tr=udp%3A%2F%2Ftracker.coppersurfer.tk%3A6969%2Fannounce&tr=udp%3A%2F%2Ftracker.pirateparty.gr%3A6969%2Fannounce&tr=udp%3A%2F%2Ftracker.cyberia.is%3A6969%2Fannounce",
        "seeder": "81",
        "leecher": "1"
    },
    {
        "rank": "66",
        "title": "The 7 Habits of Highly Effective People By by R. Stephen Covey",
        "link": "magnet:?xt=urn:btih:96A8F4A28D0FDA36E28AF0311BE8F4B1277832EE&dn=The+7+Habits+of+Highly+Effective+People+By+by+R.+Stephen+Covey&tr=udp%3A%2F%2Ftracker.coppersurfer.tk%3A6969%2Fannounce&tr=udp%3A%2F%2F9.rarbg.to%3A2920%2Fannounce&tr=udp%3A%2F%2Ftracker.opentrackr.org%3A1337&tr=udp%3A%2F%2Ftracker.internetwarriors.net%3A1337%2Fannounce&tr=udp%3A%2F%2Ftracker.leechers-paradise.org%3A6969%2Fannounce&tr=udp%3A%2F%2Ftracker.coppersurfer.tk%3A6969%2Fannounce&tr=udp%3A%2F%2Ftracker.pirateparty.gr%3A6969%2Fannounce&tr=udp%3A%2F%2Ftracker.cyberia.is%3A6969%2Fannounce",
        "seeder": "81",
        "leecher": "0"
    },
    {
        "rank": "67",
        "title": "The Zulus at War by Xolani Mkhize EPUB",
        "link": "magnet:?xt=urn:btih:21ED91F243CB365AED899E92E02E7FE09A17069B&dn=The+Zulus+at+War+by+Xolani+Mkhize+EPUB&tr=udp%3A%2F%2Ftracker.coppersurfer.tk%3A6969%2Fannounce&tr=udp%3A%2F%2F9.rarbg.to%3A2920%2Fannounce&tr=udp%3A%2F%2Ftracker.opentrackr.org%3A1337&tr=udp%3A%2F%2Ftracker.internetwarriors.net%3A1337%2Fannounce&tr=udp%3A%2F%2Ftracker.leechers-paradise.org%3A6969%2Fannounce&tr=udp%3A%2F%2Ftracker.coppersurfer.tk%3A6969%2Fannounce&tr=udp%3A%2F%2Ftracker.pirateparty.gr%3A6969%2Fannounce&tr=udp%3A%2F%2Ftracker.cyberia.is%3A6969%2Fannounce",
        "seeder": "80",
        "leecher": "9"
    },
    {
        "rank": "68",
        "title": "Gordon Ramsay Quick And Delicious 100 Recipes To Cook In 30 Minu",
        "link": "magnet:?xt=urn:btih:F172BF29844EF60A35754BCD41DD6A807567490A&dn=Gordon+Ramsay+Quick+And+Delicious+100+Recipes+To+Cook+In+30+Minu&tr=udp%3A%2F%2Ftracker.coppersurfer.tk%3A6969%2Fannounce&tr=udp%3A%2F%2F9.rarbg.to%3A2920%2Fannounce&tr=udp%3A%2F%2Ftracker.opentrackr.org%3A1337&tr=udp%3A%2F%2Ftracker.internetwarriors.net%3A1337%2Fannounce&tr=udp%3A%2F%2Ftracker.leechers-paradise.org%3A6969%2Fannounce&tr=udp%3A%2F%2Ftracker.coppersurfer.tk%3A6969%2Fannounce&tr=udp%3A%2F%2Ftracker.pirateparty.gr%3A6969%2Fannounce&tr=udp%3A%2F%2Ftracker.cyberia.is%3A6969%2Fannounce",
        "seeder": "78",
        "leecher": "5"
    },
    {
        "rank": "69",
        "title": "The Complete Human Body, 2nd Edition - The Definitive Visual Gui",
        "link": "magnet:?xt=urn:btih:E32EE6CA4C493455F963F04B992158D7BCA1B353&dn=The+Complete+Human+Body%2C+2nd+Edition+-+The+Definitive+Visual+Gui&tr=udp%3A%2F%2Ftracker.coppersurfer.tk%3A6969%2Fannounce&tr=udp%3A%2F%2F9.rarbg.to%3A2920%2Fannounce&tr=udp%3A%2F%2Ftracker.opentrackr.org%3A1337&tr=udp%3A%2F%2Ftracker.internetwarriors.net%3A1337%2Fannounce&tr=udp%3A%2F%2Ftracker.leechers-paradise.org%3A6969%2Fannounce&tr=udp%3A%2F%2Ftracker.coppersurfer.tk%3A6969%2Fannounce&tr=udp%3A%2F%2Ftracker.pirateparty.gr%3A6969%2Fannounce&tr=udp%3A%2F%2Ftracker.cyberia.is%3A6969%2Fannounce",
        "seeder": "78",
        "leecher": "0"
    },
    {
        "rank": "70",
        "title": "John le Carre - Complete Novels and Non-fiction (35 books)",
        "link": "magnet:?xt=urn:btih:0A4302549495C9FD40CD4B9D29D5ED5A9B47BA7A&dn=John+le+Carre+-+Complete+Novels+and+Non-fiction+%2835+books%29&tr=udp%3A%2F%2Ftracker.coppersurfer.tk%3A6969%2Fannounce&tr=udp%3A%2F%2F9.rarbg.to%3A2920%2Fannounce&tr=udp%3A%2F%2Ftracker.opentrackr.org%3A1337&tr=udp%3A%2F%2Ftracker.internetwarriors.net%3A1337%2Fannounce&tr=udp%3A%2F%2Ftracker.leechers-paradise.org%3A6969%2Fannounce&tr=udp%3A%2F%2Ftracker.coppersurfer.tk%3A6969%2Fannounce&tr=udp%3A%2F%2Ftracker.pirateparty.gr%3A6969%2Fannounce&tr=udp%3A%2F%2Ftracker.cyberia.is%3A6969%2Fannounce",
        "seeder": "78",
        "leecher": "3"
    },
    {
        "rank": "71",
        "title": "Lady and the Tramp (2019) [WEBRip] [720p]",
        "link": "magnet:?xt=urn:btih:F1342A771D04771DCDC303381833F07B8B94AC33&dn=Lady+and+the+Tramp+%282019%29+%5BWEBRip%5D+%5B720p%5D&tr=udp%3A%2F%2Ftracker.coppersurfer.tk%3A6969%2Fannounce&tr=udp%3A%2F%2F9.rarbg.to%3A2920%2Fannounce&tr=udp%3A%2F%2Ftracker.opentrackr.org%3A1337&tr=udp%3A%2F%2Ftracker.internetwarriors.net%3A1337%2Fannounce&tr=udp%3A%2F%2Ftracker.leechers-paradise.org%3A6969%2Fannounce&tr=udp%3A%2F%2Ftracker.coppersurfer.tk%3A6969%2Fannounce&tr=udp%3A%2F%2Ftracker.pirateparty.gr%3A6969%2Fannounce&tr=udp%3A%2F%2Ftracker.cyberia.is%3A6969%2Fannounce",
        "seeder": "78",
        "leecher": "4"
    },
    {
        "rank": "72",
        "title": "40 Assorted Books Collection PDF-EPUB Pack 121",
        "link": "magnet:?xt=urn:btih:F6C9D966AC299079CA1D18E3447F9C6CD196B7EC&dn=40+Assorted+Books+Collection+PDF-EPUB+Pack+121&tr=udp%3A%2F%2Ftracker.coppersurfer.tk%3A6969%2Fannounce&tr=udp%3A%2F%2F9.rarbg.to%3A2920%2Fannounce&tr=udp%3A%2F%2Ftracker.opentrackr.org%3A1337&tr=udp%3A%2F%2Ftracker.internetwarriors.net%3A1337%2Fannounce&tr=udp%3A%2F%2Ftracker.leechers-paradise.org%3A6969%2Fannounce&tr=udp%3A%2F%2Ftracker.coppersurfer.tk%3A6969%2Fannounce&tr=udp%3A%2F%2Ftracker.pirateparty.gr%3A6969%2Fannounce&tr=udp%3A%2F%2Ftracker.cyberia.is%3A6969%2Fannounce",
        "seeder": "77",
        "leecher": "31"
    },
    {
        "rank": "73",
        "title": "Ready Player Two by Ernest Cline EPUB",
        "link": "magnet:?xt=urn:btih:FF4F27CA30C1D0EA38DA218ACE0C86ABAEC97FEA&dn=Ready+Player+Two+by+Ernest+Cline+EPUB&tr=udp%3A%2F%2Ftracker.coppersurfer.tk%3A6969%2Fannounce&tr=udp%3A%2F%2F9.rarbg.to%3A2920%2Fannounce&tr=udp%3A%2F%2Ftracker.opentrackr.org%3A1337&tr=udp%3A%2F%2Ftracker.internetwarriors.net%3A1337%2Fannounce&tr=udp%3A%2F%2Ftracker.leechers-paradise.org%3A6969%2Fannounce&tr=udp%3A%2F%2Ftracker.coppersurfer.tk%3A6969%2Fannounce&tr=udp%3A%2F%2Ftracker.pirateparty.gr%3A6969%2Fannounce&tr=udp%3A%2F%2Ftracker.cyberia.is%3A6969%2Fannounce",
        "seeder": "77",
        "leecher": "0"
    },
    {
        "rank": "74",
        "title": "Excel For Professionals 2021",
        "link": "magnet:?xt=urn:btih:F2987060E4A3DDFD6E84752886CA7349518E8C3B&dn=Excel+For+Professionals+2021&tr=udp%3A%2F%2Ftracker.coppersurfer.tk%3A6969%2Fannounce&tr=udp%3A%2F%2F9.rarbg.to%3A2920%2Fannounce&tr=udp%3A%2F%2Ftracker.opentrackr.org%3A1337&tr=udp%3A%2F%2Ftracker.internetwarriors.net%3A1337%2Fannounce&tr=udp%3A%2F%2Ftracker.leechers-paradise.org%3A6969%2Fannounce&tr=udp%3A%2F%2Ftracker.coppersurfer.tk%3A6969%2Fannounce&tr=udp%3A%2F%2Ftracker.pirateparty.gr%3A6969%2Fannounce&tr=udp%3A%2F%2Ftracker.cyberia.is%3A6969%2Fannounce",
        "seeder": "76",
        "leecher": "2"
    },
    {
        "rank": "75",
        "title": "How To Use A Multimeter Simplified A Complete DIY Step by Step G",
        "link": "magnet:?xt=urn:btih:43E97A710F6FF6B285EAD25FC69CD1A0E55EACAA&dn=How+To+Use+A+Multimeter+Simplified+A+Complete+DIY+Step+by+Step+G&tr=udp%3A%2F%2Ftracker.coppersurfer.tk%3A6969%2Fannounce&tr=udp%3A%2F%2F9.rarbg.to%3A2920%2Fannounce&tr=udp%3A%2F%2Ftracker.opentrackr.org%3A1337&tr=udp%3A%2F%2Ftracker.internetwarriors.net%3A1337%2Fannounce&tr=udp%3A%2F%2Ftracker.leechers-paradise.org%3A6969%2Fannounce&tr=udp%3A%2F%2Ftracker.coppersurfer.tk%3A6969%2Fannounce&tr=udp%3A%2F%2Ftracker.pirateparty.gr%3A6969%2Fannounce&tr=udp%3A%2F%2Ftracker.cyberia.is%3A6969%2Fannounce",
        "seeder": "76",
        "leecher": "2"
    },
    {
        "rank": "76",
        "title": "Passive Income 30 Strategies Ideas To Start Online Business WWRG",
        "link": "magnet:?xt=urn:btih:99CBAF52FC8A77B057C4552AB0028293FE6A7420&dn=Passive+Income+30+Strategies+Ideas+To+Start+Online+Business+WWRG&tr=udp%3A%2F%2Ftracker.coppersurfer.tk%3A6969%2Fannounce&tr=udp%3A%2F%2F9.rarbg.to%3A2920%2Fannounce&tr=udp%3A%2F%2Ftracker.opentrackr.org%3A1337&tr=udp%3A%2F%2Ftracker.internetwarriors.net%3A1337%2Fannounce&tr=udp%3A%2F%2Ftracker.leechers-paradise.org%3A6969%2Fannounce&tr=udp%3A%2F%2Ftracker.coppersurfer.tk%3A6969%2Fannounce&tr=udp%3A%2F%2Ftracker.pirateparty.gr%3A6969%2Fannounce&tr=udp%3A%2F%2Ftracker.cyberia.is%3A6969%2Fannounce",
        "seeder": "76",
        "leecher": "3"
    },
    {
        "rank": "77",
        "title": "Haruki Murakami - Novels, Stories, and Non-fiction (24 books)",
        "link": "magnet:?xt=urn:btih:3B2C052CDDEB32999BDF98BCBB10071501961C0C&dn=Haruki+Murakami+-+Novels%2C+Stories%2C+and+Non-fiction+%2824+books%29&tr=udp%3A%2F%2Ftracker.coppersurfer.tk%3A6969%2Fannounce&tr=udp%3A%2F%2F9.rarbg.to%3A2920%2Fannounce&tr=udp%3A%2F%2Ftracker.opentrackr.org%3A1337&tr=udp%3A%2F%2Ftracker.internetwarriors.net%3A1337%2Fannounce&tr=udp%3A%2F%2Ftracker.leechers-paradise.org%3A6969%2Fannounce&tr=udp%3A%2F%2Ftracker.coppersurfer.tk%3A6969%2Fannounce&tr=udp%3A%2F%2Ftracker.pirateparty.gr%3A6969%2Fannounce&tr=udp%3A%2F%2Ftracker.cyberia.is%3A6969%2Fannounce",
        "seeder": "76",
        "leecher": "4"
    },
    {
        "rank": "78",
        "title": "MasterClass - Matthew Walker Teaches the Science of Better Sleep",
        "link": "magnet:?xt=urn:btih:5EB4CF50248034886F0B26071CB3CAC5A9A6D8A0&dn=MasterClass+-+Matthew+Walker+Teaches+the+Science+of+Better+Sleep&tr=udp%3A%2F%2Ftracker.coppersurfer.tk%3A6969%2Fannounce&tr=udp%3A%2F%2F9.rarbg.to%3A2920%2Fannounce&tr=udp%3A%2F%2Ftracker.opentrackr.org%3A1337&tr=udp%3A%2F%2Ftracker.internetwarriors.net%3A1337%2Fannounce&tr=udp%3A%2F%2Ftracker.leechers-paradise.org%3A6969%2Fannounce&tr=udp%3A%2F%2Ftracker.coppersurfer.tk%3A6969%2Fannounce&tr=udp%3A%2F%2Ftracker.pirateparty.gr%3A6969%2Fannounce&tr=udp%3A%2F%2Ftracker.cyberia.is%3A6969%2Fannounce",
        "seeder": "75",
        "leecher": "12"
    },
    {
        "rank": "79",
        "title": "Tiamat's Wrath (The Expanse, n. 8) by James S. A. Corey EPUB",
        "link": "magnet:?xt=urn:btih:1D8DD96838AFBCE0B6193666F9F5528E8755317B&dn=Tiamat%27s+Wrath+%28The+Expanse%2C+n.+8%29+by+James+S.+A.+Corey+EPUB&tr=udp%3A%2F%2Ftracker.coppersurfer.tk%3A6969%2Fannounce&tr=udp%3A%2F%2F9.rarbg.to%3A2920%2Fannounce&tr=udp%3A%2F%2Ftracker.opentrackr.org%3A1337&tr=udp%3A%2F%2Ftracker.internetwarriors.net%3A1337%2Fannounce&tr=udp%3A%2F%2Ftracker.leechers-paradise.org%3A6969%2Fannounce&tr=udp%3A%2F%2Ftracker.coppersurfer.tk%3A6969%2Fannounce&tr=udp%3A%2F%2Ftracker.pirateparty.gr%3A6969%2Fannounce&tr=udp%3A%2F%2Ftracker.cyberia.is%3A6969%2Fannounce",
        "seeder": "75",
        "leecher": "0"
    },
    {
        "rank": "80",
        "title": "60 Assorted Magazines PDF March 29 2021 Pack 1",
        "link": "magnet:?xt=urn:btih:6A9107D28CAB46E78AADF33BD5363ABA1D637DAC&dn=60+Assorted+Magazines+PDF+March+29+2021+Pack+1&tr=udp%3A%2F%2Ftracker.coppersurfer.tk%3A6969%2Fannounce&tr=udp%3A%2F%2F9.rarbg.to%3A2920%2Fannounce&tr=udp%3A%2F%2Ftracker.opentrackr.org%3A1337&tr=udp%3A%2F%2Ftracker.internetwarriors.net%3A1337%2Fannounce&tr=udp%3A%2F%2Ftracker.leechers-paradise.org%3A6969%2Fannounce&tr=udp%3A%2F%2Ftracker.coppersurfer.tk%3A6969%2Fannounce&tr=udp%3A%2F%2Ftracker.pirateparty.gr%3A6969%2Fannounce&tr=udp%3A%2F%2Ftracker.cyberia.is%3A6969%2Fannounce",
        "seeder": "74",
        "leecher": "91"
    },
    {
        "rank": "81",
        "title": "40 Assorted Books Collection PDF-EPUB Pack 120",
        "link": "magnet:?xt=urn:btih:5CAAA4E44ADF321772FDC07EE5672E9B7D41299B&dn=40+Assorted+Books+Collection+PDF-EPUB+Pack+120&tr=udp%3A%2F%2Ftracker.coppersurfer.tk%3A6969%2Fannounce&tr=udp%3A%2F%2F9.rarbg.to%3A2920%2Fannounce&tr=udp%3A%2F%2Ftracker.opentrackr.org%3A1337&tr=udp%3A%2F%2Ftracker.internetwarriors.net%3A1337%2Fannounce&tr=udp%3A%2F%2Ftracker.leechers-paradise.org%3A6969%2Fannounce&tr=udp%3A%2F%2Ftracker.coppersurfer.tk%3A6969%2Fannounce&tr=udp%3A%2F%2Ftracker.pirateparty.gr%3A6969%2Fannounce&tr=udp%3A%2F%2Ftracker.cyberia.is%3A6969%2Fannounce",
        "seeder": "74",
        "leecher": "31"
    },
    {
        "rank": "82",
        "title": "Off-Grid Solar Power Made Simple A Simple Guide to Building and",
        "link": "magnet:?xt=urn:btih:0520DA78216F5495B43AFDA806872A49CE3E43E4&dn=Off-Grid+Solar+Power+Made+Simple+A+Simple+Guide+to+Building+and&tr=udp%3A%2F%2Ftracker.coppersurfer.tk%3A6969%2Fannounce&tr=udp%3A%2F%2F9.rarbg.to%3A2920%2Fannounce&tr=udp%3A%2F%2Ftracker.opentrackr.org%3A1337&tr=udp%3A%2F%2Ftracker.internetwarriors.net%3A1337%2Fannounce&tr=udp%3A%2F%2Ftracker.leechers-paradise.org%3A6969%2Fannounce&tr=udp%3A%2F%2Ftracker.coppersurfer.tk%3A6969%2Fannounce&tr=udp%3A%2F%2Ftracker.pirateparty.gr%3A6969%2Fannounce&tr=udp%3A%2F%2Ftracker.cyberia.is%3A6969%2Fannounce",
        "seeder": "74",
        "leecher": "0"
    },
    {
        "rank": "83",
        "title": "How to Avoid a Climate Disaster - Bill Gates",
        "link": "magnet:?xt=urn:btih:7679494053D02BC699FE255F7EF23C65C050D70B&dn=How+to+Avoid+a+Climate+Disaster+-+Bill+Gates&tr=udp%3A%2F%2Ftracker.coppersurfer.tk%3A6969%2Fannounce&tr=udp%3A%2F%2F9.rarbg.to%3A2920%2Fannounce&tr=udp%3A%2F%2Ftracker.opentrackr.org%3A1337&tr=udp%3A%2F%2Ftracker.internetwarriors.net%3A1337%2Fannounce&tr=udp%3A%2F%2Ftracker.leechers-paradise.org%3A6969%2Fannounce&tr=udp%3A%2F%2Ftracker.coppersurfer.tk%3A6969%2Fannounce&tr=udp%3A%2F%2Ftracker.pirateparty.gr%3A6969%2Fannounce&tr=udp%3A%2F%2Ftracker.cyberia.is%3A6969%2Fannounce",
        "seeder": "74",
        "leecher": "1"
    },
    {
        "rank": "84",
        "title": "OPEN THE DOOR - A Manual to Unlocking Doors and Locks - The ulti",
        "link": "magnet:?xt=urn:btih:B521B4460DE5A83339A0EE25519CCC113558506B&dn=OPEN+THE+DOOR+-+A+Manual+to+Unlocking+Doors+and+Locks+-+The+ulti&tr=udp%3A%2F%2Ftracker.coppersurfer.tk%3A6969%2Fannounce&tr=udp%3A%2F%2F9.rarbg.to%3A2920%2Fannounce&tr=udp%3A%2F%2Ftracker.opentrackr.org%3A1337&tr=udp%3A%2F%2Ftracker.internetwarriors.net%3A1337%2Fannounce&tr=udp%3A%2F%2Ftracker.leechers-paradise.org%3A6969%2Fannounce&tr=udp%3A%2F%2Ftracker.coppersurfer.tk%3A6969%2Fannounce&tr=udp%3A%2F%2Ftracker.pirateparty.gr%3A6969%2Fannounce&tr=udp%3A%2F%2Ftracker.cyberia.is%3A6969%2Fannounce",
        "seeder": "74",
        "leecher": "2"
    },
    {
        "rank": "85",
        "title": "60 Assorted Magazines PDF March 29 2021 Pack 2",
        "link": "magnet:?xt=urn:btih:3E1620086B3AF4A03D829A71536E8A7161B211A8&dn=60+Assorted+Magazines+PDF+March+29+2021+Pack+2&tr=udp%3A%2F%2Ftracker.coppersurfer.tk%3A6969%2Fannounce&tr=udp%3A%2F%2F9.rarbg.to%3A2920%2Fannounce&tr=udp%3A%2F%2Ftracker.opentrackr.org%3A1337&tr=udp%3A%2F%2Ftracker.internetwarriors.net%3A1337%2Fannounce&tr=udp%3A%2F%2Ftracker.leechers-paradise.org%3A6969%2Fannounce&tr=udp%3A%2F%2Ftracker.coppersurfer.tk%3A6969%2Fannounce&tr=udp%3A%2F%2Ftracker.pirateparty.gr%3A6969%2Fannounce&tr=udp%3A%2F%2Ftracker.cyberia.is%3A6969%2Fannounce",
        "seeder": "73",
        "leecher": "126"
    },
    {
        "rank": "86",
        "title": "40 Assorted Books Collection PDF-EPUB Pack 122",
        "link": "magnet:?xt=urn:btih:0233807C41C4FAF3E0741DCA4E4E7FCEBE189669&dn=40+Assorted+Books+Collection+PDF-EPUB+Pack+122&tr=udp%3A%2F%2Ftracker.coppersurfer.tk%3A6969%2Fannounce&tr=udp%3A%2F%2F9.rarbg.to%3A2920%2Fannounce&tr=udp%3A%2F%2Ftracker.opentrackr.org%3A1337&tr=udp%3A%2F%2Ftracker.internetwarriors.net%3A1337%2Fannounce&tr=udp%3A%2F%2Ftracker.leechers-paradise.org%3A6969%2Fannounce&tr=udp%3A%2F%2Ftracker.coppersurfer.tk%3A6969%2Fannounce&tr=udp%3A%2F%2Ftracker.pirateparty.gr%3A6969%2Fannounce&tr=udp%3A%2F%2Ftracker.cyberia.is%3A6969%2Fannounce",
        "seeder": "73",
        "leecher": "33"
    },
    {
        "rank": "87",
        "title": "Playboy Australia - March 2021",
        "link": "magnet:?xt=urn:btih:9B2D1C923B63F2E5C0F468453C53F43F2BD170DA&dn=Playboy+Australia+-+March+2021&tr=udp%3A%2F%2Ftracker.coppersurfer.tk%3A6969%2Fannounce&tr=udp%3A%2F%2F9.rarbg.to%3A2920%2Fannounce&tr=udp%3A%2F%2Ftracker.opentrackr.org%3A1337&tr=udp%3A%2F%2Ftracker.internetwarriors.net%3A1337%2Fannounce&tr=udp%3A%2F%2Ftracker.leechers-paradise.org%3A6969%2Fannounce&tr=udp%3A%2F%2Ftracker.coppersurfer.tk%3A6969%2Fannounce&tr=udp%3A%2F%2Ftracker.pirateparty.gr%3A6969%2Fannounce&tr=udp%3A%2F%2Ftracker.cyberia.is%3A6969%2Fannounce",
        "seeder": "73",
        "leecher": "6"
    },
    {
        "rank": "88",
        "title": "The Big Book Of Realistic Drawing Secrets Easy Techniques For Dr",
        "link": "magnet:?xt=urn:btih:0E6971C80B7C5C56F5E45FF994C6B47E54720AFA&dn=The+Big+Book+Of+Realistic+Drawing+Secrets+Easy+Techniques+For+Dr&tr=udp%3A%2F%2Ftracker.coppersurfer.tk%3A6969%2Fannounce&tr=udp%3A%2F%2F9.rarbg.to%3A2920%2Fannounce&tr=udp%3A%2F%2Ftracker.opentrackr.org%3A1337&tr=udp%3A%2F%2Ftracker.internetwarriors.net%3A1337%2Fannounce&tr=udp%3A%2F%2Ftracker.leechers-paradise.org%3A6969%2Fannounce&tr=udp%3A%2F%2Ftracker.coppersurfer.tk%3A6969%2Fannounce&tr=udp%3A%2F%2Ftracker.pirateparty.gr%3A6969%2Fannounce&tr=udp%3A%2F%2Ftracker.cyberia.is%3A6969%2Fannounce",
        "seeder": "72",
        "leecher": "2"
    },
    {
        "rank": "89",
        "title": "How To Fix Anything Essential Home Repairs Anyone Can Do",
        "link": "magnet:?xt=urn:btih:4C83953E4E968E797E54650CBC517CC7F212B503&dn=How+To+Fix+Anything+Essential+Home+Repairs+Anyone+Can+Do&tr=udp%3A%2F%2Ftracker.coppersurfer.tk%3A6969%2Fannounce&tr=udp%3A%2F%2F9.rarbg.to%3A2920%2Fannounce&tr=udp%3A%2F%2Ftracker.opentrackr.org%3A1337&tr=udp%3A%2F%2Ftracker.internetwarriors.net%3A1337%2Fannounce&tr=udp%3A%2F%2Ftracker.leechers-paradise.org%3A6969%2Fannounce&tr=udp%3A%2F%2Ftracker.coppersurfer.tk%3A6969%2Fannounce&tr=udp%3A%2F%2Ftracker.pirateparty.gr%3A6969%2Fannounce&tr=udp%3A%2F%2Ftracker.cyberia.is%3A6969%2Fannounce",
        "seeder": "72",
        "leecher": "4"
    },
    {
        "rank": "90",
        "title": "The Psychology of Money by Morgan Housel EPUB",
        "link": "magnet:?xt=urn:btih:D389C0235F908F6B574B4F1CA375D4EFBF4E1CD5&dn=The+Psychology+of+Money+by+Morgan+Housel+EPUB&tr=udp%3A%2F%2Ftracker.coppersurfer.tk%3A6969%2Fannounce&tr=udp%3A%2F%2F9.rarbg.to%3A2920%2Fannounce&tr=udp%3A%2F%2Ftracker.opentrackr.org%3A1337&tr=udp%3A%2F%2Ftracker.internetwarriors.net%3A1337%2Fannounce&tr=udp%3A%2F%2Ftracker.leechers-paradise.org%3A6969%2Fannounce&tr=udp%3A%2F%2Ftracker.coppersurfer.tk%3A6969%2Fannounce&tr=udp%3A%2F%2Ftracker.pirateparty.gr%3A6969%2Fannounce&tr=udp%3A%2F%2Ftracker.cyberia.is%3A6969%2Fannounce",
        "seeder": "72",
        "leecher": "1"
    },
    {
        "rank": "91",
        "title": "Windows 10 User Guide  The Ideal Step-By-Step Guide For All Begi",
        "link": "magnet:?xt=urn:btih:B4BC987C2B9A1ECAF12F66D04111472B1125F161&dn=Windows+10+User+Guide++The+Ideal+Step-By-Step+Guide+For+All+Begi&tr=udp%3A%2F%2Ftracker.coppersurfer.tk%3A6969%2Fannounce&tr=udp%3A%2F%2F9.rarbg.to%3A2920%2Fannounce&tr=udp%3A%2F%2Ftracker.opentrackr.org%3A1337&tr=udp%3A%2F%2Ftracker.internetwarriors.net%3A1337%2Fannounce&tr=udp%3A%2F%2Ftracker.leechers-paradise.org%3A6969%2Fannounce&tr=udp%3A%2F%2Ftracker.coppersurfer.tk%3A6969%2Fannounce&tr=udp%3A%2F%2Ftracker.pirateparty.gr%3A6969%2Fannounce&tr=udp%3A%2F%2Ftracker.cyberia.is%3A6969%2Fannounce",
        "seeder": "71",
        "leecher": "0"
    },
    {
        "rank": "92",
        "title": "The Midnight Library by Matt Haig AZW3",
        "link": "magnet:?xt=urn:btih:D22EBABAEC30D87623E5F49BD5C5064DBEFB0E19&dn=The+Midnight+Library+by+Matt+Haig+AZW3&tr=udp%3A%2F%2Ftracker.coppersurfer.tk%3A6969%2Fannounce&tr=udp%3A%2F%2F9.rarbg.to%3A2920%2Fannounce&tr=udp%3A%2F%2Ftracker.opentrackr.org%3A1337&tr=udp%3A%2F%2Ftracker.internetwarriors.net%3A1337%2Fannounce&tr=udp%3A%2F%2Ftracker.leechers-paradise.org%3A6969%2Fannounce&tr=udp%3A%2F%2Ftracker.coppersurfer.tk%3A6969%2Fannounce&tr=udp%3A%2F%2Ftracker.pirateparty.gr%3A6969%2Fannounce&tr=udp%3A%2F%2Ftracker.cyberia.is%3A6969%2Fannounce",
        "seeder": "71",
        "leecher": "1"
    },
    {
        "rank": "93",
        "title": "The Laws of Human Nature by Robert Greene (.epub)",
        "link": "magnet:?xt=urn:btih:ED478F7218321BC69A69E31CE568610BA75D99FD&dn=The+Laws+of+Human+Nature+by+Robert+Greene+%28.epub%29&tr=udp%3A%2F%2Ftracker.coppersurfer.tk%3A6969%2Fannounce&tr=udp%3A%2F%2F9.rarbg.to%3A2920%2Fannounce&tr=udp%3A%2F%2Ftracker.opentrackr.org%3A1337&tr=udp%3A%2F%2Ftracker.internetwarriors.net%3A1337%2Fannounce&tr=udp%3A%2F%2Ftracker.leechers-paradise.org%3A6969%2Fannounce&tr=udp%3A%2F%2Ftracker.coppersurfer.tk%3A6969%2Fannounce&tr=udp%3A%2F%2Ftracker.pirateparty.gr%3A6969%2Fannounce&tr=udp%3A%2F%2Ftracker.cyberia.is%3A6969%2Fannounce",
        "seeder": "71",
        "leecher": "0"
    },
    {
        "rank": "94",
        "title": "How to Be a Bad Emperor by Suetonius EPUB",
        "link": "magnet:?xt=urn:btih:5B9D02E678F3540B80ADDAFB676D56206BC2A04F&dn=How+to+Be+a+Bad+Emperor+by+Suetonius+EPUB&tr=udp%3A%2F%2Ftracker.coppersurfer.tk%3A6969%2Fannounce&tr=udp%3A%2F%2F9.rarbg.to%3A2920%2Fannounce&tr=udp%3A%2F%2Ftracker.opentrackr.org%3A1337&tr=udp%3A%2F%2Ftracker.internetwarriors.net%3A1337%2Fannounce&tr=udp%3A%2F%2Ftracker.leechers-paradise.org%3A6969%2Fannounce&tr=udp%3A%2F%2Ftracker.coppersurfer.tk%3A6969%2Fannounce&tr=udp%3A%2F%2Ftracker.pirateparty.gr%3A6969%2Fannounce&tr=udp%3A%2F%2Ftracker.cyberia.is%3A6969%2Fannounce",
        "seeder": "70",
        "leecher": "6"
    },
    {
        "rank": "95",
        "title": "The Sex Bible The Complete Guide to Sexual Love",
        "link": "magnet:?xt=urn:btih:ABA51692F6FC49303879DF2CFB93B8C3234FE32C&dn=The+Sex+Bible+The+Complete+Guide+to+Sexual+Love&tr=udp%3A%2F%2Ftracker.coppersurfer.tk%3A6969%2Fannounce&tr=udp%3A%2F%2F9.rarbg.to%3A2920%2Fannounce&tr=udp%3A%2F%2Ftracker.opentrackr.org%3A1337&tr=udp%3A%2F%2Ftracker.internetwarriors.net%3A1337%2Fannounce&tr=udp%3A%2F%2Ftracker.leechers-paradise.org%3A6969%2Fannounce&tr=udp%3A%2F%2Ftracker.coppersurfer.tk%3A6969%2Fannounce&tr=udp%3A%2F%2Ftracker.pirateparty.gr%3A6969%2Fannounce&tr=udp%3A%2F%2Ftracker.cyberia.is%3A6969%2Fannounce",
        "seeder": "70",
        "leecher": "3"
    },
    {
        "rank": "96",
        "title": "Penis Power: The Ultimate Guide to Male Sexual Health",
        "link": "magnet:?xt=urn:btih:40C9FE97857DAF41CC4B86C96F99A616710DA8F8&dn=Penis+Power%3A+The+Ultimate+Guide+to+Male+Sexual+Health&tr=udp%3A%2F%2Ftracker.coppersurfer.tk%3A6969%2Fannounce&tr=udp%3A%2F%2F9.rarbg.to%3A2920%2Fannounce&tr=udp%3A%2F%2Ftracker.opentrackr.org%3A1337&tr=udp%3A%2F%2Ftracker.internetwarriors.net%3A1337%2Fannounce&tr=udp%3A%2F%2Ftracker.leechers-paradise.org%3A6969%2Fannounce&tr=udp%3A%2F%2Ftracker.coppersurfer.tk%3A6969%2Fannounce&tr=udp%3A%2F%2Ftracker.pirateparty.gr%3A6969%2Fannounce&tr=udp%3A%2F%2Ftracker.cyberia.is%3A6969%2Fannounce",
        "seeder": "70",
        "leecher": "0"
    },
    {
        "rank": "97",
        "title": "Solar Power The beginner's guide on how to design and install a",
        "link": "magnet:?xt=urn:btih:AB720F5BF50E06DCA993321F64CAADA482D9D805&dn=Solar+Power+The+beginner%27s+guide+on+how+to+design+and+install+a&tr=udp%3A%2F%2Ftracker.coppersurfer.tk%3A6969%2Fannounce&tr=udp%3A%2F%2F9.rarbg.to%3A2920%2Fannounce&tr=udp%3A%2F%2Ftracker.opentrackr.org%3A1337&tr=udp%3A%2F%2Ftracker.internetwarriors.net%3A1337%2Fannounce&tr=udp%3A%2F%2Ftracker.leechers-paradise.org%3A6969%2Fannounce&tr=udp%3A%2F%2Ftracker.coppersurfer.tk%3A6969%2Fannounce&tr=udp%3A%2F%2Ftracker.pirateparty.gr%3A6969%2Fannounce&tr=udp%3A%2F%2Ftracker.cyberia.is%3A6969%2Fannounce",
        "seeder": "69",
        "leecher": "1"
    },
    {
        "rank": "98",
        "title": "English Grammar Guide - English Grammar Rules you Must Learn Bef",
        "link": "magnet:?xt=urn:btih:06351660DF491A2111F5FC686B5ED177A6AD3E83&dn=English+Grammar+Guide+-+English+Grammar+Rules+you+Must+Learn+Bef&tr=udp%3A%2F%2Ftracker.coppersurfer.tk%3A6969%2Fannounce&tr=udp%3A%2F%2F9.rarbg.to%3A2920%2Fannounce&tr=udp%3A%2F%2Ftracker.opentrackr.org%3A1337&tr=udp%3A%2F%2Ftracker.internetwarriors.net%3A1337%2Fannounce&tr=udp%3A%2F%2Ftracker.leechers-paradise.org%3A6969%2Fannounce&tr=udp%3A%2F%2Ftracker.coppersurfer.tk%3A6969%2Fannounce&tr=udp%3A%2F%2Ftracker.pirateparty.gr%3A6969%2Fannounce&tr=udp%3A%2F%2Ftracker.cyberia.is%3A6969%2Fannounce",
        "seeder": "69",
        "leecher": "0"
    },
    {
        "rank": "99",
        "title": "How to Read a Person Like a Book",
        "link": "magnet:?xt=urn:btih:73503623DA1BC5434AEF671D6FB8974752E95E72&dn=How+to+Read+a+Person+Like+a+Book&tr=udp%3A%2F%2Ftracker.coppersurfer.tk%3A6969%2Fannounce&tr=udp%3A%2F%2F9.rarbg.to%3A2920%2Fannounce&tr=udp%3A%2F%2Ftracker.opentrackr.org%3A1337&tr=udp%3A%2F%2Ftracker.internetwarriors.net%3A1337%2Fannounce&tr=udp%3A%2F%2Ftracker.leechers-paradise.org%3A6969%2Fannounce&tr=udp%3A%2F%2Ftracker.coppersurfer.tk%3A6969%2Fannounce&tr=udp%3A%2F%2Ftracker.pirateparty.gr%3A6969%2Fannounce&tr=udp%3A%2F%2Ftracker.cyberia.is%3A6969%2Fannounce",
        "seeder": "69",
        "leecher": "0"
    },
    {
        "rank": "100",
        "title": "The Subtle Art of Not Giving a Fck (2016) (Epub) Gooner",
        "link": "magnet:?xt=urn:btih:01C227C8C9AAC311F9365B163EA94708C27A7DB4&dn=The+Subtle+Art+of+Not+Giving+a+Fck+%282016%29+%28Epub%29+Gooner&tr=udp%3A%2F%2Ftracker.coppersurfer.tk%3A6969%2Fannounce&tr=udp%3A%2F%2F9.rarbg.to%3A2920%2Fannounce&tr=udp%3A%2F%2Ftracker.opentrackr.org%3A1337&tr=udp%3A%2F%2Ftracker.internetwarriors.net%3A1337%2Fannounce&tr=udp%3A%2F%2Ftracker.leechers-paradise.org%3A6969%2Fannounce&tr=udp%3A%2F%2Ftracker.coppersurfer.tk%3A6969%2Fannounce&tr=udp%3A%2F%2Ftracker.pirateparty.gr%3A6969%2Fannounce&tr=udp%3A%2F%2Ftracker.cyberia.is%3A6969%2Fannounce",
        "seeder": "69",
        "leecher": "0"
    }
]
