[
    {
        "rank": "1",
        "title": "DadCrush 21 03 27 Kali Roses Stepdaughter Knows How To Bargain",
        "link": "magnet:?xt=urn:btih:234C458E7CCD03F1DD0DCB8AF996F4B543CEA915&dn=DadCrush+21+03+27+Kali+Roses+Stepdaughter+Knows+How+To+Bargain&tr=udp%3A%2F%2Ftracker.coppersurfer.tk%3A6969%2Fannounce&tr=udp%3A%2F%2F9.rarbg.to%3A2920%2Fannounce&tr=udp%3A%2F%2Ftracker.opentrackr.org%3A1337&tr=udp%3A%2F%2Ftracker.internetwarriors.net%3A1337%2Fannounce&tr=udp%3A%2F%2Ftracker.leechers-paradise.org%3A6969%2Fannounce&tr=udp%3A%2F%2Ftracker.coppersurfer.tk%3A6969%2Fannounce&tr=udp%3A%2F%2Ftracker.pirateparty.gr%3A6969%2Fannounce&tr=udp%3A%2F%2Ftracker.cyberia.is%3A6969%2Fannounce",
        "seeder": "737",
        "leecher": "156"
    },
    {
        "rank": "2",
        "title": "PervMom 21 03 28 Canela Skin Make Me Scream Like Her  480p mp4",
        "link": "magnet:?xt=urn:btih:DC3E1EE4EDD1874D605F3B74CB2315CD536806EC&dn=PervMom+21+03+28+Canela+Skin+Make+Me+Scream+Like+Her++480p+mp4&tr=udp%3A%2F%2Ftracker.coppersurfer.tk%3A6969%2Fannounce&tr=udp%3A%2F%2F9.rarbg.to%3A2920%2Fannounce&tr=udp%3A%2F%2Ftracker.opentrackr.org%3A1337&tr=udp%3A%2F%2Ftracker.internetwarriors.net%3A1337%2Fannounce&tr=udp%3A%2F%2Ftracker.leechers-paradise.org%3A6969%2Fannounce&tr=udp%3A%2F%2Ftracker.coppersurfer.tk%3A6969%2Fannounce&tr=udp%3A%2F%2Ftracker.pirateparty.gr%3A6969%2Fannounce&tr=udp%3A%2F%2Ftracker.cyberia.is%3A6969%2Fannounce",
        "seeder": "614",
        "leecher": "127"
    },
    {
        "rank": "3",
        "title": "WoodmanCastingX - Elena Lux - Casting X",
        "link": "magnet:?xt=urn:btih:36CC0C093C6901E9D77A17DFA99D6A2D64BB1C8D&dn=WoodmanCastingX+-+Elena+Lux+-+Casting+X&tr=udp%3A%2F%2Ftracker.coppersurfer.tk%3A6969%2Fannounce&tr=udp%3A%2F%2F9.rarbg.to%3A2920%2Fannounce&tr=udp%3A%2F%2Ftracker.opentrackr.org%3A1337&tr=udp%3A%2F%2Ftracker.internetwarriors.net%3A1337%2Fannounce&tr=udp%3A%2F%2Ftracker.leechers-paradise.org%3A6969%2Fannounce&tr=udp%3A%2F%2Ftracker.coppersurfer.tk%3A6969%2Fannounce&tr=udp%3A%2F%2Ftracker.pirateparty.gr%3A6969%2Fannounce&tr=udp%3A%2F%2Ftracker.cyberia.is%3A6969%2Fannounce",
        "seeder": "575",
        "leecher": "127"
    },
    {
        "rank": "4",
        "title": "MyPervyFamily 21 03 26 Misty Quinn Busty Stepsister Seduction",
        "link": "magnet:?xt=urn:btih:A343AA2C2B812D16E1CBF057C7CE73900A2A1F1F&dn=MyPervyFamily+21+03+26+Misty+Quinn+Busty+Stepsister+Seduction&tr=udp%3A%2F%2Ftracker.coppersurfer.tk%3A6969%2Fannounce&tr=udp%3A%2F%2F9.rarbg.to%3A2920%2Fannounce&tr=udp%3A%2F%2Ftracker.opentrackr.org%3A1337&tr=udp%3A%2F%2Ftracker.internetwarriors.net%3A1337%2Fannounce&tr=udp%3A%2F%2Ftracker.leechers-paradise.org%3A6969%2Fannounce&tr=udp%3A%2F%2Ftracker.coppersurfer.tk%3A6969%2Fannounce&tr=udp%3A%2F%2Ftracker.pirateparty.gr%3A6969%2Fannounce&tr=udp%3A%2F%2Ftracker.cyberia.is%3A6969%2Fannounce",
        "seeder": "521",
        "leecher": "81"
    },
    {
        "rank": "5",
        "title": "PureTaboo 21 03 30 Victoria Voxxx One Mans Trash  480p mp4",
        "link": "magnet:?xt=urn:btih:639AE1CDCF1D1EA6D2BD393BFA9F06C2B463D910&dn=PureTaboo+21+03+30+Victoria+Voxxx+One+Mans+Trash++480p+mp4&tr=udp%3A%2F%2Ftracker.coppersurfer.tk%3A6969%2Fannounce&tr=udp%3A%2F%2F9.rarbg.to%3A2920%2Fannounce&tr=udp%3A%2F%2Ftracker.opentrackr.org%3A1337&tr=udp%3A%2F%2Ftracker.internetwarriors.net%3A1337%2Fannounce&tr=udp%3A%2F%2Ftracker.leechers-paradise.org%3A6969%2Fannounce&tr=udp%3A%2F%2Ftracker.coppersurfer.tk%3A6969%2Fannounce&tr=udp%3A%2F%2Ftracker.pirateparty.gr%3A6969%2Fannounce&tr=udp%3A%2F%2Ftracker.cyberia.is%3A6969%2Fannounce",
        "seeder": "458",
        "leecher": "203"
    },
    {
        "rank": "6",
        "title": "BrazzersExxtra 21 03 29 Romi Rain Rain On Romi  480p mp4",
        "link": "magnet:?xt=urn:btih:8043A31A808C564DAEC53D3736D98DE002C4056A&dn=BrazzersExxtra+21+03+29+Romi+Rain+Rain+On+Romi++480p+mp4&tr=udp%3A%2F%2Ftracker.coppersurfer.tk%3A6969%2Fannounce&tr=udp%3A%2F%2F9.rarbg.to%3A2920%2Fannounce&tr=udp%3A%2F%2Ftracker.opentrackr.org%3A1337&tr=udp%3A%2F%2Ftracker.internetwarriors.net%3A1337%2Fannounce&tr=udp%3A%2F%2Ftracker.leechers-paradise.org%3A6969%2Fannounce&tr=udp%3A%2F%2Ftracker.coppersurfer.tk%3A6969%2Fannounce&tr=udp%3A%2F%2Ftracker.pirateparty.gr%3A6969%2Fannounce&tr=udp%3A%2F%2Ftracker.cyberia.is%3A6969%2Fannounce",
        "seeder": "440",
        "leecher": "97"
    },
    {
        "rank": "7",
        "title": "MomSwap 21 03 29 Karen Fisher And Syren De Mer Swapping Needy B",
        "link": "magnet:?xt=urn:btih:AC76848B91EB4A3915179B25FDDD3BB6D6FCBF35&dn=MomSwap+21+03+29+Karen+Fisher+And+Syren+De+Mer+Swapping+Needy+B&tr=udp%3A%2F%2Ftracker.coppersurfer.tk%3A6969%2Fannounce&tr=udp%3A%2F%2F9.rarbg.to%3A2920%2Fannounce&tr=udp%3A%2F%2Ftracker.opentrackr.org%3A1337&tr=udp%3A%2F%2Ftracker.internetwarriors.net%3A1337%2Fannounce&tr=udp%3A%2F%2Ftracker.leechers-paradise.org%3A6969%2Fannounce&tr=udp%3A%2F%2Ftracker.coppersurfer.tk%3A6969%2Fannounce&tr=udp%3A%2F%2Ftracker.pirateparty.gr%3A6969%2Fannounce&tr=udp%3A%2F%2Ftracker.cyberia.is%3A6969%2Fannounce",
        "seeder": "437",
        "leecher": "381"
    },
    {
        "rank": "8",
        "title": "MomDrips 21 03 26 Mckenzie Lee Great Misunderstanding  480p mp4",
        "link": "magnet:?xt=urn:btih:5B8F6632CA5CBA647C68F6C0C2C7B83E0F5C522C&dn=MomDrips+21+03+26+Mckenzie+Lee+Great+Misunderstanding++480p+mp4&tr=udp%3A%2F%2Ftracker.coppersurfer.tk%3A6969%2Fannounce&tr=udp%3A%2F%2F9.rarbg.to%3A2920%2Fannounce&tr=udp%3A%2F%2Ftracker.opentrackr.org%3A1337&tr=udp%3A%2F%2Ftracker.internetwarriors.net%3A1337%2Fannounce&tr=udp%3A%2F%2Ftracker.leechers-paradise.org%3A6969%2Fannounce&tr=udp%3A%2F%2Ftracker.coppersurfer.tk%3A6969%2Fannounce&tr=udp%3A%2F%2Ftracker.pirateparty.gr%3A6969%2Fannounce&tr=udp%3A%2F%2Ftracker.cyberia.is%3A6969%2Fannounce",
        "seeder": "437",
        "leecher": "77"
    },
    {
        "rank": "9",
        "title": "RKPrime 21 03 23 Kayla Kayden Unexpected Package  480p mp4",
        "link": "magnet:?xt=urn:btih:B5DBB8966391202EA64E742EAE6A2A5A8856104D&dn=RKPrime+21+03+23+Kayla+Kayden+Unexpected+Package++480p+mp4&tr=udp%3A%2F%2Ftracker.coppersurfer.tk%3A6969%2Fannounce&tr=udp%3A%2F%2F9.rarbg.to%3A2920%2Fannounce&tr=udp%3A%2F%2Ftracker.opentrackr.org%3A1337&tr=udp%3A%2F%2Ftracker.internetwarriors.net%3A1337%2Fannounce&tr=udp%3A%2F%2Ftracker.leechers-paradise.org%3A6969%2Fannounce&tr=udp%3A%2F%2Ftracker.coppersurfer.tk%3A6969%2Fannounce&tr=udp%3A%2F%2Ftracker.pirateparty.gr%3A6969%2Fannounce&tr=udp%3A%2F%2Ftracker.cyberia.is%3A6969%2Fannounce",
        "seeder": "434",
        "leecher": "33"
    },
    {
        "rank": "10",
        "title": "RKPrime 21 03 29 Kendra Sunderland Dripping Wet  480p mp4",
        "link": "magnet:?xt=urn:btih:1F46AD7A212D008BA0AFBB8E83CC102D202D10BF&dn=RKPrime+21+03+29+Kendra+Sunderland+Dripping+Wet++480p+mp4&tr=udp%3A%2F%2Ftracker.coppersurfer.tk%3A6969%2Fannounce&tr=udp%3A%2F%2F9.rarbg.to%3A2920%2Fannounce&tr=udp%3A%2F%2Ftracker.opentrackr.org%3A1337&tr=udp%3A%2F%2Ftracker.internetwarriors.net%3A1337%2Fannounce&tr=udp%3A%2F%2Ftracker.leechers-paradise.org%3A6969%2Fannounce&tr=udp%3A%2F%2Ftracker.coppersurfer.tk%3A6969%2Fannounce&tr=udp%3A%2F%2Ftracker.pirateparty.gr%3A6969%2Fannounce&tr=udp%3A%2F%2Ftracker.cyberia.is%3A6969%2Fannounce",
        "seeder": "424",
        "leecher": "94"
    },
    {
        "rank": "11",
        "title": "[BlackedRaw] Nala Brooks - Come Here Daddy (29.03.2021)",
        "link": "magnet:?xt=urn:btih:75EACE9CA719288B52B64D4D05A349BAA09542B2&dn=%5BBlackedRaw%5D+Nala+Brooks+-+Come+Here+Daddy+%2829.03.2021%29&tr=udp%3A%2F%2Ftracker.coppersurfer.tk%3A6969%2Fannounce&tr=udp%3A%2F%2F9.rarbg.to%3A2920%2Fannounce&tr=udp%3A%2F%2Ftracker.opentrackr.org%3A1337&tr=udp%3A%2F%2Ftracker.internetwarriors.net%3A1337%2Fannounce&tr=udp%3A%2F%2Ftracker.leechers-paradise.org%3A6969%2Fannounce&tr=udp%3A%2F%2Ftracker.coppersurfer.tk%3A6969%2Fannounce&tr=udp%3A%2F%2Ftracker.pirateparty.gr%3A6969%2Fannounce&tr=udp%3A%2F%2Ftracker.cyberia.is%3A6969%2Fannounce",
        "seeder": "410",
        "leecher": "199"
    },
    {
        "rank": "12",
        "title": "PornstarsLikeItBig 21 03 29 Phoenix Marie Joyride  480p mp4",
        "link": "magnet:?xt=urn:btih:CD11CDC232CF3CA91EB67DB02587E69F08E6E8F6&dn=PornstarsLikeItBig+21+03+29+Phoenix+Marie+Joyride++480p+mp4&tr=udp%3A%2F%2Ftracker.coppersurfer.tk%3A6969%2Fannounce&tr=udp%3A%2F%2F9.rarbg.to%3A2920%2Fannounce&tr=udp%3A%2F%2Ftracker.opentrackr.org%3A1337&tr=udp%3A%2F%2Ftracker.internetwarriors.net%3A1337%2Fannounce&tr=udp%3A%2F%2Ftracker.leechers-paradise.org%3A6969%2Fannounce&tr=udp%3A%2F%2Ftracker.coppersurfer.tk%3A6969%2Fannounce&tr=udp%3A%2F%2Ftracker.pirateparty.gr%3A6969%2Fannounce&tr=udp%3A%2F%2Ftracker.cyberia.is%3A6969%2Fannounce",
        "seeder": "407",
        "leecher": "93"
    },
    {
        "rank": "13",
        "title": "RKPrime 21 03 29 Alexis Fawx Sweet Sweet Infidelity  480p mp4",
        "link": "magnet:?xt=urn:btih:5EEAAD9819A4ED254FB322E947BF8FE48FBB171A&dn=RKPrime+21+03+29+Alexis+Fawx+Sweet+Sweet+Infidelity++480p+mp4&tr=udp%3A%2F%2Ftracker.coppersurfer.tk%3A6969%2Fannounce&tr=udp%3A%2F%2F9.rarbg.to%3A2920%2Fannounce&tr=udp%3A%2F%2Ftracker.opentrackr.org%3A1337&tr=udp%3A%2F%2Ftracker.internetwarriors.net%3A1337%2Fannounce&tr=udp%3A%2F%2Ftracker.leechers-paradise.org%3A6969%2Fannounce&tr=udp%3A%2F%2Ftracker.coppersurfer.tk%3A6969%2Fannounce&tr=udp%3A%2F%2Ftracker.pirateparty.gr%3A6969%2Fannounce&tr=udp%3A%2F%2Ftracker.cyberia.is%3A6969%2Fannounce",
        "seeder": "405",
        "leecher": "78"
    },
    {
        "rank": "14",
        "title": "BrattySis 21 03 26 Hime Marie And Kylie Rocket My Step Sisters",
        "link": "magnet:?xt=urn:btih:5DFF3764885DD6856B5F535A901C6934DAF5A02F&dn=BrattySis+21+03+26+Hime+Marie+And+Kylie+Rocket+My+Step+Sisters&tr=udp%3A%2F%2Ftracker.coppersurfer.tk%3A6969%2Fannounce&tr=udp%3A%2F%2F9.rarbg.to%3A2920%2Fannounce&tr=udp%3A%2F%2Ftracker.opentrackr.org%3A1337&tr=udp%3A%2F%2Ftracker.internetwarriors.net%3A1337%2Fannounce&tr=udp%3A%2F%2Ftracker.leechers-paradise.org%3A6969%2Fannounce&tr=udp%3A%2F%2Ftracker.coppersurfer.tk%3A6969%2Fannounce&tr=udp%3A%2F%2Ftracker.pirateparty.gr%3A6969%2Fannounce&tr=udp%3A%2F%2Ftracker.cyberia.is%3A6969%2Fannounce",
        "seeder": "395",
        "leecher": "42"
    },
    {
        "rank": "15",
        "title": "RKPrime 21 03 28 Gabriela Lopez Dear Diary I Need To Get My Pus",
        "link": "magnet:?xt=urn:btih:71ED715AF3641B6CD3B7E48024EDF205C047C242&dn=RKPrime+21+03+28+Gabriela+Lopez+Dear+Diary+I+Need+To+Get+My+Pus&tr=udp%3A%2F%2Ftracker.coppersurfer.tk%3A6969%2Fannounce&tr=udp%3A%2F%2F9.rarbg.to%3A2920%2Fannounce&tr=udp%3A%2F%2Ftracker.opentrackr.org%3A1337&tr=udp%3A%2F%2Ftracker.internetwarriors.net%3A1337%2Fannounce&tr=udp%3A%2F%2Ftracker.leechers-paradise.org%3A6969%2Fannounce&tr=udp%3A%2F%2Ftracker.coppersurfer.tk%3A6969%2Fannounce&tr=udp%3A%2F%2Ftracker.pirateparty.gr%3A6969%2Fannounce&tr=udp%3A%2F%2Ftracker.cyberia.is%3A6969%2Fannounce",
        "seeder": "370",
        "leecher": "50"
    },
    {
        "rank": "16",
        "title": "LegalPorno - Megan Inky Vs BBC DAP team",
        "link": "magnet:?xt=urn:btih:4644164096DF51F9484BEC2435924A6079B0D0B2&dn=LegalPorno+-+Megan+Inky+Vs+BBC+DAP+team&tr=udp%3A%2F%2Ftracker.coppersurfer.tk%3A6969%2Fannounce&tr=udp%3A%2F%2F9.rarbg.to%3A2920%2Fannounce&tr=udp%3A%2F%2Ftracker.opentrackr.org%3A1337&tr=udp%3A%2F%2Ftracker.internetwarriors.net%3A1337%2Fannounce&tr=udp%3A%2F%2Ftracker.leechers-paradise.org%3A6969%2Fannounce&tr=udp%3A%2F%2Ftracker.coppersurfer.tk%3A6969%2Fannounce&tr=udp%3A%2F%2Ftracker.pirateparty.gr%3A6969%2Fannounce&tr=udp%3A%2F%2Ftracker.cyberia.is%3A6969%2Fannounce",
        "seeder": "365",
        "leecher": "84"
    },
    {
        "rank": "17",
        "title": "Shoplyfter 21 03 24 Charly Summer The Obvious Thief  480p mp4",
        "link": "magnet:?xt=urn:btih:C8C7E0E4B7FEE65FC8A841A24C004804864F05BD&dn=Shoplyfter+21+03+24+Charly+Summer+The+Obvious+Thief++480p+mp4&tr=udp%3A%2F%2Ftracker.coppersurfer.tk%3A6969%2Fannounce&tr=udp%3A%2F%2F9.rarbg.to%3A2920%2Fannounce&tr=udp%3A%2F%2Ftracker.opentrackr.org%3A1337&tr=udp%3A%2F%2Ftracker.internetwarriors.net%3A1337%2Fannounce&tr=udp%3A%2F%2Ftracker.leechers-paradise.org%3A6969%2Fannounce&tr=udp%3A%2F%2Ftracker.coppersurfer.tk%3A6969%2Fannounce&tr=udp%3A%2F%2Ftracker.pirateparty.gr%3A6969%2Fannounce&tr=udp%3A%2F%2Ftracker.cyberia.is%3A6969%2Fannounce",
        "seeder": "357",
        "leecher": "24"
    },
    {
        "rank": "18",
        "title": "TabooHeat 21 03 27 Cory Chase Stuck At Home With My Stepmom  48",
        "link": "magnet:?xt=urn:btih:30AEB0E3A3FF241130BDD2F802657119FA68F44B&dn=TabooHeat+21+03+27+Cory+Chase+Stuck+At+Home+With+My+Stepmom++48&tr=udp%3A%2F%2Ftracker.coppersurfer.tk%3A6969%2Fannounce&tr=udp%3A%2F%2F9.rarbg.to%3A2920%2Fannounce&tr=udp%3A%2F%2Ftracker.opentrackr.org%3A1337&tr=udp%3A%2F%2Ftracker.internetwarriors.net%3A1337%2Fannounce&tr=udp%3A%2F%2Ftracker.leechers-paradise.org%3A6969%2Fannounce&tr=udp%3A%2F%2Ftracker.coppersurfer.tk%3A6969%2Fannounce&tr=udp%3A%2F%2Ftracker.pirateparty.gr%3A6969%2Fannounce&tr=udp%3A%2F%2Ftracker.cyberia.is%3A6969%2Fannounce",
        "seeder": "355",
        "leecher": "76"
    },
    {
        "rank": "19",
        "title": "JapanHDV 21 03 30 Yuri Sato  480p mp4",
        "link": "magnet:?xt=urn:btih:BAB372E8D0D8E1A3F5C92C0DF0F6C31AE7E59206&dn=JapanHDV+21+03+30+Yuri+Sato++480p+mp4&tr=udp%3A%2F%2Ftracker.coppersurfer.tk%3A6969%2Fannounce&tr=udp%3A%2F%2F9.rarbg.to%3A2920%2Fannounce&tr=udp%3A%2F%2Ftracker.opentrackr.org%3A1337&tr=udp%3A%2F%2Ftracker.internetwarriors.net%3A1337%2Fannounce&tr=udp%3A%2F%2Ftracker.leechers-paradise.org%3A6969%2Fannounce&tr=udp%3A%2F%2Ftracker.coppersurfer.tk%3A6969%2Fannounce&tr=udp%3A%2F%2Ftracker.pirateparty.gr%3A6969%2Fannounce&tr=udp%3A%2F%2Ftracker.cyberia.is%3A6969%2Fannounce",
        "seeder": "349",
        "leecher": "96"
    },
    {
        "rank": "20",
        "title": "TeenFidelity E459 Stacy Cruz  480p mp4",
        "link": "magnet:?xt=urn:btih:11A199A0C521D7999E26FBE4A99AE81CAF940468&dn=TeenFidelity+E459+Stacy+Cruz++480p+mp4&tr=udp%3A%2F%2Ftracker.coppersurfer.tk%3A6969%2Fannounce&tr=udp%3A%2F%2F9.rarbg.to%3A2920%2Fannounce&tr=udp%3A%2F%2Ftracker.opentrackr.org%3A1337&tr=udp%3A%2F%2Ftracker.internetwarriors.net%3A1337%2Fannounce&tr=udp%3A%2F%2Ftracker.leechers-paradise.org%3A6969%2Fannounce&tr=udp%3A%2F%2Ftracker.coppersurfer.tk%3A6969%2Fannounce&tr=udp%3A%2F%2Ftracker.pirateparty.gr%3A6969%2Fannounce&tr=udp%3A%2F%2Ftracker.cyberia.is%3A6969%2Fannounce",
        "seeder": "346",
        "leecher": "30"
    },
    {
        "rank": "21",
        "title": "PenthouseGold - Lauren Phillips - MILF Maids 1",
        "link": "magnet:?xt=urn:btih:12ABEF3B0A94CBC33C9ADA79C0D250120BA90489&dn=PenthouseGold+-+Lauren+Phillips+-+MILF+Maids+1&tr=udp%3A%2F%2Ftracker.coppersurfer.tk%3A6969%2Fannounce&tr=udp%3A%2F%2F9.rarbg.to%3A2920%2Fannounce&tr=udp%3A%2F%2Ftracker.opentrackr.org%3A1337&tr=udp%3A%2F%2Ftracker.internetwarriors.net%3A1337%2Fannounce&tr=udp%3A%2F%2Ftracker.leechers-paradise.org%3A6969%2Fannounce&tr=udp%3A%2F%2Ftracker.coppersurfer.tk%3A6969%2Fannounce&tr=udp%3A%2F%2Ftracker.pirateparty.gr%3A6969%2Fannounce&tr=udp%3A%2F%2Ftracker.cyberia.is%3A6969%2Fannounce",
        "seeder": "341",
        "leecher": "132"
    },
    {
        "rank": "22",
        "title": "SisLovesMe 21 03 26 Maya Wolfe Help Me Stepsis  480p mp4",
        "link": "magnet:?xt=urn:btih:6F6B08FF54DCE84128D71854E7C0EB52B3A52151&dn=SisLovesMe+21+03+26+Maya+Wolfe+Help+Me+Stepsis++480p+mp4&tr=udp%3A%2F%2Ftracker.coppersurfer.tk%3A6969%2Fannounce&tr=udp%3A%2F%2F9.rarbg.to%3A2920%2Fannounce&tr=udp%3A%2F%2Ftracker.opentrackr.org%3A1337&tr=udp%3A%2F%2Ftracker.internetwarriors.net%3A1337%2Fannounce&tr=udp%3A%2F%2Ftracker.leechers-paradise.org%3A6969%2Fannounce&tr=udp%3A%2F%2Ftracker.coppersurfer.tk%3A6969%2Fannounce&tr=udp%3A%2F%2Ftracker.pirateparty.gr%3A6969%2Fannounce&tr=udp%3A%2F%2Ftracker.cyberia.is%3A6969%2Fannounce",
        "seeder": "333",
        "leecher": "41"
    },
    {
        "rank": "23",
        "title": "BrazzersExxtra 21 03 21 Gabbie Carter Featherfall  480p mp4",
        "link": "magnet:?xt=urn:btih:32F1B5D1673D2E709C9FAB5623B3177530635FB5&dn=BrazzersExxtra+21+03+21+Gabbie+Carter+Featherfall++480p+mp4&tr=udp%3A%2F%2Ftracker.coppersurfer.tk%3A6969%2Fannounce&tr=udp%3A%2F%2F9.rarbg.to%3A2920%2Fannounce&tr=udp%3A%2F%2Ftracker.opentrackr.org%3A1337&tr=udp%3A%2F%2Ftracker.internetwarriors.net%3A1337%2Fannounce&tr=udp%3A%2F%2Ftracker.leechers-paradise.org%3A6969%2Fannounce&tr=udp%3A%2F%2Ftracker.coppersurfer.tk%3A6969%2Fannounce&tr=udp%3A%2F%2Ftracker.pirateparty.gr%3A6969%2Fannounce&tr=udp%3A%2F%2Ftracker.cyberia.is%3A6969%2Fannounce",
        "seeder": "323",
        "leecher": "22"
    },
    {
        "rank": "24",
        "title": "Black4K E08 Valentine Nappi  480p mp4",
        "link": "magnet:?xt=urn:btih:55ED82CE4334DAA643CDB476000C113AFB173F84&dn=Black4K+E08+Valentine+Nappi++480p+mp4&tr=udp%3A%2F%2Ftracker.coppersurfer.tk%3A6969%2Fannounce&tr=udp%3A%2F%2F9.rarbg.to%3A2920%2Fannounce&tr=udp%3A%2F%2Ftracker.opentrackr.org%3A1337&tr=udp%3A%2F%2Ftracker.internetwarriors.net%3A1337%2Fannounce&tr=udp%3A%2F%2Ftracker.leechers-paradise.org%3A6969%2Fannounce&tr=udp%3A%2F%2Ftracker.coppersurfer.tk%3A6969%2Fannounce&tr=udp%3A%2F%2Ftracker.pirateparty.gr%3A6969%2Fannounce&tr=udp%3A%2F%2Ftracker.cyberia.is%3A6969%2Fannounce",
        "seeder": "322",
        "leecher": "117"
    },
    {
        "rank": "25",
        "title": "AnalMom 21 03 25 Canela Skin Cheater Gets It From Behind  480p",
        "link": "magnet:?xt=urn:btih:013D1C6C772A7138B98F7E814C76C5CEB541F126&dn=AnalMom+21+03+25+Canela+Skin+Cheater+Gets+It+From+Behind++480p&tr=udp%3A%2F%2Ftracker.coppersurfer.tk%3A6969%2Fannounce&tr=udp%3A%2F%2F9.rarbg.to%3A2920%2Fannounce&tr=udp%3A%2F%2Ftracker.opentrackr.org%3A1337&tr=udp%3A%2F%2Ftracker.internetwarriors.net%3A1337%2Fannounce&tr=udp%3A%2F%2Ftracker.leechers-paradise.org%3A6969%2Fannounce&tr=udp%3A%2F%2Ftracker.coppersurfer.tk%3A6969%2Fannounce&tr=udp%3A%2F%2Ftracker.pirateparty.gr%3A6969%2Fannounce&tr=udp%3A%2F%2Ftracker.cyberia.is%3A6969%2Fannounce",
        "seeder": "311",
        "leecher": "25"
    },
    {
        "rank": "26",
        "title": "[Tushy] Emelie Crystal, Sara Bell - Three Steps (28.03.2021)",
        "link": "magnet:?xt=urn:btih:65AE22A1EAAA2A80353EE02BDB7D66F72EE58914&dn=%5BTushy%5D+Emelie+Crystal%2C+Sara+Bell+-+Three+Steps+%2828.03.2021%29&tr=udp%3A%2F%2Ftracker.coppersurfer.tk%3A6969%2Fannounce&tr=udp%3A%2F%2F9.rarbg.to%3A2920%2Fannounce&tr=udp%3A%2F%2Ftracker.opentrackr.org%3A1337&tr=udp%3A%2F%2Ftracker.internetwarriors.net%3A1337%2Fannounce&tr=udp%3A%2F%2Ftracker.leechers-paradise.org%3A6969%2Fannounce&tr=udp%3A%2F%2Ftracker.coppersurfer.tk%3A6969%2Fannounce&tr=udp%3A%2F%2Ftracker.pirateparty.gr%3A6969%2Fannounce&tr=udp%3A%2F%2Ftracker.cyberia.is%3A6969%2Fannounce",
        "seeder": "306",
        "leecher": "43"
    },
    {
        "rank": "27",
        "title": "StepSiblingsCaught 21 03 29 Clara Trinity And Scarlet Skies  48",
        "link": "magnet:?xt=urn:btih:44098B124ECE9AAE22E797420882CD1A9D69470D&dn=StepSiblingsCaught+21+03+29+Clara+Trinity+And+Scarlet+Skies++48&tr=udp%3A%2F%2Ftracker.coppersurfer.tk%3A6969%2Fannounce&tr=udp%3A%2F%2F9.rarbg.to%3A2920%2Fannounce&tr=udp%3A%2F%2Ftracker.opentrackr.org%3A1337&tr=udp%3A%2F%2Ftracker.internetwarriors.net%3A1337%2Fannounce&tr=udp%3A%2F%2Ftracker.leechers-paradise.org%3A6969%2Fannounce&tr=udp%3A%2F%2Ftracker.coppersurfer.tk%3A6969%2Fannounce&tr=udp%3A%2F%2Ftracker.pirateparty.gr%3A6969%2Fannounce&tr=udp%3A%2F%2Ftracker.cyberia.is%3A6969%2Fannounce",
        "seeder": "304",
        "leecher": "42"
    },
    {
        "rank": "28",
        "title": "SexMex 21 03 29 Pamela Rios Her Sons Best Friend Paid Her For S",
        "link": "magnet:?xt=urn:btih:5595A2770E827C278C2E1788B0D216A56574C4DC&dn=SexMex+21+03+29+Pamela+Rios+Her+Sons+Best+Friend+Paid+Her+For+S&tr=udp%3A%2F%2Ftracker.coppersurfer.tk%3A6969%2Fannounce&tr=udp%3A%2F%2F9.rarbg.to%3A2920%2Fannounce&tr=udp%3A%2F%2Ftracker.opentrackr.org%3A1337&tr=udp%3A%2F%2Ftracker.internetwarriors.net%3A1337%2Fannounce&tr=udp%3A%2F%2Ftracker.leechers-paradise.org%3A6969%2Fannounce&tr=udp%3A%2F%2Ftracker.coppersurfer.tk%3A6969%2Fannounce&tr=udp%3A%2F%2Ftracker.pirateparty.gr%3A6969%2Fannounce&tr=udp%3A%2F%2Ftracker.cyberia.is%3A6969%2Fannounce",
        "seeder": "292",
        "leecher": "70"
    },
    {
        "rank": "29",
        "title": "Tushy 21 03 14 Little Caprice  480p mp4",
        "link": "magnet:?xt=urn:btih:5167AC74AE2BC1DC8217D9D9F650397D03565CF0&dn=Tushy+21+03+14+Little+Caprice++480p+mp4&tr=udp%3A%2F%2Ftracker.coppersurfer.tk%3A6969%2Fannounce&tr=udp%3A%2F%2F9.rarbg.to%3A2920%2Fannounce&tr=udp%3A%2F%2Ftracker.opentrackr.org%3A1337&tr=udp%3A%2F%2Ftracker.internetwarriors.net%3A1337%2Fannounce&tr=udp%3A%2F%2Ftracker.leechers-paradise.org%3A6969%2Fannounce&tr=udp%3A%2F%2Ftracker.coppersurfer.tk%3A6969%2Fannounce&tr=udp%3A%2F%2Ftracker.pirateparty.gr%3A6969%2Fannounce&tr=udp%3A%2F%2Ftracker.cyberia.is%3A6969%2Fannounce",
        "seeder": "288",
        "leecher": "235"
    },
    {
        "rank": "30",
        "title": "BrazzersExxtra 21 03 24 Kayley Gunner And Jenna Starr  480p mp4",
        "link": "magnet:?xt=urn:btih:AA066EF42E47DFDE8B01A35523369D3080BAD048&dn=BrazzersExxtra+21+03+24+Kayley+Gunner+And+Jenna+Starr++480p+mp4&tr=udp%3A%2F%2Ftracker.coppersurfer.tk%3A6969%2Fannounce&tr=udp%3A%2F%2F9.rarbg.to%3A2920%2Fannounce&tr=udp%3A%2F%2Ftracker.opentrackr.org%3A1337&tr=udp%3A%2F%2Ftracker.internetwarriors.net%3A1337%2Fannounce&tr=udp%3A%2F%2Ftracker.leechers-paradise.org%3A6969%2Fannounce&tr=udp%3A%2F%2Ftracker.coppersurfer.tk%3A6969%2Fannounce&tr=udp%3A%2F%2Ftracker.pirateparty.gr%3A6969%2Fannounce&tr=udp%3A%2F%2Ftracker.cyberia.is%3A6969%2Fannounce",
        "seeder": "282",
        "leecher": "32"
    },
    {
        "rank": "31",
        "title": "TeensLoveBlackCocks 21 03 30 Chloe Temple My Dads Huge College",
        "link": "magnet:?xt=urn:btih:20F72EC0C5F4E72E318C39F5FC04F30416E3CBD6&dn=TeensLoveBlackCocks+21+03+30+Chloe+Temple+My+Dads+Huge+College&tr=udp%3A%2F%2Ftracker.coppersurfer.tk%3A6969%2Fannounce&tr=udp%3A%2F%2F9.rarbg.to%3A2920%2Fannounce&tr=udp%3A%2F%2Ftracker.opentrackr.org%3A1337&tr=udp%3A%2F%2Ftracker.internetwarriors.net%3A1337%2Fannounce&tr=udp%3A%2F%2Ftracker.leechers-paradise.org%3A6969%2Fannounce&tr=udp%3A%2F%2Ftracker.coppersurfer.tk%3A6969%2Fannounce&tr=udp%3A%2F%2Ftracker.pirateparty.gr%3A6969%2Fannounce&tr=udp%3A%2F%2Ftracker.cyberia.is%3A6969%2Fannounce",
        "seeder": "266",
        "leecher": "211"
    },
    {
        "rank": "32",
        "title": "PublicAgent 21 03 29 Chloe Bailey  480p mp4",
        "link": "magnet:?xt=urn:btih:313281F9F039C925C71D8B13426CF5D77F68BE00&dn=PublicAgent+21+03+29+Chloe+Bailey++480p+mp4&tr=udp%3A%2F%2Ftracker.coppersurfer.tk%3A6969%2Fannounce&tr=udp%3A%2F%2F9.rarbg.to%3A2920%2Fannounce&tr=udp%3A%2F%2Ftracker.opentrackr.org%3A1337&tr=udp%3A%2F%2Ftracker.internetwarriors.net%3A1337%2Fannounce&tr=udp%3A%2F%2Ftracker.leechers-paradise.org%3A6969%2Fannounce&tr=udp%3A%2F%2Ftracker.coppersurfer.tk%3A6969%2Fannounce&tr=udp%3A%2F%2Ftracker.pirateparty.gr%3A6969%2Fannounce&tr=udp%3A%2F%2Ftracker.cyberia.is%3A6969%2Fannounce",
        "seeder": "265",
        "leecher": "56"
    },
    {
        "rank": "33",
        "title": "PornstarsLikeItBig 21 03 28 Bridgette B Bangs Some Rockstar Coc",
        "link": "magnet:?xt=urn:btih:F32DF7089DC14017023BC45AB2AC484FBB2FB7E4&dn=PornstarsLikeItBig+21+03+28+Bridgette+B+Bangs+Some+Rockstar+Coc&tr=udp%3A%2F%2Ftracker.coppersurfer.tk%3A6969%2Fannounce&tr=udp%3A%2F%2F9.rarbg.to%3A2920%2Fannounce&tr=udp%3A%2F%2Ftracker.opentrackr.org%3A1337&tr=udp%3A%2F%2Ftracker.internetwarriors.net%3A1337%2Fannounce&tr=udp%3A%2F%2Ftracker.leechers-paradise.org%3A6969%2Fannounce&tr=udp%3A%2F%2Ftracker.coppersurfer.tk%3A6969%2Fannounce&tr=udp%3A%2F%2Ftracker.pirateparty.gr%3A6969%2Fannounce&tr=udp%3A%2F%2Ftracker.cyberia.is%3A6969%2Fannounce",
        "seeder": "261",
        "leecher": "34"
    },
    {
        "rank": "34",
        "title": "RKPrime 21 03 30 Kendra Sunderland No Rest For Cheats  480p mp4",
        "link": "magnet:?xt=urn:btih:2BDFC1D6B7EC4D58E65F9F0E617EEFD8F5216D69&dn=RKPrime+21+03+30+Kendra+Sunderland+No+Rest+For+Cheats++480p+mp4&tr=udp%3A%2F%2Ftracker.coppersurfer.tk%3A6969%2Fannounce&tr=udp%3A%2F%2F9.rarbg.to%3A2920%2Fannounce&tr=udp%3A%2F%2Ftracker.opentrackr.org%3A1337&tr=udp%3A%2F%2Ftracker.internetwarriors.net%3A1337%2Fannounce&tr=udp%3A%2F%2Ftracker.leechers-paradise.org%3A6969%2Fannounce&tr=udp%3A%2F%2Ftracker.coppersurfer.tk%3A6969%2Fannounce&tr=udp%3A%2F%2Ftracker.pirateparty.gr%3A6969%2Fannounce&tr=udp%3A%2F%2Ftracker.cyberia.is%3A6969%2Fannounce",
        "seeder": "256",
        "leecher": "244"
    },
    {
        "rank": "35",
        "title": "Shoplyfter 21 03 17 Percy Sires And Blake Blossom Busty Blonde",
        "link": "magnet:?xt=urn:btih:D3886F7FAFE76BC9AD40703DBB65EB843F70B07F&dn=Shoplyfter+21+03+17+Percy+Sires+And+Blake+Blossom+Busty+Blonde&tr=udp%3A%2F%2Ftracker.coppersurfer.tk%3A6969%2Fannounce&tr=udp%3A%2F%2F9.rarbg.to%3A2920%2Fannounce&tr=udp%3A%2F%2Ftracker.opentrackr.org%3A1337&tr=udp%3A%2F%2Ftracker.internetwarriors.net%3A1337%2Fannounce&tr=udp%3A%2F%2Ftracker.leechers-paradise.org%3A6969%2Fannounce&tr=udp%3A%2F%2Ftracker.coppersurfer.tk%3A6969%2Fannounce&tr=udp%3A%2F%2Ftracker.pirateparty.gr%3A6969%2Fannounce&tr=udp%3A%2F%2Ftracker.cyberia.is%3A6969%2Fannounce",
        "seeder": "256",
        "leecher": "22"
    },
    {
        "rank": "36",
        "title": "LegalPorno - Alexxa Vice Vs 4 BWC with Balls Deep Anal, DAP, Gap",
        "link": "magnet:?xt=urn:btih:7734E4CA203050EC55718E9B8EAE720F7D5D39A8&dn=LegalPorno+-+Alexxa+Vice+Vs+4+BWC+with+Balls+Deep+Anal%2C+DAP%2C+Gap&tr=udp%3A%2F%2Ftracker.coppersurfer.tk%3A6969%2Fannounce&tr=udp%3A%2F%2F9.rarbg.to%3A2920%2Fannounce&tr=udp%3A%2F%2Ftracker.opentrackr.org%3A1337&tr=udp%3A%2F%2Ftracker.internetwarriors.net%3A1337%2Fannounce&tr=udp%3A%2F%2Ftracker.leechers-paradise.org%3A6969%2Fannounce&tr=udp%3A%2F%2Ftracker.coppersurfer.tk%3A6969%2Fannounce&tr=udp%3A%2F%2Ftracker.pirateparty.gr%3A6969%2Fannounce&tr=udp%3A%2F%2Ftracker.cyberia.is%3A6969%2Fannounce",
        "seeder": "255",
        "leecher": "105"
    },
    {
        "rank": "37",
        "title": "FamilySwap 21 03 25 Christie Stevens And Kenzie Reeves  480p mp",
        "link": "magnet:?xt=urn:btih:B841F82EFD5D535E52AE081E5A44AF890E34FAF0&dn=FamilySwap+21+03+25+Christie+Stevens+And+Kenzie+Reeves++480p+mp&tr=udp%3A%2F%2Ftracker.coppersurfer.tk%3A6969%2Fannounce&tr=udp%3A%2F%2F9.rarbg.to%3A2920%2Fannounce&tr=udp%3A%2F%2Ftracker.opentrackr.org%3A1337&tr=udp%3A%2F%2Ftracker.internetwarriors.net%3A1337%2Fannounce&tr=udp%3A%2F%2Ftracker.leechers-paradise.org%3A6969%2Fannounce&tr=udp%3A%2F%2Ftracker.coppersurfer.tk%3A6969%2Fannounce&tr=udp%3A%2F%2Ftracker.pirateparty.gr%3A6969%2Fannounce&tr=udp%3A%2F%2Ftracker.cyberia.is%3A6969%2Fannounce",
        "seeder": "251",
        "leecher": "33"
    },
    {
        "rank": "38",
        "title": "BlacksOnBlondes 21 03 30 Kayla Kayden  480p mp4",
        "link": "magnet:?xt=urn:btih:1B99275F1D8DAF2EDA5ADEC531F121786106390A&dn=BlacksOnBlondes+21+03+30+Kayla+Kayden++480p+mp4&tr=udp%3A%2F%2Ftracker.coppersurfer.tk%3A6969%2Fannounce&tr=udp%3A%2F%2F9.rarbg.to%3A2920%2Fannounce&tr=udp%3A%2F%2Ftracker.opentrackr.org%3A1337&tr=udp%3A%2F%2Ftracker.internetwarriors.net%3A1337%2Fannounce&tr=udp%3A%2F%2Ftracker.leechers-paradise.org%3A6969%2Fannounce&tr=udp%3A%2F%2Ftracker.coppersurfer.tk%3A6969%2Fannounce&tr=udp%3A%2F%2Ftracker.pirateparty.gr%3A6969%2Fannounce&tr=udp%3A%2F%2Ftracker.cyberia.is%3A6969%2Fannounce",
        "seeder": "249",
        "leecher": "180"
    },
    {
        "rank": "39",
        "title": "[BackroomCastingCouch] Alisha - 19 Years Old (29.03.2021)",
        "link": "magnet:?xt=urn:btih:676E2D463FF1FAFF635F2295D502042A71D0CEB0&dn=%5BBackroomCastingCouch%5D+Alisha+-+19+Years+Old+%2829.03.2021%29&tr=udp%3A%2F%2Ftracker.coppersurfer.tk%3A6969%2Fannounce&tr=udp%3A%2F%2F9.rarbg.to%3A2920%2Fannounce&tr=udp%3A%2F%2Ftracker.opentrackr.org%3A1337&tr=udp%3A%2F%2Ftracker.internetwarriors.net%3A1337%2Fannounce&tr=udp%3A%2F%2Ftracker.leechers-paradise.org%3A6969%2Fannounce&tr=udp%3A%2F%2Ftracker.coppersurfer.tk%3A6969%2Fannounce&tr=udp%3A%2F%2Ftracker.pirateparty.gr%3A6969%2Fannounce&tr=udp%3A%2F%2Ftracker.cyberia.is%3A6969%2Fannounce",
        "seeder": "248",
        "leecher": "61"
    },
    {
        "rank": "40",
        "title": "DeepLush 21 03 24 Emma Hix Anal With Emma  480p mp4",
        "link": "magnet:?xt=urn:btih:632C43F96112A2CE8590632CFF1BCD7BAED24FBC&dn=DeepLush+21+03+24+Emma+Hix+Anal+With+Emma++480p+mp4&tr=udp%3A%2F%2Ftracker.coppersurfer.tk%3A6969%2Fannounce&tr=udp%3A%2F%2F9.rarbg.to%3A2920%2Fannounce&tr=udp%3A%2F%2Ftracker.opentrackr.org%3A1337&tr=udp%3A%2F%2Ftracker.internetwarriors.net%3A1337%2Fannounce&tr=udp%3A%2F%2Ftracker.leechers-paradise.org%3A6969%2Fannounce&tr=udp%3A%2F%2Ftracker.coppersurfer.tk%3A6969%2Fannounce&tr=udp%3A%2F%2Ftracker.pirateparty.gr%3A6969%2Fannounce&tr=udp%3A%2F%2Ftracker.cyberia.is%3A6969%2Fannounce",
        "seeder": "247",
        "leecher": "22"
    },
    {
        "rank": "41",
        "title": "RKPrime 21 03 26 Gabriela Lopez Room And Boobs  480p mp4",
        "link": "magnet:?xt=urn:btih:0AFE4773FC0B22B4E3C651220891115E28E063DB&dn=RKPrime+21+03+26+Gabriela+Lopez+Room+And+Boobs++480p+mp4&tr=udp%3A%2F%2Ftracker.coppersurfer.tk%3A6969%2Fannounce&tr=udp%3A%2F%2F9.rarbg.to%3A2920%2Fannounce&tr=udp%3A%2F%2Ftracker.opentrackr.org%3A1337&tr=udp%3A%2F%2Ftracker.internetwarriors.net%3A1337%2Fannounce&tr=udp%3A%2F%2Ftracker.leechers-paradise.org%3A6969%2Fannounce&tr=udp%3A%2F%2Ftracker.coppersurfer.tk%3A6969%2Fannounce&tr=udp%3A%2F%2Ftracker.pirateparty.gr%3A6969%2Fannounce&tr=udp%3A%2F%2Ftracker.cyberia.is%3A6969%2Fannounce",
        "seeder": "246",
        "leecher": "29"
    },
    {
        "rank": "42",
        "title": "NaughtyOffice 21 03 29 Linzee Ryder  480p mp4",
        "link": "magnet:?xt=urn:btih:B25C28790EE07CBB493DDDAF450486E5E8DFBAFF&dn=NaughtyOffice+21+03+29+Linzee+Ryder++480p+mp4&tr=udp%3A%2F%2Ftracker.coppersurfer.tk%3A6969%2Fannounce&tr=udp%3A%2F%2F9.rarbg.to%3A2920%2Fannounce&tr=udp%3A%2F%2Ftracker.opentrackr.org%3A1337&tr=udp%3A%2F%2Ftracker.internetwarriors.net%3A1337%2Fannounce&tr=udp%3A%2F%2Ftracker.leechers-paradise.org%3A6969%2Fannounce&tr=udp%3A%2F%2Ftracker.coppersurfer.tk%3A6969%2Fannounce&tr=udp%3A%2F%2Ftracker.pirateparty.gr%3A6969%2Fannounce&tr=udp%3A%2F%2Ftracker.cyberia.is%3A6969%2Fannounce",
        "seeder": "243",
        "leecher": "59"
    },
    {
        "rank": "43",
        "title": "RealWifeStories 21 03 20 Tru Kait Fuck My Wife While I Watch  4",
        "link": "magnet:?xt=urn:btih:D630867F8DA7E2D2A66D9844843C160B0BD7CE00&dn=RealWifeStories+21+03+20+Tru+Kait+Fuck+My+Wife+While+I+Watch++4&tr=udp%3A%2F%2Ftracker.coppersurfer.tk%3A6969%2Fannounce&tr=udp%3A%2F%2F9.rarbg.to%3A2920%2Fannounce&tr=udp%3A%2F%2Ftracker.opentrackr.org%3A1337&tr=udp%3A%2F%2Ftracker.internetwarriors.net%3A1337%2Fannounce&tr=udp%3A%2F%2Ftracker.leechers-paradise.org%3A6969%2Fannounce&tr=udp%3A%2F%2Ftracker.coppersurfer.tk%3A6969%2Fannounce&tr=udp%3A%2F%2Ftracker.pirateparty.gr%3A6969%2Fannounce&tr=udp%3A%2F%2Ftracker.cyberia.is%3A6969%2Fannounce",
        "seeder": "242",
        "leecher": "21"
    },
    {
        "rank": "44",
        "title": "BrazzersExxtra 21 03 14 Aidra Fox My SisterInLaw For Breakfast",
        "link": "magnet:?xt=urn:btih:608B91DFFB7D29C342E31730CEFC672B42FA90C4&dn=BrazzersExxtra+21+03+14+Aidra+Fox+My+SisterInLaw+For+Breakfast&tr=udp%3A%2F%2Ftracker.coppersurfer.tk%3A6969%2Fannounce&tr=udp%3A%2F%2F9.rarbg.to%3A2920%2Fannounce&tr=udp%3A%2F%2Ftracker.opentrackr.org%3A1337&tr=udp%3A%2F%2Ftracker.internetwarriors.net%3A1337%2Fannounce&tr=udp%3A%2F%2Ftracker.leechers-paradise.org%3A6969%2Fannounce&tr=udp%3A%2F%2Ftracker.coppersurfer.tk%3A6969%2Fannounce&tr=udp%3A%2F%2Ftracker.pirateparty.gr%3A6969%2Fannounce&tr=udp%3A%2F%2Ftracker.cyberia.is%3A6969%2Fannounce",
        "seeder": "238",
        "leecher": "17"
    },
    {
        "rank": "45",
        "title": "BackroomCastingCouch - Lexus Love - 18 years old",
        "link": "magnet:?xt=urn:btih:2484B6B3EA9EE73A43F437C717350E4715E127D6&dn=BackroomCastingCouch+-+Lexus+Love+-+18+years+old&tr=udp%3A%2F%2Ftracker.coppersurfer.tk%3A6969%2Fannounce&tr=udp%3A%2F%2F9.rarbg.to%3A2920%2Fannounce&tr=udp%3A%2F%2Ftracker.opentrackr.org%3A1337&tr=udp%3A%2F%2Ftracker.internetwarriors.net%3A1337%2Fannounce&tr=udp%3A%2F%2Ftracker.leechers-paradise.org%3A6969%2Fannounce&tr=udp%3A%2F%2Ftracker.coppersurfer.tk%3A6969%2Fannounce&tr=udp%3A%2F%2Ftracker.pirateparty.gr%3A6969%2Fannounce&tr=udp%3A%2F%2Ftracker.cyberia.is%3A6969%2Fannounce",
        "seeder": "237",
        "leecher": "31"
    },
    {
        "rank": "46",
        "title": "BrazzersExxtra 21 03 30 Judy Jolie And Skye Blue Conflicting Th",
        "link": "magnet:?xt=urn:btih:C86775A1C81BCD5C908D889AF789DF5ACB57A715&dn=BrazzersExxtra+21+03+30+Judy+Jolie+And+Skye+Blue+Conflicting+Th&tr=udp%3A%2F%2Ftracker.coppersurfer.tk%3A6969%2Fannounce&tr=udp%3A%2F%2F9.rarbg.to%3A2920%2Fannounce&tr=udp%3A%2F%2Ftracker.opentrackr.org%3A1337&tr=udp%3A%2F%2Ftracker.internetwarriors.net%3A1337%2Fannounce&tr=udp%3A%2F%2Ftracker.leechers-paradise.org%3A6969%2Fannounce&tr=udp%3A%2F%2Ftracker.coppersurfer.tk%3A6969%2Fannounce&tr=udp%3A%2F%2Ftracker.pirateparty.gr%3A6969%2Fannounce&tr=udp%3A%2F%2Ftracker.cyberia.is%3A6969%2Fannounce",
        "seeder": "234",
        "leecher": "232"
    },
    {
        "rank": "47",
        "title": "MyFriendsHotMom 21 03 24 Kitten Latenight  480p mp4",
        "link": "magnet:?xt=urn:btih:0567848F74CFD283EAC6EC78F2DD31D34AE34FA2&dn=MyFriendsHotMom+21+03+24+Kitten+Latenight++480p+mp4&tr=udp%3A%2F%2Ftracker.coppersurfer.tk%3A6969%2Fannounce&tr=udp%3A%2F%2F9.rarbg.to%3A2920%2Fannounce&tr=udp%3A%2F%2Ftracker.opentrackr.org%3A1337&tr=udp%3A%2F%2Ftracker.internetwarriors.net%3A1337%2Fannounce&tr=udp%3A%2F%2Ftracker.leechers-paradise.org%3A6969%2Fannounce&tr=udp%3A%2F%2Ftracker.coppersurfer.tk%3A6969%2Fannounce&tr=udp%3A%2F%2Ftracker.pirateparty.gr%3A6969%2Fannounce&tr=udp%3A%2F%2Ftracker.cyberia.is%3A6969%2Fannounce",
        "seeder": "231",
        "leecher": "26"
    },
    {
        "rank": "48",
        "title": "RKPrime 21 03 24 Maya Farrell Forget My Panties Try My Pussy  4",
        "link": "magnet:?xt=urn:btih:382ACB35F60CAE2F3AECD2213E3F86B75430A006&dn=RKPrime+21+03+24+Maya+Farrell+Forget+My+Panties+Try+My+Pussy++4&tr=udp%3A%2F%2Ftracker.coppersurfer.tk%3A6969%2Fannounce&tr=udp%3A%2F%2F9.rarbg.to%3A2920%2Fannounce&tr=udp%3A%2F%2Ftracker.opentrackr.org%3A1337&tr=udp%3A%2F%2Ftracker.internetwarriors.net%3A1337%2Fannounce&tr=udp%3A%2F%2Ftracker.leechers-paradise.org%3A6969%2Fannounce&tr=udp%3A%2F%2Ftracker.coppersurfer.tk%3A6969%2Fannounce&tr=udp%3A%2F%2Ftracker.pirateparty.gr%3A6969%2Fannounce&tr=udp%3A%2F%2Ftracker.cyberia.is%3A6969%2Fannounce",
        "seeder": "226",
        "leecher": "17"
    },
    {
        "rank": "49",
        "title": "PureTaboo 21 03 23 Evelyn Claire No Comment  480p mp4",
        "link": "magnet:?xt=urn:btih:8C660E36746253C1FF18ABE08070FB431B73DB24&dn=PureTaboo+21+03+23+Evelyn+Claire+No+Comment++480p+mp4&tr=udp%3A%2F%2Ftracker.coppersurfer.tk%3A6969%2Fannounce&tr=udp%3A%2F%2F9.rarbg.to%3A2920%2Fannounce&tr=udp%3A%2F%2Ftracker.opentrackr.org%3A1337&tr=udp%3A%2F%2Ftracker.internetwarriors.net%3A1337%2Fannounce&tr=udp%3A%2F%2Ftracker.leechers-paradise.org%3A6969%2Fannounce&tr=udp%3A%2F%2Ftracker.coppersurfer.tk%3A6969%2Fannounce&tr=udp%3A%2F%2Ftracker.pirateparty.gr%3A6969%2Fannounce&tr=udp%3A%2F%2Ftracker.cyberia.is%3A6969%2Fannounce",
        "seeder": "224",
        "leecher": "27"
    },
    {
        "rank": "50",
        "title": "AllAnal 21 03 12 Valentina Jewels And Carmela Clutch  480p mp4",
        "link": "magnet:?xt=urn:btih:7972BB0C5E3331607A925B2D206370EAE091101C&dn=AllAnal+21+03+12+Valentina+Jewels+And+Carmela+Clutch++480p+mp4&tr=udp%3A%2F%2Ftracker.coppersurfer.tk%3A6969%2Fannounce&tr=udp%3A%2F%2F9.rarbg.to%3A2920%2Fannounce&tr=udp%3A%2F%2Ftracker.opentrackr.org%3A1337&tr=udp%3A%2F%2Ftracker.internetwarriors.net%3A1337%2Fannounce&tr=udp%3A%2F%2Ftracker.leechers-paradise.org%3A6969%2Fannounce&tr=udp%3A%2F%2Ftracker.coppersurfer.tk%3A6969%2Fannounce&tr=udp%3A%2F%2Ftracker.pirateparty.gr%3A6969%2Fannounce&tr=udp%3A%2F%2Ftracker.cyberia.is%3A6969%2Fannounce",
        "seeder": "221",
        "leecher": "28"
    },
    {
        "rank": "51",
        "title": "ExploitedCollegeGirls 21 03 11 Fiona Frost Anal  480p mp4",
        "link": "magnet:?xt=urn:btih:83490A6F80A4F75C25FE9C7AA12D3D3573BD8E3F&dn=ExploitedCollegeGirls+21+03+11+Fiona+Frost+Anal++480p+mp4&tr=udp%3A%2F%2Ftracker.coppersurfer.tk%3A6969%2Fannounce&tr=udp%3A%2F%2F9.rarbg.to%3A2920%2Fannounce&tr=udp%3A%2F%2Ftracker.opentrackr.org%3A1337&tr=udp%3A%2F%2Ftracker.internetwarriors.net%3A1337%2Fannounce&tr=udp%3A%2F%2Ftracker.leechers-paradise.org%3A6969%2Fannounce&tr=udp%3A%2F%2Ftracker.coppersurfer.tk%3A6969%2Fannounce&tr=udp%3A%2F%2Ftracker.pirateparty.gr%3A6969%2Fannounce&tr=udp%3A%2F%2Ftracker.cyberia.is%3A6969%2Fannounce",
        "seeder": "221",
        "leecher": "44"
    },
    {
        "rank": "52",
        "title": "LoveHerAss 21 03 30 Asia Rae Eager Boyfriend Wants Ebony Booty",
        "link": "magnet:?xt=urn:btih:28D89E4EAB4A2EE1F29CBC55EFF7D91F17AB10B0&dn=LoveHerAss+21+03+30+Asia+Rae+Eager+Boyfriend+Wants+Ebony+Booty&tr=udp%3A%2F%2Ftracker.coppersurfer.tk%3A6969%2Fannounce&tr=udp%3A%2F%2F9.rarbg.to%3A2920%2Fannounce&tr=udp%3A%2F%2Ftracker.opentrackr.org%3A1337&tr=udp%3A%2F%2Ftracker.internetwarriors.net%3A1337%2Fannounce&tr=udp%3A%2F%2Ftracker.leechers-paradise.org%3A6969%2Fannounce&tr=udp%3A%2F%2Ftracker.coppersurfer.tk%3A6969%2Fannounce&tr=udp%3A%2F%2Ftracker.pirateparty.gr%3A6969%2Fannounce&tr=udp%3A%2F%2Ftracker.cyberia.is%3A6969%2Fannounce",
        "seeder": "220",
        "leecher": "130"
    },
    {
        "rank": "53",
        "title": "BrazzersExxtra 21 03 19 Kira Queen And Liya Silver Watch Me Ins",
        "link": "magnet:?xt=urn:btih:B5CFAC7442A043AFAA4345D030BFF8714C2B0AF8&dn=BrazzersExxtra+21+03+19+Kira+Queen+And+Liya+Silver+Watch+Me+Ins&tr=udp%3A%2F%2Ftracker.coppersurfer.tk%3A6969%2Fannounce&tr=udp%3A%2F%2F9.rarbg.to%3A2920%2Fannounce&tr=udp%3A%2F%2Ftracker.opentrackr.org%3A1337&tr=udp%3A%2F%2Ftracker.internetwarriors.net%3A1337%2Fannounce&tr=udp%3A%2F%2Ftracker.leechers-paradise.org%3A6969%2Fannounce&tr=udp%3A%2F%2Ftracker.coppersurfer.tk%3A6969%2Fannounce&tr=udp%3A%2F%2Ftracker.pirateparty.gr%3A6969%2Fannounce&tr=udp%3A%2F%2Ftracker.cyberia.is%3A6969%2Fannounce",
        "seeder": "217",
        "leecher": "11"
    },
    {
        "rank": "54",
        "title": "MonstersOfCock 21 03 28 Kira Perez  480p mp4",
        "link": "magnet:?xt=urn:btih:95CAE3E4A0EC52FD2983D99CF1F3A00C9E3A1490&dn=MonstersOfCock+21+03+28+Kira+Perez++480p+mp4&tr=udp%3A%2F%2Ftracker.coppersurfer.tk%3A6969%2Fannounce&tr=udp%3A%2F%2F9.rarbg.to%3A2920%2Fannounce&tr=udp%3A%2F%2Ftracker.opentrackr.org%3A1337&tr=udp%3A%2F%2Ftracker.internetwarriors.net%3A1337%2Fannounce&tr=udp%3A%2F%2Ftracker.leechers-paradise.org%3A6969%2Fannounce&tr=udp%3A%2F%2Ftracker.coppersurfer.tk%3A6969%2Fannounce&tr=udp%3A%2F%2Ftracker.pirateparty.gr%3A6969%2Fannounce&tr=udp%3A%2F%2Ftracker.cyberia.is%3A6969%2Fannounce",
        "seeder": "212",
        "leecher": "31"
    },
    {
        "rank": "55",
        "title": "MommysBoy 21 03 17 Reagan Foxx Some Quality Family Time  480p m",
        "link": "magnet:?xt=urn:btih:834E4CDF39A74D43E8EF14980A264B137A8BD686&dn=MommysBoy+21+03+17+Reagan+Foxx+Some+Quality+Family+Time++480p+m&tr=udp%3A%2F%2Ftracker.coppersurfer.tk%3A6969%2Fannounce&tr=udp%3A%2F%2F9.rarbg.to%3A2920%2Fannounce&tr=udp%3A%2F%2Ftracker.opentrackr.org%3A1337&tr=udp%3A%2F%2Ftracker.internetwarriors.net%3A1337%2Fannounce&tr=udp%3A%2F%2Ftracker.leechers-paradise.org%3A6969%2Fannounce&tr=udp%3A%2F%2Ftracker.coppersurfer.tk%3A6969%2Fannounce&tr=udp%3A%2F%2Ftracker.pirateparty.gr%3A6969%2Fannounce&tr=udp%3A%2F%2Ftracker.cyberia.is%3A6969%2Fannounce",
        "seeder": "211",
        "leecher": "16"
    },
    {
        "rank": "56",
        "title": "WoodmanCastingX - Alyssa Bounty - My first DAP",
        "link": "magnet:?xt=urn:btih:4BB83A4A319F22C92BC1BDFB0A9B37DC3BE8F24A&dn=WoodmanCastingX+-+Alyssa+Bounty+-+My+first+DAP&tr=udp%3A%2F%2Ftracker.coppersurfer.tk%3A6969%2Fannounce&tr=udp%3A%2F%2F9.rarbg.to%3A2920%2Fannounce&tr=udp%3A%2F%2Ftracker.opentrackr.org%3A1337&tr=udp%3A%2F%2Ftracker.internetwarriors.net%3A1337%2Fannounce&tr=udp%3A%2F%2Ftracker.leechers-paradise.org%3A6969%2Fannounce&tr=udp%3A%2F%2Ftracker.coppersurfer.tk%3A6969%2Fannounce&tr=udp%3A%2F%2Ftracker.pirateparty.gr%3A6969%2Fannounce&tr=udp%3A%2F%2Ftracker.cyberia.is%3A6969%2Fannounce",
        "seeder": "209",
        "leecher": "23"
    },
    {
        "rank": "57",
        "title": "RKPrime 21 03 27 Serena Santos Can I Borrow Your Clothes  480p",
        "link": "magnet:?xt=urn:btih:86383125E6EC0BAE98D016C624424A25041531C6&dn=RKPrime+21+03+27+Serena+Santos+Can+I+Borrow+Your+Clothes++480p&tr=udp%3A%2F%2Ftracker.coppersurfer.tk%3A6969%2Fannounce&tr=udp%3A%2F%2F9.rarbg.to%3A2920%2Fannounce&tr=udp%3A%2F%2Ftracker.opentrackr.org%3A1337&tr=udp%3A%2F%2Ftracker.internetwarriors.net%3A1337%2Fannounce&tr=udp%3A%2F%2Ftracker.leechers-paradise.org%3A6969%2Fannounce&tr=udp%3A%2F%2Ftracker.coppersurfer.tk%3A6969%2Fannounce&tr=udp%3A%2F%2Ftracker.pirateparty.gr%3A6969%2Fannounce&tr=udp%3A%2F%2Ftracker.cyberia.is%3A6969%2Fannounce",
        "seeder": "208",
        "leecher": "32"
    },
    {
        "rank": "58",
        "title": "RKPrime 21 03 25 Skylar Vox And Reyna DeLaCruz A Pillow Humping",
        "link": "magnet:?xt=urn:btih:526EBF6274A2E4C48681947CB7B0A5A9DDBBF995&dn=RKPrime+21+03+25+Skylar+Vox+And+Reyna+DeLaCruz+A+Pillow+Humping&tr=udp%3A%2F%2Ftracker.coppersurfer.tk%3A6969%2Fannounce&tr=udp%3A%2F%2F9.rarbg.to%3A2920%2Fannounce&tr=udp%3A%2F%2Ftracker.opentrackr.org%3A1337&tr=udp%3A%2F%2Ftracker.internetwarriors.net%3A1337%2Fannounce&tr=udp%3A%2F%2Ftracker.leechers-paradise.org%3A6969%2Fannounce&tr=udp%3A%2F%2Ftracker.coppersurfer.tk%3A6969%2Fannounce&tr=udp%3A%2F%2Ftracker.pirateparty.gr%3A6969%2Fannounce&tr=udp%3A%2F%2Ftracker.cyberia.is%3A6969%2Fannounce",
        "seeder": "208",
        "leecher": "19"
    },
    {
        "rank": "59",
        "title": "PervDoctor 21 03 28 Mia Taylor Just What The Doctor Ordered  48",
        "link": "magnet:?xt=urn:btih:6B549AE28A67DE479606F553B9EECC3F4D19511E&dn=PervDoctor+21+03+28+Mia+Taylor+Just+What+The+Doctor+Ordered++48&tr=udp%3A%2F%2Ftracker.coppersurfer.tk%3A6969%2Fannounce&tr=udp%3A%2F%2F9.rarbg.to%3A2920%2Fannounce&tr=udp%3A%2F%2Ftracker.opentrackr.org%3A1337&tr=udp%3A%2F%2Ftracker.internetwarriors.net%3A1337%2Fannounce&tr=udp%3A%2F%2Ftracker.leechers-paradise.org%3A6969%2Fannounce&tr=udp%3A%2F%2Ftracker.coppersurfer.tk%3A6969%2Fannounce&tr=udp%3A%2F%2Ftracker.pirateparty.gr%3A6969%2Fannounce&tr=udp%3A%2F%2Ftracker.cyberia.is%3A6969%2Fannounce",
        "seeder": "207",
        "leecher": "33"
    },
    {
        "rank": "60",
        "title": "FreeUseFantasy 21 03 10 Sofie Reyez Extra Lovey Stepbro  480p m",
        "link": "magnet:?xt=urn:btih:82FCDEA785AEE0E43A6BDB6D1D14FD2A6918CBDA&dn=FreeUseFantasy+21+03+10+Sofie+Reyez+Extra+Lovey+Stepbro++480p+m&tr=udp%3A%2F%2Ftracker.coppersurfer.tk%3A6969%2Fannounce&tr=udp%3A%2F%2F9.rarbg.to%3A2920%2Fannounce&tr=udp%3A%2F%2Ftracker.opentrackr.org%3A1337&tr=udp%3A%2F%2Ftracker.internetwarriors.net%3A1337%2Fannounce&tr=udp%3A%2F%2Ftracker.leechers-paradise.org%3A6969%2Fannounce&tr=udp%3A%2F%2Ftracker.coppersurfer.tk%3A6969%2Fannounce&tr=udp%3A%2F%2Ftracker.pirateparty.gr%3A6969%2Fannounce&tr=udp%3A%2F%2Ftracker.cyberia.is%3A6969%2Fannounce",
        "seeder": "206",
        "leecher": "21"
    },
    {
        "rank": "61",
        "title": "LethalHardcore - Lilly Hall - Freaky Can't Resist Step Dad's Big",
        "link": "magnet:?xt=urn:btih:E85BBA720D925D6A1CCE99E13F2E17C57320BE76&dn=LethalHardcore+-+Lilly+Hall+-+Freaky+Can%27t+Resist+Step+Dad%27s+Big&tr=udp%3A%2F%2Ftracker.coppersurfer.tk%3A6969%2Fannounce&tr=udp%3A%2F%2F9.rarbg.to%3A2920%2Fannounce&tr=udp%3A%2F%2Ftracker.opentrackr.org%3A1337&tr=udp%3A%2F%2Ftracker.internetwarriors.net%3A1337%2Fannounce&tr=udp%3A%2F%2Ftracker.leechers-paradise.org%3A6969%2Fannounce&tr=udp%3A%2F%2Ftracker.coppersurfer.tk%3A6969%2Fannounce&tr=udp%3A%2F%2Ftracker.pirateparty.gr%3A6969%2Fannounce&tr=udp%3A%2F%2Ftracker.cyberia.is%3A6969%2Fannounce",
        "seeder": "204",
        "leecher": "83"
    },
    {
        "rank": "62",
        "title": "SexMex 21 03 30 Citah Hot Doctor  480p mp4",
        "link": "magnet:?xt=urn:btih:782957339AD6399D86F0BE56DD6E1E733E3BEA55&dn=SexMex+21+03+30+Citah+Hot+Doctor++480p+mp4&tr=udp%3A%2F%2Ftracker.coppersurfer.tk%3A6969%2Fannounce&tr=udp%3A%2F%2F9.rarbg.to%3A2920%2Fannounce&tr=udp%3A%2F%2Ftracker.opentrackr.org%3A1337&tr=udp%3A%2F%2Ftracker.internetwarriors.net%3A1337%2Fannounce&tr=udp%3A%2F%2Ftracker.leechers-paradise.org%3A6969%2Fannounce&tr=udp%3A%2F%2Ftracker.coppersurfer.tk%3A6969%2Fannounce&tr=udp%3A%2F%2Ftracker.pirateparty.gr%3A6969%2Fannounce&tr=udp%3A%2F%2Ftracker.cyberia.is%3A6969%2Fannounce",
        "seeder": "200",
        "leecher": "183"
    },
    {
        "rank": "63",
        "title": "TeenPies 21 03 26 Bailey Base And Miss Raquel Stepmom Hates My",
        "link": "magnet:?xt=urn:btih:997D2EF4332C9A0E89CCF39FFC3BD78084E05311&dn=TeenPies+21+03+26+Bailey+Base+And+Miss+Raquel+Stepmom+Hates+My&tr=udp%3A%2F%2Ftracker.coppersurfer.tk%3A6969%2Fannounce&tr=udp%3A%2F%2F9.rarbg.to%3A2920%2Fannounce&tr=udp%3A%2F%2Ftracker.opentrackr.org%3A1337&tr=udp%3A%2F%2Ftracker.internetwarriors.net%3A1337%2Fannounce&tr=udp%3A%2F%2Ftracker.leechers-paradise.org%3A6969%2Fannounce&tr=udp%3A%2F%2Ftracker.coppersurfer.tk%3A6969%2Fannounce&tr=udp%3A%2F%2Ftracker.pirateparty.gr%3A6969%2Fannounce&tr=udp%3A%2F%2Ftracker.cyberia.is%3A6969%2Fannounce",
        "seeder": "200",
        "leecher": "29"
    },
    {
        "rank": "64",
        "title": "TeamSkeetXLuxuryGirl 21 03 09 Luxury Girl Massaging My Stepmom",
        "link": "magnet:?xt=urn:btih:086456AA88E403D8CA02A55298A309BB78FF2DC5&dn=TeamSkeetXLuxuryGirl+21+03+09+Luxury+Girl+Massaging+My+Stepmom&tr=udp%3A%2F%2Ftracker.coppersurfer.tk%3A6969%2Fannounce&tr=udp%3A%2F%2F9.rarbg.to%3A2920%2Fannounce&tr=udp%3A%2F%2Ftracker.opentrackr.org%3A1337&tr=udp%3A%2F%2Ftracker.internetwarriors.net%3A1337%2Fannounce&tr=udp%3A%2F%2Ftracker.leechers-paradise.org%3A6969%2Fannounce&tr=udp%3A%2F%2Ftracker.coppersurfer.tk%3A6969%2Fannounce&tr=udp%3A%2F%2Ftracker.pirateparty.gr%3A6969%2Fannounce&tr=udp%3A%2F%2Ftracker.cyberia.is%3A6969%2Fannounce",
        "seeder": "195",
        "leecher": "6"
    },
    {
        "rank": "65",
        "title": "Deeper 20 12 31 Emily Willis  480p mp4",
        "link": "magnet:?xt=urn:btih:9AF50B2B2AE4307BED483EFD82CCF6CDCC726525&dn=Deeper+20+12+31+Emily+Willis++480p+mp4&tr=udp%3A%2F%2Ftracker.coppersurfer.tk%3A6969%2Fannounce&tr=udp%3A%2F%2F9.rarbg.to%3A2920%2Fannounce&tr=udp%3A%2F%2Ftracker.opentrackr.org%3A1337&tr=udp%3A%2F%2Ftracker.internetwarriors.net%3A1337%2Fannounce&tr=udp%3A%2F%2Ftracker.leechers-paradise.org%3A6969%2Fannounce&tr=udp%3A%2F%2Ftracker.coppersurfer.tk%3A6969%2Fannounce&tr=udp%3A%2F%2Ftracker.pirateparty.gr%3A6969%2Fannounce&tr=udp%3A%2F%2Ftracker.cyberia.is%3A6969%2Fannounce",
        "seeder": "192",
        "leecher": "30"
    },
    {
        "rank": "66",
        "title": "SisLovesMe 21 03 12 Vivian Taylor Play Me Like Your Piano  480p",
        "link": "magnet:?xt=urn:btih:1E2C99F8A193D9065444C19856EB23ABB9DA46B3&dn=SisLovesMe+21+03+12+Vivian+Taylor+Play+Me+Like+Your+Piano++480p&tr=udp%3A%2F%2Ftracker.coppersurfer.tk%3A6969%2Fannounce&tr=udp%3A%2F%2F9.rarbg.to%3A2920%2Fannounce&tr=udp%3A%2F%2Ftracker.opentrackr.org%3A1337&tr=udp%3A%2F%2Ftracker.internetwarriors.net%3A1337%2Fannounce&tr=udp%3A%2F%2Ftracker.leechers-paradise.org%3A6969%2Fannounce&tr=udp%3A%2F%2Ftracker.coppersurfer.tk%3A6969%2Fannounce&tr=udp%3A%2F%2Ftracker.pirateparty.gr%3A6969%2Fannounce&tr=udp%3A%2F%2Ftracker.cyberia.is%3A6969%2Fannounce",
        "seeder": "192",
        "leecher": "10"
    },
    {
        "rank": "67",
        "title": "AnalMom 21 03 11 Clea Gaultier Special Trip With Stepmom  480p",
        "link": "magnet:?xt=urn:btih:ABF1A70B53E87AC7A33073FC792509F35CA91661&dn=AnalMom+21+03+11+Clea+Gaultier+Special+Trip+With+Stepmom++480p&tr=udp%3A%2F%2Ftracker.coppersurfer.tk%3A6969%2Fannounce&tr=udp%3A%2F%2F9.rarbg.to%3A2920%2Fannounce&tr=udp%3A%2F%2Ftracker.opentrackr.org%3A1337&tr=udp%3A%2F%2Ftracker.internetwarriors.net%3A1337%2Fannounce&tr=udp%3A%2F%2Ftracker.leechers-paradise.org%3A6969%2Fannounce&tr=udp%3A%2F%2Ftracker.coppersurfer.tk%3A6969%2Fannounce&tr=udp%3A%2F%2Ftracker.pirateparty.gr%3A6969%2Fannounce&tr=udp%3A%2F%2Ftracker.cyberia.is%3A6969%2Fannounce",
        "seeder": "189",
        "leecher": "12"
    },
    {
        "rank": "68",
        "title": "SneakySex - Gabbie Carter And La Sirena (I Fucked Your Boyfriend",
        "link": "magnet:?xt=urn:btih:323A2808E5E21A51C462E5C6C2CA476C15D3AA43&dn=SneakySex+-+Gabbie+Carter+And+La+Sirena+%28I+Fucked+Your+Boyfriend&tr=udp%3A%2F%2Ftracker.coppersurfer.tk%3A6969%2Fannounce&tr=udp%3A%2F%2F9.rarbg.to%3A2920%2Fannounce&tr=udp%3A%2F%2Ftracker.opentrackr.org%3A1337&tr=udp%3A%2F%2Ftracker.internetwarriors.net%3A1337%2Fannounce&tr=udp%3A%2F%2Ftracker.leechers-paradise.org%3A6969%2Fannounce&tr=udp%3A%2F%2Ftracker.coppersurfer.tk%3A6969%2Fannounce&tr=udp%3A%2F%2Ftracker.pirateparty.gr%3A6969%2Fannounce&tr=udp%3A%2F%2Ftracker.cyberia.is%3A6969%2Fannounce",
        "seeder": "188",
        "leecher": "10"
    },
    {
        "rank": "69",
        "title": "SexMex 21 03 19 Silvia Santez Addict To Milk  480p mp4",
        "link": "magnet:?xt=urn:btih:4830FF6C16F6A8FDA4EB0DA0254655DB8102413B&dn=SexMex+21+03+19+Silvia+Santez+Addict+To+Milk++480p+mp4&tr=udp%3A%2F%2Ftracker.coppersurfer.tk%3A6969%2Fannounce&tr=udp%3A%2F%2F9.rarbg.to%3A2920%2Fannounce&tr=udp%3A%2F%2Ftracker.opentrackr.org%3A1337&tr=udp%3A%2F%2Ftracker.internetwarriors.net%3A1337%2Fannounce&tr=udp%3A%2F%2Ftracker.leechers-paradise.org%3A6969%2Fannounce&tr=udp%3A%2F%2Ftracker.coppersurfer.tk%3A6969%2Fannounce&tr=udp%3A%2F%2Ftracker.pirateparty.gr%3A6969%2Fannounce&tr=udp%3A%2F%2Ftracker.cyberia.is%3A6969%2Fannounce",
        "seeder": "186",
        "leecher": "11"
    },
    {
        "rank": "70",
        "title": "BangBus 21 03 24 Penelope Kay  480p mp4",
        "link": "magnet:?xt=urn:btih:802708C1A837C14D6B85ACB6F27EE61625BEED0A&dn=BangBus+21+03+24+Penelope+Kay++480p+mp4&tr=udp%3A%2F%2Ftracker.coppersurfer.tk%3A6969%2Fannounce&tr=udp%3A%2F%2F9.rarbg.to%3A2920%2Fannounce&tr=udp%3A%2F%2Ftracker.opentrackr.org%3A1337&tr=udp%3A%2F%2Ftracker.internetwarriors.net%3A1337%2Fannounce&tr=udp%3A%2F%2Ftracker.leechers-paradise.org%3A6969%2Fannounce&tr=udp%3A%2F%2Ftracker.coppersurfer.tk%3A6969%2Fannounce&tr=udp%3A%2F%2Ftracker.pirateparty.gr%3A6969%2Fannounce&tr=udp%3A%2F%2Ftracker.cyberia.is%3A6969%2Fannounce",
        "seeder": "185",
        "leecher": "18"
    },
    {
        "rank": "71",
        "title": "PenthouseGold - Liya Silver - Liya Silver Needs Dick",
        "link": "magnet:?xt=urn:btih:299CB43F230BD1FB4760EC5099CBD7A9770E9484&dn=PenthouseGold+-+Liya+Silver+-+Liya+Silver+Needs+Dick&tr=udp%3A%2F%2Ftracker.coppersurfer.tk%3A6969%2Fannounce&tr=udp%3A%2F%2F9.rarbg.to%3A2920%2Fannounce&tr=udp%3A%2F%2Ftracker.opentrackr.org%3A1337&tr=udp%3A%2F%2Ftracker.internetwarriors.net%3A1337%2Fannounce&tr=udp%3A%2F%2Ftracker.leechers-paradise.org%3A6969%2Fannounce&tr=udp%3A%2F%2Ftracker.coppersurfer.tk%3A6969%2Fannounce&tr=udp%3A%2F%2Ftracker.pirateparty.gr%3A6969%2Fannounce&tr=udp%3A%2F%2Ftracker.cyberia.is%3A6969%2Fannounce",
        "seeder": "184",
        "leecher": "10"
    },
    {
        "rank": "72",
        "title": "BrazzersExxtra 21 03 28 Nina Pink Move Me In  480p mp4",
        "link": "magnet:?xt=urn:btih:B5C6E6C79E8E5BBC9149E4DA66A9B8664CC36458&dn=BrazzersExxtra+21+03+28+Nina+Pink+Move+Me+In++480p+mp4&tr=udp%3A%2F%2Ftracker.coppersurfer.tk%3A6969%2Fannounce&tr=udp%3A%2F%2F9.rarbg.to%3A2920%2Fannounce&tr=udp%3A%2F%2Ftracker.opentrackr.org%3A1337&tr=udp%3A%2F%2Ftracker.internetwarriors.net%3A1337%2Fannounce&tr=udp%3A%2F%2Ftracker.leechers-paradise.org%3A6969%2Fannounce&tr=udp%3A%2F%2Ftracker.coppersurfer.tk%3A6969%2Fannounce&tr=udp%3A%2F%2Ftracker.pirateparty.gr%3A6969%2Fannounce&tr=udp%3A%2F%2Ftracker.cyberia.is%3A6969%2Fannounce",
        "seeder": "183",
        "leecher": "30"
    },
    {
        "rank": "73",
        "title": "BrazzersExxtra 21 03 27 Abella Danger Stay On The Line  480p mp",
        "link": "magnet:?xt=urn:btih:59E20F1207E944E31DCCC79643F8DFD706F295D4&dn=BrazzersExxtra+21+03+27+Abella+Danger+Stay+On+The+Line++480p+mp&tr=udp%3A%2F%2Ftracker.coppersurfer.tk%3A6969%2Fannounce&tr=udp%3A%2F%2F9.rarbg.to%3A2920%2Fannounce&tr=udp%3A%2F%2Ftracker.opentrackr.org%3A1337&tr=udp%3A%2F%2Ftracker.internetwarriors.net%3A1337%2Fannounce&tr=udp%3A%2F%2Ftracker.leechers-paradise.org%3A6969%2Fannounce&tr=udp%3A%2F%2Ftracker.coppersurfer.tk%3A6969%2Fannounce&tr=udp%3A%2F%2Ftracker.pirateparty.gr%3A6969%2Fannounce&tr=udp%3A%2F%2Ftracker.cyberia.is%3A6969%2Fannounce",
        "seeder": "183",
        "leecher": "31"
    },
    {
        "rank": "74",
        "title": "WatchingMyDaughterGoBlack 21 03 28 Alice Pink  480p mp4",
        "link": "magnet:?xt=urn:btih:2862D98A95CDAC5283AF4BA1841E44A155B0EBC7&dn=WatchingMyDaughterGoBlack+21+03+28+Alice+Pink++480p+mp4&tr=udp%3A%2F%2Ftracker.coppersurfer.tk%3A6969%2Fannounce&tr=udp%3A%2F%2F9.rarbg.to%3A2920%2Fannounce&tr=udp%3A%2F%2Ftracker.opentrackr.org%3A1337&tr=udp%3A%2F%2Ftracker.internetwarriors.net%3A1337%2Fannounce&tr=udp%3A%2F%2Ftracker.leechers-paradise.org%3A6969%2Fannounce&tr=udp%3A%2F%2Ftracker.coppersurfer.tk%3A6969%2Fannounce&tr=udp%3A%2F%2Ftracker.pirateparty.gr%3A6969%2Fannounce&tr=udp%3A%2F%2Ftracker.cyberia.is%3A6969%2Fannounce",
        "seeder": "181",
        "leecher": "34"
    },
    {
        "rank": "75",
        "title": "Babes 21 03 30 Whitney Wright Working It  480p mp4",
        "link": "magnet:?xt=urn:btih:2526DF13590D21F3330BE9F170E9509231E881F4&dn=Babes+21+03+30+Whitney+Wright+Working+It++480p+mp4&tr=udp%3A%2F%2Ftracker.coppersurfer.tk%3A6969%2Fannounce&tr=udp%3A%2F%2F9.rarbg.to%3A2920%2Fannounce&tr=udp%3A%2F%2Ftracker.opentrackr.org%3A1337&tr=udp%3A%2F%2Ftracker.internetwarriors.net%3A1337%2Fannounce&tr=udp%3A%2F%2Ftracker.leechers-paradise.org%3A6969%2Fannounce&tr=udp%3A%2F%2Ftracker.coppersurfer.tk%3A6969%2Fannounce&tr=udp%3A%2F%2Ftracker.pirateparty.gr%3A6969%2Fannounce&tr=udp%3A%2F%2Ftracker.cyberia.is%3A6969%2Fannounce",
        "seeder": "178",
        "leecher": "128"
    },
    {
        "rank": "76",
        "title": "TushyRaw - Emma Hix - Hungry For More",
        "link": "magnet:?xt=urn:btih:93674D25EAFE984549F42A0011A27BCBB15BD797&dn=TushyRaw+-+Emma+Hix+-+Hungry+For+More&tr=udp%3A%2F%2Ftracker.coppersurfer.tk%3A6969%2Fannounce&tr=udp%3A%2F%2F9.rarbg.to%3A2920%2Fannounce&tr=udp%3A%2F%2Ftracker.opentrackr.org%3A1337&tr=udp%3A%2F%2Ftracker.internetwarriors.net%3A1337%2Fannounce&tr=udp%3A%2F%2Ftracker.leechers-paradise.org%3A6969%2Fannounce&tr=udp%3A%2F%2Ftracker.coppersurfer.tk%3A6969%2Fannounce&tr=udp%3A%2F%2Ftracker.pirateparty.gr%3A6969%2Fannounce&tr=udp%3A%2F%2Ftracker.cyberia.is%3A6969%2Fannounce",
        "seeder": "178",
        "leecher": "29"
    },
    {
        "rank": "77",
        "title": "[Tushy] Little Caprice - Morning Ritual (14.03.2021)",
        "link": "magnet:?xt=urn:btih:43A8AB6E80956391E3943858A0B47E1FD106C7B3&dn=%5BTushy%5D+Little+Caprice+-+Morning+Ritual+%2814.03.2021%29&tr=udp%3A%2F%2Ftracker.coppersurfer.tk%3A6969%2Fannounce&tr=udp%3A%2F%2F9.rarbg.to%3A2920%2Fannounce&tr=udp%3A%2F%2Ftracker.opentrackr.org%3A1337&tr=udp%3A%2F%2Ftracker.internetwarriors.net%3A1337%2Fannounce&tr=udp%3A%2F%2Ftracker.leechers-paradise.org%3A6969%2Fannounce&tr=udp%3A%2F%2Ftracker.coppersurfer.tk%3A6969%2Fannounce&tr=udp%3A%2F%2Ftracker.pirateparty.gr%3A6969%2Fannounce&tr=udp%3A%2F%2Ftracker.cyberia.is%3A6969%2Fannounce",
        "seeder": "178",
        "leecher": "15"
    },
    {
        "rank": "78",
        "title": "Vixen 21 03 12 Vanna Bardot  480p mp4",
        "link": "magnet:?xt=urn:btih:5D467584AE846A55B0920A73A2BB4DA18003222D&dn=Vixen+21+03+12+Vanna+Bardot++480p+mp4&tr=udp%3A%2F%2Ftracker.coppersurfer.tk%3A6969%2Fannounce&tr=udp%3A%2F%2F9.rarbg.to%3A2920%2Fannounce&tr=udp%3A%2F%2Ftracker.opentrackr.org%3A1337&tr=udp%3A%2F%2Ftracker.internetwarriors.net%3A1337%2Fannounce&tr=udp%3A%2F%2Ftracker.leechers-paradise.org%3A6969%2Fannounce&tr=udp%3A%2F%2Ftracker.coppersurfer.tk%3A6969%2Fannounce&tr=udp%3A%2F%2Ftracker.pirateparty.gr%3A6969%2Fannounce&tr=udp%3A%2F%2Ftracker.cyberia.is%3A6969%2Fannounce",
        "seeder": "177",
        "leecher": "28"
    },
    {
        "rank": "79",
        "title": "Tushy - Little Caprice - Morning Ritual",
        "link": "magnet:?xt=urn:btih:D96EA595522F63ADD33B6B3CE85F8FC0AE41B1C2&dn=Tushy+-+Little+Caprice+-+Morning+Ritual&tr=udp%3A%2F%2Ftracker.coppersurfer.tk%3A6969%2Fannounce&tr=udp%3A%2F%2F9.rarbg.to%3A2920%2Fannounce&tr=udp%3A%2F%2Ftracker.opentrackr.org%3A1337&tr=udp%3A%2F%2Ftracker.internetwarriors.net%3A1337%2Fannounce&tr=udp%3A%2F%2Ftracker.leechers-paradise.org%3A6969%2Fannounce&tr=udp%3A%2F%2Ftracker.coppersurfer.tk%3A6969%2Fannounce&tr=udp%3A%2F%2Ftracker.pirateparty.gr%3A6969%2Fannounce&tr=udp%3A%2F%2Ftracker.cyberia.is%3A6969%2Fannounce",
        "seeder": "177",
        "leecher": "8"
    },
    {
        "rank": "80",
        "title": "Deeper 20 10 22 Gabbie Carter And Nia Nacci  480p mp4",
        "link": "magnet:?xt=urn:btih:4D908AADF20FD62CC335CB1B2DA535EAEDE0AD03&dn=Deeper+20+10+22+Gabbie+Carter+And+Nia+Nacci++480p+mp4&tr=udp%3A%2F%2Ftracker.coppersurfer.tk%3A6969%2Fannounce&tr=udp%3A%2F%2F9.rarbg.to%3A2920%2Fannounce&tr=udp%3A%2F%2Ftracker.opentrackr.org%3A1337&tr=udp%3A%2F%2Ftracker.internetwarriors.net%3A1337%2Fannounce&tr=udp%3A%2F%2Ftracker.leechers-paradise.org%3A6969%2Fannounce&tr=udp%3A%2F%2Ftracker.coppersurfer.tk%3A6969%2Fannounce&tr=udp%3A%2F%2Ftracker.pirateparty.gr%3A6969%2Fannounce&tr=udp%3A%2F%2Ftracker.cyberia.is%3A6969%2Fannounce",
        "seeder": "176",
        "leecher": "13"
    },
    {
        "rank": "81",
        "title": "TeenFidelity E460 Lily Larimar  480p mp4",
        "link": "magnet:?xt=urn:btih:6707A261BDE76AC735A76040D4DDB5E8E2A9D685&dn=TeenFidelity+E460+Lily+Larimar++480p+mp4&tr=udp%3A%2F%2Ftracker.coppersurfer.tk%3A6969%2Fannounce&tr=udp%3A%2F%2F9.rarbg.to%3A2920%2Fannounce&tr=udp%3A%2F%2Ftracker.opentrackr.org%3A1337&tr=udp%3A%2F%2Ftracker.internetwarriors.net%3A1337%2Fannounce&tr=udp%3A%2F%2Ftracker.leechers-paradise.org%3A6969%2Fannounce&tr=udp%3A%2F%2Ftracker.coppersurfer.tk%3A6969%2Fannounce&tr=udp%3A%2F%2Ftracker.pirateparty.gr%3A6969%2Fannounce&tr=udp%3A%2F%2Ftracker.cyberia.is%3A6969%2Fannounce",
        "seeder": "174",
        "leecher": "178"
    },
    {
        "rank": "82",
        "title": "EvilAngel 21 03 25 Cherie Deville The Lusty Landlord  480p mp4",
        "link": "magnet:?xt=urn:btih:1781BC04B8CC06255A19C316B2DA87198029531A&dn=EvilAngel+21+03+25+Cherie+Deville+The+Lusty+Landlord++480p+mp4&tr=udp%3A%2F%2Ftracker.coppersurfer.tk%3A6969%2Fannounce&tr=udp%3A%2F%2F9.rarbg.to%3A2920%2Fannounce&tr=udp%3A%2F%2Ftracker.opentrackr.org%3A1337&tr=udp%3A%2F%2Ftracker.internetwarriors.net%3A1337%2Fannounce&tr=udp%3A%2F%2Ftracker.leechers-paradise.org%3A6969%2Fannounce&tr=udp%3A%2F%2Ftracker.coppersurfer.tk%3A6969%2Fannounce&tr=udp%3A%2F%2Ftracker.pirateparty.gr%3A6969%2Fannounce&tr=udp%3A%2F%2Ftracker.cyberia.is%3A6969%2Fannounce",
        "seeder": "174",
        "leecher": "15"
    },
    {
        "rank": "83",
        "title": "HotGuysFuck 21 03 26 Cayden Stuart And Melody Foxx  480p mp4",
        "link": "magnet:?xt=urn:btih:5A5047FEF0C6A133B289A47C7C59962A1165AB98&dn=HotGuysFuck+21+03+26+Cayden+Stuart+And+Melody+Foxx++480p+mp4&tr=udp%3A%2F%2Ftracker.coppersurfer.tk%3A6969%2Fannounce&tr=udp%3A%2F%2F9.rarbg.to%3A2920%2Fannounce&tr=udp%3A%2F%2Ftracker.opentrackr.org%3A1337&tr=udp%3A%2F%2Ftracker.internetwarriors.net%3A1337%2Fannounce&tr=udp%3A%2F%2Ftracker.leechers-paradise.org%3A6969%2Fannounce&tr=udp%3A%2F%2Ftracker.coppersurfer.tk%3A6969%2Fannounce&tr=udp%3A%2F%2Ftracker.pirateparty.gr%3A6969%2Fannounce&tr=udp%3A%2F%2Ftracker.cyberia.is%3A6969%2Fannounce",
        "seeder": "172",
        "leecher": "22"
    },
    {
        "rank": "84",
        "title": "TeensLoveAnal 21 03 27 Gwen Vicious When The WiFi Fails  480p m",
        "link": "magnet:?xt=urn:btih:4F0CD2278955EFA91DE874F32FD36FC83C94D9E6&dn=TeensLoveAnal+21+03+27+Gwen+Vicious+When+The+WiFi+Fails++480p+m&tr=udp%3A%2F%2Ftracker.coppersurfer.tk%3A6969%2Fannounce&tr=udp%3A%2F%2F9.rarbg.to%3A2920%2Fannounce&tr=udp%3A%2F%2Ftracker.opentrackr.org%3A1337&tr=udp%3A%2F%2Ftracker.internetwarriors.net%3A1337%2Fannounce&tr=udp%3A%2F%2Ftracker.leechers-paradise.org%3A6969%2Fannounce&tr=udp%3A%2F%2Ftracker.coppersurfer.tk%3A6969%2Fannounce&tr=udp%3A%2F%2Ftracker.pirateparty.gr%3A6969%2Fannounce&tr=udp%3A%2F%2Ftracker.cyberia.is%3A6969%2Fannounce",
        "seeder": "168",
        "leecher": "23"
    },
    {
        "rank": "85",
        "title": "RKPrime 21 03 30 Mina Moon Just Friends Except We Fuck  480p mp",
        "link": "magnet:?xt=urn:btih:FF353CB88A571FA6F435B5852DAA6358C6DD12E1&dn=RKPrime+21+03+30+Mina+Moon+Just+Friends+Except+We+Fuck++480p+mp&tr=udp%3A%2F%2Ftracker.coppersurfer.tk%3A6969%2Fannounce&tr=udp%3A%2F%2F9.rarbg.to%3A2920%2Fannounce&tr=udp%3A%2F%2Ftracker.opentrackr.org%3A1337&tr=udp%3A%2F%2Ftracker.internetwarriors.net%3A1337%2Fannounce&tr=udp%3A%2F%2Ftracker.leechers-paradise.org%3A6969%2Fannounce&tr=udp%3A%2F%2Ftracker.coppersurfer.tk%3A6969%2Fannounce&tr=udp%3A%2F%2Ftracker.pirateparty.gr%3A6969%2Fannounce&tr=udp%3A%2F%2Ftracker.cyberia.is%3A6969%2Fannounce",
        "seeder": "167",
        "leecher": "161"
    },
    {
        "rank": "86",
        "title": "ShoplyfterMylf 21 03 27 Crystal Taylor Cameras All Around  480p",
        "link": "magnet:?xt=urn:btih:1203852DAF0D291ED9C9810DD04403C87DCBEDD8&dn=ShoplyfterMylf+21+03+27+Crystal+Taylor+Cameras+All+Around++480p&tr=udp%3A%2F%2Ftracker.coppersurfer.tk%3A6969%2Fannounce&tr=udp%3A%2F%2F9.rarbg.to%3A2920%2Fannounce&tr=udp%3A%2F%2Ftracker.opentrackr.org%3A1337&tr=udp%3A%2F%2Ftracker.internetwarriors.net%3A1337%2Fannounce&tr=udp%3A%2F%2Ftracker.leechers-paradise.org%3A6969%2Fannounce&tr=udp%3A%2F%2Ftracker.coppersurfer.tk%3A6969%2Fannounce&tr=udp%3A%2F%2Ftracker.pirateparty.gr%3A6969%2Fannounce&tr=udp%3A%2F%2Ftracker.cyberia.is%3A6969%2Fannounce",
        "seeder": "167",
        "leecher": "24"
    },
    {
        "rank": "87",
        "title": "BangBrosClips 21 03 30 Ginebra Bellucci And Misha Maver  480p m",
        "link": "magnet:?xt=urn:btih:52E4EA10F6BA3AA127E4A22C2DEABB6D51F3AB42&dn=BangBrosClips+21+03+30+Ginebra+Bellucci+And+Misha+Maver++480p+m&tr=udp%3A%2F%2Ftracker.coppersurfer.tk%3A6969%2Fannounce&tr=udp%3A%2F%2F9.rarbg.to%3A2920%2Fannounce&tr=udp%3A%2F%2Ftracker.opentrackr.org%3A1337&tr=udp%3A%2F%2Ftracker.internetwarriors.net%3A1337%2Fannounce&tr=udp%3A%2F%2Ftracker.leechers-paradise.org%3A6969%2Fannounce&tr=udp%3A%2F%2Ftracker.coppersurfer.tk%3A6969%2Fannounce&tr=udp%3A%2F%2Ftracker.pirateparty.gr%3A6969%2Fannounce&tr=udp%3A%2F%2Ftracker.cyberia.is%3A6969%2Fannounce",
        "seeder": "166",
        "leecher": "191"
    },
    {
        "rank": "88",
        "title": "SpankMonster 21 03 28 Clara Trinity Asian Sex Nympho  480p mp4",
        "link": "magnet:?xt=urn:btih:DE83EB4FC96A0728A3F137883255C5BCA4FFE0E3&dn=SpankMonster+21+03+28+Clara+Trinity+Asian+Sex+Nympho++480p+mp4&tr=udp%3A%2F%2Ftracker.coppersurfer.tk%3A6969%2Fannounce&tr=udp%3A%2F%2F9.rarbg.to%3A2920%2Fannounce&tr=udp%3A%2F%2Ftracker.opentrackr.org%3A1337&tr=udp%3A%2F%2Ftracker.internetwarriors.net%3A1337%2Fannounce&tr=udp%3A%2F%2Ftracker.leechers-paradise.org%3A6969%2Fannounce&tr=udp%3A%2F%2Ftracker.coppersurfer.tk%3A6969%2Fannounce&tr=udp%3A%2F%2Ftracker.pirateparty.gr%3A6969%2Fannounce&tr=udp%3A%2F%2Ftracker.cyberia.is%3A6969%2Fannounce",
        "seeder": "164",
        "leecher": "115"
    },
    {
        "rank": "89",
        "title": "LegalPorno - Poolside orgy with Polly Petrova and Larissa Leite",
        "link": "magnet:?xt=urn:btih:3608A795C9AF3508B88FC79814B1B17C423EFE67&dn=LegalPorno+-+Poolside+orgy+with+Polly+Petrova+and+Larissa+Leite&tr=udp%3A%2F%2Ftracker.coppersurfer.tk%3A6969%2Fannounce&tr=udp%3A%2F%2F9.rarbg.to%3A2920%2Fannounce&tr=udp%3A%2F%2Ftracker.opentrackr.org%3A1337&tr=udp%3A%2F%2Ftracker.internetwarriors.net%3A1337%2Fannounce&tr=udp%3A%2F%2Ftracker.leechers-paradise.org%3A6969%2Fannounce&tr=udp%3A%2F%2Ftracker.coppersurfer.tk%3A6969%2Fannounce&tr=udp%3A%2F%2Ftracker.pirateparty.gr%3A6969%2Fannounce&tr=udp%3A%2F%2Ftracker.cyberia.is%3A6969%2Fannounce",
        "seeder": "164",
        "leecher": "34"
    },
    {
        "rank": "90",
        "title": "TushyRaw 21 03 03 Anya Krey And Venera Maxima  480p mp4",
        "link": "magnet:?xt=urn:btih:9664DBF17EDF4C0C077ABF0C2AC58318EF9DE044&dn=TushyRaw+21+03+03+Anya+Krey+And+Venera+Maxima++480p+mp4&tr=udp%3A%2F%2Ftracker.coppersurfer.tk%3A6969%2Fannounce&tr=udp%3A%2F%2F9.rarbg.to%3A2920%2Fannounce&tr=udp%3A%2F%2Ftracker.opentrackr.org%3A1337&tr=udp%3A%2F%2Ftracker.internetwarriors.net%3A1337%2Fannounce&tr=udp%3A%2F%2Ftracker.leechers-paradise.org%3A6969%2Fannounce&tr=udp%3A%2F%2Ftracker.coppersurfer.tk%3A6969%2Fannounce&tr=udp%3A%2F%2Ftracker.pirateparty.gr%3A6969%2Fannounce&tr=udp%3A%2F%2Ftracker.cyberia.is%3A6969%2Fannounce",
        "seeder": "164",
        "leecher": "8"
    },
    {
        "rank": "91",
        "title": "BlackedRaw - Naomi Swann, Cecilia Lion - Huge Surprise",
        "link": "magnet:?xt=urn:btih:A985E7AC9C0F50A326C777C6E8DAC1A92A268746&dn=BlackedRaw+-+Naomi+Swann%2C+Cecilia+Lion+-+Huge+Surprise&tr=udp%3A%2F%2Ftracker.coppersurfer.tk%3A6969%2Fannounce&tr=udp%3A%2F%2F9.rarbg.to%3A2920%2Fannounce&tr=udp%3A%2F%2Ftracker.opentrackr.org%3A1337&tr=udp%3A%2F%2Ftracker.internetwarriors.net%3A1337%2Fannounce&tr=udp%3A%2F%2Ftracker.leechers-paradise.org%3A6969%2Fannounce&tr=udp%3A%2F%2Ftracker.coppersurfer.tk%3A6969%2Fannounce&tr=udp%3A%2F%2Ftracker.pirateparty.gr%3A6969%2Fannounce&tr=udp%3A%2F%2Ftracker.cyberia.is%3A6969%2Fannounce",
        "seeder": "162",
        "leecher": "29"
    },
    {
        "rank": "92",
        "title": "PublicAgent 21 03 22 Stacy Cruz  480p mp4",
        "link": "magnet:?xt=urn:btih:914A9952D93E952C4626E58E0C54413F03BE0CAC&dn=PublicAgent+21+03+22+Stacy+Cruz++480p+mp4&tr=udp%3A%2F%2Ftracker.coppersurfer.tk%3A6969%2Fannounce&tr=udp%3A%2F%2F9.rarbg.to%3A2920%2Fannounce&tr=udp%3A%2F%2Ftracker.opentrackr.org%3A1337&tr=udp%3A%2F%2Ftracker.internetwarriors.net%3A1337%2Fannounce&tr=udp%3A%2F%2Ftracker.leechers-paradise.org%3A6969%2Fannounce&tr=udp%3A%2F%2Ftracker.coppersurfer.tk%3A6969%2Fannounce&tr=udp%3A%2F%2Ftracker.pirateparty.gr%3A6969%2Fannounce&tr=udp%3A%2F%2Ftracker.cyberia.is%3A6969%2Fannounce",
        "seeder": "162",
        "leecher": "9"
    },
    {
        "rank": "93",
        "title": "BrownBunnies 21 03 25 Mini Stallion  480p mp4",
        "link": "magnet:?xt=urn:btih:227AEDF53B6274E4C4D82E48E6876C929DF38E88&dn=BrownBunnies+21+03+25+Mini+Stallion++480p+mp4&tr=udp%3A%2F%2Ftracker.coppersurfer.tk%3A6969%2Fannounce&tr=udp%3A%2F%2F9.rarbg.to%3A2920%2Fannounce&tr=udp%3A%2F%2Ftracker.opentrackr.org%3A1337&tr=udp%3A%2F%2Ftracker.internetwarriors.net%3A1337%2Fannounce&tr=udp%3A%2F%2Ftracker.leechers-paradise.org%3A6969%2Fannounce&tr=udp%3A%2F%2Ftracker.coppersurfer.tk%3A6969%2Fannounce&tr=udp%3A%2F%2Ftracker.pirateparty.gr%3A6969%2Fannounce&tr=udp%3A%2F%2Ftracker.cyberia.is%3A6969%2Fannounce",
        "seeder": "161",
        "leecher": "13"
    },
    {
        "rank": "94",
        "title": "BigWetButts 21 03 22 Alexis Fawx Fawxy Lady  480p mp4",
        "link": "magnet:?xt=urn:btih:FCA0FE4E75BD79B34AF099A1CECD4F508190F1E5&dn=BigWetButts+21+03+22+Alexis+Fawx+Fawxy+Lady++480p+mp4&tr=udp%3A%2F%2Ftracker.coppersurfer.tk%3A6969%2Fannounce&tr=udp%3A%2F%2F9.rarbg.to%3A2920%2Fannounce&tr=udp%3A%2F%2Ftracker.opentrackr.org%3A1337&tr=udp%3A%2F%2Ftracker.internetwarriors.net%3A1337%2Fannounce&tr=udp%3A%2F%2Ftracker.leechers-paradise.org%3A6969%2Fannounce&tr=udp%3A%2F%2Ftracker.coppersurfer.tk%3A6969%2Fannounce&tr=udp%3A%2F%2Ftracker.pirateparty.gr%3A6969%2Fannounce&tr=udp%3A%2F%2Ftracker.cyberia.is%3A6969%2Fannounce",
        "seeder": "160",
        "leecher": "10"
    },
    {
        "rank": "95",
        "title": "PornstarsLikeItBig 21 03 26 Luna Star And Payton Preslee Diamon",
        "link": "magnet:?xt=urn:btih:031728C2BAB6544F6C790C9FDD3C3A6CE2BB2E6F&dn=PornstarsLikeItBig+21+03+26+Luna+Star+And+Payton+Preslee+Diamon&tr=udp%3A%2F%2Ftracker.coppersurfer.tk%3A6969%2Fannounce&tr=udp%3A%2F%2F9.rarbg.to%3A2920%2Fannounce&tr=udp%3A%2F%2Ftracker.opentrackr.org%3A1337&tr=udp%3A%2F%2Ftracker.internetwarriors.net%3A1337%2Fannounce&tr=udp%3A%2F%2Ftracker.leechers-paradise.org%3A6969%2Fannounce&tr=udp%3A%2F%2Ftracker.coppersurfer.tk%3A6969%2Fannounce&tr=udp%3A%2F%2Ftracker.pirateparty.gr%3A6969%2Fannounce&tr=udp%3A%2F%2Ftracker.cyberia.is%3A6969%2Fannounce",
        "seeder": "158",
        "leecher": "15"
    },
    {
        "rank": "96",
        "title": "Bang RealTeens 21 03 29 Percy Sires  480p mp4",
        "link": "magnet:?xt=urn:btih:E384AD0F0B4B70D87D685926E538A7E5E993F0D1&dn=Bang+RealTeens+21+03+29+Percy+Sires++480p+mp4&tr=udp%3A%2F%2Ftracker.coppersurfer.tk%3A6969%2Fannounce&tr=udp%3A%2F%2F9.rarbg.to%3A2920%2Fannounce&tr=udp%3A%2F%2Ftracker.opentrackr.org%3A1337&tr=udp%3A%2F%2Ftracker.internetwarriors.net%3A1337%2Fannounce&tr=udp%3A%2F%2Ftracker.leechers-paradise.org%3A6969%2Fannounce&tr=udp%3A%2F%2Ftracker.coppersurfer.tk%3A6969%2Fannounce&tr=udp%3A%2F%2Ftracker.pirateparty.gr%3A6969%2Fannounce&tr=udp%3A%2F%2Ftracker.cyberia.is%3A6969%2Fannounce",
        "seeder": "157",
        "leecher": "40"
    },
    {
        "rank": "97",
        "title": "DaughterSwap 21 03 08 Gia Derza And Jillian Janson Butt Plug In",
        "link": "magnet:?xt=urn:btih:69DA2904587AC2A1E502D99F25AC5AA596C7889C&dn=DaughterSwap+21+03+08+Gia+Derza+And+Jillian+Janson+Butt+Plug+In&tr=udp%3A%2F%2Ftracker.coppersurfer.tk%3A6969%2Fannounce&tr=udp%3A%2F%2F9.rarbg.to%3A2920%2Fannounce&tr=udp%3A%2F%2Ftracker.opentrackr.org%3A1337&tr=udp%3A%2F%2Ftracker.internetwarriors.net%3A1337%2Fannounce&tr=udp%3A%2F%2Ftracker.leechers-paradise.org%3A6969%2Fannounce&tr=udp%3A%2F%2Ftracker.coppersurfer.tk%3A6969%2Fannounce&tr=udp%3A%2F%2Ftracker.pirateparty.gr%3A6969%2Fannounce&tr=udp%3A%2F%2Ftracker.cyberia.is%3A6969%2Fannounce",
        "seeder": "157",
        "leecher": "11"
    },
    {
        "rank": "98",
        "title": "BigTitCreamPie 21 03 27 Nadia White  480p mp4",
        "link": "magnet:?xt=urn:btih:1C367625F0D9AC02E375E44D0DBE57D599C99B69&dn=BigTitCreamPie+21+03+27+Nadia+White++480p+mp4&tr=udp%3A%2F%2Ftracker.coppersurfer.tk%3A6969%2Fannounce&tr=udp%3A%2F%2F9.rarbg.to%3A2920%2Fannounce&tr=udp%3A%2F%2Ftracker.opentrackr.org%3A1337&tr=udp%3A%2F%2Ftracker.internetwarriors.net%3A1337%2Fannounce&tr=udp%3A%2F%2Ftracker.leechers-paradise.org%3A6969%2Fannounce&tr=udp%3A%2F%2Ftracker.coppersurfer.tk%3A6969%2Fannounce&tr=udp%3A%2F%2Ftracker.pirateparty.gr%3A6969%2Fannounce&tr=udp%3A%2F%2Ftracker.cyberia.is%3A6969%2Fannounce",
        "seeder": "156",
        "leecher": "29"
    },
    {
        "rank": "99",
        "title": "Blacked - Ariana Marie - The Hot Wife Getaway",
        "link": "magnet:?xt=urn:btih:2731D3BE6ECD9F4EF189644B16EBA424B73EFBFD&dn=Blacked+-+Ariana+Marie+-+The+Hot+Wife+Getaway&tr=udp%3A%2F%2Ftracker.coppersurfer.tk%3A6969%2Fannounce&tr=udp%3A%2F%2F9.rarbg.to%3A2920%2Fannounce&tr=udp%3A%2F%2Ftracker.opentrackr.org%3A1337&tr=udp%3A%2F%2Ftracker.internetwarriors.net%3A1337%2Fannounce&tr=udp%3A%2F%2Ftracker.leechers-paradise.org%3A6969%2Fannounce&tr=udp%3A%2F%2Ftracker.coppersurfer.tk%3A6969%2Fannounce&tr=udp%3A%2F%2Ftracker.pirateparty.gr%3A6969%2Fannounce&tr=udp%3A%2F%2Ftracker.cyberia.is%3A6969%2Fannounce",
        "seeder": "156",
        "leecher": "34"
    },
    {
        "rank": "100",
        "title": "BlackedRaw - Venera Maxima - Hot Ride",
        "link": "magnet:?xt=urn:btih:1824034C43267AA11198E469DBB79B913395F5FE&dn=BlackedRaw+-+Venera+Maxima+-+Hot+Ride&tr=udp%3A%2F%2Ftracker.coppersurfer.tk%3A6969%2Fannounce&tr=udp%3A%2F%2F9.rarbg.to%3A2920%2Fannounce&tr=udp%3A%2F%2Ftracker.opentrackr.org%3A1337&tr=udp%3A%2F%2Ftracker.internetwarriors.net%3A1337%2Fannounce&tr=udp%3A%2F%2Ftracker.leechers-paradise.org%3A6969%2Fannounce&tr=udp%3A%2F%2Ftracker.coppersurfer.tk%3A6969%2Fannounce&tr=udp%3A%2F%2Ftracker.pirateparty.gr%3A6969%2Fannounce&tr=udp%3A%2F%2Ftracker.cyberia.is%3A6969%2Fannounce",
        "seeder": "155",
        "leecher": "12"
    }
]
