[
    {
        "rank": "1",
        "title": "Fansadox Collection 559 - Erenisch - SLAVECOP 3 THE HIVE.pdf",
        "link": "magnet:?xt=urn:btih:6EDF13EBA794CAB954F0DE90AA389B9369D98287&dn=Fansadox+Collection+559+-+Erenisch+-+SLAVECOP+3+THE+HIVE.pdf&tr=udp%3A%2F%2Ftracker.coppersurfer.tk%3A6969%2Fannounce&tr=udp%3A%2F%2F9.rarbg.to%3A2920%2Fannounce&tr=udp%3A%2F%2Ftracker.opentrackr.org%3A1337&tr=udp%3A%2F%2Ftracker.internetwarriors.net%3A1337%2Fannounce&tr=udp%3A%2F%2Ftracker.leechers-paradise.org%3A6969%2Fannounce&tr=udp%3A%2F%2Ftracker.coppersurfer.tk%3A6969%2Fannounce&tr=udp%3A%2F%2Ftracker.pirateparty.gr%3A6969%2Fannounce&tr=udp%3A%2F%2Ftracker.cyberia.is%3A6969%2Fannounce",
        "seeder": "68",
        "leecher": "1"
    },
    {
        "rank": "2",
        "title": "Fansadox Collection 552 - Halloween House Party.pdf",
        "link": "magnet:?xt=urn:btih:DFDB9FBE1E98FECF2D588BD3CB1228440EE92630&dn=Fansadox+Collection+552+-+Halloween+House+Party.pdf&tr=udp%3A%2F%2Ftracker.coppersurfer.tk%3A6969%2Fannounce&tr=udp%3A%2F%2F9.rarbg.to%3A2920%2Fannounce&tr=udp%3A%2F%2Ftracker.opentrackr.org%3A1337&tr=udp%3A%2F%2Ftracker.internetwarriors.net%3A1337%2Fannounce&tr=udp%3A%2F%2Ftracker.leechers-paradise.org%3A6969%2Fannounce&tr=udp%3A%2F%2Ftracker.coppersurfer.tk%3A6969%2Fannounce&tr=udp%3A%2F%2Ftracker.pirateparty.gr%3A6969%2Fannounce&tr=udp%3A%2F%2Ftracker.cyberia.is%3A6969%2Fannounce",
        "seeder": "62",
        "leecher": "3"
    },
    {
        "rank": "3",
        "title": "Dofantasy - Fansadox Collection 1-500 complete",
        "link": "magnet:?xt=urn:btih:645B32734AF69A830523C9328013A24E95F103FD&dn=Dofantasy+-+Fansadox+Collection+1-500+complete&tr=udp%3A%2F%2Ftracker.coppersurfer.tk%3A6969%2Fannounce&tr=udp%3A%2F%2F9.rarbg.to%3A2920%2Fannounce&tr=udp%3A%2F%2Ftracker.opentrackr.org%3A1337&tr=udp%3A%2F%2Ftracker.internetwarriors.net%3A1337%2Fannounce&tr=udp%3A%2F%2Ftracker.leechers-paradise.org%3A6969%2Fannounce&tr=udp%3A%2F%2Ftracker.coppersurfer.tk%3A6969%2Fannounce&tr=udp%3A%2F%2Ftracker.pirateparty.gr%3A6969%2Fannounce&tr=udp%3A%2F%2Ftracker.cyberia.is%3A6969%2Fannounce",
        "seeder": "58",
        "leecher": "13"
    },
    {
        "rank": "4",
        "title": "Fansadox Collection 506 - Predondo - Gentlemens club 2.pdf",
        "link": "magnet:?xt=urn:btih:9A845659A72CD854E10F86FDB4CE49EBD2A13301&dn=Fansadox+Collection+506+-+Predondo+-+Gentlemens+club+2.pdf&tr=udp%3A%2F%2Ftracker.coppersurfer.tk%3A6969%2Fannounce&tr=udp%3A%2F%2F9.rarbg.to%3A2920%2Fannounce&tr=udp%3A%2F%2Ftracker.opentrackr.org%3A1337&tr=udp%3A%2F%2Ftracker.internetwarriors.net%3A1337%2Fannounce&tr=udp%3A%2F%2Ftracker.leechers-paradise.org%3A6969%2Fannounce&tr=udp%3A%2F%2Ftracker.coppersurfer.tk%3A6969%2Fannounce&tr=udp%3A%2F%2Ftracker.pirateparty.gr%3A6969%2Fannounce&tr=udp%3A%2F%2Ftracker.cyberia.is%3A6969%2Fannounce",
        "seeder": "46",
        "leecher": "0"
    },
    {
        "rank": "5",
        "title": "Fansadox Collection 546 - Kitty Hand - Objection Overruled 2.pdf",
        "link": "magnet:?xt=urn:btih:54F7D95E0212D07E7D9E1C4510AF510D3F373FBC&dn=Fansadox+Collection+546+-+Kitty+Hand+-+Objection+Overruled+2.pdf&tr=udp%3A%2F%2Ftracker.coppersurfer.tk%3A6969%2Fannounce&tr=udp%3A%2F%2F9.rarbg.to%3A2920%2Fannounce&tr=udp%3A%2F%2Ftracker.opentrackr.org%3A1337&tr=udp%3A%2F%2Ftracker.internetwarriors.net%3A1337%2Fannounce&tr=udp%3A%2F%2Ftracker.leechers-paradise.org%3A6969%2Fannounce&tr=udp%3A%2F%2Ftracker.coppersurfer.tk%3A6969%2Fannounce&tr=udp%3A%2F%2Ftracker.pirateparty.gr%3A6969%2Fannounce&tr=udp%3A%2F%2Ftracker.cyberia.is%3A6969%2Fannounce",
        "seeder": "41",
        "leecher": "0"
    },
    {
        "rank": "6",
        "title": "Striking Magazine - No. 49 2021",
        "link": "magnet:?xt=urn:btih:C77E5465EAB6025D1919C006567E3726995B8075&dn=Striking+Magazine+-+No.+49+2021&tr=udp%3A%2F%2Ftracker.coppersurfer.tk%3A6969%2Fannounce&tr=udp%3A%2F%2F9.rarbg.to%3A2920%2Fannounce&tr=udp%3A%2F%2Ftracker.opentrackr.org%3A1337&tr=udp%3A%2F%2Ftracker.internetwarriors.net%3A1337%2Fannounce&tr=udp%3A%2F%2Ftracker.leechers-paradise.org%3A6969%2Fannounce&tr=udp%3A%2F%2Ftracker.coppersurfer.tk%3A6969%2Fannounce&tr=udp%3A%2F%2Ftracker.pirateparty.gr%3A6969%2Fannounce&tr=udp%3A%2F%2Ftracker.cyberia.is%3A6969%2Fannounce",
        "seeder": "35",
        "leecher": "1"
    },
    {
        "rank": "7",
        "title": "Penthouse USA \u2013 March 2021",
        "link": "magnet:?xt=urn:btih:7BACE4CC0921FD0F153B7A95BD5F0D7B1E03CEAB&dn=Penthouse+USA+%26ndash%3B+March+2021&tr=udp%3A%2F%2Ftracker.coppersurfer.tk%3A6969%2Fannounce&tr=udp%3A%2F%2F9.rarbg.to%3A2920%2Fannounce&tr=udp%3A%2F%2Ftracker.opentrackr.org%3A1337&tr=udp%3A%2F%2Ftracker.internetwarriors.net%3A1337%2Fannounce&tr=udp%3A%2F%2Ftracker.leechers-paradise.org%3A6969%2Fannounce&tr=udp%3A%2F%2Ftracker.coppersurfer.tk%3A6969%2Fannounce&tr=udp%3A%2F%2Ftracker.pirateparty.gr%3A6969%2Fannounce&tr=udp%3A%2F%2Ftracker.cyberia.is%3A6969%2Fannounce",
        "seeder": "33",
        "leecher": "3"
    },
    {
        "rank": "8",
        "title": "Fansadox Collection 537 - Arieta - Bad Lieutenant 8 TRAFFICKED.p",
        "link": "magnet:?xt=urn:btih:6FD9CD1305C5E41FB943E9D6FFC3021FFD402471&dn=Fansadox+Collection+537+-+Arieta+-+Bad+Lieutenant+8+TRAFFICKED.p&tr=udp%3A%2F%2Ftracker.coppersurfer.tk%3A6969%2Fannounce&tr=udp%3A%2F%2F9.rarbg.to%3A2920%2Fannounce&tr=udp%3A%2F%2Ftracker.opentrackr.org%3A1337&tr=udp%3A%2F%2Ftracker.internetwarriors.net%3A1337%2Fannounce&tr=udp%3A%2F%2Ftracker.leechers-paradise.org%3A6969%2Fannounce&tr=udp%3A%2F%2Ftracker.coppersurfer.tk%3A6969%2Fannounce&tr=udp%3A%2F%2Ftracker.pirateparty.gr%3A6969%2Fannounce&tr=udp%3A%2F%2Ftracker.cyberia.is%3A6969%2Fannounce",
        "seeder": "33",
        "leecher": "1"
    },
    {
        "rank": "9",
        "title": "Fansadox Collection 528 - CELESTIN - GROUP X part 2 FRAMED!.pdf",
        "link": "magnet:?xt=urn:btih:A019875474C4A269C415D84AB21814F290BB65C5&dn=Fansadox+Collection+528+-+CELESTIN+-+GROUP+X+part+2+FRAMED%21.pdf&tr=udp%3A%2F%2Ftracker.coppersurfer.tk%3A6969%2Fannounce&tr=udp%3A%2F%2F9.rarbg.to%3A2920%2Fannounce&tr=udp%3A%2F%2Ftracker.opentrackr.org%3A1337&tr=udp%3A%2F%2Ftracker.internetwarriors.net%3A1337%2Fannounce&tr=udp%3A%2F%2Ftracker.leechers-paradise.org%3A6969%2Fannounce&tr=udp%3A%2F%2Ftracker.coppersurfer.tk%3A6969%2Fannounce&tr=udp%3A%2F%2Ftracker.pirateparty.gr%3A6969%2Fannounce&tr=udp%3A%2F%2Ftracker.cyberia.is%3A6969%2Fannounce",
        "seeder": "32",
        "leecher": "1"
    },
    {
        "rank": "10",
        "title": "Hustler USA - January 2021",
        "link": "magnet:?xt=urn:btih:A7FCB012CAFB5D16C532526519BE1B9E6E6B30A7&dn=Hustler+USA+-+January+2021&tr=udp%3A%2F%2Ftracker.coppersurfer.tk%3A6969%2Fannounce&tr=udp%3A%2F%2F9.rarbg.to%3A2920%2Fannounce&tr=udp%3A%2F%2Ftracker.opentrackr.org%3A1337&tr=udp%3A%2F%2Ftracker.internetwarriors.net%3A1337%2Fannounce&tr=udp%3A%2F%2Ftracker.leechers-paradise.org%3A6969%2Fannounce&tr=udp%3A%2F%2Ftracker.coppersurfer.tk%3A6969%2Fannounce&tr=udp%3A%2F%2Ftracker.pirateparty.gr%3A6969%2Fannounce&tr=udp%3A%2F%2Ftracker.cyberia.is%3A6969%2Fannounce",
        "seeder": "30",
        "leecher": "2"
    },
    {
        "rank": "11",
        "title": "Fansadox Collection 548 - Hawke - KAYLA'S SUMMER BREAK part 3.pd",
        "link": "magnet:?xt=urn:btih:0E8916FBEDEDC050A8B4AB98D5D5661BF651030D&dn=Fansadox+Collection+548+-+Hawke+-+KAYLA%27S+SUMMER+BREAK+part+3.pd&tr=udp%3A%2F%2Ftracker.coppersurfer.tk%3A6969%2Fannounce&tr=udp%3A%2F%2F9.rarbg.to%3A2920%2Fannounce&tr=udp%3A%2F%2Ftracker.opentrackr.org%3A1337&tr=udp%3A%2F%2Ftracker.internetwarriors.net%3A1337%2Fannounce&tr=udp%3A%2F%2Ftracker.leechers-paradise.org%3A6969%2Fannounce&tr=udp%3A%2F%2Ftracker.coppersurfer.tk%3A6969%2Fannounce&tr=udp%3A%2F%2Ftracker.pirateparty.gr%3A6969%2Fannounce&tr=udp%3A%2F%2Ftracker.cyberia.is%3A6969%2Fannounce",
        "seeder": "28",
        "leecher": "0"
    },
    {
        "rank": "12",
        "title": "Fansadox Collection 536 - Pay Back.pdf",
        "link": "magnet:?xt=urn:btih:B3706B749D0492A3ACFE43FB84E002298CC42952&dn=Fansadox+Collection+536+-+Pay+Back.pdf&tr=udp%3A%2F%2Ftracker.coppersurfer.tk%3A6969%2Fannounce&tr=udp%3A%2F%2F9.rarbg.to%3A2920%2Fannounce&tr=udp%3A%2F%2Ftracker.opentrackr.org%3A1337&tr=udp%3A%2F%2Ftracker.internetwarriors.net%3A1337%2Fannounce&tr=udp%3A%2F%2Ftracker.leechers-paradise.org%3A6969%2Fannounce&tr=udp%3A%2F%2Ftracker.coppersurfer.tk%3A6969%2Fannounce&tr=udp%3A%2F%2Ftracker.pirateparty.gr%3A6969%2Fannounce&tr=udp%3A%2F%2Ftracker.cyberia.is%3A6969%2Fannounce",
        "seeder": "27",
        "leecher": "2"
    },
    {
        "rank": "13",
        "title": "Fansadox Collection 510 - Celestin - GROUP X part 1 FALL FROM GR",
        "link": "magnet:?xt=urn:btih:76A42C834B960230B4260F8E11F4F269BD95B306&dn=Fansadox+Collection+510+-+Celestin+-+GROUP+X+part+1+FALL+FROM+GR&tr=udp%3A%2F%2Ftracker.coppersurfer.tk%3A6969%2Fannounce&tr=udp%3A%2F%2F9.rarbg.to%3A2920%2Fannounce&tr=udp%3A%2F%2Ftracker.opentrackr.org%3A1337&tr=udp%3A%2F%2Ftracker.internetwarriors.net%3A1337%2Fannounce&tr=udp%3A%2F%2Ftracker.leechers-paradise.org%3A6969%2Fannounce&tr=udp%3A%2F%2Ftracker.coppersurfer.tk%3A6969%2Fannounce&tr=udp%3A%2F%2Ftracker.pirateparty.gr%3A6969%2Fannounce&tr=udp%3A%2F%2Ftracker.cyberia.is%3A6969%2Fannounce",
        "seeder": "27",
        "leecher": "0"
    },
    {
        "rank": "14",
        "title": "Flash N.1596 - 23 March 2021",
        "link": "magnet:?xt=urn:btih:931C652CA60E6B0EEFAC8FA8841F889345011EE8&dn=Flash+N.1596+-+23+March+2021&tr=udp%3A%2F%2Ftracker.coppersurfer.tk%3A6969%2Fannounce&tr=udp%3A%2F%2F9.rarbg.to%3A2920%2Fannounce&tr=udp%3A%2F%2Ftracker.opentrackr.org%3A1337&tr=udp%3A%2F%2Ftracker.internetwarriors.net%3A1337%2Fannounce&tr=udp%3A%2F%2Ftracker.leechers-paradise.org%3A6969%2Fannounce&tr=udp%3A%2F%2Ftracker.coppersurfer.tk%3A6969%2Fannounce&tr=udp%3A%2F%2Ftracker.pirateparty.gr%3A6969%2Fannounce&tr=udp%3A%2F%2Ftracker.cyberia.is%3A6969%2Fannounce",
        "seeder": "25",
        "leecher": "1"
    },
    {
        "rank": "15",
        "title": "Fansadox Collection 530 - Kayla's Summer Break. Part 3.pdf",
        "link": "magnet:?xt=urn:btih:95E5200E5D48CF808F0DFFEA0C2217490D7106CB&dn=Fansadox+Collection+530+-+Kayla%27s+Summer+Break.+Part+3.pdf&tr=udp%3A%2F%2Ftracker.coppersurfer.tk%3A6969%2Fannounce&tr=udp%3A%2F%2F9.rarbg.to%3A2920%2Fannounce&tr=udp%3A%2F%2Ftracker.opentrackr.org%3A1337&tr=udp%3A%2F%2Ftracker.internetwarriors.net%3A1337%2Fannounce&tr=udp%3A%2F%2Ftracker.leechers-paradise.org%3A6969%2Fannounce&tr=udp%3A%2F%2Ftracker.coppersurfer.tk%3A6969%2Fannounce&tr=udp%3A%2F%2Ftracker.pirateparty.gr%3A6969%2Fannounce&tr=udp%3A%2F%2Ftracker.cyberia.is%3A6969%2Fannounce",
        "seeder": "25",
        "leecher": "2"
    },
    {
        "rank": "16",
        "title": "Fansadox Collection 501 - Predondo - Prison Horror Story 9.pdf",
        "link": "magnet:?xt=urn:btih:0EA8915DE58BDB7CA40992F77BD1FDD8286806D4&dn=Fansadox+Collection+501+-+Predondo+-+Prison+Horror+Story+9.pdf&tr=udp%3A%2F%2Ftracker.coppersurfer.tk%3A6969%2Fannounce&tr=udp%3A%2F%2F9.rarbg.to%3A2920%2Fannounce&tr=udp%3A%2F%2Ftracker.opentrackr.org%3A1337&tr=udp%3A%2F%2Ftracker.internetwarriors.net%3A1337%2Fannounce&tr=udp%3A%2F%2Ftracker.leechers-paradise.org%3A6969%2Fannounce&tr=udp%3A%2F%2Ftracker.coppersurfer.tk%3A6969%2Fannounce&tr=udp%3A%2F%2Ftracker.pirateparty.gr%3A6969%2Fannounce&tr=udp%3A%2F%2Ftracker.cyberia.is%3A6969%2Fannounce",
        "seeder": "24",
        "leecher": "0"
    },
    {
        "rank": "17",
        "title": "X-Art - Milla -Tight Pink And Gold",
        "link": "magnet:?xt=urn:btih:ED556773560BBC789C6B58B1E6195D70B8D669AD&dn=X-Art+-+Milla+-Tight+Pink+And+Gold&tr=udp%3A%2F%2Ftracker.coppersurfer.tk%3A6969%2Fannounce&tr=udp%3A%2F%2F9.rarbg.to%3A2920%2Fannounce&tr=udp%3A%2F%2Ftracker.opentrackr.org%3A1337&tr=udp%3A%2F%2Ftracker.internetwarriors.net%3A1337%2Fannounce&tr=udp%3A%2F%2Ftracker.leechers-paradise.org%3A6969%2Fannounce&tr=udp%3A%2F%2Ftracker.coppersurfer.tk%3A6969%2Fannounce&tr=udp%3A%2F%2Ftracker.pirateparty.gr%3A6969%2Fannounce&tr=udp%3A%2F%2Ftracker.cyberia.is%3A6969%2Fannounce",
        "seeder": "23",
        "leecher": "1"
    },
    {
        "rank": "18",
        "title": "Fansadox Collection 525 - Kayla's Summer Break. Part 2.pdf",
        "link": "magnet:?xt=urn:btih:2D8F109045070EC15E1929E7D17B4C2C351D77EE&dn=Fansadox+Collection+525+-+Kayla%27s+Summer+Break.+Part+2.pdf&tr=udp%3A%2F%2Ftracker.coppersurfer.tk%3A6969%2Fannounce&tr=udp%3A%2F%2F9.rarbg.to%3A2920%2Fannounce&tr=udp%3A%2F%2Ftracker.opentrackr.org%3A1337&tr=udp%3A%2F%2Ftracker.internetwarriors.net%3A1337%2Fannounce&tr=udp%3A%2F%2Ftracker.leechers-paradise.org%3A6969%2Fannounce&tr=udp%3A%2F%2Ftracker.coppersurfer.tk%3A6969%2Fannounce&tr=udp%3A%2F%2Ftracker.pirateparty.gr%3A6969%2Fannounce&tr=udp%3A%2F%2Ftracker.cyberia.is%3A6969%2Fannounce",
        "seeder": "23",
        "leecher": "1"
    },
    {
        "rank": "19",
        "title": "Fansadox Collection 531 - Aquila - Dominus.pdf",
        "link": "magnet:?xt=urn:btih:B72012D002010F4989D3414BCFEAE9E2773A870B&dn=Fansadox+Collection+531+-+Aquila+-+Dominus.pdf&tr=udp%3A%2F%2Ftracker.coppersurfer.tk%3A6969%2Fannounce&tr=udp%3A%2F%2F9.rarbg.to%3A2920%2Fannounce&tr=udp%3A%2F%2Ftracker.opentrackr.org%3A1337&tr=udp%3A%2F%2Ftracker.internetwarriors.net%3A1337%2Fannounce&tr=udp%3A%2F%2Ftracker.leechers-paradise.org%3A6969%2Fannounce&tr=udp%3A%2F%2Ftracker.coppersurfer.tk%3A6969%2Fannounce&tr=udp%3A%2F%2Ftracker.pirateparty.gr%3A6969%2Fannounce&tr=udp%3A%2F%2Ftracker.cyberia.is%3A6969%2Fannounce",
        "seeder": "23",
        "leecher": "0"
    },
    {
        "rank": "20",
        "title": "Fansadox Collection 524 - Predondo - Gentlemens club 4.pdf",
        "link": "magnet:?xt=urn:btih:80CA8E897714E951369DFB5EB3642A6239C592B8&dn=Fansadox+Collection+524+-+Predondo+-+Gentlemens+club+4.pdf&tr=udp%3A%2F%2Ftracker.coppersurfer.tk%3A6969%2Fannounce&tr=udp%3A%2F%2F9.rarbg.to%3A2920%2Fannounce&tr=udp%3A%2F%2Ftracker.opentrackr.org%3A1337&tr=udp%3A%2F%2Ftracker.internetwarriors.net%3A1337%2Fannounce&tr=udp%3A%2F%2Ftracker.leechers-paradise.org%3A6969%2Fannounce&tr=udp%3A%2F%2Ftracker.coppersurfer.tk%3A6969%2Fannounce&tr=udp%3A%2F%2Ftracker.pirateparty.gr%3A6969%2Fannounce&tr=udp%3A%2F%2Ftracker.cyberia.is%3A6969%2Fannounce",
        "seeder": "23",
        "leecher": "0"
    },
    {
        "rank": "21",
        "title": "Fansadox Collection 538 - Kitty Hand - Classmates Claire's Tale",
        "link": "magnet:?xt=urn:btih:10DDF4F3A581A847EDC5035D9A2508503EFE1BE8&dn=Fansadox+Collection+538+-+Kitty+Hand+-+Classmates+Claire%27s+Tale&tr=udp%3A%2F%2Ftracker.coppersurfer.tk%3A6969%2Fannounce&tr=udp%3A%2F%2F9.rarbg.to%3A2920%2Fannounce&tr=udp%3A%2F%2Ftracker.opentrackr.org%3A1337&tr=udp%3A%2F%2Ftracker.internetwarriors.net%3A1337%2Fannounce&tr=udp%3A%2F%2Ftracker.leechers-paradise.org%3A6969%2Fannounce&tr=udp%3A%2F%2Ftracker.coppersurfer.tk%3A6969%2Fannounce&tr=udp%3A%2F%2Ftracker.pirateparty.gr%3A6969%2Fannounce&tr=udp%3A%2F%2Ftracker.cyberia.is%3A6969%2Fannounce",
        "seeder": "23",
        "leecher": "0"
    },
    {
        "rank": "22",
        "title": "Fansadox Collection 539 - Lesbi K leih - CIDADE DO DIABO part 3.",
        "link": "magnet:?xt=urn:btih:95CA7A8FA6FBEC526DB2342E4A03EA9FBBD82415&dn=Fansadox+Collection+539+-+Lesbi+K+leih+-+CIDADE+DO+DIABO+part+3.&tr=udp%3A%2F%2Ftracker.coppersurfer.tk%3A6969%2Fannounce&tr=udp%3A%2F%2F9.rarbg.to%3A2920%2Fannounce&tr=udp%3A%2F%2Ftracker.opentrackr.org%3A1337&tr=udp%3A%2F%2Ftracker.internetwarriors.net%3A1337%2Fannounce&tr=udp%3A%2F%2Ftracker.leechers-paradise.org%3A6969%2Fannounce&tr=udp%3A%2F%2Ftracker.coppersurfer.tk%3A6969%2Fannounce&tr=udp%3A%2F%2Ftracker.pirateparty.gr%3A6969%2Fannounce&tr=udp%3A%2F%2Ftracker.cyberia.is%3A6969%2Fannounce",
        "seeder": "22",
        "leecher": "2"
    },
    {
        "rank": "23",
        "title": "Fansadox Collection 503 - Kandahar Captive.pdf",
        "link": "magnet:?xt=urn:btih:34EB24658A685BD5D9666505D2DA8D385F481FFB&dn=Fansadox+Collection+503+-+Kandahar+Captive.pdf&tr=udp%3A%2F%2Ftracker.coppersurfer.tk%3A6969%2Fannounce&tr=udp%3A%2F%2F9.rarbg.to%3A2920%2Fannounce&tr=udp%3A%2F%2Ftracker.opentrackr.org%3A1337&tr=udp%3A%2F%2Ftracker.internetwarriors.net%3A1337%2Fannounce&tr=udp%3A%2F%2Ftracker.leechers-paradise.org%3A6969%2Fannounce&tr=udp%3A%2F%2Ftracker.coppersurfer.tk%3A6969%2Fannounce&tr=udp%3A%2F%2Ftracker.pirateparty.gr%3A6969%2Fannounce&tr=udp%3A%2F%2Ftracker.cyberia.is%3A6969%2Fannounce",
        "seeder": "21",
        "leecher": "1"
    },
    {
        "rank": "24",
        "title": "Fansadox Collection 513 - Predondo - Gentlemens club 3.pdf",
        "link": "magnet:?xt=urn:btih:49088CB938725728DFB145B73419225D2D85A0D6&dn=Fansadox+Collection+513+-+Predondo+-+Gentlemens+club+3.pdf&tr=udp%3A%2F%2Ftracker.coppersurfer.tk%3A6969%2Fannounce&tr=udp%3A%2F%2F9.rarbg.to%3A2920%2Fannounce&tr=udp%3A%2F%2Ftracker.opentrackr.org%3A1337&tr=udp%3A%2F%2Ftracker.internetwarriors.net%3A1337%2Fannounce&tr=udp%3A%2F%2Ftracker.leechers-paradise.org%3A6969%2Fannounce&tr=udp%3A%2F%2Ftracker.coppersurfer.tk%3A6969%2Fannounce&tr=udp%3A%2F%2Ftracker.pirateparty.gr%3A6969%2Fannounce&tr=udp%3A%2F%2Ftracker.cyberia.is%3A6969%2Fannounce",
        "seeder": "21",
        "leecher": "0"
    },
    {
        "rank": "25",
        "title": "X-Art - Milla - Virtual Girlfriend",
        "link": "magnet:?xt=urn:btih:021A52644B0B4B172A9F959141BA7D93C02787C2&dn=X-Art+-+Milla+-+Virtual+Girlfriend&tr=udp%3A%2F%2Ftracker.coppersurfer.tk%3A6969%2Fannounce&tr=udp%3A%2F%2F9.rarbg.to%3A2920%2Fannounce&tr=udp%3A%2F%2Ftracker.opentrackr.org%3A1337&tr=udp%3A%2F%2Ftracker.internetwarriors.net%3A1337%2Fannounce&tr=udp%3A%2F%2Ftracker.leechers-paradise.org%3A6969%2Fannounce&tr=udp%3A%2F%2Ftracker.coppersurfer.tk%3A6969%2Fannounce&tr=udp%3A%2F%2Ftracker.pirateparty.gr%3A6969%2Fannounce&tr=udp%3A%2F%2Ftracker.cyberia.is%3A6969%2Fannounce",
        "seeder": "20",
        "leecher": "1"
    },
    {
        "rank": "26",
        "title": "X-Art - Mary - White Hot",
        "link": "magnet:?xt=urn:btih:72C3ED349D2462F17CC0178BB1AFCA6A8871D5C4&dn=X-Art+-+Mary+-+White+Hot&tr=udp%3A%2F%2Ftracker.coppersurfer.tk%3A6969%2Fannounce&tr=udp%3A%2F%2F9.rarbg.to%3A2920%2Fannounce&tr=udp%3A%2F%2Ftracker.opentrackr.org%3A1337&tr=udp%3A%2F%2Ftracker.internetwarriors.net%3A1337%2Fannounce&tr=udp%3A%2F%2Ftracker.leechers-paradise.org%3A6969%2Fannounce&tr=udp%3A%2F%2Ftracker.coppersurfer.tk%3A6969%2Fannounce&tr=udp%3A%2F%2Ftracker.pirateparty.gr%3A6969%2Fannounce&tr=udp%3A%2F%2Ftracker.cyberia.is%3A6969%2Fannounce",
        "seeder": "20",
        "leecher": "0"
    },
    {
        "rank": "27",
        "title": "Yarina - No Panties Today",
        "link": "magnet:?xt=urn:btih:F79B323AFB51631E4B3D486A3C1DB3CC7C8CB644&dn=Yarina+-+No+Panties+Today&tr=udp%3A%2F%2Ftracker.coppersurfer.tk%3A6969%2Fannounce&tr=udp%3A%2F%2F9.rarbg.to%3A2920%2Fannounce&tr=udp%3A%2F%2Ftracker.opentrackr.org%3A1337&tr=udp%3A%2F%2Ftracker.internetwarriors.net%3A1337%2Fannounce&tr=udp%3A%2F%2Ftracker.leechers-paradise.org%3A6969%2Fannounce&tr=udp%3A%2F%2Ftracker.coppersurfer.tk%3A6969%2Fannounce&tr=udp%3A%2F%2Ftracker.pirateparty.gr%3A6969%2Fannounce&tr=udp%3A%2F%2Ftracker.cyberia.is%3A6969%2Fannounce",
        "seeder": "19",
        "leecher": "0"
    },
    {
        "rank": "28",
        "title": "Teens Like It Big - Alaina Dawson, Elsa Jean, Piper Perri",
        "link": "magnet:?xt=urn:btih:B9A6154E2A8042F54FF10C3905573FF79DD43EE4&dn=Teens+Like+It+Big+-+Alaina+Dawson%2C+Elsa+Jean%2C+Piper+Perri&tr=udp%3A%2F%2Ftracker.coppersurfer.tk%3A6969%2Fannounce&tr=udp%3A%2F%2F9.rarbg.to%3A2920%2Fannounce&tr=udp%3A%2F%2Ftracker.opentrackr.org%3A1337&tr=udp%3A%2F%2Ftracker.internetwarriors.net%3A1337%2Fannounce&tr=udp%3A%2F%2Ftracker.leechers-paradise.org%3A6969%2Fannounce&tr=udp%3A%2F%2Ftracker.coppersurfer.tk%3A6969%2Fannounce&tr=udp%3A%2F%2Ftracker.pirateparty.gr%3A6969%2Fannounce&tr=udp%3A%2F%2Ftracker.cyberia.is%3A6969%2Fannounce",
        "seeder": "19",
        "leecher": "8"
    },
    {
        "rank": "29",
        "title": "Real Brother and Sister Incest  homemade video.flv",
        "link": "magnet:?xt=urn:btih:B874FDDE5B673298C0988F54B344D711C3EBFC86&dn=Real+Brother+and+Sister+Incest++homemade+video.flv&tr=udp%3A%2F%2Ftracker.coppersurfer.tk%3A6969%2Fannounce&tr=udp%3A%2F%2F9.rarbg.to%3A2920%2Fannounce&tr=udp%3A%2F%2Ftracker.opentrackr.org%3A1337&tr=udp%3A%2F%2Ftracker.internetwarriors.net%3A1337%2Fannounce&tr=udp%3A%2F%2Ftracker.leechers-paradise.org%3A6969%2Fannounce&tr=udp%3A%2F%2Ftracker.coppersurfer.tk%3A6969%2Fannounce&tr=udp%3A%2F%2Ftracker.pirateparty.gr%3A6969%2Fannounce&tr=udp%3A%2F%2Ftracker.cyberia.is%3A6969%2Fannounce",
        "seeder": "19",
        "leecher": "1"
    },
    {
        "rank": "30",
        "title": "Flash N.1595 - 16 March 2021",
        "link": "magnet:?xt=urn:btih:67FFE07411B416321EFD19C58414808182708A0A&dn=Flash+N.1595+-+16+March+2021&tr=udp%3A%2F%2Ftracker.coppersurfer.tk%3A6969%2Fannounce&tr=udp%3A%2F%2F9.rarbg.to%3A2920%2Fannounce&tr=udp%3A%2F%2Ftracker.opentrackr.org%3A1337&tr=udp%3A%2F%2Ftracker.internetwarriors.net%3A1337%2Fannounce&tr=udp%3A%2F%2Ftracker.leechers-paradise.org%3A6969%2Fannounce&tr=udp%3A%2F%2Ftracker.coppersurfer.tk%3A6969%2Fannounce&tr=udp%3A%2F%2Ftracker.pirateparty.gr%3A6969%2Fannounce&tr=udp%3A%2F%2Ftracker.cyberia.is%3A6969%2Fannounce",
        "seeder": "18",
        "leecher": "3"
    },
    {
        "rank": "31",
        "title": "Mayfair Lingerie Special - Issue 38, 2020",
        "link": "magnet:?xt=urn:btih:997D65F86E09E420AD4904D4B6981906B79D1F64&dn=Mayfair+Lingerie+Special+-+Issue+38%2C+2020&tr=udp%3A%2F%2Ftracker.coppersurfer.tk%3A6969%2Fannounce&tr=udp%3A%2F%2F9.rarbg.to%3A2920%2Fannounce&tr=udp%3A%2F%2Ftracker.opentrackr.org%3A1337&tr=udp%3A%2F%2Ftracker.internetwarriors.net%3A1337%2Fannounce&tr=udp%3A%2F%2Ftracker.leechers-paradise.org%3A6969%2Fannounce&tr=udp%3A%2F%2Ftracker.coppersurfer.tk%3A6969%2Fannounce&tr=udp%3A%2F%2Ftracker.pirateparty.gr%3A6969%2Fannounce&tr=udp%3A%2F%2Ftracker.cyberia.is%3A6969%2Fannounce",
        "seeder": "18",
        "leecher": "0"
    },
    {
        "rank": "32",
        "title": "Fansadox Collection 505 - Kayla's Summer Break. Part 1.pdf",
        "link": "magnet:?xt=urn:btih:5F8023765305A7CAC5C55DCADF9FD3CF3BADB6AE&dn=Fansadox+Collection+505+-+Kayla%27s+Summer+Break.+Part+1.pdf&tr=udp%3A%2F%2Ftracker.coppersurfer.tk%3A6969%2Fannounce&tr=udp%3A%2F%2F9.rarbg.to%3A2920%2Fannounce&tr=udp%3A%2F%2Ftracker.opentrackr.org%3A1337&tr=udp%3A%2F%2Ftracker.internetwarriors.net%3A1337%2Fannounce&tr=udp%3A%2F%2Ftracker.leechers-paradise.org%3A6969%2Fannounce&tr=udp%3A%2F%2Ftracker.coppersurfer.tk%3A6969%2Fannounce&tr=udp%3A%2F%2Ftracker.pirateparty.gr%3A6969%2Fannounce&tr=udp%3A%2F%2Ftracker.cyberia.is%3A6969%2Fannounce",
        "seeder": "18",
        "leecher": "1"
    },
    {
        "rank": "33",
        "title": "Fansadox Collection 500 - Fernando - Tourist Trap 2.pd",
        "link": "magnet:?xt=urn:btih:A5F96613547CEA9255FC9636661DCA2F28951B65&dn=Fansadox+Collection+500+-+Fernando+-+Tourist+Trap+2.pd&tr=udp%3A%2F%2Ftracker.coppersurfer.tk%3A6969%2Fannounce&tr=udp%3A%2F%2F9.rarbg.to%3A2920%2Fannounce&tr=udp%3A%2F%2Ftracker.opentrackr.org%3A1337&tr=udp%3A%2F%2Ftracker.internetwarriors.net%3A1337%2Fannounce&tr=udp%3A%2F%2Ftracker.leechers-paradise.org%3A6969%2Fannounce&tr=udp%3A%2F%2Ftracker.coppersurfer.tk%3A6969%2Fannounce&tr=udp%3A%2F%2Ftracker.pirateparty.gr%3A6969%2Fannounce&tr=udp%3A%2F%2Ftracker.cyberia.is%3A6969%2Fannounce",
        "seeder": "18",
        "leecher": "0"
    },
    {
        "rank": "34",
        "title": "Toilet no Hanakosan vs Kukkyou Taimashi",
        "link": "magnet:?xt=urn:btih:1C8F6B6014A7770B049940ED1CDF654DDA937A85&dn=Toilet+no+Hanakosan+vs+Kukkyou+Taimashi&tr=udp%3A%2F%2Ftracker.coppersurfer.tk%3A6969%2Fannounce&tr=udp%3A%2F%2F9.rarbg.to%3A2920%2Fannounce&tr=udp%3A%2F%2Ftracker.opentrackr.org%3A1337&tr=udp%3A%2F%2Ftracker.internetwarriors.net%3A1337%2Fannounce&tr=udp%3A%2F%2Ftracker.leechers-paradise.org%3A6969%2Fannounce&tr=udp%3A%2F%2Ftracker.coppersurfer.tk%3A6969%2Fannounce&tr=udp%3A%2F%2Ftracker.pirateparty.gr%3A6969%2Fannounce&tr=udp%3A%2F%2Ftracker.cyberia.is%3A6969%2Fannounce",
        "seeder": "17",
        "leecher": "2"
    },
    {
        "rank": "35",
        "title": "Shikiyoku Infinite",
        "link": "magnet:?xt=urn:btih:366AE3B8D27EB47F341E77DEDDB139474E877BFD&dn=Shikiyoku+Infinite&tr=udp%3A%2F%2Ftracker.coppersurfer.tk%3A6969%2Fannounce&tr=udp%3A%2F%2F9.rarbg.to%3A2920%2Fannounce&tr=udp%3A%2F%2Ftracker.opentrackr.org%3A1337&tr=udp%3A%2F%2Ftracker.internetwarriors.net%3A1337%2Fannounce&tr=udp%3A%2F%2Ftracker.leechers-paradise.org%3A6969%2Fannounce&tr=udp%3A%2F%2Ftracker.coppersurfer.tk%3A6969%2Fannounce&tr=udp%3A%2F%2Ftracker.pirateparty.gr%3A6969%2Fannounce&tr=udp%3A%2F%2Ftracker.cyberia.is%3A6969%2Fannounce",
        "seeder": "17",
        "leecher": "0"
    },
    {
        "rank": "36",
        "title": "Black Widow",
        "link": "magnet:?xt=urn:btih:13BF570C51B123A037958B58610B64B226546674&dn=Black+Widow&tr=udp%3A%2F%2Ftracker.coppersurfer.tk%3A6969%2Fannounce&tr=udp%3A%2F%2F9.rarbg.to%3A2920%2Fannounce&tr=udp%3A%2F%2Ftracker.opentrackr.org%3A1337&tr=udp%3A%2F%2Ftracker.internetwarriors.net%3A1337%2Fannounce&tr=udp%3A%2F%2Ftracker.leechers-paradise.org%3A6969%2Fannounce&tr=udp%3A%2F%2Ftracker.coppersurfer.tk%3A6969%2Fannounce&tr=udp%3A%2F%2Ftracker.pirateparty.gr%3A6969%2Fannounce&tr=udp%3A%2F%2Ftracker.cyberia.is%3A6969%2Fannounce",
        "seeder": "17",
        "leecher": "6"
    },
    {
        "rank": "37",
        "title": "X-Art - Cara Mell - Sultry Hot Summer",
        "link": "magnet:?xt=urn:btih:FD7AC28EE773A4B26E5D6B948A1F63A13B487119&dn=X-Art+-+Cara+Mell+-+Sultry+Hot+Summer&tr=udp%3A%2F%2Ftracker.coppersurfer.tk%3A6969%2Fannounce&tr=udp%3A%2F%2F9.rarbg.to%3A2920%2Fannounce&tr=udp%3A%2F%2Ftracker.opentrackr.org%3A1337&tr=udp%3A%2F%2Ftracker.internetwarriors.net%3A1337%2Fannounce&tr=udp%3A%2F%2Ftracker.leechers-paradise.org%3A6969%2Fannounce&tr=udp%3A%2F%2Ftracker.coppersurfer.tk%3A6969%2Fannounce&tr=udp%3A%2F%2Ftracker.pirateparty.gr%3A6969%2Fannounce&tr=udp%3A%2F%2Ftracker.cyberia.is%3A6969%2Fannounce",
        "seeder": "16",
        "leecher": "0"
    },
    {
        "rank": "38",
        "title": "Isekai Harem Monogatari",
        "link": "magnet:?xt=urn:btih:339ACD37CCE7587A5BFE872272B9F6606AD21386&dn=Isekai+Harem+Monogatari&tr=udp%3A%2F%2Ftracker.coppersurfer.tk%3A6969%2Fannounce&tr=udp%3A%2F%2F9.rarbg.to%3A2920%2Fannounce&tr=udp%3A%2F%2Ftracker.opentrackr.org%3A1337&tr=udp%3A%2F%2Ftracker.internetwarriors.net%3A1337%2Fannounce&tr=udp%3A%2F%2Ftracker.leechers-paradise.org%3A6969%2Fannounce&tr=udp%3A%2F%2Ftracker.coppersurfer.tk%3A6969%2Fannounce&tr=udp%3A%2F%2Ftracker.pirateparty.gr%3A6969%2Fannounce&tr=udp%3A%2F%2Ftracker.cyberia.is%3A6969%2Fannounce",
        "seeder": "16",
        "leecher": "0"
    },
    {
        "rank": "39",
        "title": "Fansadox Collection 527 - Slasher - TORMENTOR INC.pdf",
        "link": "magnet:?xt=urn:btih:4ED5122A2845C9B5595D9CE56A9768BC8C2D5CC1&dn=Fansadox+Collection+527+-+Slasher+-+TORMENTOR+INC.pdf&tr=udp%3A%2F%2Ftracker.coppersurfer.tk%3A6969%2Fannounce&tr=udp%3A%2F%2F9.rarbg.to%3A2920%2Fannounce&tr=udp%3A%2F%2Ftracker.opentrackr.org%3A1337&tr=udp%3A%2F%2Ftracker.internetwarriors.net%3A1337%2Fannounce&tr=udp%3A%2F%2Ftracker.leechers-paradise.org%3A6969%2Fannounce&tr=udp%3A%2F%2Ftracker.coppersurfer.tk%3A6969%2Fannounce&tr=udp%3A%2F%2Ftracker.pirateparty.gr%3A6969%2Fannounce&tr=udp%3A%2F%2Ftracker.cyberia.is%3A6969%2Fannounce",
        "seeder": "16",
        "leecher": "0"
    },
    {
        "rank": "40",
        "title": "Fansadox Collection 507 - Slasher - Breeders _ The Next Generati",
        "link": "magnet:?xt=urn:btih:684675D5901D22212DC4201295D5D9EF53D4DCA8&dn=Fansadox+Collection+507+-+Slasher+-+Breeders+_+The+Next+Generati&tr=udp%3A%2F%2Ftracker.coppersurfer.tk%3A6969%2Fannounce&tr=udp%3A%2F%2F9.rarbg.to%3A2920%2Fannounce&tr=udp%3A%2F%2Ftracker.opentrackr.org%3A1337&tr=udp%3A%2F%2Ftracker.internetwarriors.net%3A1337%2Fannounce&tr=udp%3A%2F%2Ftracker.leechers-paradise.org%3A6969%2Fannounce&tr=udp%3A%2F%2Ftracker.coppersurfer.tk%3A6969%2Fannounce&tr=udp%3A%2F%2Ftracker.pirateparty.gr%3A6969%2Fannounce&tr=udp%3A%2F%2Ftracker.cyberia.is%3A6969%2Fannounce",
        "seeder": "16",
        "leecher": "0"
    },
    {
        "rank": "41",
        "title": "Fansadox Collection 502 - Hawke - Private dick 3.pdf",
        "link": "magnet:?xt=urn:btih:4A1E22A14A9C8F5B79882A14909B0AE8C7098775&dn=Fansadox+Collection+502+-+Hawke+-+Private+dick+3.pdf&tr=udp%3A%2F%2Ftracker.coppersurfer.tk%3A6969%2Fannounce&tr=udp%3A%2F%2F9.rarbg.to%3A2920%2Fannounce&tr=udp%3A%2F%2Ftracker.opentrackr.org%3A1337&tr=udp%3A%2F%2Ftracker.internetwarriors.net%3A1337%2Fannounce&tr=udp%3A%2F%2Ftracker.leechers-paradise.org%3A6969%2Fannounce&tr=udp%3A%2F%2Ftracker.coppersurfer.tk%3A6969%2Fannounce&tr=udp%3A%2F%2Ftracker.pirateparty.gr%3A6969%2Fannounce&tr=udp%3A%2F%2Ftracker.cyberia.is%3A6969%2Fannounce",
        "seeder": "16",
        "leecher": "0"
    },
    {
        "rank": "42",
        "title": "Fansadox Collection 514 - Instagram Workout - Hawke.pdf",
        "link": "magnet:?xt=urn:btih:40ADBC7642BCA70D5C4F93D548C0014ABE193C1F&dn=Fansadox+Collection+514+-+Instagram+Workout+-+Hawke.pdf&tr=udp%3A%2F%2Ftracker.coppersurfer.tk%3A6969%2Fannounce&tr=udp%3A%2F%2F9.rarbg.to%3A2920%2Fannounce&tr=udp%3A%2F%2Ftracker.opentrackr.org%3A1337&tr=udp%3A%2F%2Ftracker.internetwarriors.net%3A1337%2Fannounce&tr=udp%3A%2F%2Ftracker.leechers-paradise.org%3A6969%2Fannounce&tr=udp%3A%2F%2Ftracker.coppersurfer.tk%3A6969%2Fannounce&tr=udp%3A%2F%2Ftracker.pirateparty.gr%3A6969%2Fannounce&tr=udp%3A%2F%2Ftracker.cyberia.is%3A6969%2Fannounce",
        "seeder": "16",
        "leecher": "0"
    },
    {
        "rank": "43",
        "title": "(Hentai) Bible Black -Series- (mega)",
        "link": "magnet:?xt=urn:btih:DB664250E70BCAFD988A90C2324A26768BC677E8&dn=%28Hentai%29+Bible+Black+-Series-+%28mega%29&tr=udp%3A%2F%2Ftracker.coppersurfer.tk%3A6969%2Fannounce&tr=udp%3A%2F%2F9.rarbg.to%3A2920%2Fannounce&tr=udp%3A%2F%2Ftracker.opentrackr.org%3A1337&tr=udp%3A%2F%2Ftracker.internetwarriors.net%3A1337%2Fannounce&tr=udp%3A%2F%2Ftracker.leechers-paradise.org%3A6969%2Fannounce&tr=udp%3A%2F%2Ftracker.coppersurfer.tk%3A6969%2Fannounce&tr=udp%3A%2F%2Ftracker.pirateparty.gr%3A6969%2Fannounce&tr=udp%3A%2F%2Ftracker.cyberia.is%3A6969%2Fannounce",
        "seeder": "16",
        "leecher": "6"
    },
    {
        "rank": "44",
        "title": "X-Art - Sunday - Aftenoon Solo",
        "link": "magnet:?xt=urn:btih:F79D8E245F3851A5DA4B960D5C3E654B596ECD89&dn=X-Art+-+Sunday+-+Aftenoon+Solo&tr=udp%3A%2F%2Ftracker.coppersurfer.tk%3A6969%2Fannounce&tr=udp%3A%2F%2F9.rarbg.to%3A2920%2Fannounce&tr=udp%3A%2F%2Ftracker.opentrackr.org%3A1337&tr=udp%3A%2F%2Ftracker.internetwarriors.net%3A1337%2Fannounce&tr=udp%3A%2F%2Ftracker.leechers-paradise.org%3A6969%2Fannounce&tr=udp%3A%2F%2Ftracker.coppersurfer.tk%3A6969%2Fannounce&tr=udp%3A%2F%2Ftracker.pirateparty.gr%3A6969%2Fannounce&tr=udp%3A%2F%2Ftracker.cyberia.is%3A6969%2Fannounce",
        "seeder": "15",
        "leecher": "1"
    },
    {
        "rank": "45",
        "title": "SexArt - Mila - Azul Senjila",
        "link": "magnet:?xt=urn:btih:FE5A4A49F8CEE0405073BF8A08847E1977B73F10&dn=SexArt+-+Mila+-+Azul+Senjila&tr=udp%3A%2F%2Ftracker.coppersurfer.tk%3A6969%2Fannounce&tr=udp%3A%2F%2F9.rarbg.to%3A2920%2Fannounce&tr=udp%3A%2F%2Ftracker.opentrackr.org%3A1337&tr=udp%3A%2F%2Ftracker.internetwarriors.net%3A1337%2Fannounce&tr=udp%3A%2F%2Ftracker.leechers-paradise.org%3A6969%2Fannounce&tr=udp%3A%2F%2Ftracker.coppersurfer.tk%3A6969%2Fannounce&tr=udp%3A%2F%2Ftracker.pirateparty.gr%3A6969%2Fannounce&tr=udp%3A%2F%2Ftracker.cyberia.is%3A6969%2Fannounce",
        "seeder": "15",
        "leecher": "1"
    },
    {
        "rank": "46",
        "title": "Hustler's Barely Legal USA 82 Magazines [2007 - 2016] True PDF",
        "link": "magnet:?xt=urn:btih:ECDABBED4A20AB678E826CC04FE3CEE86BBFCA42&dn=Hustler%27s+Barely+Legal+USA+82+Magazines+%5B2007+-+2016%5D+True+PDF&tr=udp%3A%2F%2Ftracker.coppersurfer.tk%3A6969%2Fannounce&tr=udp%3A%2F%2F9.rarbg.to%3A2920%2Fannounce&tr=udp%3A%2F%2Ftracker.opentrackr.org%3A1337&tr=udp%3A%2F%2Ftracker.internetwarriors.net%3A1337%2Fannounce&tr=udp%3A%2F%2Ftracker.leechers-paradise.org%3A6969%2Fannounce&tr=udp%3A%2F%2Ftracker.coppersurfer.tk%3A6969%2Fannounce&tr=udp%3A%2F%2Ftracker.pirateparty.gr%3A6969%2Fannounce&tr=udp%3A%2F%2Ftracker.cyberia.is%3A6969%2Fannounce",
        "seeder": "15",
        "leecher": "7"
    },
    {
        "rank": "47",
        "title": "Incest (Real Amateur) - Mom & Son Home Movie......FFF",
        "link": "magnet:?xt=urn:btih:72D8BBDB374708182DA9EE8719D7818EDD4BAECB&dn=Incest+%28Real+Amateur%29+-+Mom+%26+Son+Home+Movie......FFF&tr=udp%3A%2F%2Ftracker.coppersurfer.tk%3A6969%2Fannounce&tr=udp%3A%2F%2F9.rarbg.to%3A2920%2Fannounce&tr=udp%3A%2F%2Ftracker.opentrackr.org%3A1337&tr=udp%3A%2F%2Ftracker.internetwarriors.net%3A1337%2Fannounce&tr=udp%3A%2F%2Ftracker.leechers-paradise.org%3A6969%2Fannounce&tr=udp%3A%2F%2Ftracker.coppersurfer.tk%3A6969%2Fannounce&tr=udp%3A%2F%2Ftracker.pirateparty.gr%3A6969%2Fannounce&tr=udp%3A%2F%2Ftracker.cyberia.is%3A6969%2Fannounce",
        "seeder": "15",
        "leecher": "3"
    },
    {
        "rank": "48",
        "title": "Penthouse Letters - February 2021",
        "link": "magnet:?xt=urn:btih:C48D2F45927ABDF59B19D0DC777823CACF763CBE&dn=Penthouse+Letters+-+February+2021&tr=udp%3A%2F%2Ftracker.coppersurfer.tk%3A6969%2Fannounce&tr=udp%3A%2F%2F9.rarbg.to%3A2920%2Fannounce&tr=udp%3A%2F%2Ftracker.opentrackr.org%3A1337&tr=udp%3A%2F%2Ftracker.internetwarriors.net%3A1337%2Fannounce&tr=udp%3A%2F%2Ftracker.leechers-paradise.org%3A6969%2Fannounce&tr=udp%3A%2F%2Ftracker.coppersurfer.tk%3A6969%2Fannounce&tr=udp%3A%2F%2Ftracker.pirateparty.gr%3A6969%2Fannounce&tr=udp%3A%2F%2Ftracker.cyberia.is%3A6969%2Fannounce",
        "seeder": "14",
        "leecher": "1"
    },
    {
        "rank": "49",
        "title": "Zton Jingai Animation A Beautiful Greed Nulu Nulu",
        "link": "magnet:?xt=urn:btih:7BD3410129C322BE57B21885F514D182BAB74958&dn=Zton+Jingai+Animation+A+Beautiful+Greed+Nulu+Nulu&tr=udp%3A%2F%2Ftracker.coppersurfer.tk%3A6969%2Fannounce&tr=udp%3A%2F%2F9.rarbg.to%3A2920%2Fannounce&tr=udp%3A%2F%2Ftracker.opentrackr.org%3A1337&tr=udp%3A%2F%2Ftracker.internetwarriors.net%3A1337%2Fannounce&tr=udp%3A%2F%2Ftracker.leechers-paradise.org%3A6969%2Fannounce&tr=udp%3A%2F%2Ftracker.coppersurfer.tk%3A6969%2Fannounce&tr=udp%3A%2F%2Ftracker.pirateparty.gr%3A6969%2Fannounce&tr=udp%3A%2F%2Ftracker.cyberia.is%3A6969%2Fannounce",
        "seeder": "14",
        "leecher": "1"
    },
    {
        "rank": "50",
        "title": "20 Adult Magazines Collection Pack-1",
        "link": "magnet:?xt=urn:btih:4E6DED84536D0F463853F0E41978606BBDB4BD42&dn=20+Adult+Magazines+Collection+Pack-1&tr=udp%3A%2F%2Ftracker.coppersurfer.tk%3A6969%2Fannounce&tr=udp%3A%2F%2F9.rarbg.to%3A2920%2Fannounce&tr=udp%3A%2F%2Ftracker.opentrackr.org%3A1337&tr=udp%3A%2F%2Ftracker.internetwarriors.net%3A1337%2Fannounce&tr=udp%3A%2F%2Ftracker.leechers-paradise.org%3A6969%2Fannounce&tr=udp%3A%2F%2Ftracker.coppersurfer.tk%3A6969%2Fannounce&tr=udp%3A%2F%2Ftracker.pirateparty.gr%3A6969%2Fannounce&tr=udp%3A%2F%2Ftracker.cyberia.is%3A6969%2Fannounce",
        "seeder": "14",
        "leecher": "3"
    },
    {
        "rank": "51",
        "title": "Fansadox 467-473-480-481-482-483",
        "link": "magnet:?xt=urn:btih:29E35359E6E3BE123F21DC21BB5F28A567EAC6F8&dn=Fansadox+467-473-480-481-482-483&tr=udp%3A%2F%2Ftracker.coppersurfer.tk%3A6969%2Fannounce&tr=udp%3A%2F%2F9.rarbg.to%3A2920%2Fannounce&tr=udp%3A%2F%2Ftracker.opentrackr.org%3A1337&tr=udp%3A%2F%2Ftracker.internetwarriors.net%3A1337%2Fannounce&tr=udp%3A%2F%2Ftracker.leechers-paradise.org%3A6969%2Fannounce&tr=udp%3A%2F%2Ftracker.coppersurfer.tk%3A6969%2Fannounce&tr=udp%3A%2F%2Ftracker.pirateparty.gr%3A6969%2Fannounce&tr=udp%3A%2F%2Ftracker.cyberia.is%3A6969%2Fannounce",
        "seeder": "14",
        "leecher": "0"
    },
    {
        "rank": "52",
        "title": "Fansadox Collection 516 - Classmates Claire's Tale. Part 2.pdf",
        "link": "magnet:?xt=urn:btih:1C7A85509A24BDA65D5FE5EAA9773AE726A60DE2&dn=Fansadox+Collection+516+-+Classmates+Claire%27s+Tale.+Part+2.pdf&tr=udp%3A%2F%2Ftracker.coppersurfer.tk%3A6969%2Fannounce&tr=udp%3A%2F%2F9.rarbg.to%3A2920%2Fannounce&tr=udp%3A%2F%2Ftracker.opentrackr.org%3A1337&tr=udp%3A%2F%2Ftracker.internetwarriors.net%3A1337%2Fannounce&tr=udp%3A%2F%2Ftracker.leechers-paradise.org%3A6969%2Fannounce&tr=udp%3A%2F%2Ftracker.coppersurfer.tk%3A6969%2Fannounce&tr=udp%3A%2F%2Ftracker.pirateparty.gr%3A6969%2Fannounce&tr=udp%3A%2F%2Ftracker.cyberia.is%3A6969%2Fannounce",
        "seeder": "14",
        "leecher": "1"
    },
    {
        "rank": "53",
        "title": "20 Adult Magazines Collection Pack-9",
        "link": "magnet:?xt=urn:btih:5A811AD15CAA741D80D6DA3B70472325B6A66364&dn=20+Adult+Magazines+Collection+Pack-9&tr=udp%3A%2F%2Ftracker.coppersurfer.tk%3A6969%2Fannounce&tr=udp%3A%2F%2F9.rarbg.to%3A2920%2Fannounce&tr=udp%3A%2F%2Ftracker.opentrackr.org%3A1337&tr=udp%3A%2F%2Ftracker.internetwarriors.net%3A1337%2Fannounce&tr=udp%3A%2F%2Ftracker.leechers-paradise.org%3A6969%2Fannounce&tr=udp%3A%2F%2Ftracker.coppersurfer.tk%3A6969%2Fannounce&tr=udp%3A%2F%2Ftracker.pirateparty.gr%3A6969%2Fannounce&tr=udp%3A%2F%2Ftracker.cyberia.is%3A6969%2Fannounce",
        "seeder": "13",
        "leecher": "4"
    },
    {
        "rank": "54",
        "title": "Fansadox 433-447-450-452-457",
        "link": "magnet:?xt=urn:btih:F4DB446DFDDBB0FB116286ACA864355B9B396F70&dn=Fansadox+433-447-450-452-457&tr=udp%3A%2F%2Ftracker.coppersurfer.tk%3A6969%2Fannounce&tr=udp%3A%2F%2F9.rarbg.to%3A2920%2Fannounce&tr=udp%3A%2F%2Ftracker.opentrackr.org%3A1337&tr=udp%3A%2F%2Ftracker.internetwarriors.net%3A1337%2Fannounce&tr=udp%3A%2F%2Ftracker.leechers-paradise.org%3A6969%2Fannounce&tr=udp%3A%2F%2Ftracker.coppersurfer.tk%3A6969%2Fannounce&tr=udp%3A%2F%2Ftracker.pirateparty.gr%3A6969%2Fannounce&tr=udp%3A%2F%2Ftracker.cyberia.is%3A6969%2Fannounce",
        "seeder": "13",
        "leecher": "0"
    },
    {
        "rank": "55",
        "title": "Adult Magazines Collection - May 18 2020",
        "link": "magnet:?xt=urn:btih:92F2AFE11653FFD94F0F7FC4F26DCA1A7831DF02&dn=Adult+Magazines+Collection+-+May+18+2020&tr=udp%3A%2F%2Ftracker.coppersurfer.tk%3A6969%2Fannounce&tr=udp%3A%2F%2F9.rarbg.to%3A2920%2Fannounce&tr=udp%3A%2F%2Ftracker.opentrackr.org%3A1337&tr=udp%3A%2F%2Ftracker.internetwarriors.net%3A1337%2Fannounce&tr=udp%3A%2F%2Ftracker.leechers-paradise.org%3A6969%2Fannounce&tr=udp%3A%2F%2Ftracker.coppersurfer.tk%3A6969%2Fannounce&tr=udp%3A%2F%2Ftracker.pirateparty.gr%3A6969%2Fannounce&tr=udp%3A%2F%2Ftracker.cyberia.is%3A6969%2Fannounce",
        "seeder": "13",
        "leecher": "5"
    },
    {
        "rank": "56",
        "title": "Fansadox Collection 477 - Librarian 3 Stacked and Bound",
        "link": "magnet:?xt=urn:btih:74079FB15F8AC527CBE5E9DE07D7B42A1A436D1A&dn=Fansadox+Collection+477+-+Librarian+3+Stacked+and+Bound&tr=udp%3A%2F%2Ftracker.coppersurfer.tk%3A6969%2Fannounce&tr=udp%3A%2F%2F9.rarbg.to%3A2920%2Fannounce&tr=udp%3A%2F%2Ftracker.opentrackr.org%3A1337&tr=udp%3A%2F%2Ftracker.internetwarriors.net%3A1337%2Fannounce&tr=udp%3A%2F%2Ftracker.leechers-paradise.org%3A6969%2Fannounce&tr=udp%3A%2F%2Ftracker.coppersurfer.tk%3A6969%2Fannounce&tr=udp%3A%2F%2Ftracker.pirateparty.gr%3A6969%2Fannounce&tr=udp%3A%2F%2Ftracker.cyberia.is%3A6969%2Fannounce",
        "seeder": "13",
        "leecher": "0"
    },
    {
        "rank": "57",
        "title": "Fansadox Collection 474 - Tourist Trap - Fernando.pdf",
        "link": "magnet:?xt=urn:btih:3E6B16A99C1969D77E3653FDC143A5480A3C5761&dn=Fansadox+Collection+474+-+Tourist+Trap+-+Fernando.pdf&tr=udp%3A%2F%2Ftracker.coppersurfer.tk%3A6969%2Fannounce&tr=udp%3A%2F%2F9.rarbg.to%3A2920%2Fannounce&tr=udp%3A%2F%2Ftracker.opentrackr.org%3A1337&tr=udp%3A%2F%2Ftracker.internetwarriors.net%3A1337%2Fannounce&tr=udp%3A%2F%2Ftracker.leechers-paradise.org%3A6969%2Fannounce&tr=udp%3A%2F%2Ftracker.coppersurfer.tk%3A6969%2Fannounce&tr=udp%3A%2F%2Ftracker.pirateparty.gr%3A6969%2Fannounce&tr=udp%3A%2F%2Ftracker.cyberia.is%3A6969%2Fannounce",
        "seeder": "13",
        "leecher": "0"
    },
    {
        "rank": "58",
        "title": "Kohakuiro no Hunter The Animation",
        "link": "magnet:?xt=urn:btih:E170F59934E62EB62C50AEB036DBC3C33B18805E&dn=Kohakuiro+no+Hunter+The+Animation&tr=udp%3A%2F%2Ftracker.coppersurfer.tk%3A6969%2Fannounce&tr=udp%3A%2F%2F9.rarbg.to%3A2920%2Fannounce&tr=udp%3A%2F%2Ftracker.opentrackr.org%3A1337&tr=udp%3A%2F%2Ftracker.internetwarriors.net%3A1337%2Fannounce&tr=udp%3A%2F%2Ftracker.leechers-paradise.org%3A6969%2Fannounce&tr=udp%3A%2F%2Ftracker.coppersurfer.tk%3A6969%2Fannounce&tr=udp%3A%2F%2Ftracker.pirateparty.gr%3A6969%2Fannounce&tr=udp%3A%2F%2Ftracker.cyberia.is%3A6969%2Fannounce",
        "seeder": "12",
        "leecher": "0"
    },
    {
        "rank": "59",
        "title": "Fansadox Collection - 498 - He Knows You Are Alone - Slasher.pdf",
        "link": "magnet:?xt=urn:btih:C57A9601EDAF1E65246591C5CE7A654F4DE7ADFA&dn=Fansadox+Collection+-+498+-+He+Knows+You+Are+Alone+-+Slasher.pdf&tr=udp%3A%2F%2Ftracker.coppersurfer.tk%3A6969%2Fannounce&tr=udp%3A%2F%2F9.rarbg.to%3A2920%2Fannounce&tr=udp%3A%2F%2Ftracker.opentrackr.org%3A1337&tr=udp%3A%2F%2Ftracker.internetwarriors.net%3A1337%2Fannounce&tr=udp%3A%2F%2Ftracker.leechers-paradise.org%3A6969%2Fannounce&tr=udp%3A%2F%2Ftracker.coppersurfer.tk%3A6969%2Fannounce&tr=udp%3A%2F%2Ftracker.pirateparty.gr%3A6969%2Fannounce&tr=udp%3A%2F%2Ftracker.cyberia.is%3A6969%2Fannounce",
        "seeder": "12",
        "leecher": "0"
    },
    {
        "rank": "60",
        "title": "Fansadox Collection 464 - Classmates 1 - Wet Dream - Kitty Hand",
        "link": "magnet:?xt=urn:btih:84CFB39EDDF55C7FBD6760DC6F91E56F75E5D6E4&dn=Fansadox+Collection+464+-+Classmates+1+-+Wet+Dream+-+Kitty+Hand&tr=udp%3A%2F%2Ftracker.coppersurfer.tk%3A6969%2Fannounce&tr=udp%3A%2F%2F9.rarbg.to%3A2920%2Fannounce&tr=udp%3A%2F%2Ftracker.opentrackr.org%3A1337&tr=udp%3A%2F%2Ftracker.internetwarriors.net%3A1337%2Fannounce&tr=udp%3A%2F%2Ftracker.leechers-paradise.org%3A6969%2Fannounce&tr=udp%3A%2F%2Ftracker.coppersurfer.tk%3A6969%2Fannounce&tr=udp%3A%2F%2Ftracker.pirateparty.gr%3A6969%2Fannounce&tr=udp%3A%2F%2Ftracker.cyberia.is%3A6969%2Fannounce",
        "seeder": "12",
        "leecher": "0"
    },
    {
        "rank": "61",
        "title": "Hegre-Art.16.07.26.Tantric.Edging.Massage.XXX.1080p.MP4-KTR[N1C]",
        "link": "magnet:?xt=urn:btih:27E69E7A16F239F38E16D8BB1C3528A4082A11AD&dn=Hegre-Art.16.07.26.Tantric.Edging.Massage.XXX.1080p.MP4-KTR%5BN1C%5D&tr=udp%3A%2F%2Ftracker.coppersurfer.tk%3A6969%2Fannounce&tr=udp%3A%2F%2F9.rarbg.to%3A2920%2Fannounce&tr=udp%3A%2F%2Ftracker.opentrackr.org%3A1337&tr=udp%3A%2F%2Ftracker.internetwarriors.net%3A1337%2Fannounce&tr=udp%3A%2F%2Ftracker.leechers-paradise.org%3A6969%2Fannounce&tr=udp%3A%2F%2Ftracker.coppersurfer.tk%3A6969%2Fannounce&tr=udp%3A%2F%2Ftracker.pirateparty.gr%3A6969%2Fannounce&tr=udp%3A%2F%2Ftracker.cyberia.is%3A6969%2Fannounce",
        "seeder": "12",
        "leecher": "0"
    },
    {
        "rank": "62",
        "title": "Giannaxxx.E09.Digital.Desire.XXX.WMV-TBP",
        "link": "magnet:?xt=urn:btih:B97F3341F78B1CEB849C273E0D89B8BB7D7A9217&dn=Giannaxxx.E09.Digital.Desire.XXX.WMV-TBP&tr=udp%3A%2F%2Ftracker.coppersurfer.tk%3A6969%2Fannounce&tr=udp%3A%2F%2F9.rarbg.to%3A2920%2Fannounce&tr=udp%3A%2F%2Ftracker.opentrackr.org%3A1337&tr=udp%3A%2F%2Ftracker.internetwarriors.net%3A1337%2Fannounce&tr=udp%3A%2F%2Ftracker.leechers-paradise.org%3A6969%2Fannounce&tr=udp%3A%2F%2Ftracker.coppersurfer.tk%3A6969%2Fannounce&tr=udp%3A%2F%2Ftracker.pirateparty.gr%3A6969%2Fannounce&tr=udp%3A%2F%2Ftracker.cyberia.is%3A6969%2Fannounce",
        "seeder": "12",
        "leecher": "18"
    },
    {
        "rank": "63",
        "title": "Slim Girl With big Clit verses horse with huge cock.....FFF",
        "link": "magnet:?xt=urn:btih:24E50F6D1C4F0D1E5DEE5EF28AF4CF4216B7D6B1&dn=Slim+Girl+With+big+Clit+verses+horse+with+huge+cock.....FFF&tr=udp%3A%2F%2Ftracker.coppersurfer.tk%3A6969%2Fannounce&tr=udp%3A%2F%2F9.rarbg.to%3A2920%2Fannounce&tr=udp%3A%2F%2Ftracker.opentrackr.org%3A1337&tr=udp%3A%2F%2Ftracker.internetwarriors.net%3A1337%2Fannounce&tr=udp%3A%2F%2Ftracker.leechers-paradise.org%3A6969%2Fannounce&tr=udp%3A%2F%2Ftracker.coppersurfer.tk%3A6969%2Fannounce&tr=udp%3A%2F%2Ftracker.pirateparty.gr%3A6969%2Fannounce&tr=udp%3A%2F%2Ftracker.cyberia.is%3A6969%2Fannounce",
        "seeder": "12",
        "leecher": "4"
    },
    {
        "rank": "64",
        "title": "Sekufure Osananajimi Shojo",
        "link": "magnet:?xt=urn:btih:5510106AC33CCBA2393FDF882EECF91AFDB03D60&dn=Sekufure+Osananajimi+Shojo&tr=udp%3A%2F%2Ftracker.coppersurfer.tk%3A6969%2Fannounce&tr=udp%3A%2F%2F9.rarbg.to%3A2920%2Fannounce&tr=udp%3A%2F%2Ftracker.opentrackr.org%3A1337&tr=udp%3A%2F%2Ftracker.internetwarriors.net%3A1337%2Fannounce&tr=udp%3A%2F%2Ftracker.leechers-paradise.org%3A6969%2Fannounce&tr=udp%3A%2F%2Ftracker.coppersurfer.tk%3A6969%2Fannounce&tr=udp%3A%2F%2Ftracker.pirateparty.gr%3A6969%2Fannounce&tr=udp%3A%2F%2Ftracker.cyberia.is%3A6969%2Fannounce",
        "seeder": "11",
        "leecher": "1"
    },
    {
        "rank": "65",
        "title": "Saimin Seishidou",
        "link": "magnet:?xt=urn:btih:C32D97F45949E5458685C9EF088BE9A7CB06F3C7&dn=Saimin+Seishidou&tr=udp%3A%2F%2Ftracker.coppersurfer.tk%3A6969%2Fannounce&tr=udp%3A%2F%2F9.rarbg.to%3A2920%2Fannounce&tr=udp%3A%2F%2Ftracker.opentrackr.org%3A1337&tr=udp%3A%2F%2Ftracker.internetwarriors.net%3A1337%2Fannounce&tr=udp%3A%2F%2Ftracker.leechers-paradise.org%3A6969%2Fannounce&tr=udp%3A%2F%2Ftracker.coppersurfer.tk%3A6969%2Fannounce&tr=udp%3A%2F%2Ftracker.pirateparty.gr%3A6969%2Fannounce&tr=udp%3A%2F%2Ftracker.cyberia.is%3A6969%2Fannounce",
        "seeder": "11",
        "leecher": "3"
    },
    {
        "rank": "66",
        "title": "Ijirare Fukushuu Saimin",
        "link": "magnet:?xt=urn:btih:FD32A8506CB8396E0AACD4D576E6B206344D3F65&dn=Ijirare+Fukushuu+Saimin&tr=udp%3A%2F%2Ftracker.coppersurfer.tk%3A6969%2Fannounce&tr=udp%3A%2F%2F9.rarbg.to%3A2920%2Fannounce&tr=udp%3A%2F%2Ftracker.opentrackr.org%3A1337&tr=udp%3A%2F%2Ftracker.internetwarriors.net%3A1337%2Fannounce&tr=udp%3A%2F%2Ftracker.leechers-paradise.org%3A6969%2Fannounce&tr=udp%3A%2F%2Ftracker.coppersurfer.tk%3A6969%2Fannounce&tr=udp%3A%2F%2Ftracker.pirateparty.gr%3A6969%2Fannounce&tr=udp%3A%2F%2Ftracker.cyberia.is%3A6969%2Fannounce",
        "seeder": "11",
        "leecher": "0"
    },
    {
        "rank": "67",
        "title": "TushyRaw - Eliza Ibarra (Temptation) NEW 18 November 2020",
        "link": "magnet:?xt=urn:btih:806C3C527ED2C72D304A49A89B1834DD96E9174F&dn=TushyRaw+-+Eliza+Ibarra+%28Temptation%29+NEW+18+November+2020&tr=udp%3A%2F%2Ftracker.coppersurfer.tk%3A6969%2Fannounce&tr=udp%3A%2F%2F9.rarbg.to%3A2920%2Fannounce&tr=udp%3A%2F%2Ftracker.opentrackr.org%3A1337&tr=udp%3A%2F%2Ftracker.internetwarriors.net%3A1337%2Fannounce&tr=udp%3A%2F%2Ftracker.leechers-paradise.org%3A6969%2Fannounce&tr=udp%3A%2F%2Ftracker.coppersurfer.tk%3A6969%2Fannounce&tr=udp%3A%2F%2Ftracker.pirateparty.gr%3A6969%2Fannounce&tr=udp%3A%2F%2Ftracker.cyberia.is%3A6969%2Fannounce",
        "seeder": "11",
        "leecher": "1"
    },
    {
        "rank": "68",
        "title": "BrazzersExxtra - Halle Hayes (Roommates With Fuck Buddy Benefits",
        "link": "magnet:?xt=urn:btih:670A8A8D9D3076CDD153353B7A55B6B79CCB30F2&dn=BrazzersExxtra+-+Halle+Hayes+%28Roommates+With+Fuck+Buddy+Benefits&tr=udp%3A%2F%2Ftracker.coppersurfer.tk%3A6969%2Fannounce&tr=udp%3A%2F%2F9.rarbg.to%3A2920%2Fannounce&tr=udp%3A%2F%2Ftracker.opentrackr.org%3A1337&tr=udp%3A%2F%2Ftracker.internetwarriors.net%3A1337%2Fannounce&tr=udp%3A%2F%2Ftracker.leechers-paradise.org%3A6969%2Fannounce&tr=udp%3A%2F%2Ftracker.coppersurfer.tk%3A6969%2Fannounce&tr=udp%3A%2F%2Ftracker.pirateparty.gr%3A6969%2Fannounce&tr=udp%3A%2F%2Ftracker.cyberia.is%3A6969%2Fannounce",
        "seeder": "11",
        "leecher": "1"
    },
    {
        "rank": "69",
        "title": "Noble & Knightess Duos Vulgarific Exhibition",
        "link": "magnet:?xt=urn:btih:E00D87FC250D30129F2A36D3BF9AF0CCA0FEA972&dn=Noble+%26amp%3B+Knightess+Duos+Vulgarific+Exhibition&tr=udp%3A%2F%2Ftracker.coppersurfer.tk%3A6969%2Fannounce&tr=udp%3A%2F%2F9.rarbg.to%3A2920%2Fannounce&tr=udp%3A%2F%2Ftracker.opentrackr.org%3A1337&tr=udp%3A%2F%2Ftracker.internetwarriors.net%3A1337%2Fannounce&tr=udp%3A%2F%2Ftracker.leechers-paradise.org%3A6969%2Fannounce&tr=udp%3A%2F%2Ftracker.coppersurfer.tk%3A6969%2Fannounce&tr=udp%3A%2F%2Ftracker.pirateparty.gr%3A6969%2Fannounce&tr=udp%3A%2F%2Ftracker.cyberia.is%3A6969%2Fannounce",
        "seeder": "11",
        "leecher": "0"
    },
    {
        "rank": "70",
        "title": "Taimanin Asagi Toraware no Niku Ningyou",
        "link": "magnet:?xt=urn:btih:3B4E2A47C5EAD06798785F5721A3FCFE08986793&dn=Taimanin+Asagi+Toraware+no+Niku+Ningyou&tr=udp%3A%2F%2Ftracker.coppersurfer.tk%3A6969%2Fannounce&tr=udp%3A%2F%2F9.rarbg.to%3A2920%2Fannounce&tr=udp%3A%2F%2Ftracker.opentrackr.org%3A1337&tr=udp%3A%2F%2Ftracker.internetwarriors.net%3A1337%2Fannounce&tr=udp%3A%2F%2Ftracker.leechers-paradise.org%3A6969%2Fannounce&tr=udp%3A%2F%2Ftracker.coppersurfer.tk%3A6969%2Fannounce&tr=udp%3A%2F%2Ftracker.pirateparty.gr%3A6969%2Fannounce&tr=udp%3A%2F%2Ftracker.cyberia.is%3A6969%2Fannounce",
        "seeder": "11",
        "leecher": "2"
    },
    {
        "rank": "71",
        "title": "Nama Lo Re Nama Kemono The Animation",
        "link": "magnet:?xt=urn:btih:21AC033D6100B680E1309FC4B19C715DBE96DC0F&dn=Nama+Lo+Re+Nama+Kemono+The+Animation&tr=udp%3A%2F%2Ftracker.coppersurfer.tk%3A6969%2Fannounce&tr=udp%3A%2F%2F9.rarbg.to%3A2920%2Fannounce&tr=udp%3A%2F%2Ftracker.opentrackr.org%3A1337&tr=udp%3A%2F%2Ftracker.internetwarriors.net%3A1337%2Fannounce&tr=udp%3A%2F%2Ftracker.leechers-paradise.org%3A6969%2Fannounce&tr=udp%3A%2F%2Ftracker.coppersurfer.tk%3A6969%2Fannounce&tr=udp%3A%2F%2Ftracker.pirateparty.gr%3A6969%2Fannounce&tr=udp%3A%2F%2Ftracker.cyberia.is%3A6969%2Fannounce",
        "seeder": "11",
        "leecher": "0"
    },
    {
        "rank": "72",
        "title": "Dancing Bear Cumshots Compilation",
        "link": "magnet:?xt=urn:btih:4E4F0678FDCC0531AE32BB06BD5F3B173C1AC4DE&dn=Dancing+Bear+Cumshots+Compilation&tr=udp%3A%2F%2Ftracker.coppersurfer.tk%3A6969%2Fannounce&tr=udp%3A%2F%2F9.rarbg.to%3A2920%2Fannounce&tr=udp%3A%2F%2Ftracker.opentrackr.org%3A1337&tr=udp%3A%2F%2Ftracker.internetwarriors.net%3A1337%2Fannounce&tr=udp%3A%2F%2Ftracker.leechers-paradise.org%3A6969%2Fannounce&tr=udp%3A%2F%2Ftracker.coppersurfer.tk%3A6969%2Fannounce&tr=udp%3A%2F%2Ftracker.pirateparty.gr%3A6969%2Fannounce&tr=udp%3A%2F%2Ftracker.cyberia.is%3A6969%2Fannounce",
        "seeder": "11",
        "leecher": "2"
    },
    {
        "rank": "73",
        "title": "X-Art - Milla - Virtual Girlfriend",
        "link": "magnet:?xt=urn:btih:EFC2147127741119157CAFE06C4636506C0B6C7E&dn=X-Art+-+Milla+-+Virtual+Girlfriend&tr=udp%3A%2F%2Ftracker.coppersurfer.tk%3A6969%2Fannounce&tr=udp%3A%2F%2F9.rarbg.to%3A2920%2Fannounce&tr=udp%3A%2F%2Ftracker.opentrackr.org%3A1337&tr=udp%3A%2F%2Ftracker.internetwarriors.net%3A1337%2Fannounce&tr=udp%3A%2F%2Ftracker.leechers-paradise.org%3A6969%2Fannounce&tr=udp%3A%2F%2Ftracker.coppersurfer.tk%3A6969%2Fannounce&tr=udp%3A%2F%2Ftracker.pirateparty.gr%3A6969%2Fannounce&tr=udp%3A%2F%2Ftracker.cyberia.is%3A6969%2Fannounce",
        "seeder": "10",
        "leecher": "0"
    },
    {
        "rank": "74",
        "title": "Ane wa Yanmama Junyuuchuu",
        "link": "magnet:?xt=urn:btih:9E906E837EC3C63179C8EFE5B75752CF04421D6E&dn=Ane+wa+Yanmama+Junyuuchuu&tr=udp%3A%2F%2Ftracker.coppersurfer.tk%3A6969%2Fannounce&tr=udp%3A%2F%2F9.rarbg.to%3A2920%2Fannounce&tr=udp%3A%2F%2Ftracker.opentrackr.org%3A1337&tr=udp%3A%2F%2Ftracker.internetwarriors.net%3A1337%2Fannounce&tr=udp%3A%2F%2Ftracker.leechers-paradise.org%3A6969%2Fannounce&tr=udp%3A%2F%2Ftracker.coppersurfer.tk%3A6969%2Fannounce&tr=udp%3A%2F%2Ftracker.pirateparty.gr%3A6969%2Fannounce&tr=udp%3A%2F%2Ftracker.cyberia.is%3A6969%2Fannounce",
        "seeder": "10",
        "leecher": "3"
    },
    {
        "rank": "75",
        "title": "Moms Friend Caught Me Stroking Myself",
        "link": "magnet:?xt=urn:btih:81355957735A6495EA811779FFF3D26721CC342A&dn=Moms+Friend+Caught+Me+Stroking+Myself&tr=udp%3A%2F%2Ftracker.coppersurfer.tk%3A6969%2Fannounce&tr=udp%3A%2F%2F9.rarbg.to%3A2920%2Fannounce&tr=udp%3A%2F%2Ftracker.opentrackr.org%3A1337&tr=udp%3A%2F%2Ftracker.internetwarriors.net%3A1337%2Fannounce&tr=udp%3A%2F%2Ftracker.leechers-paradise.org%3A6969%2Fannounce&tr=udp%3A%2F%2Ftracker.coppersurfer.tk%3A6969%2Fannounce&tr=udp%3A%2F%2Ftracker.pirateparty.gr%3A6969%2Fannounce&tr=udp%3A%2F%2Ftracker.cyberia.is%3A6969%2Fannounce",
        "seeder": "10",
        "leecher": "1"
    },
    {
        "rank": "76",
        "title": "Fansadox Collection 497 - Cristmas Story.pdf",
        "link": "magnet:?xt=urn:btih:2F31C498BFD7E3FF22484E32F8E0BB3B174EDAC6&dn=Fansadox+Collection+497+-+Cristmas+Story.pdf&tr=udp%3A%2F%2Ftracker.coppersurfer.tk%3A6969%2Fannounce&tr=udp%3A%2F%2F9.rarbg.to%3A2920%2Fannounce&tr=udp%3A%2F%2Ftracker.opentrackr.org%3A1337&tr=udp%3A%2F%2Ftracker.internetwarriors.net%3A1337%2Fannounce&tr=udp%3A%2F%2Ftracker.leechers-paradise.org%3A6969%2Fannounce&tr=udp%3A%2F%2Ftracker.coppersurfer.tk%3A6969%2Fannounce&tr=udp%3A%2F%2Ftracker.pirateparty.gr%3A6969%2Fannounce&tr=udp%3A%2F%2Ftracker.cyberia.is%3A6969%2Fannounce",
        "seeder": "10",
        "leecher": "1"
    },
    {
        "rank": "77",
        "title": "Fansadox Collection 526 - Erenisch - THE WITH FATE.pdf",
        "link": "magnet:?xt=urn:btih:82B78366D4C550B5EC85008DA37BD52D781B2A63&dn=Fansadox+Collection+526+-+Erenisch+-+THE+WITH+FATE.pdf&tr=udp%3A%2F%2Ftracker.coppersurfer.tk%3A6969%2Fannounce&tr=udp%3A%2F%2F9.rarbg.to%3A2920%2Fannounce&tr=udp%3A%2F%2Ftracker.opentrackr.org%3A1337&tr=udp%3A%2F%2Ftracker.internetwarriors.net%3A1337%2Fannounce&tr=udp%3A%2F%2Ftracker.leechers-paradise.org%3A6969%2Fannounce&tr=udp%3A%2F%2Ftracker.coppersurfer.tk%3A6969%2Fannounce&tr=udp%3A%2F%2Ftracker.pirateparty.gr%3A6969%2Fannounce&tr=udp%3A%2F%2Ftracker.cyberia.is%3A6969%2Fannounce",
        "seeder": "10",
        "leecher": "1"
    },
    {
        "rank": "78",
        "title": "Fansadox Collection 469 - My Sons Debt - Dejan.pdf",
        "link": "magnet:?xt=urn:btih:7655217DD0E738E2E795DEA94A527E5DD268955E&dn=Fansadox+Collection+469+-+My+Sons+Debt+-+Dejan.pdf&tr=udp%3A%2F%2Ftracker.coppersurfer.tk%3A6969%2Fannounce&tr=udp%3A%2F%2F9.rarbg.to%3A2920%2Fannounce&tr=udp%3A%2F%2Ftracker.opentrackr.org%3A1337&tr=udp%3A%2F%2Ftracker.internetwarriors.net%3A1337%2Fannounce&tr=udp%3A%2F%2Ftracker.leechers-paradise.org%3A6969%2Fannounce&tr=udp%3A%2F%2Ftracker.coppersurfer.tk%3A6969%2Fannounce&tr=udp%3A%2F%2Ftracker.pirateparty.gr%3A6969%2Fannounce&tr=udp%3A%2F%2Ftracker.cyberia.is%3A6969%2Fannounce",
        "seeder": "10",
        "leecher": "0"
    },
    {
        "rank": "79",
        "title": "MomsInControl - Leigh Darby, Ava Koxxx, Jordi El Nino Polla (My",
        "link": "magnet:?xt=urn:btih:3F4AFC96AEAEC23F0106A65CEACA2A1049D92AE2&dn=MomsInControl+-+Leigh+Darby%2C+Ava+Koxxx%2C+Jordi+El+Nino+Polla+%28My&tr=udp%3A%2F%2Ftracker.coppersurfer.tk%3A6969%2Fannounce&tr=udp%3A%2F%2F9.rarbg.to%3A2920%2Fannounce&tr=udp%3A%2F%2Ftracker.opentrackr.org%3A1337&tr=udp%3A%2F%2Ftracker.internetwarriors.net%3A1337%2Fannounce&tr=udp%3A%2F%2Ftracker.leechers-paradise.org%3A6969%2Fannounce&tr=udp%3A%2F%2Ftracker.coppersurfer.tk%3A6969%2Fannounce&tr=udp%3A%2F%2Ftracker.pirateparty.gr%3A6969%2Fannounce&tr=udp%3A%2F%2Ftracker.cyberia.is%3A6969%2Fannounce",
        "seeder": "10",
        "leecher": "2"
    },
    {
        "rank": "80",
        "title": "Amateur Anal Sex with an Arab Teen",
        "link": "magnet:?xt=urn:btih:2412B12DAAAA944898862180CF3355534E0D31FA&dn=Amateur+Anal+Sex+with+an+Arab+Teen&tr=udp%3A%2F%2Ftracker.coppersurfer.tk%3A6969%2Fannounce&tr=udp%3A%2F%2F9.rarbg.to%3A2920%2Fannounce&tr=udp%3A%2F%2Ftracker.opentrackr.org%3A1337&tr=udp%3A%2F%2Ftracker.internetwarriors.net%3A1337%2Fannounce&tr=udp%3A%2F%2Ftracker.leechers-paradise.org%3A6969%2Fannounce&tr=udp%3A%2F%2Ftracker.coppersurfer.tk%3A6969%2Fannounce&tr=udp%3A%2F%2Ftracker.pirateparty.gr%3A6969%2Fannounce&tr=udp%3A%2F%2Ftracker.cyberia.is%3A6969%2Fannounce",
        "seeder": "10",
        "leecher": "0"
    },
    {
        "rank": "81",
        "title": "EroticBeauty - Just Stocking",
        "link": "magnet:?xt=urn:btih:854250F2FFCF5D579E35F2F0C94A5B83EBE67E6C&dn=EroticBeauty+-+Just+Stocking&tr=udp%3A%2F%2Ftracker.coppersurfer.tk%3A6969%2Fannounce&tr=udp%3A%2F%2F9.rarbg.to%3A2920%2Fannounce&tr=udp%3A%2F%2Ftracker.opentrackr.org%3A1337&tr=udp%3A%2F%2Ftracker.internetwarriors.net%3A1337%2Fannounce&tr=udp%3A%2F%2Ftracker.leechers-paradise.org%3A6969%2Fannounce&tr=udp%3A%2F%2Ftracker.coppersurfer.tk%3A6969%2Fannounce&tr=udp%3A%2F%2Ftracker.pirateparty.gr%3A6969%2Fannounce&tr=udp%3A%2F%2Ftracker.cyberia.is%3A6969%2Fannounce",
        "seeder": "9",
        "leecher": "2"
    },
    {
        "rank": "82",
        "title": "Bondage Marionette Mai RE077813 RJ077813",
        "link": "magnet:?xt=urn:btih:4AA842B4D42D96036AD2594484C045DA004EF697&dn=Bondage+Marionette+Mai+RE077813+RJ077813&tr=udp%3A%2F%2Ftracker.coppersurfer.tk%3A6969%2Fannounce&tr=udp%3A%2F%2F9.rarbg.to%3A2920%2Fannounce&tr=udp%3A%2F%2Ftracker.opentrackr.org%3A1337&tr=udp%3A%2F%2Ftracker.internetwarriors.net%3A1337%2Fannounce&tr=udp%3A%2F%2Ftracker.leechers-paradise.org%3A6969%2Fannounce&tr=udp%3A%2F%2Ftracker.coppersurfer.tk%3A6969%2Fannounce&tr=udp%3A%2F%2Ftracker.pirateparty.gr%3A6969%2Fannounce&tr=udp%3A%2F%2Ftracker.cyberia.is%3A6969%2Fannounce",
        "seeder": "9",
        "leecher": "0"
    },
    {
        "rank": "83",
        "title": "Uwaki to Honki The Animation",
        "link": "magnet:?xt=urn:btih:3A23962F496B3791E4FDD4A432F8C37DD03574B1&dn=Uwaki+to+Honki+The+Animation&tr=udp%3A%2F%2Ftracker.coppersurfer.tk%3A6969%2Fannounce&tr=udp%3A%2F%2F9.rarbg.to%3A2920%2Fannounce&tr=udp%3A%2F%2Ftracker.opentrackr.org%3A1337&tr=udp%3A%2F%2Ftracker.internetwarriors.net%3A1337%2Fannounce&tr=udp%3A%2F%2Ftracker.leechers-paradise.org%3A6969%2Fannounce&tr=udp%3A%2F%2Ftracker.coppersurfer.tk%3A6969%2Fannounce&tr=udp%3A%2F%2Ftracker.pirateparty.gr%3A6969%2Fannounce&tr=udp%3A%2F%2Ftracker.cyberia.is%3A6969%2Fannounce",
        "seeder": "9",
        "leecher": "0"
    },
    {
        "rank": "84",
        "title": "Oneshota The Animation",
        "link": "magnet:?xt=urn:btih:9E9538AC477D4183776758798646CAAF2E2E68C0&dn=Oneshota+The+Animation&tr=udp%3A%2F%2Ftracker.coppersurfer.tk%3A6969%2Fannounce&tr=udp%3A%2F%2F9.rarbg.to%3A2920%2Fannounce&tr=udp%3A%2F%2Ftracker.opentrackr.org%3A1337&tr=udp%3A%2F%2Ftracker.internetwarriors.net%3A1337%2Fannounce&tr=udp%3A%2F%2Ftracker.leechers-paradise.org%3A6969%2Fannounce&tr=udp%3A%2F%2Ftracker.coppersurfer.tk%3A6969%2Fannounce&tr=udp%3A%2F%2Ftracker.pirateparty.gr%3A6969%2Fannounce&tr=udp%3A%2F%2Ftracker.cyberia.is%3A6969%2Fannounce",
        "seeder": "9",
        "leecher": "3"
    },
    {
        "rank": "85",
        "title": "Knight of Erin",
        "link": "magnet:?xt=urn:btih:D6AA0B62EB90E0D564C7CBD2ADAC723941ABD7F8&dn=Knight+of+Erin&tr=udp%3A%2F%2Ftracker.coppersurfer.tk%3A6969%2Fannounce&tr=udp%3A%2F%2F9.rarbg.to%3A2920%2Fannounce&tr=udp%3A%2F%2Ftracker.opentrackr.org%3A1337&tr=udp%3A%2F%2Ftracker.internetwarriors.net%3A1337%2Fannounce&tr=udp%3A%2F%2Ftracker.leechers-paradise.org%3A6969%2Fannounce&tr=udp%3A%2F%2Ftracker.coppersurfer.tk%3A6969%2Fannounce&tr=udp%3A%2F%2Ftracker.pirateparty.gr%3A6969%2Fannounce&tr=udp%3A%2F%2Ftracker.cyberia.is%3A6969%2Fannounce",
        "seeder": "9",
        "leecher": "1"
    },
    {
        "rank": "86",
        "title": "Zoku Tsuma Netori Ikumi to Shizuka",
        "link": "magnet:?xt=urn:btih:4812676E2FD051EE7A4F34EB0F28A3137EF9B914&dn=Zoku+Tsuma+Netori+Ikumi+to+Shizuka&tr=udp%3A%2F%2Ftracker.coppersurfer.tk%3A6969%2Fannounce&tr=udp%3A%2F%2F9.rarbg.to%3A2920%2Fannounce&tr=udp%3A%2F%2Ftracker.opentrackr.org%3A1337&tr=udp%3A%2F%2Ftracker.internetwarriors.net%3A1337%2Fannounce&tr=udp%3A%2F%2Ftracker.leechers-paradise.org%3A6969%2Fannounce&tr=udp%3A%2F%2Ftracker.coppersurfer.tk%3A6969%2Fannounce&tr=udp%3A%2F%2Ftracker.pirateparty.gr%3A6969%2Fannounce&tr=udp%3A%2F%2Ftracker.cyberia.is%3A6969%2Fannounce",
        "seeder": "9",
        "leecher": "2"
    },
    {
        "rank": "87",
        "title": "Fansadox 484-485-486-487-489-490",
        "link": "magnet:?xt=urn:btih:E27098622C294A22AA5F910D7E97BE003A7C256C&dn=Fansadox+484-485-486-487-489-490&tr=udp%3A%2F%2Ftracker.coppersurfer.tk%3A6969%2Fannounce&tr=udp%3A%2F%2F9.rarbg.to%3A2920%2Fannounce&tr=udp%3A%2F%2Ftracker.opentrackr.org%3A1337&tr=udp%3A%2F%2Ftracker.internetwarriors.net%3A1337%2Fannounce&tr=udp%3A%2F%2Ftracker.leechers-paradise.org%3A6969%2Fannounce&tr=udp%3A%2F%2Ftracker.coppersurfer.tk%3A6969%2Fannounce&tr=udp%3A%2F%2Ftracker.pirateparty.gr%3A6969%2Fannounce&tr=udp%3A%2F%2Ftracker.cyberia.is%3A6969%2Fannounce",
        "seeder": "9",
        "leecher": "0"
    },
    {
        "rank": "88",
        "title": "Dream Girls - Erotic Calendar 2021",
        "link": "magnet:?xt=urn:btih:44B21294DDECBDDA3EEF5C39E38FCFD053617B26&dn=Dream+Girls+-+Erotic+Calendar+2021&tr=udp%3A%2F%2Ftracker.coppersurfer.tk%3A6969%2Fannounce&tr=udp%3A%2F%2F9.rarbg.to%3A2920%2Fannounce&tr=udp%3A%2F%2Ftracker.opentrackr.org%3A1337&tr=udp%3A%2F%2Ftracker.internetwarriors.net%3A1337%2Fannounce&tr=udp%3A%2F%2Ftracker.leechers-paradise.org%3A6969%2Fannounce&tr=udp%3A%2F%2Ftracker.coppersurfer.tk%3A6969%2Fannounce&tr=udp%3A%2F%2Ftracker.pirateparty.gr%3A6969%2Fannounce&tr=udp%3A%2F%2Ftracker.cyberia.is%3A6969%2Fannounce",
        "seeder": "9",
        "leecher": "0"
    },
    {
        "rank": "89",
        "title": "20 Adult Magazines Collection Pack-2",
        "link": "magnet:?xt=urn:btih:7C8F0F4582E32712EDBC22456B930AE6EB610A81&dn=20+Adult+Magazines+Collection+Pack-2&tr=udp%3A%2F%2Ftracker.coppersurfer.tk%3A6969%2Fannounce&tr=udp%3A%2F%2F9.rarbg.to%3A2920%2Fannounce&tr=udp%3A%2F%2Ftracker.opentrackr.org%3A1337&tr=udp%3A%2F%2Ftracker.internetwarriors.net%3A1337%2Fannounce&tr=udp%3A%2F%2Ftracker.leechers-paradise.org%3A6969%2Fannounce&tr=udp%3A%2F%2Ftracker.coppersurfer.tk%3A6969%2Fannounce&tr=udp%3A%2F%2Ftracker.pirateparty.gr%3A6969%2Fannounce&tr=udp%3A%2F%2Ftracker.cyberia.is%3A6969%2Fannounce",
        "seeder": "9",
        "leecher": "4"
    },
    {
        "rank": "90",
        "title": "Mother Knows Breast",
        "link": "magnet:?xt=urn:btih:A9B5A26CF39EA22B91E8B889CF852B46F942CAAC&dn=Mother+Knows+Breast&tr=udp%3A%2F%2Ftracker.coppersurfer.tk%3A6969%2Fannounce&tr=udp%3A%2F%2F9.rarbg.to%3A2920%2Fannounce&tr=udp%3A%2F%2Ftracker.opentrackr.org%3A1337&tr=udp%3A%2F%2Ftracker.internetwarriors.net%3A1337%2Fannounce&tr=udp%3A%2F%2Ftracker.leechers-paradise.org%3A6969%2Fannounce&tr=udp%3A%2F%2Ftracker.coppersurfer.tk%3A6969%2Fannounce&tr=udp%3A%2F%2Ftracker.pirateparty.gr%3A6969%2Fannounce&tr=udp%3A%2F%2Ftracker.cyberia.is%3A6969%2Fannounce",
        "seeder": "9",
        "leecher": "2"
    },
    {
        "rank": "91",
        "title": "Playboy Germany Special Edition - Big Boobs Volume 2, 2020",
        "link": "magnet:?xt=urn:btih:10CDDAAE23A3B8625BAF3437E39A20D2888D881E&dn=Playboy+Germany+Special+Edition+-+Big+Boobs+Volume+2%2C+2020&tr=udp%3A%2F%2Ftracker.coppersurfer.tk%3A6969%2Fannounce&tr=udp%3A%2F%2F9.rarbg.to%3A2920%2Fannounce&tr=udp%3A%2F%2Ftracker.opentrackr.org%3A1337&tr=udp%3A%2F%2Ftracker.internetwarriors.net%3A1337%2Fannounce&tr=udp%3A%2F%2Ftracker.leechers-paradise.org%3A6969%2Fannounce&tr=udp%3A%2F%2Ftracker.coppersurfer.tk%3A6969%2Fannounce&tr=udp%3A%2F%2Ftracker.pirateparty.gr%3A6969%2Fannounce&tr=udp%3A%2F%2Ftracker.cyberia.is%3A6969%2Fannounce",
        "seeder": "9",
        "leecher": "1"
    },
    {
        "rank": "92",
        "title": "Fansadox Collection - 496 - Cagri - Tiger Jane.pdf",
        "link": "magnet:?xt=urn:btih:31B886FE4B3CE339C8CB50D4024B90106AE6B4E9&dn=Fansadox+Collection+-+496+-+Cagri+-+Tiger+Jane.pdf&tr=udp%3A%2F%2Ftracker.coppersurfer.tk%3A6969%2Fannounce&tr=udp%3A%2F%2F9.rarbg.to%3A2920%2Fannounce&tr=udp%3A%2F%2Ftracker.opentrackr.org%3A1337&tr=udp%3A%2F%2Ftracker.internetwarriors.net%3A1337%2Fannounce&tr=udp%3A%2F%2Ftracker.leechers-paradise.org%3A6969%2Fannounce&tr=udp%3A%2F%2Ftracker.coppersurfer.tk%3A6969%2Fannounce&tr=udp%3A%2F%2Ftracker.pirateparty.gr%3A6969%2Fannounce&tr=udp%3A%2F%2Ftracker.cyberia.is%3A6969%2Fannounce",
        "seeder": "9",
        "leecher": "0"
    },
    {
        "rank": "93",
        "title": "Fansadox Collection 476 - Bad Lieutenant 7 Whored Heiress - Arie",
        "link": "magnet:?xt=urn:btih:54F9AAD7183645589D015727E5B785D737816812&dn=Fansadox+Collection+476+-+Bad+Lieutenant+7+Whored+Heiress+-+Arie&tr=udp%3A%2F%2Ftracker.coppersurfer.tk%3A6969%2Fannounce&tr=udp%3A%2F%2F9.rarbg.to%3A2920%2Fannounce&tr=udp%3A%2F%2Ftracker.opentrackr.org%3A1337&tr=udp%3A%2F%2Ftracker.internetwarriors.net%3A1337%2Fannounce&tr=udp%3A%2F%2Ftracker.leechers-paradise.org%3A6969%2Fannounce&tr=udp%3A%2F%2Ftracker.coppersurfer.tk%3A6969%2Fannounce&tr=udp%3A%2F%2Ftracker.pirateparty.gr%3A6969%2Fannounce&tr=udp%3A%2F%2Ftracker.cyberia.is%3A6969%2Fannounce",
        "seeder": "9",
        "leecher": "1"
    },
    {
        "rank": "94",
        "title": "Family Strokes - Alexis Fawx (Step Son Fucks His Mom While Shes",
        "link": "magnet:?xt=urn:btih:596155D060AAD078C93FA987AF14D389C7AD1554&dn=Family+Strokes+-+Alexis+Fawx+%28Step+Son+Fucks+His+Mom+While+Shes&tr=udp%3A%2F%2Ftracker.coppersurfer.tk%3A6969%2Fannounce&tr=udp%3A%2F%2F9.rarbg.to%3A2920%2Fannounce&tr=udp%3A%2F%2Ftracker.opentrackr.org%3A1337&tr=udp%3A%2F%2Ftracker.internetwarriors.net%3A1337%2Fannounce&tr=udp%3A%2F%2Ftracker.leechers-paradise.org%3A6969%2Fannounce&tr=udp%3A%2F%2Ftracker.coppersurfer.tk%3A6969%2Fannounce&tr=udp%3A%2F%2Ftracker.pirateparty.gr%3A6969%2Fannounce&tr=udp%3A%2F%2Ftracker.cyberia.is%3A6969%2Fannounce",
        "seeder": "9",
        "leecher": "1"
    },
    {
        "rank": "95",
        "title": "Legal Porno - Megan Rain, Jenn Stefani (Intense anal fucking wit",
        "link": "magnet:?xt=urn:btih:F93F7BE417658889B3114DD38687B895943859E9&dn=Legal+Porno+-+Megan+Rain%2C+Jenn+Stefani+%28Intense+anal+fucking+wit&tr=udp%3A%2F%2Ftracker.coppersurfer.tk%3A6969%2Fannounce&tr=udp%3A%2F%2F9.rarbg.to%3A2920%2Fannounce&tr=udp%3A%2F%2Ftracker.opentrackr.org%3A1337&tr=udp%3A%2F%2Ftracker.internetwarriors.net%3A1337%2Fannounce&tr=udp%3A%2F%2Ftracker.leechers-paradise.org%3A6969%2Fannounce&tr=udp%3A%2F%2Ftracker.coppersurfer.tk%3A6969%2Fannounce&tr=udp%3A%2F%2Ftracker.pirateparty.gr%3A6969%2Fannounce&tr=udp%3A%2F%2Ftracker.cyberia.is%3A6969%2Fannounce",
        "seeder": "9",
        "leecher": "0"
    },
    {
        "rank": "96",
        "title": "Seventeen Teen Private Lolita..............FFF",
        "link": "magnet:?xt=urn:btih:B2306D47F8EECBC828891B7FB2C9AA71FAFD3F3A&dn=Seventeen+Teen+Private+Lolita..............FFF&tr=udp%3A%2F%2Ftracker.coppersurfer.tk%3A6969%2Fannounce&tr=udp%3A%2F%2F9.rarbg.to%3A2920%2Fannounce&tr=udp%3A%2F%2Ftracker.opentrackr.org%3A1337&tr=udp%3A%2F%2Ftracker.internetwarriors.net%3A1337%2Fannounce&tr=udp%3A%2F%2Ftracker.leechers-paradise.org%3A6969%2Fannounce&tr=udp%3A%2F%2Ftracker.coppersurfer.tk%3A6969%2Fannounce&tr=udp%3A%2F%2Ftracker.pirateparty.gr%3A6969%2Fannounce&tr=udp%3A%2F%2Ftracker.cyberia.is%3A6969%2Fannounce",
        "seeder": "9",
        "leecher": "1"
    },
    {
        "rank": "97",
        "title": "Yonitale \u2013 Madeline Y \u2013 Nostalgia",
        "link": "magnet:?xt=urn:btih:84027BCB02C27E893BED48E5305E420DDB241084&dn=Yonitale+%26ndash%3B+Madeline+Y+%26ndash%3B+Nostalgia&tr=udp%3A%2F%2Ftracker.coppersurfer.tk%3A6969%2Fannounce&tr=udp%3A%2F%2F9.rarbg.to%3A2920%2Fannounce&tr=udp%3A%2F%2Ftracker.opentrackr.org%3A1337&tr=udp%3A%2F%2Ftracker.internetwarriors.net%3A1337%2Fannounce&tr=udp%3A%2F%2Ftracker.leechers-paradise.org%3A6969%2Fannounce&tr=udp%3A%2F%2Ftracker.coppersurfer.tk%3A6969%2Fannounce&tr=udp%3A%2F%2Ftracker.pirateparty.gr%3A6969%2Fannounce&tr=udp%3A%2F%2Ftracker.cyberia.is%3A6969%2Fannounce",
        "seeder": "8",
        "leecher": "0"
    },
    {
        "rank": "98",
        "title": "Club International UK - Volume 43 Issue 03",
        "link": "magnet:?xt=urn:btih:AA766A5D1FFDBDDF8A7145D4B6FFE799F8E5E05D&dn=Club+International+UK+-+Volume+43+Issue+03&tr=udp%3A%2F%2Ftracker.coppersurfer.tk%3A6969%2Fannounce&tr=udp%3A%2F%2F9.rarbg.to%3A2920%2Fannounce&tr=udp%3A%2F%2Ftracker.opentrackr.org%3A1337&tr=udp%3A%2F%2Ftracker.internetwarriors.net%3A1337%2Fannounce&tr=udp%3A%2F%2Ftracker.leechers-paradise.org%3A6969%2Fannounce&tr=udp%3A%2F%2Ftracker.coppersurfer.tk%3A6969%2Fannounce&tr=udp%3A%2F%2Ftracker.pirateparty.gr%3A6969%2Fannounce&tr=udp%3A%2F%2Ftracker.cyberia.is%3A6969%2Fannounce",
        "seeder": "8",
        "leecher": "3"
    },
    {
        "rank": "99",
        "title": "Playboy Special Collector's Edition Summer Beach Spectacular - M",
        "link": "magnet:?xt=urn:btih:ECEF8504D11A27F06D2F12D585391BBACAD3D346&dn=Playboy+Special+Collector%27s+Edition+Summer+Beach+Spectacular+-+M&tr=udp%3A%2F%2Ftracker.coppersurfer.tk%3A6969%2Fannounce&tr=udp%3A%2F%2F9.rarbg.to%3A2920%2Fannounce&tr=udp%3A%2F%2Ftracker.opentrackr.org%3A1337&tr=udp%3A%2F%2Ftracker.internetwarriors.net%3A1337%2Fannounce&tr=udp%3A%2F%2Ftracker.leechers-paradise.org%3A6969%2Fannounce&tr=udp%3A%2F%2Ftracker.coppersurfer.tk%3A6969%2Fannounce&tr=udp%3A%2F%2Ftracker.pirateparty.gr%3A6969%2Fannounce&tr=udp%3A%2F%2Ftracker.cyberia.is%3A6969%2Fannounce",
        "seeder": "8",
        "leecher": "3"
    },
    {
        "rank": "100",
        "title": "Escort - Volume 34 Issue No 3 2014",
        "link": "magnet:?xt=urn:btih:11BF45863776C3EE909A4D5424CE8B93A22F9CE6&dn=Escort+-+Volume+34+Issue+No+3+2014&tr=udp%3A%2F%2Ftracker.coppersurfer.tk%3A6969%2Fannounce&tr=udp%3A%2F%2F9.rarbg.to%3A2920%2Fannounce&tr=udp%3A%2F%2Ftracker.opentrackr.org%3A1337&tr=udp%3A%2F%2Ftracker.internetwarriors.net%3A1337%2Fannounce&tr=udp%3A%2F%2Ftracker.leechers-paradise.org%3A6969%2Fannounce&tr=udp%3A%2F%2Ftracker.coppersurfer.tk%3A6969%2Fannounce&tr=udp%3A%2F%2Ftracker.pirateparty.gr%3A6969%2Fannounce&tr=udp%3A%2F%2Ftracker.cyberia.is%3A6969%2Fannounce",
        "seeder": "8",
        "leecher": "0"
    }
]
