[
    {
        "rank": "1",
        "title": "The Passenger (1975) [BluRay] [1080p]",
        "link": "magnet:?xt=urn:btih:FFA777585B2598FFC8428CD38A177436C00C660C&dn=The+Passenger+%281975%29+%5BBluRay%5D+%5B1080p%5D&tr=udp%3A%2F%2Ftracker.coppersurfer.tk%3A6969%2Fannounce&tr=udp%3A%2F%2F9.rarbg.to%3A2920%2Fannounce&tr=udp%3A%2F%2Ftracker.opentrackr.org%3A1337&tr=udp%3A%2F%2Ftracker.internetwarriors.net%3A1337%2Fannounce&tr=udp%3A%2F%2Ftracker.leechers-paradise.org%3A6969%2Fannounce&tr=udp%3A%2F%2Ftracker.coppersurfer.tk%3A6969%2Fannounce&tr=udp%3A%2F%2Ftracker.pirateparty.gr%3A6969%2Fannounce&tr=udp%3A%2F%2Ftracker.cyberia.is%3A6969%2Fannounce",
        "seeder": "35",
        "leecher": "4"
    },
    {
        "rank": "2",
        "title": "The Never Ending Story (1984) [DVD5 - NTSC]",
        "link": "magnet:?xt=urn:btih:833A6834205B1B6603C5CE68D0A0DD71D3AC6F46&dn=The+Never+Ending+Story+%281984%29+%5BDVD5+-+NTSC%5D&tr=udp%3A%2F%2Ftracker.coppersurfer.tk%3A6969%2Fannounce&tr=udp%3A%2F%2F9.rarbg.to%3A2920%2Fannounce&tr=udp%3A%2F%2Ftracker.opentrackr.org%3A1337&tr=udp%3A%2F%2Ftracker.internetwarriors.net%3A1337%2Fannounce&tr=udp%3A%2F%2Ftracker.leechers-paradise.org%3A6969%2Fannounce&tr=udp%3A%2F%2Ftracker.coppersurfer.tk%3A6969%2Fannounce&tr=udp%3A%2F%2Ftracker.pirateparty.gr%3A6969%2Fannounce&tr=udp%3A%2F%2Ftracker.cyberia.is%3A6969%2Fannounce",
        "seeder": "27",
        "leecher": "1"
    },
    {
        "rank": "3",
        "title": "Blood.In.Blood.Out.1993.Directors.Cut.DVDRip.x264.DD2.0-URBiN4HD",
        "link": "magnet:?xt=urn:btih:35CBC121C64B91621856B902B6E42A5D893183BB&dn=Blood.In.Blood.Out.1993.Directors.Cut.DVDRip.x264.DD2.0-URBiN4HD&tr=udp%3A%2F%2Ftracker.coppersurfer.tk%3A6969%2Fannounce&tr=udp%3A%2F%2F9.rarbg.to%3A2920%2Fannounce&tr=udp%3A%2F%2Ftracker.opentrackr.org%3A1337&tr=udp%3A%2F%2Ftracker.internetwarriors.net%3A1337%2Fannounce&tr=udp%3A%2F%2Ftracker.leechers-paradise.org%3A6969%2Fannounce&tr=udp%3A%2F%2Ftracker.coppersurfer.tk%3A6969%2Fannounce&tr=udp%3A%2F%2Ftracker.pirateparty.gr%3A6969%2Fannounce&tr=udp%3A%2F%2Ftracker.cyberia.is%3A6969%2Fannounce",
        "seeder": "20",
        "leecher": "1"
    },
    {
        "rank": "4",
        "title": "Cosas que nunca te dije | Things I Never Told You [PAL. DVD5]",
        "link": "magnet:?xt=urn:btih:8645B7E02E9DC45B715E83A0932BCEAB162C00F2&dn=Cosas+que+nunca+te+dije+%7C+Things+I+Never+Told+You+%5BPAL.+DVD5%5D&tr=udp%3A%2F%2Ftracker.coppersurfer.tk%3A6969%2Fannounce&tr=udp%3A%2F%2F9.rarbg.to%3A2920%2Fannounce&tr=udp%3A%2F%2Ftracker.opentrackr.org%3A1337&tr=udp%3A%2F%2Ftracker.internetwarriors.net%3A1337%2Fannounce&tr=udp%3A%2F%2Ftracker.leechers-paradise.org%3A6969%2Fannounce&tr=udp%3A%2F%2Ftracker.coppersurfer.tk%3A6969%2Fannounce&tr=udp%3A%2F%2Ftracker.pirateparty.gr%3A6969%2Fannounce&tr=udp%3A%2F%2Ftracker.cyberia.is%3A6969%2Fannounce",
        "seeder": "18",
        "leecher": "0"
    },
    {
        "rank": "5",
        "title": "Jim Henson's - The Storyteller [1988 PAL DVD][En.De Multisubs[7",
        "link": "magnet:?xt=urn:btih:5F8875D37BA8E68D3B9DB144CC09FA720DD4804D&dn=Jim+Henson%27s+-+The+Storyteller+%5B1988+PAL+DVD%5D%5BEn.De+Multisubs%5B7&tr=udp%3A%2F%2Ftracker.coppersurfer.tk%3A6969%2Fannounce&tr=udp%3A%2F%2F9.rarbg.to%3A2920%2Fannounce&tr=udp%3A%2F%2Ftracker.opentrackr.org%3A1337&tr=udp%3A%2F%2Ftracker.internetwarriors.net%3A1337%2Fannounce&tr=udp%3A%2F%2Ftracker.leechers-paradise.org%3A6969%2Fannounce&tr=udp%3A%2F%2Ftracker.coppersurfer.tk%3A6969%2Fannounce&tr=udp%3A%2F%2Ftracker.pirateparty.gr%3A6969%2Fannounce&tr=udp%3A%2F%2Ftracker.cyberia.is%3A6969%2Fannounce",
        "seeder": "17",
        "leecher": "0"
    },
    {
        "rank": "6",
        "title": "Cannabis Collection - High Grower - Indoor Growing",
        "link": "magnet:?xt=urn:btih:15A8E81E8C2A8D443ED2EAD25155AD05894B986A&dn=Cannabis+Collection+-+High+Grower+-+Indoor+Growing&tr=udp%3A%2F%2Ftracker.coppersurfer.tk%3A6969%2Fannounce&tr=udp%3A%2F%2F9.rarbg.to%3A2920%2Fannounce&tr=udp%3A%2F%2Ftracker.opentrackr.org%3A1337&tr=udp%3A%2F%2Ftracker.internetwarriors.net%3A1337%2Fannounce&tr=udp%3A%2F%2Ftracker.leechers-paradise.org%3A6969%2Fannounce&tr=udp%3A%2F%2Ftracker.coppersurfer.tk%3A6969%2Fannounce&tr=udp%3A%2F%2Ftracker.pirateparty.gr%3A6969%2Fannounce&tr=udp%3A%2F%2Ftracker.cyberia.is%3A6969%2Fannounce",
        "seeder": "13",
        "leecher": "0"
    },
    {
        "rank": "7",
        "title": "Never.Back.Down.3.No.Surrender.2016.DVD9.nforelease",
        "link": "magnet:?xt=urn:btih:B810C13620706EBD3C5AD53DF50F03AF9DB0E4FB&dn=Never.Back.Down.3.No.Surrender.2016.DVD9.nforelease&tr=udp%3A%2F%2Ftracker.coppersurfer.tk%3A6969%2Fannounce&tr=udp%3A%2F%2F9.rarbg.to%3A2920%2Fannounce&tr=udp%3A%2F%2Ftracker.opentrackr.org%3A1337&tr=udp%3A%2F%2Ftracker.internetwarriors.net%3A1337%2Fannounce&tr=udp%3A%2F%2Ftracker.leechers-paradise.org%3A6969%2Fannounce&tr=udp%3A%2F%2Ftracker.coppersurfer.tk%3A6969%2Fannounce&tr=udp%3A%2F%2Ftracker.pirateparty.gr%3A6969%2Fannounce&tr=udp%3A%2F%2Ftracker.cyberia.is%3A6969%2Fannounce",
        "seeder": "10",
        "leecher": "1"
    },
    {
        "rank": "8",
        "title": "It.Boy.2013.MULTiSUBS.PAL.DVDR-DiSHON",
        "link": "magnet:?xt=urn:btih:208B70FD2BA0E76832C7B11171EB1A8BD03A70A7&dn=It.Boy.2013.MULTiSUBS.PAL.DVDR-DiSHON&tr=udp%3A%2F%2Ftracker.coppersurfer.tk%3A6969%2Fannounce&tr=udp%3A%2F%2F9.rarbg.to%3A2920%2Fannounce&tr=udp%3A%2F%2Ftracker.opentrackr.org%3A1337&tr=udp%3A%2F%2Ftracker.internetwarriors.net%3A1337%2Fannounce&tr=udp%3A%2F%2Ftracker.leechers-paradise.org%3A6969%2Fannounce&tr=udp%3A%2F%2Ftracker.coppersurfer.tk%3A6969%2Fannounce&tr=udp%3A%2F%2Ftracker.pirateparty.gr%3A6969%2Fannounce&tr=udp%3A%2F%2Ftracker.cyberia.is%3A6969%2Fannounce",
        "seeder": "10",
        "leecher": "1"
    },
    {
        "rank": "9",
        "title": "Cannabis Collection - Pot In Pans - Cooking With Marijuana",
        "link": "magnet:?xt=urn:btih:792938AD17D77585860CA13E07B4D9B67E5DA5D4&dn=Cannabis+Collection+-+Pot+In+Pans+-+Cooking+With+Marijuana&tr=udp%3A%2F%2Ftracker.coppersurfer.tk%3A6969%2Fannounce&tr=udp%3A%2F%2F9.rarbg.to%3A2920%2Fannounce&tr=udp%3A%2F%2Ftracker.opentrackr.org%3A1337&tr=udp%3A%2F%2Ftracker.internetwarriors.net%3A1337%2Fannounce&tr=udp%3A%2F%2Ftracker.leechers-paradise.org%3A6969%2Fannounce&tr=udp%3A%2F%2Ftracker.coppersurfer.tk%3A6969%2Fannounce&tr=udp%3A%2F%2Ftracker.pirateparty.gr%3A6969%2Fannounce&tr=udp%3A%2F%2Ftracker.cyberia.is%3A6969%2Fannounce",
        "seeder": "10",
        "leecher": "0"
    },
    {
        "rank": "10",
        "title": "The Sect - Horror 1991 Eng Ita [H264-mp4]",
        "link": "magnet:?xt=urn:btih:C48D70C47FF693CF4B231531B73E69FB723C114D&dn=The+Sect+-+Horror+1991+Eng+Ita+%5BH264-mp4%5D&tr=udp%3A%2F%2Ftracker.coppersurfer.tk%3A6969%2Fannounce&tr=udp%3A%2F%2F9.rarbg.to%3A2920%2Fannounce&tr=udp%3A%2F%2Ftracker.opentrackr.org%3A1337&tr=udp%3A%2F%2Ftracker.internetwarriors.net%3A1337%2Fannounce&tr=udp%3A%2F%2Ftracker.leechers-paradise.org%3A6969%2Fannounce&tr=udp%3A%2F%2Ftracker.coppersurfer.tk%3A6969%2Fannounce&tr=udp%3A%2F%2Ftracker.pirateparty.gr%3A6969%2Fannounce&tr=udp%3A%2F%2Ftracker.cyberia.is%3A6969%2Fannounce",
        "seeder": "9",
        "leecher": "0"
    },
    {
        "rank": "11",
        "title": "Jim Henson's - The Storyteller - Greek Myths [1990 PAL DVD][En.",
        "link": "magnet:?xt=urn:btih:9E953AD9AF10750C50B68D552063D4E74ACA5196&dn=Jim+Henson%27s+-+The+Storyteller+-+Greek+Myths+%5B1990+PAL+DVD%5D%5BEn.&tr=udp%3A%2F%2Ftracker.coppersurfer.tk%3A6969%2Fannounce&tr=udp%3A%2F%2F9.rarbg.to%3A2920%2Fannounce&tr=udp%3A%2F%2Ftracker.opentrackr.org%3A1337&tr=udp%3A%2F%2Ftracker.internetwarriors.net%3A1337%2Fannounce&tr=udp%3A%2F%2Ftracker.leechers-paradise.org%3A6969%2Fannounce&tr=udp%3A%2F%2Ftracker.coppersurfer.tk%3A6969%2Fannounce&tr=udp%3A%2F%2Ftracker.pirateparty.gr%3A6969%2Fannounce&tr=udp%3A%2F%2Ftracker.cyberia.is%3A6969%2Fannounce",
        "seeder": "9",
        "leecher": "0"
    },
    {
        "rank": "12",
        "title": "Taken Steven Spielberg Sci-Fi Mini-Series 2002 Eng Multi-Subs",
        "link": "magnet:?xt=urn:btih:F75112B4788ADA83C682AB24330D41748F62F2A4&dn=Taken+Steven+Spielberg+Sci-Fi+Mini-Series+2002+Eng+Multi-Subs&tr=udp%3A%2F%2Ftracker.coppersurfer.tk%3A6969%2Fannounce&tr=udp%3A%2F%2F9.rarbg.to%3A2920%2Fannounce&tr=udp%3A%2F%2Ftracker.opentrackr.org%3A1337&tr=udp%3A%2F%2Ftracker.internetwarriors.net%3A1337%2Fannounce&tr=udp%3A%2F%2Ftracker.leechers-paradise.org%3A6969%2Fannounce&tr=udp%3A%2F%2Ftracker.coppersurfer.tk%3A6969%2Fannounce&tr=udp%3A%2F%2Ftracker.pirateparty.gr%3A6969%2Fannounce&tr=udp%3A%2F%2Ftracker.cyberia.is%3A6969%2Fannounce",
        "seeder": "8",
        "leecher": "0"
    },
    {
        "rank": "13",
        "title": "Dino Risi's Profumo di donna (1974) - DVDRip x265 HEVC - ITA (EN",
        "link": "magnet:?xt=urn:btih:E92B6B0CF9695ECA6863EDECA5316F9D30B8BC73&dn=Dino+Risi%27s+Profumo+di+donna+%281974%29+-+DVDRip+x265+HEVC+-+ITA+%28EN&tr=udp%3A%2F%2Ftracker.coppersurfer.tk%3A6969%2Fannounce&tr=udp%3A%2F%2F9.rarbg.to%3A2920%2Fannounce&tr=udp%3A%2F%2Ftracker.opentrackr.org%3A1337&tr=udp%3A%2F%2Ftracker.internetwarriors.net%3A1337%2Fannounce&tr=udp%3A%2F%2Ftracker.leechers-paradise.org%3A6969%2Fannounce&tr=udp%3A%2F%2Ftracker.coppersurfer.tk%3A6969%2Fannounce&tr=udp%3A%2F%2Ftracker.pirateparty.gr%3A6969%2Fannounce&tr=udp%3A%2F%2Ftracker.cyberia.is%3A6969%2Fannounce",
        "seeder": "8",
        "leecher": "0"
    },
    {
        "rank": "14",
        "title": "Drugs Collection - Rakontur - Cocaine Cowboys II",
        "link": "magnet:?xt=urn:btih:041FC4FDE3E7DF10597FEBDE3AC1E43741BCE678&dn=Drugs+Collection+-+Rakontur+-+Cocaine+Cowboys+II&tr=udp%3A%2F%2Ftracker.coppersurfer.tk%3A6969%2Fannounce&tr=udp%3A%2F%2F9.rarbg.to%3A2920%2Fannounce&tr=udp%3A%2F%2Ftracker.opentrackr.org%3A1337&tr=udp%3A%2F%2Ftracker.internetwarriors.net%3A1337%2Fannounce&tr=udp%3A%2F%2Ftracker.leechers-paradise.org%3A6969%2Fannounce&tr=udp%3A%2F%2Ftracker.coppersurfer.tk%3A6969%2Fannounce&tr=udp%3A%2F%2Ftracker.pirateparty.gr%3A6969%2Fannounce&tr=udp%3A%2F%2Ftracker.cyberia.is%3A6969%2Fannounce",
        "seeder": "8",
        "leecher": "0"
    },
    {
        "rank": "15",
        "title": "Cannabis Collection - Reefer Madness (1936) - Colorized and Rest",
        "link": "magnet:?xt=urn:btih:473F022CFAF5B02082D1C7D88FE8F8EB93E9680C&dn=Cannabis+Collection+-+Reefer+Madness+%281936%29+-+Colorized+and+Rest&tr=udp%3A%2F%2Ftracker.coppersurfer.tk%3A6969%2Fannounce&tr=udp%3A%2F%2F9.rarbg.to%3A2920%2Fannounce&tr=udp%3A%2F%2Ftracker.opentrackr.org%3A1337&tr=udp%3A%2F%2Ftracker.internetwarriors.net%3A1337%2Fannounce&tr=udp%3A%2F%2Ftracker.leechers-paradise.org%3A6969%2Fannounce&tr=udp%3A%2F%2Ftracker.coppersurfer.tk%3A6969%2Fannounce&tr=udp%3A%2F%2Ftracker.pirateparty.gr%3A6969%2Fannounce&tr=udp%3A%2F%2Ftracker.cyberia.is%3A6969%2Fannounce",
        "seeder": "8",
        "leecher": "0"
    },
    {
        "rank": "16",
        "title": "Parasitos.2019.DOBLADA.EN.CASTELLANO.DVDRip.x264.DD5.1-URBiN4HD",
        "link": "magnet:?xt=urn:btih:3E693FA97D3D818DF274DFE75B192582667DDBDE&dn=Parasitos.2019.DOBLADA.EN.CASTELLANO.DVDRip.x264.DD5.1-URBiN4HD&tr=udp%3A%2F%2Ftracker.coppersurfer.tk%3A6969%2Fannounce&tr=udp%3A%2F%2F9.rarbg.to%3A2920%2Fannounce&tr=udp%3A%2F%2Ftracker.opentrackr.org%3A1337&tr=udp%3A%2F%2Ftracker.internetwarriors.net%3A1337%2Fannounce&tr=udp%3A%2F%2Ftracker.leechers-paradise.org%3A6969%2Fannounce&tr=udp%3A%2F%2Ftracker.coppersurfer.tk%3A6969%2Fannounce&tr=udp%3A%2F%2Ftracker.pirateparty.gr%3A6969%2Fannounce&tr=udp%3A%2F%2Ftracker.cyberia.is%3A6969%2Fannounce",
        "seeder": "7",
        "leecher": "1"
    },
    {
        "rank": "17",
        "title": "Angels.In.The.Outfield.1994.DVDRip.x264.DD5.1-URBiN4HD",
        "link": "magnet:?xt=urn:btih:7013B89B02DB2ED2C6441EE3FC0C855E47484DC3&dn=Angels.In.The.Outfield.1994.DVDRip.x264.DD5.1-URBiN4HD&tr=udp%3A%2F%2Ftracker.coppersurfer.tk%3A6969%2Fannounce&tr=udp%3A%2F%2F9.rarbg.to%3A2920%2Fannounce&tr=udp%3A%2F%2Ftracker.opentrackr.org%3A1337&tr=udp%3A%2F%2Ftracker.internetwarriors.net%3A1337%2Fannounce&tr=udp%3A%2F%2Ftracker.leechers-paradise.org%3A6969%2Fannounce&tr=udp%3A%2F%2Ftracker.coppersurfer.tk%3A6969%2Fannounce&tr=udp%3A%2F%2Ftracker.pirateparty.gr%3A6969%2Fannounce&tr=udp%3A%2F%2Ftracker.cyberia.is%3A6969%2Fannounce",
        "seeder": "7",
        "leecher": "0"
    },
    {
        "rank": "18",
        "title": "MacGyver: Lost Treasure of Atlantis/Trail to Doomsday DVD 9 RETA",
        "link": "magnet:?xt=urn:btih:68149DC217AE06061E74A3AE1D121FD4B5BDAC83&dn=MacGyver%3A+Lost+Treasure+of+Atlantis%2FTrail+to+Doomsday+DVD+9+RETA&tr=udp%3A%2F%2Ftracker.coppersurfer.tk%3A6969%2Fannounce&tr=udp%3A%2F%2F9.rarbg.to%3A2920%2Fannounce&tr=udp%3A%2F%2Ftracker.opentrackr.org%3A1337&tr=udp%3A%2F%2Ftracker.internetwarriors.net%3A1337%2Fannounce&tr=udp%3A%2F%2Ftracker.leechers-paradise.org%3A6969%2Fannounce&tr=udp%3A%2F%2Ftracker.coppersurfer.tk%3A6969%2Fannounce&tr=udp%3A%2F%2Ftracker.pirateparty.gr%3A6969%2Fannounce&tr=udp%3A%2F%2Ftracker.cyberia.is%3A6969%2Fannounce",
        "seeder": "7",
        "leecher": "0"
    },
    {
        "rank": "19",
        "title": "Cannabis Collection - Sea of Green all 4 volumes",
        "link": "magnet:?xt=urn:btih:AEBB598DF103F4817F7A9914A63A60316E2320A5&dn=Cannabis+Collection+-+Sea+of+Green+all+4+volumes&tr=udp%3A%2F%2Ftracker.coppersurfer.tk%3A6969%2Fannounce&tr=udp%3A%2F%2F9.rarbg.to%3A2920%2Fannounce&tr=udp%3A%2F%2Ftracker.opentrackr.org%3A1337&tr=udp%3A%2F%2Ftracker.internetwarriors.net%3A1337%2Fannounce&tr=udp%3A%2F%2Ftracker.leechers-paradise.org%3A6969%2Fannounce&tr=udp%3A%2F%2Ftracker.coppersurfer.tk%3A6969%2Fannounce&tr=udp%3A%2F%2Ftracker.pirateparty.gr%3A6969%2Fannounce&tr=udp%3A%2F%2Ftracker.cyberia.is%3A6969%2Fannounce",
        "seeder": "7",
        "leecher": "0"
    },
    {
        "rank": "20",
        "title": "Kieslowski - A Short Film About Killing (Art Movie 1988)",
        "link": "magnet:?xt=urn:btih:746A9D8292FC85C655688D3BEAB29D54AC8A3F12&dn=Kieslowski+-+A+Short+Film+About+Killing+%28Art+Movie+1988%29&tr=udp%3A%2F%2Ftracker.coppersurfer.tk%3A6969%2Fannounce&tr=udp%3A%2F%2F9.rarbg.to%3A2920%2Fannounce&tr=udp%3A%2F%2Ftracker.opentrackr.org%3A1337&tr=udp%3A%2F%2Ftracker.internetwarriors.net%3A1337%2Fannounce&tr=udp%3A%2F%2Ftracker.leechers-paradise.org%3A6969%2Fannounce&tr=udp%3A%2F%2Ftracker.coppersurfer.tk%3A6969%2Fannounce&tr=udp%3A%2F%2Ftracker.pirateparty.gr%3A6969%2Fannounce&tr=udp%3A%2F%2Ftracker.cyberia.is%3A6969%2Fannounce",
        "seeder": "7",
        "leecher": "1"
    },
    {
        "rank": "21",
        "title": "Drugs Collection - DMT - Ayahuasca - Shamans of the Amazon",
        "link": "magnet:?xt=urn:btih:5E6C612D365CA79FE1F5B8BC5028221F4B9DB964&dn=Drugs+Collection+-+DMT+-+Ayahuasca+-+Shamans+of+the+Amazon&tr=udp%3A%2F%2Ftracker.coppersurfer.tk%3A6969%2Fannounce&tr=udp%3A%2F%2F9.rarbg.to%3A2920%2Fannounce&tr=udp%3A%2F%2Ftracker.opentrackr.org%3A1337&tr=udp%3A%2F%2Ftracker.internetwarriors.net%3A1337%2Fannounce&tr=udp%3A%2F%2Ftracker.leechers-paradise.org%3A6969%2Fannounce&tr=udp%3A%2F%2Ftracker.coppersurfer.tk%3A6969%2Fannounce&tr=udp%3A%2F%2Ftracker.pirateparty.gr%3A6969%2Fannounce&tr=udp%3A%2F%2Ftracker.cyberia.is%3A6969%2Fannounce",
        "seeder": "7",
        "leecher": "1"
    },
    {
        "rank": "22",
        "title": "Drugs Collection - Peyote to LSD - Sacred Mushrooms",
        "link": "magnet:?xt=urn:btih:DA0D2AFA5C58BF48AFAACACDDA24346432A42585&dn=Drugs+Collection+-+Peyote+to+LSD+-+Sacred+Mushrooms&tr=udp%3A%2F%2Ftracker.coppersurfer.tk%3A6969%2Fannounce&tr=udp%3A%2F%2F9.rarbg.to%3A2920%2Fannounce&tr=udp%3A%2F%2Ftracker.opentrackr.org%3A1337&tr=udp%3A%2F%2Ftracker.internetwarriors.net%3A1337%2Fannounce&tr=udp%3A%2F%2Ftracker.leechers-paradise.org%3A6969%2Fannounce&tr=udp%3A%2F%2Ftracker.coppersurfer.tk%3A6969%2Fannounce&tr=udp%3A%2F%2Ftracker.pirateparty.gr%3A6969%2Fannounce&tr=udp%3A%2F%2Ftracker.cyberia.is%3A6969%2Fannounce",
        "seeder": "7",
        "leecher": "0"
    },
    {
        "rank": "23",
        "title": "Simon And Garfunkel-The Concert In Central Park (1981) PAL",
        "link": "magnet:?xt=urn:btih:4B5C3BA6430E9A3C7AE221E8977489A75665BE6D&dn=Simon+And+Garfunkel-The+Concert+In+Central+Park+%281981%29+PAL&tr=udp%3A%2F%2Ftracker.coppersurfer.tk%3A6969%2Fannounce&tr=udp%3A%2F%2F9.rarbg.to%3A2920%2Fannounce&tr=udp%3A%2F%2Ftracker.opentrackr.org%3A1337&tr=udp%3A%2F%2Ftracker.internetwarriors.net%3A1337%2Fannounce&tr=udp%3A%2F%2Ftracker.leechers-paradise.org%3A6969%2Fannounce&tr=udp%3A%2F%2Ftracker.coppersurfer.tk%3A6969%2Fannounce&tr=udp%3A%2F%2Ftracker.pirateparty.gr%3A6969%2Fannounce&tr=udp%3A%2F%2Ftracker.cyberia.is%3A6969%2Fannounce",
        "seeder": "7",
        "leecher": "0"
    },
    {
        "rank": "24",
        "title": "North and South (1985) Complete BOX PAL Retail Multi NLUPPER",
        "link": "magnet:?xt=urn:btih:F166F1FC525153162219FDD0FE9B49CA2BBF7F78&dn=North+and+South+%281985%29+Complete+BOX+PAL+Retail+Multi+NLUPPER&tr=udp%3A%2F%2Ftracker.coppersurfer.tk%3A6969%2Fannounce&tr=udp%3A%2F%2F9.rarbg.to%3A2920%2Fannounce&tr=udp%3A%2F%2Ftracker.opentrackr.org%3A1337&tr=udp%3A%2F%2Ftracker.internetwarriors.net%3A1337%2Fannounce&tr=udp%3A%2F%2Ftracker.leechers-paradise.org%3A6969%2Fannounce&tr=udp%3A%2F%2Ftracker.coppersurfer.tk%3A6969%2Fannounce&tr=udp%3A%2F%2Ftracker.pirateparty.gr%3A6969%2Fannounce&tr=udp%3A%2F%2Ftracker.cyberia.is%3A6969%2Fannounce",
        "seeder": "7",
        "leecher": "2"
    },
    {
        "rank": "25",
        "title": "Cannabis Collection - The Legend of 420",
        "link": "magnet:?xt=urn:btih:B79C3DF5387D08EBC3F6BC4129A7D161294D9CAB&dn=Cannabis+Collection+-+The+Legend+of+420&tr=udp%3A%2F%2Ftracker.coppersurfer.tk%3A6969%2Fannounce&tr=udp%3A%2F%2F9.rarbg.to%3A2920%2Fannounce&tr=udp%3A%2F%2Ftracker.opentrackr.org%3A1337&tr=udp%3A%2F%2Ftracker.internetwarriors.net%3A1337%2Fannounce&tr=udp%3A%2F%2Ftracker.leechers-paradise.org%3A6969%2Fannounce&tr=udp%3A%2F%2Ftracker.coppersurfer.tk%3A6969%2Fannounce&tr=udp%3A%2F%2Ftracker.pirateparty.gr%3A6969%2Fannounce&tr=udp%3A%2F%2Ftracker.cyberia.is%3A6969%2Fannounce",
        "seeder": "6",
        "leecher": "0"
    },
    {
        "rank": "26",
        "title": "The Gene Wilder + Richard Pryor Collection (1976 - 1991)",
        "link": "magnet:?xt=urn:btih:DB27D5EA828BAD92F0F5B0B1B6DC206490C073B2&dn=The+Gene+Wilder+%2B+Richard+Pryor+Collection+%281976+-+1991%29&tr=udp%3A%2F%2Ftracker.coppersurfer.tk%3A6969%2Fannounce&tr=udp%3A%2F%2F9.rarbg.to%3A2920%2Fannounce&tr=udp%3A%2F%2Ftracker.opentrackr.org%3A1337&tr=udp%3A%2F%2Ftracker.internetwarriors.net%3A1337%2Fannounce&tr=udp%3A%2F%2Ftracker.leechers-paradise.org%3A6969%2Fannounce&tr=udp%3A%2F%2Ftracker.coppersurfer.tk%3A6969%2Fannounce&tr=udp%3A%2F%2Ftracker.pirateparty.gr%3A6969%2Fannounce&tr=udp%3A%2F%2Ftracker.cyberia.is%3A6969%2Fannounce",
        "seeder": "6",
        "leecher": "0"
    },
    {
        "rank": "27",
        "title": "Keith Richards - Solo Works",
        "link": "magnet:?xt=urn:btih:FFF8B847140CD2759A3273DD46235F8F11C44BDE&dn=Keith+Richards+-+Solo+Works&tr=udp%3A%2F%2Ftracker.coppersurfer.tk%3A6969%2Fannounce&tr=udp%3A%2F%2F9.rarbg.to%3A2920%2Fannounce&tr=udp%3A%2F%2Ftracker.opentrackr.org%3A1337&tr=udp%3A%2F%2Ftracker.internetwarriors.net%3A1337%2Fannounce&tr=udp%3A%2F%2Ftracker.leechers-paradise.org%3A6969%2Fannounce&tr=udp%3A%2F%2Ftracker.coppersurfer.tk%3A6969%2Fannounce&tr=udp%3A%2F%2Ftracker.pirateparty.gr%3A6969%2Fannounce&tr=udp%3A%2F%2Ftracker.cyberia.is%3A6969%2Fannounce",
        "seeder": "6",
        "leecher": "0"
    },
    {
        "rank": "28",
        "title": "Smala Sussie [2003] Swedish, Nordic+Eng subs  DVDrip",
        "link": "magnet:?xt=urn:btih:78B277A5E5E1213C1779F9FA659904EFC5C9AF40&dn=Smala+Sussie+%5B2003%5D+Swedish%2C+Nordic%2BEng+subs++DVDrip&tr=udp%3A%2F%2Ftracker.coppersurfer.tk%3A6969%2Fannounce&tr=udp%3A%2F%2F9.rarbg.to%3A2920%2Fannounce&tr=udp%3A%2F%2Ftracker.opentrackr.org%3A1337&tr=udp%3A%2F%2Ftracker.internetwarriors.net%3A1337%2Fannounce&tr=udp%3A%2F%2Ftracker.leechers-paradise.org%3A6969%2Fannounce&tr=udp%3A%2F%2Ftracker.coppersurfer.tk%3A6969%2Fannounce&tr=udp%3A%2F%2Ftracker.pirateparty.gr%3A6969%2Fannounce&tr=udp%3A%2F%2Ftracker.cyberia.is%3A6969%2Fannounce",
        "seeder": "6",
        "leecher": "0"
    },
    {
        "rank": "29",
        "title": "Drugs Collection - American Meth - 2007",
        "link": "magnet:?xt=urn:btih:89CD3306760525BF58FE46C4F595819CEADFAC97&dn=Drugs+Collection+-+American+Meth+-+2007&tr=udp%3A%2F%2Ftracker.coppersurfer.tk%3A6969%2Fannounce&tr=udp%3A%2F%2F9.rarbg.to%3A2920%2Fannounce&tr=udp%3A%2F%2Ftracker.opentrackr.org%3A1337&tr=udp%3A%2F%2Ftracker.internetwarriors.net%3A1337%2Fannounce&tr=udp%3A%2F%2Ftracker.leechers-paradise.org%3A6969%2Fannounce&tr=udp%3A%2F%2Ftracker.coppersurfer.tk%3A6969%2Fannounce&tr=udp%3A%2F%2Ftracker.pirateparty.gr%3A6969%2Fannounce&tr=udp%3A%2F%2Ftracker.cyberia.is%3A6969%2Fannounce",
        "seeder": "6",
        "leecher": "0"
    },
    {
        "rank": "30",
        "title": "Drugs Collection - HBO - High on Crack Street",
        "link": "magnet:?xt=urn:btih:A53E389C0C71E0A96C33FFA34108C34E62C71701&dn=Drugs+Collection+-+HBO+-+High+on+Crack+Street&tr=udp%3A%2F%2Ftracker.coppersurfer.tk%3A6969%2Fannounce&tr=udp%3A%2F%2F9.rarbg.to%3A2920%2Fannounce&tr=udp%3A%2F%2Ftracker.opentrackr.org%3A1337&tr=udp%3A%2F%2Ftracker.internetwarriors.net%3A1337%2Fannounce&tr=udp%3A%2F%2Ftracker.leechers-paradise.org%3A6969%2Fannounce&tr=udp%3A%2F%2Ftracker.coppersurfer.tk%3A6969%2Fannounce&tr=udp%3A%2F%2Ftracker.pirateparty.gr%3A6969%2Fannounce&tr=udp%3A%2F%2Ftracker.cyberia.is%3A6969%2Fannounce",
        "seeder": "6",
        "leecher": "1"
    },
    {
        "rank": "31",
        "title": "Cannabis Collection - Never Get Raided Again",
        "link": "magnet:?xt=urn:btih:9E29686BE6FC25D1A2262BEF3EAF75A3C581DCC4&dn=Cannabis+Collection+-+Never+Get+Raided+Again&tr=udp%3A%2F%2Ftracker.coppersurfer.tk%3A6969%2Fannounce&tr=udp%3A%2F%2F9.rarbg.to%3A2920%2Fannounce&tr=udp%3A%2F%2Ftracker.opentrackr.org%3A1337&tr=udp%3A%2F%2Ftracker.internetwarriors.net%3A1337%2Fannounce&tr=udp%3A%2F%2Ftracker.leechers-paradise.org%3A6969%2Fannounce&tr=udp%3A%2F%2Ftracker.coppersurfer.tk%3A6969%2Fannounce&tr=udp%3A%2F%2Ftracker.pirateparty.gr%3A6969%2Fannounce&tr=udp%3A%2F%2Ftracker.cyberia.is%3A6969%2Fannounce",
        "seeder": "6",
        "leecher": "0"
    },
    {
        "rank": "32",
        "title": "Cannabis Collection - Super High Me",
        "link": "magnet:?xt=urn:btih:771DC87EEAA6374A7C95F7CB623B4E23FC0BA24D&dn=Cannabis+Collection+-+Super+High+Me&tr=udp%3A%2F%2Ftracker.coppersurfer.tk%3A6969%2Fannounce&tr=udp%3A%2F%2F9.rarbg.to%3A2920%2Fannounce&tr=udp%3A%2F%2Ftracker.opentrackr.org%3A1337&tr=udp%3A%2F%2Ftracker.internetwarriors.net%3A1337%2Fannounce&tr=udp%3A%2F%2Ftracker.leechers-paradise.org%3A6969%2Fannounce&tr=udp%3A%2F%2Ftracker.coppersurfer.tk%3A6969%2Fannounce&tr=udp%3A%2F%2Ftracker.pirateparty.gr%3A6969%2Fannounce&tr=udp%3A%2F%2Ftracker.cyberia.is%3A6969%2Fannounce",
        "seeder": "6",
        "leecher": "0"
    },
    {
        "rank": "33",
        "title": "Cannabis Collection - Run From The Cure - The Rick Simpson Story",
        "link": "magnet:?xt=urn:btih:055E884ECB1C74D55F900EDF214BECED6D59F199&dn=Cannabis+Collection+-+Run+From+The+Cure+-+The+Rick+Simpson+Story&tr=udp%3A%2F%2Ftracker.coppersurfer.tk%3A6969%2Fannounce&tr=udp%3A%2F%2F9.rarbg.to%3A2920%2Fannounce&tr=udp%3A%2F%2Ftracker.opentrackr.org%3A1337&tr=udp%3A%2F%2Ftracker.internetwarriors.net%3A1337%2Fannounce&tr=udp%3A%2F%2Ftracker.leechers-paradise.org%3A6969%2Fannounce&tr=udp%3A%2F%2Ftracker.coppersurfer.tk%3A6969%2Fannounce&tr=udp%3A%2F%2Ftracker.pirateparty.gr%3A6969%2Fannounce&tr=udp%3A%2F%2Ftracker.cyberia.is%3A6969%2Fannounce",
        "seeder": "6",
        "leecher": "0"
    },
    {
        "rank": "34",
        "title": "Cannabis Collection - Hash - Drugs Inc - National Geographic",
        "link": "magnet:?xt=urn:btih:96F2D3A29A18BDF3875007815D55F47194A7681A&dn=Cannabis+Collection+-+Hash+-+Drugs+Inc+-+National+Geographic&tr=udp%3A%2F%2Ftracker.coppersurfer.tk%3A6969%2Fannounce&tr=udp%3A%2F%2F9.rarbg.to%3A2920%2Fannounce&tr=udp%3A%2F%2Ftracker.opentrackr.org%3A1337&tr=udp%3A%2F%2Ftracker.internetwarriors.net%3A1337%2Fannounce&tr=udp%3A%2F%2Ftracker.leechers-paradise.org%3A6969%2Fannounce&tr=udp%3A%2F%2Ftracker.coppersurfer.tk%3A6969%2Fannounce&tr=udp%3A%2F%2Ftracker.pirateparty.gr%3A6969%2Fannounce&tr=udp%3A%2F%2Ftracker.cyberia.is%3A6969%2Fannounce",
        "seeder": "6",
        "leecher": "0"
    },
    {
        "rank": "35",
        "title": "Cannabis Collection - Aphrodisiac - The Sexual Secret of Marijua",
        "link": "magnet:?xt=urn:btih:0617674868C2FB4664BB43BD29EA1C4BC6BE68CF&dn=Cannabis+Collection+-+Aphrodisiac+-+The+Sexual+Secret+of+Marijua&tr=udp%3A%2F%2Ftracker.coppersurfer.tk%3A6969%2Fannounce&tr=udp%3A%2F%2F9.rarbg.to%3A2920%2Fannounce&tr=udp%3A%2F%2Ftracker.opentrackr.org%3A1337&tr=udp%3A%2F%2Ftracker.internetwarriors.net%3A1337%2Fannounce&tr=udp%3A%2F%2Ftracker.leechers-paradise.org%3A6969%2Fannounce&tr=udp%3A%2F%2Ftracker.coppersurfer.tk%3A6969%2Fannounce&tr=udp%3A%2F%2Ftracker.pirateparty.gr%3A6969%2Fannounce&tr=udp%3A%2F%2Ftracker.cyberia.is%3A6969%2Fannounce",
        "seeder": "6",
        "leecher": "1"
    },
    {
        "rank": "36",
        "title": "Porgy And Bess (Gershwin) [1993 PAL DVD][En Subs[En.De.Fr.It]",
        "link": "magnet:?xt=urn:btih:4B5032C3D88E66C9084813AE0EFCA754058849C3&dn=Porgy+And+Bess+%28Gershwin%29+%5B1993+PAL+DVD%5D%5BEn+Subs%5BEn.De.Fr.It%5D&tr=udp%3A%2F%2Ftracker.coppersurfer.tk%3A6969%2Fannounce&tr=udp%3A%2F%2F9.rarbg.to%3A2920%2Fannounce&tr=udp%3A%2F%2Ftracker.opentrackr.org%3A1337&tr=udp%3A%2F%2Ftracker.internetwarriors.net%3A1337%2Fannounce&tr=udp%3A%2F%2Ftracker.leechers-paradise.org%3A6969%2Fannounce&tr=udp%3A%2F%2Ftracker.coppersurfer.tk%3A6969%2Fannounce&tr=udp%3A%2F%2Ftracker.pirateparty.gr%3A6969%2Fannounce&tr=udp%3A%2F%2Ftracker.cyberia.is%3A6969%2Fannounce",
        "seeder": "6",
        "leecher": "0"
    },
    {
        "rank": "37",
        "title": "Lick Library - Ultimate Guitar Techniques - Scale Shapes",
        "link": "magnet:?xt=urn:btih:7912BFE31379F6DC4C7852C832D38E3D390AB6FB&dn=Lick+Library+-+Ultimate+Guitar+Techniques+-+Scale+Shapes&tr=udp%3A%2F%2Ftracker.coppersurfer.tk%3A6969%2Fannounce&tr=udp%3A%2F%2F9.rarbg.to%3A2920%2Fannounce&tr=udp%3A%2F%2Ftracker.opentrackr.org%3A1337&tr=udp%3A%2F%2Ftracker.internetwarriors.net%3A1337%2Fannounce&tr=udp%3A%2F%2Ftracker.leechers-paradise.org%3A6969%2Fannounce&tr=udp%3A%2F%2Ftracker.coppersurfer.tk%3A6969%2Fannounce&tr=udp%3A%2F%2Ftracker.pirateparty.gr%3A6969%2Fannounce&tr=udp%3A%2F%2Ftracker.cyberia.is%3A6969%2Fannounce",
        "seeder": "6",
        "leecher": "0"
    },
    {
        "rank": "38",
        "title": "Metallica - Cunning Stunts (2 Disc DVD)",
        "link": "magnet:?xt=urn:btih:20B93810FBBE9C5E6173F5BFBC981BEAE80FF55E&dn=Metallica+-+Cunning+Stunts+%282+Disc+DVD%29&tr=udp%3A%2F%2Ftracker.coppersurfer.tk%3A6969%2Fannounce&tr=udp%3A%2F%2F9.rarbg.to%3A2920%2Fannounce&tr=udp%3A%2F%2Ftracker.opentrackr.org%3A1337&tr=udp%3A%2F%2Ftracker.internetwarriors.net%3A1337%2Fannounce&tr=udp%3A%2F%2Ftracker.leechers-paradise.org%3A6969%2Fannounce&tr=udp%3A%2F%2Ftracker.coppersurfer.tk%3A6969%2Fannounce&tr=udp%3A%2F%2Ftracker.pirateparty.gr%3A6969%2Fannounce&tr=udp%3A%2F%2Ftracker.cyberia.is%3A6969%2Fannounce",
        "seeder": "6",
        "leecher": "1"
    },
    {
        "rank": "39",
        "title": "John Woo's The Killer (1989) NTSC Criterion",
        "link": "magnet:?xt=urn:btih:2BF5D5872CC1BD3D2A52ED7CDAADB7C3EA813A8C&dn=John+Woo%27s+The+Killer+%281989%29+NTSC+Criterion&tr=udp%3A%2F%2Ftracker.coppersurfer.tk%3A6969%2Fannounce&tr=udp%3A%2F%2F9.rarbg.to%3A2920%2Fannounce&tr=udp%3A%2F%2Ftracker.opentrackr.org%3A1337&tr=udp%3A%2F%2Ftracker.internetwarriors.net%3A1337%2Fannounce&tr=udp%3A%2F%2Ftracker.leechers-paradise.org%3A6969%2Fannounce&tr=udp%3A%2F%2Ftracker.coppersurfer.tk%3A6969%2Fannounce&tr=udp%3A%2F%2Ftracker.pirateparty.gr%3A6969%2Fannounce&tr=udp%3A%2F%2Ftracker.cyberia.is%3A6969%2Fannounce",
        "seeder": "6",
        "leecher": "2"
    },
    {
        "rank": "40",
        "title": "Manufactured.Landscapes.2006.NTSC.DVDR",
        "link": "magnet:?xt=urn:btih:80D67FC1244BA24CE16EACE401D8557444BF6860&dn=Manufactured.Landscapes.2006.NTSC.DVDR&tr=udp%3A%2F%2Ftracker.coppersurfer.tk%3A6969%2Fannounce&tr=udp%3A%2F%2F9.rarbg.to%3A2920%2Fannounce&tr=udp%3A%2F%2Ftracker.opentrackr.org%3A1337&tr=udp%3A%2F%2Ftracker.internetwarriors.net%3A1337%2Fannounce&tr=udp%3A%2F%2Ftracker.leechers-paradise.org%3A6969%2Fannounce&tr=udp%3A%2F%2Ftracker.coppersurfer.tk%3A6969%2Fannounce&tr=udp%3A%2F%2Ftracker.pirateparty.gr%3A6969%2Fannounce&tr=udp%3A%2F%2Ftracker.cyberia.is%3A6969%2Fannounce",
        "seeder": "6",
        "leecher": "0"
    },
    {
        "rank": "41",
        "title": "The Ultimate Disney Collection - 08. Make Mine Music (1946)",
        "link": "magnet:?xt=urn:btih:77EF71E847A3B53928104DD23784C669408856BA&dn=The+Ultimate+Disney+Collection+-+08.+Make+Mine+Music+%281946%29&tr=udp%3A%2F%2Ftracker.coppersurfer.tk%3A6969%2Fannounce&tr=udp%3A%2F%2F9.rarbg.to%3A2920%2Fannounce&tr=udp%3A%2F%2Ftracker.opentrackr.org%3A1337&tr=udp%3A%2F%2Ftracker.internetwarriors.net%3A1337%2Fannounce&tr=udp%3A%2F%2Ftracker.leechers-paradise.org%3A6969%2Fannounce&tr=udp%3A%2F%2Ftracker.coppersurfer.tk%3A6969%2Fannounce&tr=udp%3A%2F%2Ftracker.pirateparty.gr%3A6969%2Fannounce&tr=udp%3A%2F%2Ftracker.cyberia.is%3A6969%2Fannounce",
        "seeder": "6",
        "leecher": "1"
    },
    {
        "rank": "42",
        "title": "Understanding The Origins Of Freemasonry and The Illuminati [DVD",
        "link": "magnet:?xt=urn:btih:76FA4A350F0B38D87582112E73E72856E027377F&dn=Understanding+The+Origins+Of+Freemasonry+and+The+Illuminati+%5BDVD&tr=udp%3A%2F%2Ftracker.coppersurfer.tk%3A6969%2Fannounce&tr=udp%3A%2F%2F9.rarbg.to%3A2920%2Fannounce&tr=udp%3A%2F%2Ftracker.opentrackr.org%3A1337&tr=udp%3A%2F%2Ftracker.internetwarriors.net%3A1337%2Fannounce&tr=udp%3A%2F%2Ftracker.leechers-paradise.org%3A6969%2Fannounce&tr=udp%3A%2F%2Ftracker.coppersurfer.tk%3A6969%2Fannounce&tr=udp%3A%2F%2Ftracker.pirateparty.gr%3A6969%2Fannounce&tr=udp%3A%2F%2Ftracker.cyberia.is%3A6969%2Fannounce",
        "seeder": "6",
        "leecher": "1"
    },
    {
        "rank": "43",
        "title": "The.Night.Flier.1997.DVDRip.x264.DD5.1-URBiN4HD",
        "link": "magnet:?xt=urn:btih:AB4E488C9BA58CA58B064E3764C2862A43848CF7&dn=The.Night.Flier.1997.DVDRip.x264.DD5.1-URBiN4HD&tr=udp%3A%2F%2Ftracker.coppersurfer.tk%3A6969%2Fannounce&tr=udp%3A%2F%2F9.rarbg.to%3A2920%2Fannounce&tr=udp%3A%2F%2Ftracker.opentrackr.org%3A1337&tr=udp%3A%2F%2Ftracker.internetwarriors.net%3A1337%2Fannounce&tr=udp%3A%2F%2Ftracker.leechers-paradise.org%3A6969%2Fannounce&tr=udp%3A%2F%2Ftracker.coppersurfer.tk%3A6969%2Fannounce&tr=udp%3A%2F%2Ftracker.pirateparty.gr%3A6969%2Fannounce&tr=udp%3A%2F%2Ftracker.cyberia.is%3A6969%2Fannounce",
        "seeder": "5",
        "leecher": "1"
    },
    {
        "rank": "44",
        "title": "Cannabis Collection - The God Plant",
        "link": "magnet:?xt=urn:btih:4591668D349831DD7144342261D674FD296D211B&dn=Cannabis+Collection+-+The+God+Plant&tr=udp%3A%2F%2Ftracker.coppersurfer.tk%3A6969%2Fannounce&tr=udp%3A%2F%2F9.rarbg.to%3A2920%2Fannounce&tr=udp%3A%2F%2Ftracker.opentrackr.org%3A1337&tr=udp%3A%2F%2Ftracker.internetwarriors.net%3A1337%2Fannounce&tr=udp%3A%2F%2Ftracker.leechers-paradise.org%3A6969%2Fannounce&tr=udp%3A%2F%2Ftracker.coppersurfer.tk%3A6969%2Fannounce&tr=udp%3A%2F%2Ftracker.pirateparty.gr%3A6969%2Fannounce&tr=udp%3A%2F%2Ftracker.cyberia.is%3A6969%2Fannounce",
        "seeder": "5",
        "leecher": "0"
    },
    {
        "rank": "45",
        "title": "This Christmas (2007) (Full DVDRip - H264 - AAC - 5.1) {CTShoN}",
        "link": "magnet:?xt=urn:btih:AA1423AE1C52B7D6CAC3AA5191CAABD4BBD047B0&dn=This+Christmas+%282007%29+%28Full+DVDRip+-+H264+-+AAC+-+5.1%29+%7BCTShoN%7D&tr=udp%3A%2F%2Ftracker.coppersurfer.tk%3A6969%2Fannounce&tr=udp%3A%2F%2F9.rarbg.to%3A2920%2Fannounce&tr=udp%3A%2F%2Ftracker.opentrackr.org%3A1337&tr=udp%3A%2F%2Ftracker.internetwarriors.net%3A1337%2Fannounce&tr=udp%3A%2F%2Ftracker.leechers-paradise.org%3A6969%2Fannounce&tr=udp%3A%2F%2Ftracker.coppersurfer.tk%3A6969%2Fannounce&tr=udp%3A%2F%2Ftracker.pirateparty.gr%3A6969%2Fannounce&tr=udp%3A%2F%2Ftracker.cyberia.is%3A6969%2Fannounce",
        "seeder": "5",
        "leecher": "3"
    },
    {
        "rank": "46",
        "title": "Shaolin Kung Fu Fundamental Training DVDRip",
        "link": "magnet:?xt=urn:btih:E0AF42BF35D0FD1B64281DABE447CAFA90A0C89E&dn=Shaolin+Kung+Fu+Fundamental+Training+DVDRip&tr=udp%3A%2F%2Ftracker.coppersurfer.tk%3A6969%2Fannounce&tr=udp%3A%2F%2F9.rarbg.to%3A2920%2Fannounce&tr=udp%3A%2F%2Ftracker.opentrackr.org%3A1337&tr=udp%3A%2F%2Ftracker.internetwarriors.net%3A1337%2Fannounce&tr=udp%3A%2F%2Ftracker.leechers-paradise.org%3A6969%2Fannounce&tr=udp%3A%2F%2Ftracker.coppersurfer.tk%3A6969%2Fannounce&tr=udp%3A%2F%2Ftracker.pirateparty.gr%3A6969%2Fannounce&tr=udp%3A%2F%2Ftracker.cyberia.is%3A6969%2Fannounce",
        "seeder": "5",
        "leecher": "0"
    },
    {
        "rank": "47",
        "title": "Maladolescenza (1977) DVD5 RETAIL",
        "link": "magnet:?xt=urn:btih:1C3C48A74DA313786D2358FD222B0A09ED61AB1E&dn=Maladolescenza+%281977%29+DVD5+RETAIL&tr=udp%3A%2F%2Ftracker.coppersurfer.tk%3A6969%2Fannounce&tr=udp%3A%2F%2F9.rarbg.to%3A2920%2Fannounce&tr=udp%3A%2F%2Ftracker.opentrackr.org%3A1337&tr=udp%3A%2F%2Ftracker.internetwarriors.net%3A1337%2Fannounce&tr=udp%3A%2F%2Ftracker.leechers-paradise.org%3A6969%2Fannounce&tr=udp%3A%2F%2Ftracker.coppersurfer.tk%3A6969%2Fannounce&tr=udp%3A%2F%2Ftracker.pirateparty.gr%3A6969%2Fannounce&tr=udp%3A%2F%2Ftracker.cyberia.is%3A6969%2Fannounce",
        "seeder": "5",
        "leecher": "1"
    },
    {
        "rank": "48",
        "title": "James Brown 1973-1974 Soul Train",
        "link": "magnet:?xt=urn:btih:B17DDB3FC4C80517DF286FD589228C4F2AAC3D9F&dn=James+Brown+1973-1974+Soul+Train&tr=udp%3A%2F%2Ftracker.coppersurfer.tk%3A6969%2Fannounce&tr=udp%3A%2F%2F9.rarbg.to%3A2920%2Fannounce&tr=udp%3A%2F%2Ftracker.opentrackr.org%3A1337&tr=udp%3A%2F%2Ftracker.internetwarriors.net%3A1337%2Fannounce&tr=udp%3A%2F%2Ftracker.leechers-paradise.org%3A6969%2Fannounce&tr=udp%3A%2F%2Ftracker.coppersurfer.tk%3A6969%2Fannounce&tr=udp%3A%2F%2Ftracker.pirateparty.gr%3A6969%2Fannounce&tr=udp%3A%2F%2Ftracker.cyberia.is%3A6969%2Fannounce",
        "seeder": "5",
        "leecher": "0"
    },
    {
        "rank": "49",
        "title": "David Gilmour - Citizen Dave",
        "link": "magnet:?xt=urn:btih:A3976615810BE4822407EB1E452048770903BF00&dn=David+Gilmour+-+Citizen+Dave&tr=udp%3A%2F%2Ftracker.coppersurfer.tk%3A6969%2Fannounce&tr=udp%3A%2F%2F9.rarbg.to%3A2920%2Fannounce&tr=udp%3A%2F%2Ftracker.opentrackr.org%3A1337&tr=udp%3A%2F%2Ftracker.internetwarriors.net%3A1337%2Fannounce&tr=udp%3A%2F%2Ftracker.leechers-paradise.org%3A6969%2Fannounce&tr=udp%3A%2F%2Ftracker.coppersurfer.tk%3A6969%2Fannounce&tr=udp%3A%2F%2Ftracker.pirateparty.gr%3A6969%2Fannounce&tr=udp%3A%2F%2Ftracker.cyberia.is%3A6969%2Fannounce",
        "seeder": "5",
        "leecher": "0"
    },
    {
        "rank": "50",
        "title": "Agent Hamilton 1+2 (NL Release 2014) NL Subs PAL DVDR-NLU002",
        "link": "magnet:?xt=urn:btih:79B8DD49D4216132E7ACF633B7E41F8A9F77F0BF&dn=Agent+Hamilton+1%2B2+%28NL+Release+2014%29+NL+Subs+PAL+DVDR-NLU002&tr=udp%3A%2F%2Ftracker.coppersurfer.tk%3A6969%2Fannounce&tr=udp%3A%2F%2F9.rarbg.to%3A2920%2Fannounce&tr=udp%3A%2F%2Ftracker.opentrackr.org%3A1337&tr=udp%3A%2F%2Ftracker.internetwarriors.net%3A1337%2Fannounce&tr=udp%3A%2F%2Ftracker.leechers-paradise.org%3A6969%2Fannounce&tr=udp%3A%2F%2Ftracker.coppersurfer.tk%3A6969%2Fannounce&tr=udp%3A%2F%2Ftracker.pirateparty.gr%3A6969%2Fannounce&tr=udp%3A%2F%2Ftracker.cyberia.is%3A6969%2Fannounce",
        "seeder": "5",
        "leecher": "7"
    },
    {
        "rank": "51",
        "title": "The Matchmaker (1997) DVDrip x264 RB58",
        "link": "magnet:?xt=urn:btih:8C445B9A417FED8853C936A67FDA4327891FC5BF&dn=The+Matchmaker+%281997%29+DVDrip+x264+RB58&tr=udp%3A%2F%2Ftracker.coppersurfer.tk%3A6969%2Fannounce&tr=udp%3A%2F%2F9.rarbg.to%3A2920%2Fannounce&tr=udp%3A%2F%2Ftracker.opentrackr.org%3A1337&tr=udp%3A%2F%2Ftracker.internetwarriors.net%3A1337%2Fannounce&tr=udp%3A%2F%2Ftracker.leechers-paradise.org%3A6969%2Fannounce&tr=udp%3A%2F%2Ftracker.coppersurfer.tk%3A6969%2Fannounce&tr=udp%3A%2F%2Ftracker.pirateparty.gr%3A6969%2Fannounce&tr=udp%3A%2F%2Ftracker.cyberia.is%3A6969%2Fannounce",
        "seeder": "5",
        "leecher": "1"
    },
    {
        "rank": "52",
        "title": "Bill Bailey Live Bewilderness x264 RB58.mp4",
        "link": "magnet:?xt=urn:btih:55862A940AB5F69DE8128DB1353760FF85126898&dn=Bill+Bailey+Live+Bewilderness+x264+RB58.mp4&tr=udp%3A%2F%2Ftracker.coppersurfer.tk%3A6969%2Fannounce&tr=udp%3A%2F%2F9.rarbg.to%3A2920%2Fannounce&tr=udp%3A%2F%2Ftracker.opentrackr.org%3A1337&tr=udp%3A%2F%2Ftracker.internetwarriors.net%3A1337%2Fannounce&tr=udp%3A%2F%2Ftracker.leechers-paradise.org%3A6969%2Fannounce&tr=udp%3A%2F%2Ftracker.coppersurfer.tk%3A6969%2Fannounce&tr=udp%3A%2F%2Ftracker.pirateparty.gr%3A6969%2Fannounce&tr=udp%3A%2F%2Ftracker.cyberia.is%3A6969%2Fannounce",
        "seeder": "5",
        "leecher": "0"
    },
    {
        "rank": "53",
        "title": "The Battle Of Neretva [1969][Extended] PAL Multi DVDR [Request]",
        "link": "magnet:?xt=urn:btih:F458917F734403ED32E834E753DDE8ED0CB8A891&dn=The+Battle+Of+Neretva+%5B1969%5D%5BExtended%5D+PAL+Multi+DVDR+%5BRequest%5D&tr=udp%3A%2F%2Ftracker.coppersurfer.tk%3A6969%2Fannounce&tr=udp%3A%2F%2F9.rarbg.to%3A2920%2Fannounce&tr=udp%3A%2F%2Ftracker.opentrackr.org%3A1337&tr=udp%3A%2F%2Ftracker.internetwarriors.net%3A1337%2Fannounce&tr=udp%3A%2F%2Ftracker.leechers-paradise.org%3A6969%2Fannounce&tr=udp%3A%2F%2Ftracker.coppersurfer.tk%3A6969%2Fannounce&tr=udp%3A%2F%2Ftracker.pirateparty.gr%3A6969%2Fannounce&tr=udp%3A%2F%2Ftracker.cyberia.is%3A6969%2Fannounce",
        "seeder": "5",
        "leecher": "2"
    },
    {
        "rank": "54",
        "title": "Cannabis Collection - Cannabis Weltkultur - Hans Cousto - CannaT",
        "link": "magnet:?xt=urn:btih:AA253078E8F0583AC187284681BDC311334C2D4D&dn=Cannabis+Collection+-+Cannabis+Weltkultur+-+Hans+Cousto+-+CannaT&tr=udp%3A%2F%2Ftracker.coppersurfer.tk%3A6969%2Fannounce&tr=udp%3A%2F%2F9.rarbg.to%3A2920%2Fannounce&tr=udp%3A%2F%2Ftracker.opentrackr.org%3A1337&tr=udp%3A%2F%2Ftracker.internetwarriors.net%3A1337%2Fannounce&tr=udp%3A%2F%2Ftracker.leechers-paradise.org%3A6969%2Fannounce&tr=udp%3A%2F%2Ftracker.coppersurfer.tk%3A6969%2Fannounce&tr=udp%3A%2F%2Ftracker.pirateparty.gr%3A6969%2Fannounce&tr=udp%3A%2F%2Ftracker.cyberia.is%3A6969%2Fannounce",
        "seeder": "5",
        "leecher": "0"
    },
    {
        "rank": "55",
        "title": "Drugs Collection - Alcohol - BBC Horizon - Do I drink too much",
        "link": "magnet:?xt=urn:btih:E5A7AB764335AD293C44635E1A15F9928A5A2C03&dn=Drugs+Collection+-+Alcohol+-+BBC+Horizon+-+Do+I+drink+too+much&tr=udp%3A%2F%2Ftracker.coppersurfer.tk%3A6969%2Fannounce&tr=udp%3A%2F%2F9.rarbg.to%3A2920%2Fannounce&tr=udp%3A%2F%2Ftracker.opentrackr.org%3A1337&tr=udp%3A%2F%2Ftracker.internetwarriors.net%3A1337%2Fannounce&tr=udp%3A%2F%2Ftracker.leechers-paradise.org%3A6969%2Fannounce&tr=udp%3A%2F%2Ftracker.coppersurfer.tk%3A6969%2Fannounce&tr=udp%3A%2F%2Ftracker.pirateparty.gr%3A6969%2Fannounce&tr=udp%3A%2F%2Ftracker.cyberia.is%3A6969%2Fannounce",
        "seeder": "5",
        "leecher": "0"
    },
    {
        "rank": "56",
        "title": "Drugs Collection - HC - Illegal Drugs - LSD Ecstasy and the rave",
        "link": "magnet:?xt=urn:btih:43D0510CA1AB5157D26F33FACF6CDE906669E0EF&dn=Drugs+Collection+-+HC+-+Illegal+Drugs+-+LSD+Ecstasy+and+the+rave&tr=udp%3A%2F%2Ftracker.coppersurfer.tk%3A6969%2Fannounce&tr=udp%3A%2F%2F9.rarbg.to%3A2920%2Fannounce&tr=udp%3A%2F%2Ftracker.opentrackr.org%3A1337&tr=udp%3A%2F%2Ftracker.internetwarriors.net%3A1337%2Fannounce&tr=udp%3A%2F%2Ftracker.leechers-paradise.org%3A6969%2Fannounce&tr=udp%3A%2F%2Ftracker.coppersurfer.tk%3A6969%2Fannounce&tr=udp%3A%2F%2Ftracker.pirateparty.gr%3A6969%2Fannounce&tr=udp%3A%2F%2Ftracker.cyberia.is%3A6969%2Fannounce",
        "seeder": "5",
        "leecher": "1"
    },
    {
        "rank": "57",
        "title": "Cannabis Collection - Howard Marks - Mr. Nice - A Video Dairy",
        "link": "magnet:?xt=urn:btih:E8BF5E1DA461BAF78BA242A92F4991D8A7F9AC2C&dn=Cannabis+Collection+-+Howard+Marks+-+Mr.+Nice+-+A+Video+Dairy&tr=udp%3A%2F%2Ftracker.coppersurfer.tk%3A6969%2Fannounce&tr=udp%3A%2F%2F9.rarbg.to%3A2920%2Fannounce&tr=udp%3A%2F%2Ftracker.opentrackr.org%3A1337&tr=udp%3A%2F%2Ftracker.internetwarriors.net%3A1337%2Fannounce&tr=udp%3A%2F%2Ftracker.leechers-paradise.org%3A6969%2Fannounce&tr=udp%3A%2F%2Ftracker.coppersurfer.tk%3A6969%2Fannounce&tr=udp%3A%2F%2Ftracker.pirateparty.gr%3A6969%2Fannounce&tr=udp%3A%2F%2Ftracker.cyberia.is%3A6969%2Fannounce",
        "seeder": "5",
        "leecher": "0"
    },
    {
        "rank": "58",
        "title": "Cannabis Collection - Just say Grow",
        "link": "magnet:?xt=urn:btih:F5F5DD42CAFAD234A91F6DB8ABCA884CAE3D62F7&dn=Cannabis+Collection+-+Just+say+Grow&tr=udp%3A%2F%2Ftracker.coppersurfer.tk%3A6969%2Fannounce&tr=udp%3A%2F%2F9.rarbg.to%3A2920%2Fannounce&tr=udp%3A%2F%2Ftracker.opentrackr.org%3A1337&tr=udp%3A%2F%2Ftracker.internetwarriors.net%3A1337%2Fannounce&tr=udp%3A%2F%2Ftracker.leechers-paradise.org%3A6969%2Fannounce&tr=udp%3A%2F%2Ftracker.coppersurfer.tk%3A6969%2Fannounce&tr=udp%3A%2F%2Ftracker.pirateparty.gr%3A6969%2Fannounce&tr=udp%3A%2F%2Ftracker.cyberia.is%3A6969%2Fannounce",
        "seeder": "5",
        "leecher": "0"
    },
    {
        "rank": "59",
        "title": "Cannabis Collection - Ready Set Grow",
        "link": "magnet:?xt=urn:btih:7CACE13B9A203F92A46A58CF7ECB1A8665EB530D&dn=Cannabis+Collection+-+Ready+Set+Grow&tr=udp%3A%2F%2Ftracker.coppersurfer.tk%3A6969%2Fannounce&tr=udp%3A%2F%2F9.rarbg.to%3A2920%2Fannounce&tr=udp%3A%2F%2Ftracker.opentrackr.org%3A1337&tr=udp%3A%2F%2Ftracker.internetwarriors.net%3A1337%2Fannounce&tr=udp%3A%2F%2Ftracker.leechers-paradise.org%3A6969%2Fannounce&tr=udp%3A%2F%2Ftracker.coppersurfer.tk%3A6969%2Fannounce&tr=udp%3A%2F%2Ftracker.pirateparty.gr%3A6969%2Fannounce&tr=udp%3A%2F%2Ftracker.cyberia.is%3A6969%2Fannounce",
        "seeder": "5",
        "leecher": "0"
    },
    {
        "rank": "60",
        "title": "Cannabis Collection - Marijuana Gold Rush - NGC",
        "link": "magnet:?xt=urn:btih:8D7F3291A2DE23D0F8E58B8EC074A605010A1EC1&dn=Cannabis+Collection+-+Marijuana+Gold+Rush+-+NGC&tr=udp%3A%2F%2Ftracker.coppersurfer.tk%3A6969%2Fannounce&tr=udp%3A%2F%2F9.rarbg.to%3A2920%2Fannounce&tr=udp%3A%2F%2Ftracker.opentrackr.org%3A1337&tr=udp%3A%2F%2Ftracker.internetwarriors.net%3A1337%2Fannounce&tr=udp%3A%2F%2Ftracker.leechers-paradise.org%3A6969%2Fannounce&tr=udp%3A%2F%2Ftracker.coppersurfer.tk%3A6969%2Fannounce&tr=udp%3A%2F%2Ftracker.pirateparty.gr%3A6969%2Fannounce&tr=udp%3A%2F%2Ftracker.cyberia.is%3A6969%2Fannounce",
        "seeder": "5",
        "leecher": "0"
    },
    {
        "rank": "61",
        "title": "Cannabis Collection - Marijuana - A Chronic History",
        "link": "magnet:?xt=urn:btih:2638B00481B4C2D0F6B092B4F0B12E5FF76B88E3&dn=Cannabis+Collection+-+Marijuana+-+A+Chronic+History&tr=udp%3A%2F%2Ftracker.coppersurfer.tk%3A6969%2Fannounce&tr=udp%3A%2F%2F9.rarbg.to%3A2920%2Fannounce&tr=udp%3A%2F%2Ftracker.opentrackr.org%3A1337&tr=udp%3A%2F%2Ftracker.internetwarriors.net%3A1337%2Fannounce&tr=udp%3A%2F%2Ftracker.leechers-paradise.org%3A6969%2Fannounce&tr=udp%3A%2F%2Ftracker.coppersurfer.tk%3A6969%2Fannounce&tr=udp%3A%2F%2Ftracker.pirateparty.gr%3A6969%2Fannounce&tr=udp%3A%2F%2Ftracker.cyberia.is%3A6969%2Fannounce",
        "seeder": "5",
        "leecher": "0"
    },
    {
        "rank": "62",
        "title": "Stephen King's Storm of the Century (1999) 2 DVD's (multi Subs)T",
        "link": "magnet:?xt=urn:btih:34843C6FA5CE8D4CDB416E278FB3F5A4B9CB3AD9&dn=Stephen+King%27s+Storm+of+the+Century+%281999%29+2+DVD%27s+%28multi+Subs%29T&tr=udp%3A%2F%2Ftracker.coppersurfer.tk%3A6969%2Fannounce&tr=udp%3A%2F%2F9.rarbg.to%3A2920%2Fannounce&tr=udp%3A%2F%2Ftracker.opentrackr.org%3A1337&tr=udp%3A%2F%2Ftracker.internetwarriors.net%3A1337%2Fannounce&tr=udp%3A%2F%2Ftracker.leechers-paradise.org%3A6969%2Fannounce&tr=udp%3A%2F%2Ftracker.coppersurfer.tk%3A6969%2Fannounce&tr=udp%3A%2F%2Ftracker.pirateparty.gr%3A6969%2Fannounce&tr=udp%3A%2F%2Ftracker.cyberia.is%3A6969%2Fannounce",
        "seeder": "5",
        "leecher": "1"
    },
    {
        "rank": "63",
        "title": "Mia aioniotita kai mia mera (Eternity and a Day) [1998 PAL DVD][",
        "link": "magnet:?xt=urn:btih:9DD1D984E170B171276F83AB2063EDED9E40D423&dn=Mia+aioniotita+kai+mia+mera+%28Eternity+and+a+Day%29+%5B1998+PAL+DVD%5D%5B&tr=udp%3A%2F%2Ftracker.coppersurfer.tk%3A6969%2Fannounce&tr=udp%3A%2F%2F9.rarbg.to%3A2920%2Fannounce&tr=udp%3A%2F%2Ftracker.opentrackr.org%3A1337&tr=udp%3A%2F%2Ftracker.internetwarriors.net%3A1337%2Fannounce&tr=udp%3A%2F%2Ftracker.leechers-paradise.org%3A6969%2Fannounce&tr=udp%3A%2F%2Ftracker.coppersurfer.tk%3A6969%2Fannounce&tr=udp%3A%2F%2Ftracker.pirateparty.gr%3A6969%2Fannounce&tr=udp%3A%2F%2Ftracker.cyberia.is%3A6969%2Fannounce",
        "seeder": "5",
        "leecher": "0"
    },
    {
        "rank": "64",
        "title": "Cliff Richard - The Young Ones [1961 PAL DVD][En Subs[SingAlong]",
        "link": "magnet:?xt=urn:btih:6FD58C4831B2EA4CCC2C1E0DBC3B5EF7BDCF226C&dn=Cliff+Richard+-+The+Young+Ones+%5B1961+PAL+DVD%5D%5BEn+Subs%5BSingAlong%5D&tr=udp%3A%2F%2Ftracker.coppersurfer.tk%3A6969%2Fannounce&tr=udp%3A%2F%2F9.rarbg.to%3A2920%2Fannounce&tr=udp%3A%2F%2Ftracker.opentrackr.org%3A1337&tr=udp%3A%2F%2Ftracker.internetwarriors.net%3A1337%2Fannounce&tr=udp%3A%2F%2Ftracker.leechers-paradise.org%3A6969%2Fannounce&tr=udp%3A%2F%2Ftracker.coppersurfer.tk%3A6969%2Fannounce&tr=udp%3A%2F%2Ftracker.pirateparty.gr%3A6969%2Fannounce&tr=udp%3A%2F%2Ftracker.cyberia.is%3A6969%2Fannounce",
        "seeder": "5",
        "leecher": "0"
    },
    {
        "rank": "65",
        "title": "AGI-Milling Machine-Darrell Holland-6DVD-ISO",
        "link": "magnet:?xt=urn:btih:5BEF687B980224D7F5A7E6725F3A459B9A520C90&dn=AGI-Milling+Machine-Darrell+Holland-6DVD-ISO&tr=udp%3A%2F%2Ftracker.coppersurfer.tk%3A6969%2Fannounce&tr=udp%3A%2F%2F9.rarbg.to%3A2920%2Fannounce&tr=udp%3A%2F%2Ftracker.opentrackr.org%3A1337&tr=udp%3A%2F%2Ftracker.internetwarriors.net%3A1337%2Fannounce&tr=udp%3A%2F%2Ftracker.leechers-paradise.org%3A6969%2Fannounce&tr=udp%3A%2F%2Ftracker.coppersurfer.tk%3A6969%2Fannounce&tr=udp%3A%2F%2Ftracker.pirateparty.gr%3A6969%2Fannounce&tr=udp%3A%2F%2Ftracker.cyberia.is%3A6969%2Fannounce",
        "seeder": "5",
        "leecher": "0"
    },
    {
        "rank": "66",
        "title": "Ed Dames Remote Viewing Training Course",
        "link": "magnet:?xt=urn:btih:C36317136E1EC139DE2A63794608339D54D95196&dn=Ed+Dames+Remote+Viewing+Training+Course&tr=udp%3A%2F%2Ftracker.coppersurfer.tk%3A6969%2Fannounce&tr=udp%3A%2F%2F9.rarbg.to%3A2920%2Fannounce&tr=udp%3A%2F%2Ftracker.opentrackr.org%3A1337&tr=udp%3A%2F%2Ftracker.internetwarriors.net%3A1337%2Fannounce&tr=udp%3A%2F%2Ftracker.leechers-paradise.org%3A6969%2Fannounce&tr=udp%3A%2F%2Ftracker.coppersurfer.tk%3A6969%2Fannounce&tr=udp%3A%2F%2Ftracker.pirateparty.gr%3A6969%2Fannounce&tr=udp%3A%2F%2Ftracker.cyberia.is%3A6969%2Fannounce",
        "seeder": "5",
        "leecher": "0"
    },
    {
        "rank": "67",
        "title": "U2 - ZOO TV LIVE FROM SYDNEY 2 DVD",
        "link": "magnet:?xt=urn:btih:13E8D124D25119C87513239EFB503F224446150E&dn=U2+-+ZOO+TV+LIVE+FROM+SYDNEY+2+DVD&tr=udp%3A%2F%2Ftracker.coppersurfer.tk%3A6969%2Fannounce&tr=udp%3A%2F%2F9.rarbg.to%3A2920%2Fannounce&tr=udp%3A%2F%2Ftracker.opentrackr.org%3A1337&tr=udp%3A%2F%2Ftracker.internetwarriors.net%3A1337%2Fannounce&tr=udp%3A%2F%2Ftracker.leechers-paradise.org%3A6969%2Fannounce&tr=udp%3A%2F%2Ftracker.coppersurfer.tk%3A6969%2Fannounce&tr=udp%3A%2F%2Ftracker.pirateparty.gr%3A6969%2Fannounce&tr=udp%3A%2F%2Ftracker.cyberia.is%3A6969%2Fannounce",
        "seeder": "5",
        "leecher": "2"
    },
    {
        "rank": "68",
        "title": "Michael Flatley Riverdance AND Lord of the Dance",
        "link": "magnet:?xt=urn:btih:728658C878B477A3C1511095C21EF98E023709BB&dn=Michael+Flatley+Riverdance+AND+Lord+of+the+Dance&tr=udp%3A%2F%2Ftracker.coppersurfer.tk%3A6969%2Fannounce&tr=udp%3A%2F%2F9.rarbg.to%3A2920%2Fannounce&tr=udp%3A%2F%2Ftracker.opentrackr.org%3A1337&tr=udp%3A%2F%2Ftracker.internetwarriors.net%3A1337%2Fannounce&tr=udp%3A%2F%2Ftracker.leechers-paradise.org%3A6969%2Fannounce&tr=udp%3A%2F%2Ftracker.coppersurfer.tk%3A6969%2Fannounce&tr=udp%3A%2F%2Ftracker.pirateparty.gr%3A6969%2Fannounce&tr=udp%3A%2F%2Ftracker.cyberia.is%3A6969%2Fannounce",
        "seeder": "5",
        "leecher": "0"
    },
    {
        "rank": "69",
        "title": "Malcom X-DVDR-SUBS, ENG, FRA",
        "link": "magnet:?xt=urn:btih:F71066795B132AD3353CD9DCEB4B6C43CD4B84DF&dn=Malcom+X-DVDR-SUBS%2C+ENG%2C+FRA&tr=udp%3A%2F%2Ftracker.coppersurfer.tk%3A6969%2Fannounce&tr=udp%3A%2F%2F9.rarbg.to%3A2920%2Fannounce&tr=udp%3A%2F%2Ftracker.opentrackr.org%3A1337&tr=udp%3A%2F%2Ftracker.internetwarriors.net%3A1337%2Fannounce&tr=udp%3A%2F%2Ftracker.leechers-paradise.org%3A6969%2Fannounce&tr=udp%3A%2F%2Ftracker.coppersurfer.tk%3A6969%2Fannounce&tr=udp%3A%2F%2Ftracker.pirateparty.gr%3A6969%2Fannounce&tr=udp%3A%2F%2Ftracker.cyberia.is%3A6969%2Fannounce",
        "seeder": "5",
        "leecher": "0"
    },
    {
        "rank": "70",
        "title": "Cannabis Collection - Growing Belushi - S01 - DVD9",
        "link": "magnet:?xt=urn:btih:4022D7E01CE50AD95D07733E2B2568CCB7740DFF&dn=Cannabis+Collection+-+Growing+Belushi+-+S01+-+DVD9&tr=udp%3A%2F%2Ftracker.coppersurfer.tk%3A6969%2Fannounce&tr=udp%3A%2F%2F9.rarbg.to%3A2920%2Fannounce&tr=udp%3A%2F%2Ftracker.opentrackr.org%3A1337&tr=udp%3A%2F%2Ftracker.internetwarriors.net%3A1337%2Fannounce&tr=udp%3A%2F%2Ftracker.leechers-paradise.org%3A6969%2Fannounce&tr=udp%3A%2F%2Ftracker.coppersurfer.tk%3A6969%2Fannounce&tr=udp%3A%2F%2Ftracker.pirateparty.gr%3A6969%2Fannounce&tr=udp%3A%2F%2Ftracker.cyberia.is%3A6969%2Fannounce",
        "seeder": "4",
        "leecher": "0"
    },
    {
        "rank": "71",
        "title": "Cannabis Collection - Strain Hunters Morocco Expedition",
        "link": "magnet:?xt=urn:btih:FD6F839B92EA1F9264F718BDC38DC7B5E7832B1A&dn=Cannabis+Collection+-+Strain+Hunters+Morocco+Expedition&tr=udp%3A%2F%2Ftracker.coppersurfer.tk%3A6969%2Fannounce&tr=udp%3A%2F%2F9.rarbg.to%3A2920%2Fannounce&tr=udp%3A%2F%2Ftracker.opentrackr.org%3A1337&tr=udp%3A%2F%2Ftracker.internetwarriors.net%3A1337%2Fannounce&tr=udp%3A%2F%2Ftracker.leechers-paradise.org%3A6969%2Fannounce&tr=udp%3A%2F%2Ftracker.coppersurfer.tk%3A6969%2Fannounce&tr=udp%3A%2F%2Ftracker.pirateparty.gr%3A6969%2Fannounce&tr=udp%3A%2F%2Ftracker.cyberia.is%3A6969%2Fannounce",
        "seeder": "4",
        "leecher": "0"
    },
    {
        "rank": "72",
        "title": "Cannabis Collection - Hempsters - Plant The Seed",
        "link": "magnet:?xt=urn:btih:35E1FEC6AECAE0E4C0A15C5C553ACA945B0AE888&dn=Cannabis+Collection+-+Hempsters+-+Plant+The+Seed&tr=udp%3A%2F%2Ftracker.coppersurfer.tk%3A6969%2Fannounce&tr=udp%3A%2F%2F9.rarbg.to%3A2920%2Fannounce&tr=udp%3A%2F%2Ftracker.opentrackr.org%3A1337&tr=udp%3A%2F%2Ftracker.internetwarriors.net%3A1337%2Fannounce&tr=udp%3A%2F%2Ftracker.leechers-paradise.org%3A6969%2Fannounce&tr=udp%3A%2F%2Ftracker.coppersurfer.tk%3A6969%2Fannounce&tr=udp%3A%2F%2Ftracker.pirateparty.gr%3A6969%2Fannounce&tr=udp%3A%2F%2Ftracker.cyberia.is%3A6969%2Fannounce",
        "seeder": "4",
        "leecher": "0"
    },
    {
        "rank": "73",
        "title": "Pat and Mike (1952)",
        "link": "magnet:?xt=urn:btih:1C96F44FC2A4919E61EA656727CD2F172E10A84F&dn=Pat+and+Mike+%281952%29&tr=udp%3A%2F%2Ftracker.coppersurfer.tk%3A6969%2Fannounce&tr=udp%3A%2F%2F9.rarbg.to%3A2920%2Fannounce&tr=udp%3A%2F%2Ftracker.opentrackr.org%3A1337&tr=udp%3A%2F%2Ftracker.internetwarriors.net%3A1337%2Fannounce&tr=udp%3A%2F%2Ftracker.leechers-paradise.org%3A6969%2Fannounce&tr=udp%3A%2F%2Ftracker.coppersurfer.tk%3A6969%2Fannounce&tr=udp%3A%2F%2Ftracker.pirateparty.gr%3A6969%2Fannounce&tr=udp%3A%2F%2Ftracker.cyberia.is%3A6969%2Fannounce",
        "seeder": "4",
        "leecher": "0"
    },
    {
        "rank": "74",
        "title": "John Wick 2014 1080p BluRay Hindi English DD 5.1 - LOKI - M2Tv",
        "link": "magnet:?xt=urn:btih:4D4A27757D272116FE5AA1F5CE8711F48F6DFC0E&dn=John+Wick+2014+1080p+BluRay+Hindi+English+DD+5.1+-+LOKI+-+M2Tv&tr=udp%3A%2F%2Ftracker.coppersurfer.tk%3A6969%2Fannounce&tr=udp%3A%2F%2F9.rarbg.to%3A2920%2Fannounce&tr=udp%3A%2F%2Ftracker.opentrackr.org%3A1337&tr=udp%3A%2F%2Ftracker.internetwarriors.net%3A1337%2Fannounce&tr=udp%3A%2F%2Ftracker.leechers-paradise.org%3A6969%2Fannounce&tr=udp%3A%2F%2Ftracker.coppersurfer.tk%3A6969%2Fannounce&tr=udp%3A%2F%2Ftracker.pirateparty.gr%3A6969%2Fannounce&tr=udp%3A%2F%2Ftracker.cyberia.is%3A6969%2Fannounce",
        "seeder": "4",
        "leecher": "8"
    },
    {
        "rank": "75",
        "title": "Garage Olimpo (1999) - DVDRip x264 - ESP-ITA (ENG SUBS) [BRSHNKV",
        "link": "magnet:?xt=urn:btih:EE2B3D2FA9C34F82242208F6751CD6F237375C5B&dn=Garage+Olimpo+%281999%29+-+DVDRip+x264+-+ESP-ITA+%28ENG+SUBS%29+%5BBRSHNKV&tr=udp%3A%2F%2Ftracker.coppersurfer.tk%3A6969%2Fannounce&tr=udp%3A%2F%2F9.rarbg.to%3A2920%2Fannounce&tr=udp%3A%2F%2Ftracker.opentrackr.org%3A1337&tr=udp%3A%2F%2Ftracker.internetwarriors.net%3A1337%2Fannounce&tr=udp%3A%2F%2Ftracker.leechers-paradise.org%3A6969%2Fannounce&tr=udp%3A%2F%2Ftracker.coppersurfer.tk%3A6969%2Fannounce&tr=udp%3A%2F%2Ftracker.pirateparty.gr%3A6969%2Fannounce&tr=udp%3A%2F%2Ftracker.cyberia.is%3A6969%2Fannounce",
        "seeder": "4",
        "leecher": "1"
    },
    {
        "rank": "76",
        "title": "GGG.Il.Grande.Gigante.Gentile[Spielberg2016]byKenzo[dvd9]",
        "link": "magnet:?xt=urn:btih:7AF8DB9048DB2C4B0308CD6EB7B75D09D45CB0B1&dn=GGG.Il.Grande.Gigante.Gentile%5BSpielberg2016%5DbyKenzo%5Bdvd9%5D&tr=udp%3A%2F%2Ftracker.coppersurfer.tk%3A6969%2Fannounce&tr=udp%3A%2F%2F9.rarbg.to%3A2920%2Fannounce&tr=udp%3A%2F%2Ftracker.opentrackr.org%3A1337&tr=udp%3A%2F%2Ftracker.internetwarriors.net%3A1337%2Fannounce&tr=udp%3A%2F%2Ftracker.leechers-paradise.org%3A6969%2Fannounce&tr=udp%3A%2F%2Ftracker.coppersurfer.tk%3A6969%2Fannounce&tr=udp%3A%2F%2Ftracker.pirateparty.gr%3A6969%2Fannounce&tr=udp%3A%2F%2Ftracker.cyberia.is%3A6969%2Fannounce",
        "seeder": "4",
        "leecher": "0"
    },
    {
        "rank": "77",
        "title": "Max and Paddy Road To Nowhere 2004 DVDR",
        "link": "magnet:?xt=urn:btih:CCE481F2C7CBE252D4DEF4492A6A8AA1A5CC2289&dn=Max+and+Paddy+Road+To+Nowhere+2004+DVDR&tr=udp%3A%2F%2Ftracker.coppersurfer.tk%3A6969%2Fannounce&tr=udp%3A%2F%2F9.rarbg.to%3A2920%2Fannounce&tr=udp%3A%2F%2Ftracker.opentrackr.org%3A1337&tr=udp%3A%2F%2Ftracker.internetwarriors.net%3A1337%2Fannounce&tr=udp%3A%2F%2Ftracker.leechers-paradise.org%3A6969%2Fannounce&tr=udp%3A%2F%2Ftracker.coppersurfer.tk%3A6969%2Fannounce&tr=udp%3A%2F%2Ftracker.pirateparty.gr%3A6969%2Fannounce&tr=udp%3A%2F%2Ftracker.cyberia.is%3A6969%2Fannounce",
        "seeder": "4",
        "leecher": "2"
    },
    {
        "rank": "78",
        "title": "Cannabis Collection - CNN - Weed 2 - Cannabis Madness",
        "link": "magnet:?xt=urn:btih:A1EC372E721433F84D7E1F2D7B496D93D9436CAD&dn=Cannabis+Collection+-+CNN+-+Weed+2+-+Cannabis+Madness&tr=udp%3A%2F%2Ftracker.coppersurfer.tk%3A6969%2Fannounce&tr=udp%3A%2F%2F9.rarbg.to%3A2920%2Fannounce&tr=udp%3A%2F%2Ftracker.opentrackr.org%3A1337&tr=udp%3A%2F%2Ftracker.internetwarriors.net%3A1337%2Fannounce&tr=udp%3A%2F%2Ftracker.leechers-paradise.org%3A6969%2Fannounce&tr=udp%3A%2F%2Ftracker.coppersurfer.tk%3A6969%2Fannounce&tr=udp%3A%2F%2Ftracker.pirateparty.gr%3A6969%2Fannounce&tr=udp%3A%2F%2Ftracker.cyberia.is%3A6969%2Fannounce",
        "seeder": "4",
        "leecher": "0"
    },
    {
        "rank": "79",
        "title": "Genesis - In Concert - 1976",
        "link": "magnet:?xt=urn:btih:A4ED71750B50EE0BAAA66E9675605A43F365E4A8&dn=Genesis+-+In+Concert+-+1976&tr=udp%3A%2F%2Ftracker.coppersurfer.tk%3A6969%2Fannounce&tr=udp%3A%2F%2F9.rarbg.to%3A2920%2Fannounce&tr=udp%3A%2F%2Ftracker.opentrackr.org%3A1337&tr=udp%3A%2F%2Ftracker.internetwarriors.net%3A1337%2Fannounce&tr=udp%3A%2F%2Ftracker.leechers-paradise.org%3A6969%2Fannounce&tr=udp%3A%2F%2Ftracker.coppersurfer.tk%3A6969%2Fannounce&tr=udp%3A%2F%2Ftracker.pirateparty.gr%3A6969%2Fannounce&tr=udp%3A%2F%2Ftracker.cyberia.is%3A6969%2Fannounce",
        "seeder": "4",
        "leecher": "0"
    },
    {
        "rank": "80",
        "title": "Jack Bruce - Live at the Rockpalast 93",
        "link": "magnet:?xt=urn:btih:34A1C21D6A8B5892C3CD7DD051B7C3358BCF298D&dn=Jack+Bruce+-+Live+at+the+Rockpalast+93&tr=udp%3A%2F%2Ftracker.coppersurfer.tk%3A6969%2Fannounce&tr=udp%3A%2F%2F9.rarbg.to%3A2920%2Fannounce&tr=udp%3A%2F%2Ftracker.opentrackr.org%3A1337&tr=udp%3A%2F%2Ftracker.internetwarriors.net%3A1337%2Fannounce&tr=udp%3A%2F%2Ftracker.leechers-paradise.org%3A6969%2Fannounce&tr=udp%3A%2F%2Ftracker.coppersurfer.tk%3A6969%2Fannounce&tr=udp%3A%2F%2Ftracker.pirateparty.gr%3A6969%2Fannounce&tr=udp%3A%2F%2Ftracker.cyberia.is%3A6969%2Fannounce",
        "seeder": "4",
        "leecher": "0"
    },
    {
        "rank": "81",
        "title": "Extreme Boxing: Hardcore Boxing for Self-Defense (2005) - DVDRip",
        "link": "magnet:?xt=urn:btih:964B8C98CDD17AFECD39B3B85F1CD1D79A6361DF&dn=Extreme+Boxing%3A+Hardcore+Boxing+for+Self-Defense+%282005%29+-+DVDRip&tr=udp%3A%2F%2Ftracker.coppersurfer.tk%3A6969%2Fannounce&tr=udp%3A%2F%2F9.rarbg.to%3A2920%2Fannounce&tr=udp%3A%2F%2Ftracker.opentrackr.org%3A1337&tr=udp%3A%2F%2Ftracker.internetwarriors.net%3A1337%2Fannounce&tr=udp%3A%2F%2Ftracker.leechers-paradise.org%3A6969%2Fannounce&tr=udp%3A%2F%2Ftracker.coppersurfer.tk%3A6969%2Fannounce&tr=udp%3A%2F%2Ftracker.pirateparty.gr%3A6969%2Fannounce&tr=udp%3A%2F%2Ftracker.cyberia.is%3A6969%2Fannounce",
        "seeder": "4",
        "leecher": "0"
    },
    {
        "rank": "82",
        "title": "Marx Brothers [1937] A Day At The Races - Eng, Ger, Sp + multisu",
        "link": "magnet:?xt=urn:btih:E7346CC164E2967AB38011BFC6FF93238C11F856&dn=Marx+Brothers+%5B1937%5D+A+Day+At+The+Races+-+Eng%2C+Ger%2C+Sp+%2B+multisu&tr=udp%3A%2F%2Ftracker.coppersurfer.tk%3A6969%2Fannounce&tr=udp%3A%2F%2F9.rarbg.to%3A2920%2Fannounce&tr=udp%3A%2F%2Ftracker.opentrackr.org%3A1337&tr=udp%3A%2F%2Ftracker.internetwarriors.net%3A1337%2Fannounce&tr=udp%3A%2F%2Ftracker.leechers-paradise.org%3A6969%2Fannounce&tr=udp%3A%2F%2Ftracker.coppersurfer.tk%3A6969%2Fannounce&tr=udp%3A%2F%2Ftracker.pirateparty.gr%3A6969%2Fannounce&tr=udp%3A%2F%2Ftracker.cyberia.is%3A6969%2Fannounce",
        "seeder": "4",
        "leecher": "1"
    },
    {
        "rank": "83",
        "title": "King Flight Schools Private Pilot Licence DVD Course (ISO) [INFE",
        "link": "magnet:?xt=urn:btih:97F0C06E89E4FE1C58CAD48CFB8869656013E3A5&dn=King+Flight+Schools+Private+Pilot+Licence+DVD+Course+%28ISO%29+%5BINFE&tr=udp%3A%2F%2Ftracker.coppersurfer.tk%3A6969%2Fannounce&tr=udp%3A%2F%2F9.rarbg.to%3A2920%2Fannounce&tr=udp%3A%2F%2Ftracker.opentrackr.org%3A1337&tr=udp%3A%2F%2Ftracker.internetwarriors.net%3A1337%2Fannounce&tr=udp%3A%2F%2Ftracker.leechers-paradise.org%3A6969%2Fannounce&tr=udp%3A%2F%2Ftracker.coppersurfer.tk%3A6969%2Fannounce&tr=udp%3A%2F%2Ftracker.pirateparty.gr%3A6969%2Fannounce&tr=udp%3A%2F%2Ftracker.cyberia.is%3A6969%2Fannounce",
        "seeder": "4",
        "leecher": "2"
    },
    {
        "rank": "84",
        "title": "Best of Warner Bros  25 Cartoon Collection [2013] DVD-2 YG",
        "link": "magnet:?xt=urn:btih:410589554FCBC540ECD22DB8DF80CFDF30C6D168&dn=Best+of+Warner+Bros++25+Cartoon+Collection+%5B2013%5D+DVD-2+YG&tr=udp%3A%2F%2Ftracker.coppersurfer.tk%3A6969%2Fannounce&tr=udp%3A%2F%2F9.rarbg.to%3A2920%2Fannounce&tr=udp%3A%2F%2Ftracker.opentrackr.org%3A1337&tr=udp%3A%2F%2Ftracker.internetwarriors.net%3A1337%2Fannounce&tr=udp%3A%2F%2Ftracker.leechers-paradise.org%3A6969%2Fannounce&tr=udp%3A%2F%2Ftracker.coppersurfer.tk%3A6969%2Fannounce&tr=udp%3A%2F%2Ftracker.pirateparty.gr%3A6969%2Fannounce&tr=udp%3A%2F%2Ftracker.cyberia.is%3A6969%2Fannounce",
        "seeder": "4",
        "leecher": "0"
    },
    {
        "rank": "85",
        "title": "Best of Warner Bros  25 Cartoon Collection [2013] DVD-1 YG",
        "link": "magnet:?xt=urn:btih:12A77553B0DE8CA5E027427FE09C5A336EB0389D&dn=Best+of+Warner+Bros++25+Cartoon+Collection+%5B2013%5D+DVD-1+YG&tr=udp%3A%2F%2Ftracker.coppersurfer.tk%3A6969%2Fannounce&tr=udp%3A%2F%2F9.rarbg.to%3A2920%2Fannounce&tr=udp%3A%2F%2Ftracker.opentrackr.org%3A1337&tr=udp%3A%2F%2Ftracker.internetwarriors.net%3A1337%2Fannounce&tr=udp%3A%2F%2Ftracker.leechers-paradise.org%3A6969%2Fannounce&tr=udp%3A%2F%2Ftracker.coppersurfer.tk%3A6969%2Fannounce&tr=udp%3A%2F%2Ftracker.pirateparty.gr%3A6969%2Fannounce&tr=udp%3A%2F%2Ftracker.cyberia.is%3A6969%2Fannounce",
        "seeder": "4",
        "leecher": "0"
    },
    {
        "rank": "86",
        "title": "The Boys of Paul Street/A P\u00e1l-utcai fi\u00fak(1969)DVD9",
        "link": "magnet:?xt=urn:btih:C9567B4AC3AB43D854BCAF70348513C6BC1B5764&dn=The+Boys+of+Paul+Street%2FA+P%26aacute%3Bl-utcai+fi%26uacute%3Bk%281969%29DVD9&tr=udp%3A%2F%2Ftracker.coppersurfer.tk%3A6969%2Fannounce&tr=udp%3A%2F%2F9.rarbg.to%3A2920%2Fannounce&tr=udp%3A%2F%2Ftracker.opentrackr.org%3A1337&tr=udp%3A%2F%2Ftracker.internetwarriors.net%3A1337%2Fannounce&tr=udp%3A%2F%2Ftracker.leechers-paradise.org%3A6969%2Fannounce&tr=udp%3A%2F%2Ftracker.coppersurfer.tk%3A6969%2Fannounce&tr=udp%3A%2F%2Ftracker.pirateparty.gr%3A6969%2Fannounce&tr=udp%3A%2F%2Ftracker.cyberia.is%3A6969%2Fannounce",
        "seeder": "4",
        "leecher": "0"
    },
    {
        "rank": "87",
        "title": "R2B: Return to Base (2012) PAL DVDR DD5.1 De NL Subs",
        "link": "magnet:?xt=urn:btih:ACDAF23DD7A8EB0AE197EBF5B531210D426528BA&dn=R2B%3A+Return+to+Base+%282012%29+PAL+DVDR+DD5.1+De+NL+Subs&tr=udp%3A%2F%2Ftracker.coppersurfer.tk%3A6969%2Fannounce&tr=udp%3A%2F%2F9.rarbg.to%3A2920%2Fannounce&tr=udp%3A%2F%2Ftracker.opentrackr.org%3A1337&tr=udp%3A%2F%2Ftracker.internetwarriors.net%3A1337%2Fannounce&tr=udp%3A%2F%2Ftracker.leechers-paradise.org%3A6969%2Fannounce&tr=udp%3A%2F%2Ftracker.coppersurfer.tk%3A6969%2Fannounce&tr=udp%3A%2F%2Ftracker.pirateparty.gr%3A6969%2Fannounce&tr=udp%3A%2F%2Ftracker.cyberia.is%3A6969%2Fannounce",
        "seeder": "4",
        "leecher": "1"
    },
    {
        "rank": "88",
        "title": "We're Not Married! (1952) DVD5 ENG RUS- rutracker",
        "link": "magnet:?xt=urn:btih:EB09738E2283C692C992D13031BBEFDACA215D69&dn=We%27re+Not+Married%21+%281952%29+DVD5+ENG+RUS-+rutracker&tr=udp%3A%2F%2Ftracker.coppersurfer.tk%3A6969%2Fannounce&tr=udp%3A%2F%2F9.rarbg.to%3A2920%2Fannounce&tr=udp%3A%2F%2Ftracker.opentrackr.org%3A1337&tr=udp%3A%2F%2Ftracker.internetwarriors.net%3A1337%2Fannounce&tr=udp%3A%2F%2Ftracker.leechers-paradise.org%3A6969%2Fannounce&tr=udp%3A%2F%2Ftracker.coppersurfer.tk%3A6969%2Fannounce&tr=udp%3A%2F%2Ftracker.pirateparty.gr%3A6969%2Fannounce&tr=udp%3A%2F%2Ftracker.cyberia.is%3A6969%2Fannounce",
        "seeder": "4",
        "leecher": "2"
    },
    {
        "rank": "89",
        "title": "U2 PopMart Tour Live From Mexico City [DVD9  Eng - Dolby 5.1] TN",
        "link": "magnet:?xt=urn:btih:FF2D0BFE817A3965771C518E6445D8D41691A1B5&dn=U2+PopMart+Tour+Live+From+Mexico+City+%5BDVD9++Eng+-+Dolby+5.1%5D+TN&tr=udp%3A%2F%2Ftracker.coppersurfer.tk%3A6969%2Fannounce&tr=udp%3A%2F%2F9.rarbg.to%3A2920%2Fannounce&tr=udp%3A%2F%2Ftracker.opentrackr.org%3A1337&tr=udp%3A%2F%2Ftracker.internetwarriors.net%3A1337%2Fannounce&tr=udp%3A%2F%2Ftracker.leechers-paradise.org%3A6969%2Fannounce&tr=udp%3A%2F%2Ftracker.coppersurfer.tk%3A6969%2Fannounce&tr=udp%3A%2F%2Ftracker.pirateparty.gr%3A6969%2Fannounce&tr=udp%3A%2F%2Ftracker.cyberia.is%3A6969%2Fannounce",
        "seeder": "4",
        "leecher": "1"
    },
    {
        "rank": "90",
        "title": "To Catch a Thief (Hitchcock) [1955], Eng, Fr, Ger, It, Sp + mult",
        "link": "magnet:?xt=urn:btih:D2693B0B7C0A278B8A863DF0CB35759333B4EFCF&dn=To+Catch+a+Thief+%28Hitchcock%29+%5B1955%5D%2C+Eng%2C+Fr%2C+Ger%2C+It%2C+Sp+%2B+mult&tr=udp%3A%2F%2Ftracker.coppersurfer.tk%3A6969%2Fannounce&tr=udp%3A%2F%2F9.rarbg.to%3A2920%2Fannounce&tr=udp%3A%2F%2Ftracker.opentrackr.org%3A1337&tr=udp%3A%2F%2Ftracker.internetwarriors.net%3A1337%2Fannounce&tr=udp%3A%2F%2Ftracker.leechers-paradise.org%3A6969%2Fannounce&tr=udp%3A%2F%2Ftracker.coppersurfer.tk%3A6969%2Fannounce&tr=udp%3A%2F%2Ftracker.pirateparty.gr%3A6969%2Fannounce&tr=udp%3A%2F%2Ftracker.cyberia.is%3A6969%2Fannounce",
        "seeder": "4",
        "leecher": "0"
    },
    {
        "rank": "91",
        "title": "Drugs Collection - Rakontur - Cocaine Cowboys I",
        "link": "magnet:?xt=urn:btih:1AB2CB0C500E8E21577A93284592E5FDE58CC0B3&dn=Drugs+Collection+-+Rakontur+-+Cocaine+Cowboys+I&tr=udp%3A%2F%2Ftracker.coppersurfer.tk%3A6969%2Fannounce&tr=udp%3A%2F%2F9.rarbg.to%3A2920%2Fannounce&tr=udp%3A%2F%2Ftracker.opentrackr.org%3A1337&tr=udp%3A%2F%2Ftracker.internetwarriors.net%3A1337%2Fannounce&tr=udp%3A%2F%2Ftracker.leechers-paradise.org%3A6969%2Fannounce&tr=udp%3A%2F%2Ftracker.coppersurfer.tk%3A6969%2Fannounce&tr=udp%3A%2F%2Ftracker.pirateparty.gr%3A6969%2Fannounce&tr=udp%3A%2F%2Ftracker.cyberia.is%3A6969%2Fannounce",
        "seeder": "4",
        "leecher": "0"
    },
    {
        "rank": "92",
        "title": "Cannabis Collection - CBC - Cannabis Pain Medication",
        "link": "magnet:?xt=urn:btih:1D059EB5AA9F91CF6412C8E7A7959667806E6054&dn=Cannabis+Collection+-+CBC+-+Cannabis+Pain+Medication&tr=udp%3A%2F%2Ftracker.coppersurfer.tk%3A6969%2Fannounce&tr=udp%3A%2F%2F9.rarbg.to%3A2920%2Fannounce&tr=udp%3A%2F%2Ftracker.opentrackr.org%3A1337&tr=udp%3A%2F%2Ftracker.internetwarriors.net%3A1337%2Fannounce&tr=udp%3A%2F%2Ftracker.leechers-paradise.org%3A6969%2Fannounce&tr=udp%3A%2F%2Ftracker.coppersurfer.tk%3A6969%2Fannounce&tr=udp%3A%2F%2Ftracker.pirateparty.gr%3A6969%2Fannounce&tr=udp%3A%2F%2Ftracker.cyberia.is%3A6969%2Fannounce",
        "seeder": "4",
        "leecher": "0"
    },
    {
        "rank": "93",
        "title": "Cannabis Collection - Hemplands",
        "link": "magnet:?xt=urn:btih:A0C499F09C92F279DA2920C841C2475877E39BD4&dn=Cannabis+Collection+-+Hemplands&tr=udp%3A%2F%2Ftracker.coppersurfer.tk%3A6969%2Fannounce&tr=udp%3A%2F%2F9.rarbg.to%3A2920%2Fannounce&tr=udp%3A%2F%2Ftracker.opentrackr.org%3A1337&tr=udp%3A%2F%2Ftracker.internetwarriors.net%3A1337%2Fannounce&tr=udp%3A%2F%2Ftracker.leechers-paradise.org%3A6969%2Fannounce&tr=udp%3A%2F%2Ftracker.coppersurfer.tk%3A6969%2Fannounce&tr=udp%3A%2F%2Ftracker.pirateparty.gr%3A6969%2Fannounce&tr=udp%3A%2F%2Ftracker.cyberia.is%3A6969%2Fannounce",
        "seeder": "4",
        "leecher": "0"
    },
    {
        "rank": "94",
        "title": "Cannabis Collection - Kif from the Rif",
        "link": "magnet:?xt=urn:btih:0FF1DA63F39D35F3E174D7517DD930FFAD0CAAC8&dn=Cannabis+Collection+-+Kif+from+the+Rif&tr=udp%3A%2F%2Ftracker.coppersurfer.tk%3A6969%2Fannounce&tr=udp%3A%2F%2F9.rarbg.to%3A2920%2Fannounce&tr=udp%3A%2F%2Ftracker.opentrackr.org%3A1337&tr=udp%3A%2F%2Ftracker.internetwarriors.net%3A1337%2Fannounce&tr=udp%3A%2F%2Ftracker.leechers-paradise.org%3A6969%2Fannounce&tr=udp%3A%2F%2Ftracker.coppersurfer.tk%3A6969%2Fannounce&tr=udp%3A%2F%2Ftracker.pirateparty.gr%3A6969%2Fannounce&tr=udp%3A%2F%2Ftracker.cyberia.is%3A6969%2Fannounce",
        "seeder": "4",
        "leecher": "0"
    },
    {
        "rank": "95",
        "title": "Cannabis Collection - Stoned Free - Guide to Growing Cannabis",
        "link": "magnet:?xt=urn:btih:9513ED8E4487589DA212B06EB39C0584FFC0E8E7&dn=Cannabis+Collection+-+Stoned+Free+-+Guide+to+Growing+Cannabis&tr=udp%3A%2F%2Ftracker.coppersurfer.tk%3A6969%2Fannounce&tr=udp%3A%2F%2F9.rarbg.to%3A2920%2Fannounce&tr=udp%3A%2F%2Ftracker.opentrackr.org%3A1337&tr=udp%3A%2F%2Ftracker.internetwarriors.net%3A1337%2Fannounce&tr=udp%3A%2F%2Ftracker.leechers-paradise.org%3A6969%2Fannounce&tr=udp%3A%2F%2Ftracker.coppersurfer.tk%3A6969%2Fannounce&tr=udp%3A%2F%2Ftracker.pirateparty.gr%3A6969%2Fannounce&tr=udp%3A%2F%2Ftracker.cyberia.is%3A6969%2Fannounce",
        "seeder": "4",
        "leecher": "1"
    },
    {
        "rank": "96",
        "title": "Cannabis Collection - Timeshift - The Cannabis Years",
        "link": "magnet:?xt=urn:btih:E64D787230640BD932D379FA897E5C87D17275D4&dn=Cannabis+Collection+-+Timeshift+-+The+Cannabis+Years&tr=udp%3A%2F%2Ftracker.coppersurfer.tk%3A6969%2Fannounce&tr=udp%3A%2F%2F9.rarbg.to%3A2920%2Fannounce&tr=udp%3A%2F%2Ftracker.opentrackr.org%3A1337&tr=udp%3A%2F%2Ftracker.internetwarriors.net%3A1337%2Fannounce&tr=udp%3A%2F%2Ftracker.leechers-paradise.org%3A6969%2Fannounce&tr=udp%3A%2F%2Ftracker.coppersurfer.tk%3A6969%2Fannounce&tr=udp%3A%2F%2Ftracker.pirateparty.gr%3A6969%2Fannounce&tr=udp%3A%2F%2Ftracker.cyberia.is%3A6969%2Fannounce",
        "seeder": "4",
        "leecher": "0"
    },
    {
        "rank": "97",
        "title": "Drugs Collection - The Beyond Within - LSD",
        "link": "magnet:?xt=urn:btih:C8987A40F5A5C2552CFAC3AFFD7496ED7F702A99&dn=Drugs+Collection+-+The+Beyond+Within+-+LSD&tr=udp%3A%2F%2Ftracker.coppersurfer.tk%3A6969%2Fannounce&tr=udp%3A%2F%2F9.rarbg.to%3A2920%2Fannounce&tr=udp%3A%2F%2Ftracker.opentrackr.org%3A1337&tr=udp%3A%2F%2Ftracker.internetwarriors.net%3A1337%2Fannounce&tr=udp%3A%2F%2Ftracker.leechers-paradise.org%3A6969%2Fannounce&tr=udp%3A%2F%2Ftracker.coppersurfer.tk%3A6969%2Fannounce&tr=udp%3A%2F%2Ftracker.pirateparty.gr%3A6969%2Fannounce&tr=udp%3A%2F%2Ftracker.cyberia.is%3A6969%2Fannounce",
        "seeder": "4",
        "leecher": "0"
    },
    {
        "rank": "98",
        "title": "Cannabis Collection - Weed Wars",
        "link": "magnet:?xt=urn:btih:F98498C1D005D57EB180192E543CD81986AAFFEA&dn=Cannabis+Collection+-+Weed+Wars&tr=udp%3A%2F%2Ftracker.coppersurfer.tk%3A6969%2Fannounce&tr=udp%3A%2F%2F9.rarbg.to%3A2920%2Fannounce&tr=udp%3A%2F%2Ftracker.opentrackr.org%3A1337&tr=udp%3A%2F%2Ftracker.internetwarriors.net%3A1337%2Fannounce&tr=udp%3A%2F%2Ftracker.leechers-paradise.org%3A6969%2Fannounce&tr=udp%3A%2F%2Ftracker.coppersurfer.tk%3A6969%2Fannounce&tr=udp%3A%2F%2Ftracker.pirateparty.gr%3A6969%2Fannounce&tr=udp%3A%2F%2Ftracker.cyberia.is%3A6969%2Fannounce",
        "seeder": "4",
        "leecher": "0"
    },
    {
        "rank": "99",
        "title": "Cannabis Collection - Hemp Revolution",
        "link": "magnet:?xt=urn:btih:97A677BF3D6E0574ACA4685FBC3D9B5767A5FDF0&dn=Cannabis+Collection+-+Hemp+Revolution&tr=udp%3A%2F%2Ftracker.coppersurfer.tk%3A6969%2Fannounce&tr=udp%3A%2F%2F9.rarbg.to%3A2920%2Fannounce&tr=udp%3A%2F%2Ftracker.opentrackr.org%3A1337&tr=udp%3A%2F%2Ftracker.internetwarriors.net%3A1337%2Fannounce&tr=udp%3A%2F%2Ftracker.leechers-paradise.org%3A6969%2Fannounce&tr=udp%3A%2F%2Ftracker.coppersurfer.tk%3A6969%2Fannounce&tr=udp%3A%2F%2Ftracker.pirateparty.gr%3A6969%2Fannounce&tr=udp%3A%2F%2Ftracker.cyberia.is%3A6969%2Fannounce",
        "seeder": "4",
        "leecher": "0"
    },
    {
        "rank": "100",
        "title": "Cannabis Collection - If Drugs Were Legal",
        "link": "magnet:?xt=urn:btih:27F02B1B32C587F1AB5E8C501020653E3AB66217&dn=Cannabis+Collection+-+If+Drugs+Were+Legal&tr=udp%3A%2F%2Ftracker.coppersurfer.tk%3A6969%2Fannounce&tr=udp%3A%2F%2F9.rarbg.to%3A2920%2Fannounce&tr=udp%3A%2F%2Ftracker.opentrackr.org%3A1337&tr=udp%3A%2F%2Ftracker.internetwarriors.net%3A1337%2Fannounce&tr=udp%3A%2F%2Ftracker.leechers-paradise.org%3A6969%2Fannounce&tr=udp%3A%2F%2Ftracker.coppersurfer.tk%3A6969%2Fannounce&tr=udp%3A%2F%2Ftracker.pirateparty.gr%3A6969%2Fannounce&tr=udp%3A%2F%2Ftracker.cyberia.is%3A6969%2Fannounce",
        "seeder": "4",
        "leecher": "0"
    }
]
