[
    {
        "rank": "1",
        "title": "Forbidden Knowledge - 101 Things No One Should Know How to Do",
        "link": "magnet:?xt=urn:btih:A855EFE0EF64C6BE64DC500CF7463BFDD960CDFC&dn=Forbidden+Knowledge+-+101+Things+No+One+Should+Know+How+to+Do&tr=udp%3A%2F%2Ftracker.coppersurfer.tk%3A6969%2Fannounce&tr=udp%3A%2F%2F9.rarbg.to%3A2920%2Fannounce&tr=udp%3A%2F%2Ftracker.opentrackr.org%3A1337&tr=udp%3A%2F%2Ftracker.internetwarriors.net%3A1337%2Fannounce&tr=udp%3A%2F%2Ftracker.leechers-paradise.org%3A6969%2Fannounce&tr=udp%3A%2F%2Ftracker.coppersurfer.tk%3A6969%2Fannounce&tr=udp%3A%2F%2Ftracker.pirateparty.gr%3A6969%2Fannounce&tr=udp%3A%2F%2Ftracker.cyberia.is%3A6969%2Fannounce",
        "seeder": "250",
        "leecher": "4"
    },
    {
        "rank": "2",
        "title": "Microsoft leaked source code archive_2020-09-24",
        "link": "magnet:?xt=urn:btih:3D8B16242B56A3AAFB8DA7B5FC83EF993EBCF35B&dn=Microsoft+leaked+source+code+archive_2020-09-24&tr=udp%3A%2F%2Ftracker.coppersurfer.tk%3A6969%2Fannounce&tr=udp%3A%2F%2F9.rarbg.to%3A2920%2Fannounce&tr=udp%3A%2F%2Ftracker.opentrackr.org%3A1337&tr=udp%3A%2F%2Ftracker.internetwarriors.net%3A1337%2Fannounce&tr=udp%3A%2F%2Ftracker.leechers-paradise.org%3A6969%2Fannounce&tr=udp%3A%2F%2Ftracker.coppersurfer.tk%3A6969%2Fannounce&tr=udp%3A%2F%2Ftracker.pirateparty.gr%3A6969%2Fannounce&tr=udp%3A%2F%2Ftracker.cyberia.is%3A6969%2Fannounce",
        "seeder": "178",
        "leecher": "45"
    },
    {
        "rank": "3",
        "title": "Python All-In-One for Dummies",
        "link": "magnet:?xt=urn:btih:F60E849F18020861F74421F0EEA90F8310A5B8C9&dn=Python+All-In-One+for+Dummies&tr=udp%3A%2F%2Ftracker.coppersurfer.tk%3A6969%2Fannounce&tr=udp%3A%2F%2F9.rarbg.to%3A2920%2Fannounce&tr=udp%3A%2F%2Ftracker.opentrackr.org%3A1337&tr=udp%3A%2F%2Ftracker.internetwarriors.net%3A1337%2Fannounce&tr=udp%3A%2F%2Ftracker.leechers-paradise.org%3A6969%2Fannounce&tr=udp%3A%2F%2Ftracker.coppersurfer.tk%3A6969%2Fannounce&tr=udp%3A%2F%2Ftracker.pirateparty.gr%3A6969%2Fannounce&tr=udp%3A%2F%2Ftracker.cyberia.is%3A6969%2Fannounce",
        "seeder": "161",
        "leecher": "2"
    },
    {
        "rank": "4",
        "title": "Best Of VOLO In Nature - Nude Landscapes - WORLD'S No 1 NUDE ART",
        "link": "magnet:?xt=urn:btih:D8F1FC5A25D50786E1266102AB00C9FF6C0BBCFB&dn=Best+Of+VOLO+In+Nature+-+Nude+Landscapes+-+WORLD%27S+No+1+NUDE+ART&tr=udp%3A%2F%2Ftracker.coppersurfer.tk%3A6969%2Fannounce&tr=udp%3A%2F%2F9.rarbg.to%3A2920%2Fannounce&tr=udp%3A%2F%2Ftracker.opentrackr.org%3A1337&tr=udp%3A%2F%2Ftracker.internetwarriors.net%3A1337%2Fannounce&tr=udp%3A%2F%2Ftracker.leechers-paradise.org%3A6969%2Fannounce&tr=udp%3A%2F%2Ftracker.coppersurfer.tk%3A6969%2Fannounce&tr=udp%3A%2F%2Ftracker.pirateparty.gr%3A6969%2Fannounce&tr=udp%3A%2F%2Ftracker.cyberia.is%3A6969%2Fannounce",
        "seeder": "147",
        "leecher": "24"
    },
    {
        "rank": "5",
        "title": "50 Assorted Magazines - April 06 2021",
        "link": "magnet:?xt=urn:btih:2BF1F2ECD000772A17A8BB8133A2281655B0AB0B&dn=50+Assorted+Magazines+-+April+06+2021&tr=udp%3A%2F%2Ftracker.coppersurfer.tk%3A6969%2Fannounce&tr=udp%3A%2F%2F9.rarbg.to%3A2920%2Fannounce&tr=udp%3A%2F%2Ftracker.opentrackr.org%3A1337&tr=udp%3A%2F%2Ftracker.internetwarriors.net%3A1337%2Fannounce&tr=udp%3A%2F%2Ftracker.leechers-paradise.org%3A6969%2Fannounce&tr=udp%3A%2F%2Ftracker.coppersurfer.tk%3A6969%2Fannounce&tr=udp%3A%2F%2Ftracker.pirateparty.gr%3A6969%2Fannounce&tr=udp%3A%2F%2Ftracker.cyberia.is%3A6969%2Fannounce",
        "seeder": "144",
        "leecher": "206"
    },
    {
        "rank": "6",
        "title": "A Promised Land by Barack Obama EPUB",
        "link": "magnet:?xt=urn:btih:BC5A6EE8BE94E2CD100CC3B3B9AC233BCF9230EB&dn=A+Promised+Land+by+Barack+Obama+EPUB&tr=udp%3A%2F%2Ftracker.coppersurfer.tk%3A6969%2Fannounce&tr=udp%3A%2F%2F9.rarbg.to%3A2920%2Fannounce&tr=udp%3A%2F%2Ftracker.opentrackr.org%3A1337&tr=udp%3A%2F%2Ftracker.internetwarriors.net%3A1337%2Fannounce&tr=udp%3A%2F%2Ftracker.leechers-paradise.org%3A6969%2Fannounce&tr=udp%3A%2F%2Ftracker.coppersurfer.tk%3A6969%2Fannounce&tr=udp%3A%2F%2Ftracker.pirateparty.gr%3A6969%2Fannounce&tr=udp%3A%2F%2Ftracker.cyberia.is%3A6969%2Fannounce",
        "seeder": "136",
        "leecher": "1"
    },
    {
        "rank": "7",
        "title": "All Dune books + short stories + extras ePUB",
        "link": "magnet:?xt=urn:btih:4C35CAE8BEB1607C900847EBDDF264D881D06267&dn=All+Dune+books+%2B+short+stories+%2B+extras+ePUB&tr=udp%3A%2F%2Ftracker.coppersurfer.tk%3A6969%2Fannounce&tr=udp%3A%2F%2F9.rarbg.to%3A2920%2Fannounce&tr=udp%3A%2F%2Ftracker.opentrackr.org%3A1337&tr=udp%3A%2F%2Ftracker.internetwarriors.net%3A1337%2Fannounce&tr=udp%3A%2F%2Ftracker.leechers-paradise.org%3A6969%2Fannounce&tr=udp%3A%2F%2Ftracker.coppersurfer.tk%3A6969%2Fannounce&tr=udp%3A%2F%2Ftracker.pirateparty.gr%3A6969%2Fannounce&tr=udp%3A%2F%2Ftracker.cyberia.is%3A6969%2Fannounce",
        "seeder": "136",
        "leecher": "4"
    },
    {
        "rank": "8",
        "title": "60 Assorted Magazines PDF April 6 2021 Pack 1",
        "link": "magnet:?xt=urn:btih:BF43F72DE0F10CEBD110E6789E1D6C6C637F37FD&dn=60+Assorted+Magazines+PDF+April+6+2021+Pack+1&tr=udp%3A%2F%2Ftracker.coppersurfer.tk%3A6969%2Fannounce&tr=udp%3A%2F%2F9.rarbg.to%3A2920%2Fannounce&tr=udp%3A%2F%2Ftracker.opentrackr.org%3A1337&tr=udp%3A%2F%2Ftracker.internetwarriors.net%3A1337%2Fannounce&tr=udp%3A%2F%2Ftracker.leechers-paradise.org%3A6969%2Fannounce&tr=udp%3A%2F%2Ftracker.coppersurfer.tk%3A6969%2Fannounce&tr=udp%3A%2F%2Ftracker.pirateparty.gr%3A6969%2Fannounce&tr=udp%3A%2F%2Ftracker.cyberia.is%3A6969%2Fannounce",
        "seeder": "135",
        "leecher": "242"
    },
    {
        "rank": "9",
        "title": "The 100 Best Business Books of All Time (2016) (EPUB) [WWRG]",
        "link": "magnet:?xt=urn:btih:7AD8A2B653160D8F5A9521624BFDF71D3BC82444&dn=The+100+Best+Business+Books+of+All+Time+%282016%29+%28EPUB%29+%5BWWRG%5D&tr=udp%3A%2F%2Ftracker.coppersurfer.tk%3A6969%2Fannounce&tr=udp%3A%2F%2F9.rarbg.to%3A2920%2Fannounce&tr=udp%3A%2F%2Ftracker.opentrackr.org%3A1337&tr=udp%3A%2F%2Ftracker.internetwarriors.net%3A1337%2Fannounce&tr=udp%3A%2F%2Ftracker.leechers-paradise.org%3A6969%2Fannounce&tr=udp%3A%2F%2Ftracker.coppersurfer.tk%3A6969%2Fannounce&tr=udp%3A%2F%2Ftracker.pirateparty.gr%3A6969%2Fannounce&tr=udp%3A%2F%2Ftracker.cyberia.is%3A6969%2Fannounce",
        "seeder": "134",
        "leecher": "10"
    },
    {
        "rank": "10",
        "title": "The Encyclopedia of Ancient and Forbidden Knowledge",
        "link": "magnet:?xt=urn:btih:D691BFB0020DCC9C573A1127D44C7212D1E34D7E&dn=The+Encyclopedia+of+Ancient+and+Forbidden+Knowledge&tr=udp%3A%2F%2Ftracker.coppersurfer.tk%3A6969%2Fannounce&tr=udp%3A%2F%2F9.rarbg.to%3A2920%2Fannounce&tr=udp%3A%2F%2Ftracker.opentrackr.org%3A1337&tr=udp%3A%2F%2Ftracker.internetwarriors.net%3A1337%2Fannounce&tr=udp%3A%2F%2Ftracker.leechers-paradise.org%3A6969%2Fannounce&tr=udp%3A%2F%2Ftracker.coppersurfer.tk%3A6969%2Fannounce&tr=udp%3A%2F%2Ftracker.pirateparty.gr%3A6969%2Fannounce&tr=udp%3A%2F%2Ftracker.cyberia.is%3A6969%2Fannounce",
        "seeder": "130",
        "leecher": "1"
    },
    {
        "rank": "11",
        "title": "Limitless: Upgrade Your Brain ..  by Jim Kwik EPUB",
        "link": "magnet:?xt=urn:btih:413C1E65EBDC69F1A7F466E76AF5F777A249E812&dn=Limitless%3A+Upgrade+Your+Brain+..++by+Jim+Kwik+EPUB&tr=udp%3A%2F%2Ftracker.coppersurfer.tk%3A6969%2Fannounce&tr=udp%3A%2F%2F9.rarbg.to%3A2920%2Fannounce&tr=udp%3A%2F%2Ftracker.opentrackr.org%3A1337&tr=udp%3A%2F%2Ftracker.internetwarriors.net%3A1337%2Fannounce&tr=udp%3A%2F%2Ftracker.leechers-paradise.org%3A6969%2Fannounce&tr=udp%3A%2F%2Ftracker.coppersurfer.tk%3A6969%2Fannounce&tr=udp%3A%2F%2Ftracker.pirateparty.gr%3A6969%2Fannounce&tr=udp%3A%2F%2Ftracker.cyberia.is%3A6969%2Fannounce",
        "seeder": "127",
        "leecher": "1"
    },
    {
        "rank": "12",
        "title": "Playboy Denmark - March 2021",
        "link": "magnet:?xt=urn:btih:77AC6E8857CDE63EFEF23E2CA7DAF42AD623B661&dn=Playboy+Denmark+-+March+2021&tr=udp%3A%2F%2Ftracker.coppersurfer.tk%3A6969%2Fannounce&tr=udp%3A%2F%2F9.rarbg.to%3A2920%2Fannounce&tr=udp%3A%2F%2Ftracker.opentrackr.org%3A1337&tr=udp%3A%2F%2Ftracker.internetwarriors.net%3A1337%2Fannounce&tr=udp%3A%2F%2Ftracker.leechers-paradise.org%3A6969%2Fannounce&tr=udp%3A%2F%2Ftracker.coppersurfer.tk%3A6969%2Fannounce&tr=udp%3A%2F%2Ftracker.pirateparty.gr%3A6969%2Fannounce&tr=udp%3A%2F%2Ftracker.cyberia.is%3A6969%2Fannounce",
        "seeder": "124",
        "leecher": "20"
    },
    {
        "rank": "13",
        "title": "Influence! - 47 Forbidden Psychological Tactics You Can Use To M",
        "link": "magnet:?xt=urn:btih:4A8509B87ABB47DF7BC69B764AE4F8696F5A7201&dn=Influence%21+-+47+Forbidden+Psychological+Tactics+You+Can+Use+To+M&tr=udp%3A%2F%2Ftracker.coppersurfer.tk%3A6969%2Fannounce&tr=udp%3A%2F%2F9.rarbg.to%3A2920%2Fannounce&tr=udp%3A%2F%2Ftracker.opentrackr.org%3A1337&tr=udp%3A%2F%2Ftracker.internetwarriors.net%3A1337%2Fannounce&tr=udp%3A%2F%2Ftracker.leechers-paradise.org%3A6969%2Fannounce&tr=udp%3A%2F%2Ftracker.coppersurfer.tk%3A6969%2Fannounce&tr=udp%3A%2F%2Ftracker.pirateparty.gr%3A6969%2Fannounce&tr=udp%3A%2F%2Ftracker.cyberia.is%3A6969%2Fannounce",
        "seeder": "118",
        "leecher": "3"
    },
    {
        "rank": "14",
        "title": "Rich Dad Poor Dad by Robert T. Kiyosaki EPUB",
        "link": "magnet:?xt=urn:btih:A948077C69CAF509F32575A4E1B40A23AE7ED5B1&dn=Rich+Dad+Poor+Dad+by+Robert+T.+Kiyosaki+EPUB&tr=udp%3A%2F%2Ftracker.coppersurfer.tk%3A6969%2Fannounce&tr=udp%3A%2F%2F9.rarbg.to%3A2920%2Fannounce&tr=udp%3A%2F%2Ftracker.opentrackr.org%3A1337&tr=udp%3A%2F%2Ftracker.internetwarriors.net%3A1337%2Fannounce&tr=udp%3A%2F%2Ftracker.leechers-paradise.org%3A6969%2Fannounce&tr=udp%3A%2F%2Ftracker.coppersurfer.tk%3A6969%2Fannounce&tr=udp%3A%2F%2Ftracker.pirateparty.gr%3A6969%2Fannounce&tr=udp%3A%2F%2Ftracker.cyberia.is%3A6969%2Fannounce",
        "seeder": "118",
        "leecher": "1"
    },
    {
        "rank": "15",
        "title": "Barely Legal - October 2020",
        "link": "magnet:?xt=urn:btih:7ADD4E7D4F8DFED8FE4E94022E528A1017B3AF31&dn=Barely+Legal+-+October+2020&tr=udp%3A%2F%2Ftracker.coppersurfer.tk%3A6969%2Fannounce&tr=udp%3A%2F%2F9.rarbg.to%3A2920%2Fannounce&tr=udp%3A%2F%2Ftracker.opentrackr.org%3A1337&tr=udp%3A%2F%2Ftracker.internetwarriors.net%3A1337%2Fannounce&tr=udp%3A%2F%2Ftracker.leechers-paradise.org%3A6969%2Fannounce&tr=udp%3A%2F%2Ftracker.coppersurfer.tk%3A6969%2Fannounce&tr=udp%3A%2F%2Ftracker.pirateparty.gr%3A6969%2Fannounce&tr=udp%3A%2F%2Ftracker.cyberia.is%3A6969%2Fannounce",
        "seeder": "117",
        "leecher": "12"
    },
    {
        "rank": "16",
        "title": "The Subtle Art of Not Giving a Fuck (F*ck) by Mark Manson EPUB",
        "link": "magnet:?xt=urn:btih:8EA4A1CDBC3FDDAEEDBBB894FDFA3ACE940CBE38&dn=The+Subtle+Art+of+Not+Giving+a+Fuck+%28F%2Ack%29+by+Mark+Manson+EPUB&tr=udp%3A%2F%2Ftracker.coppersurfer.tk%3A6969%2Fannounce&tr=udp%3A%2F%2F9.rarbg.to%3A2920%2Fannounce&tr=udp%3A%2F%2Ftracker.opentrackr.org%3A1337&tr=udp%3A%2F%2Ftracker.internetwarriors.net%3A1337%2Fannounce&tr=udp%3A%2F%2Ftracker.leechers-paradise.org%3A6969%2Fannounce&tr=udp%3A%2F%2Ftracker.coppersurfer.tk%3A6969%2Fannounce&tr=udp%3A%2F%2Ftracker.pirateparty.gr%3A6969%2Fannounce&tr=udp%3A%2F%2Ftracker.cyberia.is%3A6969%2Fannounce",
        "seeder": "116",
        "leecher": "1"
    },
    {
        "rank": "17",
        "title": "Playboy Africa - February 2021",
        "link": "magnet:?xt=urn:btih:DF5E12257426A4FBEC50FE07BD2144F256D9D5BE&dn=Playboy+Africa+-+February+2021&tr=udp%3A%2F%2Ftracker.coppersurfer.tk%3A6969%2Fannounce&tr=udp%3A%2F%2F9.rarbg.to%3A2920%2Fannounce&tr=udp%3A%2F%2Ftracker.opentrackr.org%3A1337&tr=udp%3A%2F%2Ftracker.internetwarriors.net%3A1337%2Fannounce&tr=udp%3A%2F%2Ftracker.leechers-paradise.org%3A6969%2Fannounce&tr=udp%3A%2F%2Ftracker.coppersurfer.tk%3A6969%2Fannounce&tr=udp%3A%2F%2Ftracker.pirateparty.gr%3A6969%2Fannounce&tr=udp%3A%2F%2Ftracker.cyberia.is%3A6969%2Fannounce",
        "seeder": "111",
        "leecher": "12"
    },
    {
        "rank": "18",
        "title": "What's Where on Earth Atlas - The World as You've Never Seen It",
        "link": "magnet:?xt=urn:btih:B2DBB9C096B4A6305EED35A999B9F2DF82025813&dn=What%27s+Where+on+Earth+Atlas+-+The+World+as+You%27ve+Never+Seen+It&tr=udp%3A%2F%2Ftracker.coppersurfer.tk%3A6969%2Fannounce&tr=udp%3A%2F%2F9.rarbg.to%3A2920%2Fannounce&tr=udp%3A%2F%2Ftracker.opentrackr.org%3A1337&tr=udp%3A%2F%2Ftracker.internetwarriors.net%3A1337%2Fannounce&tr=udp%3A%2F%2Ftracker.leechers-paradise.org%3A6969%2Fannounce&tr=udp%3A%2F%2Ftracker.coppersurfer.tk%3A6969%2Fannounce&tr=udp%3A%2F%2Ftracker.pirateparty.gr%3A6969%2Fannounce&tr=udp%3A%2F%2Ftracker.cyberia.is%3A6969%2Fannounce",
        "seeder": "111",
        "leecher": "2"
    },
    {
        "rank": "19",
        "title": "The Most Forbidden Knowledge - 151 Things NO ONE Should Know How",
        "link": "magnet:?xt=urn:btih:26003FA01BE9F1224353EE299C754387D0AD5CDE&dn=The+Most+Forbidden+Knowledge+-+151+Things+NO+ONE+Should+Know+How&tr=udp%3A%2F%2Ftracker.coppersurfer.tk%3A6969%2Fannounce&tr=udp%3A%2F%2F9.rarbg.to%3A2920%2Fannounce&tr=udp%3A%2F%2Ftracker.opentrackr.org%3A1337&tr=udp%3A%2F%2Ftracker.internetwarriors.net%3A1337%2Fannounce&tr=udp%3A%2F%2Ftracker.leechers-paradise.org%3A6969%2Fannounce&tr=udp%3A%2F%2Ftracker.coppersurfer.tk%3A6969%2Fannounce&tr=udp%3A%2F%2Ftracker.pirateparty.gr%3A6969%2Fannounce&tr=udp%3A%2F%2Ftracker.cyberia.is%3A6969%2Fannounce",
        "seeder": "103",
        "leecher": "0"
    },
    {
        "rank": "20",
        "title": "60 Assorted Magazines PDF April 5 2021 Pack 2",
        "link": "magnet:?xt=urn:btih:E02F8B129C629EA3D08CAE413222ACFB186D89DA&dn=60+Assorted+Magazines+PDF+April+5+2021+Pack+2&tr=udp%3A%2F%2Ftracker.coppersurfer.tk%3A6969%2Fannounce&tr=udp%3A%2F%2F9.rarbg.to%3A2920%2Fannounce&tr=udp%3A%2F%2Ftracker.opentrackr.org%3A1337&tr=udp%3A%2F%2Ftracker.internetwarriors.net%3A1337%2Fannounce&tr=udp%3A%2F%2Ftracker.leechers-paradise.org%3A6969%2Fannounce&tr=udp%3A%2F%2Ftracker.coppersurfer.tk%3A6969%2Fannounce&tr=udp%3A%2F%2Ftracker.pirateparty.gr%3A6969%2Fannounce&tr=udp%3A%2F%2Ftracker.cyberia.is%3A6969%2Fannounce",
        "seeder": "100",
        "leecher": "179"
    },
    {
        "rank": "21",
        "title": "Beyond Order: 12 More Rules for Life by Jordan B. Peterson EPUB",
        "link": "magnet:?xt=urn:btih:328588993691AB122EA6991EBFA461D661FA2B30&dn=Beyond+Order%3A+12+More+Rules+for+Life+by+Jordan+B.+Peterson+EPUB&tr=udp%3A%2F%2Ftracker.coppersurfer.tk%3A6969%2Fannounce&tr=udp%3A%2F%2F9.rarbg.to%3A2920%2Fannounce&tr=udp%3A%2F%2Ftracker.opentrackr.org%3A1337&tr=udp%3A%2F%2Ftracker.internetwarriors.net%3A1337%2Fannounce&tr=udp%3A%2F%2Ftracker.leechers-paradise.org%3A6969%2Fannounce&tr=udp%3A%2F%2Ftracker.coppersurfer.tk%3A6969%2Fannounce&tr=udp%3A%2F%2Ftracker.pirateparty.gr%3A6969%2Fannounce&tr=udp%3A%2F%2Ftracker.cyberia.is%3A6969%2Fannounce",
        "seeder": "100",
        "leecher": "2"
    },
    {
        "rank": "22",
        "title": "The Ultimate Art of War - A Step-by-Step Illustrated Guide to Su",
        "link": "magnet:?xt=urn:btih:F1094478F42D30D1BCB8EB34B18DE5D869CB713B&dn=The+Ultimate+Art+of+War+-+A+Step-by-Step+Illustrated+Guide+to+Su&tr=udp%3A%2F%2Ftracker.coppersurfer.tk%3A6969%2Fannounce&tr=udp%3A%2F%2F9.rarbg.to%3A2920%2Fannounce&tr=udp%3A%2F%2Ftracker.opentrackr.org%3A1337&tr=udp%3A%2F%2Ftracker.internetwarriors.net%3A1337%2Fannounce&tr=udp%3A%2F%2Ftracker.leechers-paradise.org%3A6969%2Fannounce&tr=udp%3A%2F%2Ftracker.coppersurfer.tk%3A6969%2Fannounce&tr=udp%3A%2F%2Ftracker.pirateparty.gr%3A6969%2Fannounce&tr=udp%3A%2F%2Ftracker.cyberia.is%3A6969%2Fannounce",
        "seeder": "100",
        "leecher": "1"
    },
    {
        "rank": "23",
        "title": "50 Assorted Magazines - April 05 2021",
        "link": "magnet:?xt=urn:btih:890F792E732C00FB3C1436F75F58E753F346DCEA&dn=50+Assorted+Magazines+-+April+05+2021&tr=udp%3A%2F%2Ftracker.coppersurfer.tk%3A6969%2Fannounce&tr=udp%3A%2F%2F9.rarbg.to%3A2920%2Fannounce&tr=udp%3A%2F%2Ftracker.opentrackr.org%3A1337&tr=udp%3A%2F%2Ftracker.internetwarriors.net%3A1337%2Fannounce&tr=udp%3A%2F%2Ftracker.leechers-paradise.org%3A6969%2Fannounce&tr=udp%3A%2F%2Ftracker.coppersurfer.tk%3A6969%2Fannounce&tr=udp%3A%2F%2Ftracker.pirateparty.gr%3A6969%2Fannounce&tr=udp%3A%2F%2Ftracker.cyberia.is%3A6969%2Fannounce",
        "seeder": "98",
        "leecher": "93"
    },
    {
        "rank": "24",
        "title": "WiFi Hacking for Beginners (2017) (Pdf,Epub,Azw3) Gooner",
        "link": "magnet:?xt=urn:btih:B36647A32DFA0D029A0637029122C5401487547B&dn=WiFi+Hacking+for+Beginners+%282017%29+%28Pdf%2CEpub%2CAzw3%29+Gooner&tr=udp%3A%2F%2Ftracker.coppersurfer.tk%3A6969%2Fannounce&tr=udp%3A%2F%2F9.rarbg.to%3A2920%2Fannounce&tr=udp%3A%2F%2Ftracker.opentrackr.org%3A1337&tr=udp%3A%2F%2Ftracker.internetwarriors.net%3A1337%2Fannounce&tr=udp%3A%2F%2Ftracker.leechers-paradise.org%3A6969%2Fannounce&tr=udp%3A%2F%2Ftracker.coppersurfer.tk%3A6969%2Fannounce&tr=udp%3A%2F%2Ftracker.pirateparty.gr%3A6969%2Fannounce&tr=udp%3A%2F%2Ftracker.cyberia.is%3A6969%2Fannounce",
        "seeder": "97",
        "leecher": "4"
    },
    {
        "rank": "25",
        "title": "The Sentinel by Lee Child, Andrew Child EPUB",
        "link": "magnet:?xt=urn:btih:9AB20C8736B5E41AEDE2126280D99E301E6C11B7&dn=The+Sentinel+by+Lee+Child%2C+Andrew+Child+EPUB&tr=udp%3A%2F%2Ftracker.coppersurfer.tk%3A6969%2Fannounce&tr=udp%3A%2F%2F9.rarbg.to%3A2920%2Fannounce&tr=udp%3A%2F%2Ftracker.opentrackr.org%3A1337&tr=udp%3A%2F%2Ftracker.internetwarriors.net%3A1337%2Fannounce&tr=udp%3A%2F%2Ftracker.leechers-paradise.org%3A6969%2Fannounce&tr=udp%3A%2F%2Ftracker.coppersurfer.tk%3A6969%2Fannounce&tr=udp%3A%2F%2Ftracker.pirateparty.gr%3A6969%2Fannounce&tr=udp%3A%2F%2Ftracker.cyberia.is%3A6969%2Fannounce",
        "seeder": "96",
        "leecher": "0"
    },
    {
        "rank": "26",
        "title": "60 Assorted Magazines PDF April 5 2021 Pack 1",
        "link": "magnet:?xt=urn:btih:3A381887CD7600A71E5C9B95B29EFE55A3442A84&dn=60+Assorted+Magazines+PDF+April+5+2021+Pack+1&tr=udp%3A%2F%2Ftracker.coppersurfer.tk%3A6969%2Fannounce&tr=udp%3A%2F%2F9.rarbg.to%3A2920%2Fannounce&tr=udp%3A%2F%2Ftracker.opentrackr.org%3A1337&tr=udp%3A%2F%2Ftracker.internetwarriors.net%3A1337%2Fannounce&tr=udp%3A%2F%2Ftracker.leechers-paradise.org%3A6969%2Fannounce&tr=udp%3A%2F%2Ftracker.coppersurfer.tk%3A6969%2Fannounce&tr=udp%3A%2F%2Ftracker.pirateparty.gr%3A6969%2Fannounce&tr=udp%3A%2F%2Ftracker.cyberia.is%3A6969%2Fannounce",
        "seeder": "93",
        "leecher": "114"
    },
    {
        "rank": "27",
        "title": "Mastering The Art Of Vaginal Massage A Man's Guide To Giving You",
        "link": "magnet:?xt=urn:btih:B88B975076260B69BA12AF6EA01EFF835E90156E&dn=Mastering+The+Art+Of+Vaginal+Massage+A+Man%27s+Guide+To+Giving+You&tr=udp%3A%2F%2Ftracker.coppersurfer.tk%3A6969%2Fannounce&tr=udp%3A%2F%2F9.rarbg.to%3A2920%2Fannounce&tr=udp%3A%2F%2Ftracker.opentrackr.org%3A1337&tr=udp%3A%2F%2Ftracker.internetwarriors.net%3A1337%2Fannounce&tr=udp%3A%2F%2Ftracker.leechers-paradise.org%3A6969%2Fannounce&tr=udp%3A%2F%2Ftracker.coppersurfer.tk%3A6969%2Fannounce&tr=udp%3A%2F%2Ftracker.pirateparty.gr%3A6969%2Fannounce&tr=udp%3A%2F%2Ftracker.cyberia.is%3A6969%2Fannounce",
        "seeder": "93",
        "leecher": "3"
    },
    {
        "rank": "28",
        "title": "Computer Programming JavaScript, Python, HTML, SQL, CSS The step",
        "link": "magnet:?xt=urn:btih:E7DF485CF22A974E1BA8F9D6DAC38270860B54BA&dn=Computer+Programming+JavaScript%2C+Python%2C+HTML%2C+SQL%2C+CSS+The+step&tr=udp%3A%2F%2Ftracker.coppersurfer.tk%3A6969%2Fannounce&tr=udp%3A%2F%2F9.rarbg.to%3A2920%2Fannounce&tr=udp%3A%2F%2Ftracker.opentrackr.org%3A1337&tr=udp%3A%2F%2Ftracker.internetwarriors.net%3A1337%2Fannounce&tr=udp%3A%2F%2Ftracker.leechers-paradise.org%3A6969%2Fannounce&tr=udp%3A%2F%2Ftracker.coppersurfer.tk%3A6969%2Fannounce&tr=udp%3A%2F%2Ftracker.pirateparty.gr%3A6969%2Fannounce&tr=udp%3A%2F%2Ftracker.cyberia.is%3A6969%2Fannounce",
        "seeder": "92",
        "leecher": "1"
    },
    {
        "rank": "29",
        "title": "The Complete Chess Course (2016).epub Gooner",
        "link": "magnet:?xt=urn:btih:335D8778ED9E217CED256D700F78F4666A488348&dn=The+Complete+Chess+Course+%282016%29.epub+Gooner&tr=udp%3A%2F%2Ftracker.coppersurfer.tk%3A6969%2Fannounce&tr=udp%3A%2F%2F9.rarbg.to%3A2920%2Fannounce&tr=udp%3A%2F%2Ftracker.opentrackr.org%3A1337&tr=udp%3A%2F%2Ftracker.internetwarriors.net%3A1337%2Fannounce&tr=udp%3A%2F%2Ftracker.leechers-paradise.org%3A6969%2Fannounce&tr=udp%3A%2F%2Ftracker.coppersurfer.tk%3A6969%2Fannounce&tr=udp%3A%2F%2Ftracker.pirateparty.gr%3A6969%2Fannounce&tr=udp%3A%2F%2Ftracker.cyberia.is%3A6969%2Fannounce",
        "seeder": "92",
        "leecher": "2"
    },
    {
        "rank": "30",
        "title": "The Room Where It Happened: A White House Memoir by John Bolton",
        "link": "magnet:?xt=urn:btih:4DC1902E634E75C40A63285975D871DA37545CA0&dn=The+Room+Where+It+Happened%3A+A+White+House+Memoir+by+John+Bolton&tr=udp%3A%2F%2Ftracker.coppersurfer.tk%3A6969%2Fannounce&tr=udp%3A%2F%2F9.rarbg.to%3A2920%2Fannounce&tr=udp%3A%2F%2Ftracker.opentrackr.org%3A1337&tr=udp%3A%2F%2Ftracker.internetwarriors.net%3A1337%2Fannounce&tr=udp%3A%2F%2Ftracker.leechers-paradise.org%3A6969%2Fannounce&tr=udp%3A%2F%2Ftracker.coppersurfer.tk%3A6969%2Fannounce&tr=udp%3A%2F%2Ftracker.pirateparty.gr%3A6969%2Fannounce&tr=udp%3A%2F%2Ftracker.cyberia.is%3A6969%2Fannounce",
        "seeder": "88",
        "leecher": "1"
    },
    {
        "rank": "31",
        "title": "Never Split the Difference by Chris Voss EPUB",
        "link": "magnet:?xt=urn:btih:2EC05C79BA2674C1B29D1035942D090425ACD680&dn=Never+Split+the+Difference+by+Chris+Voss+EPUB&tr=udp%3A%2F%2Ftracker.coppersurfer.tk%3A6969%2Fannounce&tr=udp%3A%2F%2F9.rarbg.to%3A2920%2Fannounce&tr=udp%3A%2F%2Ftracker.opentrackr.org%3A1337&tr=udp%3A%2F%2Ftracker.internetwarriors.net%3A1337%2Fannounce&tr=udp%3A%2F%2Ftracker.leechers-paradise.org%3A6969%2Fannounce&tr=udp%3A%2F%2Ftracker.coppersurfer.tk%3A6969%2Fannounce&tr=udp%3A%2F%2Ftracker.pirateparty.gr%3A6969%2Fannounce&tr=udp%3A%2F%2Ftracker.cyberia.is%3A6969%2Fannounce",
        "seeder": "88",
        "leecher": "1"
    },
    {
        "rank": "32",
        "title": "Mathematics in Minutes 200 Key Concepts Explained In An Instant",
        "link": "magnet:?xt=urn:btih:170CEA94D31086174A4343710EF92A6B0B95EE6C&dn=Mathematics+in+Minutes+200+Key+Concepts+Explained+In+An+Instant&tr=udp%3A%2F%2Ftracker.coppersurfer.tk%3A6969%2Fannounce&tr=udp%3A%2F%2F9.rarbg.to%3A2920%2Fannounce&tr=udp%3A%2F%2Ftracker.opentrackr.org%3A1337&tr=udp%3A%2F%2Ftracker.internetwarriors.net%3A1337%2Fannounce&tr=udp%3A%2F%2Ftracker.leechers-paradise.org%3A6969%2Fannounce&tr=udp%3A%2F%2Ftracker.coppersurfer.tk%3A6969%2Fannounce&tr=udp%3A%2F%2Ftracker.pirateparty.gr%3A6969%2Fannounce&tr=udp%3A%2F%2Ftracker.cyberia.is%3A6969%2Fannounce",
        "seeder": "87",
        "leecher": "0"
    },
    {
        "rank": "33",
        "title": "James S A Corey - The Expanse series sci-fi [epub]",
        "link": "magnet:?xt=urn:btih:4A34EB34B64774275BD43505D49D31336E96275A&dn=James+S+A+Corey+-+The+Expanse+series+sci-fi+%5Bepub%5D&tr=udp%3A%2F%2Ftracker.coppersurfer.tk%3A6969%2Fannounce&tr=udp%3A%2F%2F9.rarbg.to%3A2920%2Fannounce&tr=udp%3A%2F%2Ftracker.opentrackr.org%3A1337&tr=udp%3A%2F%2Ftracker.internetwarriors.net%3A1337%2Fannounce&tr=udp%3A%2F%2Ftracker.leechers-paradise.org%3A6969%2Fannounce&tr=udp%3A%2F%2Ftracker.coppersurfer.tk%3A6969%2Fannounce&tr=udp%3A%2F%2Ftracker.pirateparty.gr%3A6969%2Fannounce&tr=udp%3A%2F%2Ftracker.cyberia.is%3A6969%2Fannounce",
        "seeder": "86",
        "leecher": "4"
    },
    {
        "rank": "34",
        "title": "20 Programming Books Collection Pack-19",
        "link": "magnet:?xt=urn:btih:5A46F632E333D9527D11232023D74D85F67F9A26&dn=20+Programming+Books+Collection+Pack-19&tr=udp%3A%2F%2Ftracker.coppersurfer.tk%3A6969%2Fannounce&tr=udp%3A%2F%2F9.rarbg.to%3A2920%2Fannounce&tr=udp%3A%2F%2Ftracker.opentrackr.org%3A1337&tr=udp%3A%2F%2Ftracker.internetwarriors.net%3A1337%2Fannounce&tr=udp%3A%2F%2Ftracker.leechers-paradise.org%3A6969%2Fannounce&tr=udp%3A%2F%2Ftracker.coppersurfer.tk%3A6969%2Fannounce&tr=udp%3A%2F%2Ftracker.pirateparty.gr%3A6969%2Fannounce&tr=udp%3A%2F%2Ftracker.cyberia.is%3A6969%2Fannounce",
        "seeder": "85",
        "leecher": "26"
    },
    {
        "rank": "35",
        "title": "The Big Bang Theory Season 09 (720p) S09 Complete 9 MP4 [KoTuWa]",
        "link": "magnet:?xt=urn:btih:593518B5EF45ADE82B12CDF6DB331A0C040E2497&dn=The+Big+Bang+Theory+Season+09+%28720p%29+S09+Complete+9+MP4+%5BKoTuWa%5D&tr=udp%3A%2F%2Ftracker.coppersurfer.tk%3A6969%2Fannounce&tr=udp%3A%2F%2F9.rarbg.to%3A2920%2Fannounce&tr=udp%3A%2F%2Ftracker.opentrackr.org%3A1337&tr=udp%3A%2F%2Ftracker.internetwarriors.net%3A1337%2Fannounce&tr=udp%3A%2F%2Ftracker.leechers-paradise.org%3A6969%2Fannounce&tr=udp%3A%2F%2Ftracker.coppersurfer.tk%3A6969%2Fannounce&tr=udp%3A%2F%2Ftracker.pirateparty.gr%3A6969%2Fannounce&tr=udp%3A%2F%2Ftracker.cyberia.is%3A6969%2Fannounce",
        "seeder": "85",
        "leecher": "34"
    },
    {
        "rank": "36",
        "title": "UDEMY THE COMPLETE SOCIAL MEDIA MARKETING COURSE FOR ENTREPRENEU",
        "link": "magnet:?xt=urn:btih:08DAB1694A8450C05327D8CEA4CF42E4C3F115FC&dn=UDEMY+THE+COMPLETE+SOCIAL+MEDIA+MARKETING+COURSE+FOR+ENTREPRENEU&tr=udp%3A%2F%2Ftracker.coppersurfer.tk%3A6969%2Fannounce&tr=udp%3A%2F%2F9.rarbg.to%3A2920%2Fannounce&tr=udp%3A%2F%2Ftracker.opentrackr.org%3A1337&tr=udp%3A%2F%2Ftracker.internetwarriors.net%3A1337%2Fannounce&tr=udp%3A%2F%2Ftracker.leechers-paradise.org%3A6969%2Fannounce&tr=udp%3A%2F%2Ftracker.coppersurfer.tk%3A6969%2Fannounce&tr=udp%3A%2F%2Ftracker.pirateparty.gr%3A6969%2Fannounce&tr=udp%3A%2F%2Ftracker.cyberia.is%3A6969%2Fannounce",
        "seeder": "85",
        "leecher": "4"
    },
    {
        "rank": "37",
        "title": "Artistic Nudes By Various Photographers",
        "link": "magnet:?xt=urn:btih:AEBF7B26FFAFC4347179817AD18BDBDB8AA65DBA&dn=Artistic+Nudes+By+Various+Photographers&tr=udp%3A%2F%2Ftracker.coppersurfer.tk%3A6969%2Fannounce&tr=udp%3A%2F%2F9.rarbg.to%3A2920%2Fannounce&tr=udp%3A%2F%2Ftracker.opentrackr.org%3A1337&tr=udp%3A%2F%2Ftracker.internetwarriors.net%3A1337%2Fannounce&tr=udp%3A%2F%2Ftracker.leechers-paradise.org%3A6969%2Fannounce&tr=udp%3A%2F%2Ftracker.coppersurfer.tk%3A6969%2Fannounce&tr=udp%3A%2F%2Ftracker.pirateparty.gr%3A6969%2Fannounce&tr=udp%3A%2F%2Ftracker.cyberia.is%3A6969%2Fannounce",
        "seeder": "84",
        "leecher": "3"
    },
    {
        "rank": "38",
        "title": "Microsoft PowerPoint, Visio and Word 2016 - Step by Step (2016)",
        "link": "magnet:?xt=urn:btih:90DD16E5028D45A3DE7A280D956FD0140EC9E1FB&dn=Microsoft+PowerPoint%2C+Visio+and+Word+2016+-+Step+by+Step+%282016%29&tr=udp%3A%2F%2Ftracker.coppersurfer.tk%3A6969%2Fannounce&tr=udp%3A%2F%2F9.rarbg.to%3A2920%2Fannounce&tr=udp%3A%2F%2Ftracker.opentrackr.org%3A1337&tr=udp%3A%2F%2Ftracker.internetwarriors.net%3A1337%2Fannounce&tr=udp%3A%2F%2Ftracker.leechers-paradise.org%3A6969%2Fannounce&tr=udp%3A%2F%2Ftracker.coppersurfer.tk%3A6969%2Fannounce&tr=udp%3A%2F%2Ftracker.pirateparty.gr%3A6969%2Fannounce&tr=udp%3A%2F%2Ftracker.cyberia.is%3A6969%2Fannounce",
        "seeder": "84",
        "leecher": "3"
    },
    {
        "rank": "39",
        "title": "Stephen King Books Collection Epub & Mobi - Mantesh",
        "link": "magnet:?xt=urn:btih:37412A258C717A7567BFC3BF5ECE8F47F21390CF&dn=Stephen+King+Books+Collection+Epub+%26amp%3B+Mobi+-+Mantesh&tr=udp%3A%2F%2Ftracker.coppersurfer.tk%3A6969%2Fannounce&tr=udp%3A%2F%2F9.rarbg.to%3A2920%2Fannounce&tr=udp%3A%2F%2Ftracker.opentrackr.org%3A1337&tr=udp%3A%2F%2Ftracker.internetwarriors.net%3A1337%2Fannounce&tr=udp%3A%2F%2Ftracker.leechers-paradise.org%3A6969%2Fannounce&tr=udp%3A%2F%2Ftracker.coppersurfer.tk%3A6969%2Fannounce&tr=udp%3A%2F%2Ftracker.pirateparty.gr%3A6969%2Fannounce&tr=udp%3A%2F%2Ftracker.cyberia.is%3A6969%2Fannounce",
        "seeder": "84",
        "leecher": "3"
    },
    {
        "rank": "40",
        "title": "How To Diagnose And Fix Everything Electronic 2nd Edition",
        "link": "magnet:?xt=urn:btih:B8928ADA110EA720DA7E452FFE56981787BE091D&dn=How+To+Diagnose+And+Fix+Everything+Electronic+2nd+Edition&tr=udp%3A%2F%2Ftracker.coppersurfer.tk%3A6969%2Fannounce&tr=udp%3A%2F%2F9.rarbg.to%3A2920%2Fannounce&tr=udp%3A%2F%2Ftracker.opentrackr.org%3A1337&tr=udp%3A%2F%2Ftracker.internetwarriors.net%3A1337%2Fannounce&tr=udp%3A%2F%2Ftracker.leechers-paradise.org%3A6969%2Fannounce&tr=udp%3A%2F%2Ftracker.coppersurfer.tk%3A6969%2Fannounce&tr=udp%3A%2F%2Ftracker.pirateparty.gr%3A6969%2Fannounce&tr=udp%3A%2F%2Ftracker.cyberia.is%3A6969%2Fannounce",
        "seeder": "83",
        "leecher": "4"
    },
    {
        "rank": "41",
        "title": "The Big Book Of Small House Designs 75 Award Winning Plans For Y",
        "link": "magnet:?xt=urn:btih:E56AF90E680AE914D271CB306087B77F1F5B8EA5&dn=The+Big+Book+Of+Small+House+Designs+75+Award+Winning+Plans+For+Y&tr=udp%3A%2F%2Ftracker.coppersurfer.tk%3A6969%2Fannounce&tr=udp%3A%2F%2F9.rarbg.to%3A2920%2Fannounce&tr=udp%3A%2F%2Ftracker.opentrackr.org%3A1337&tr=udp%3A%2F%2Ftracker.internetwarriors.net%3A1337%2Fannounce&tr=udp%3A%2F%2Ftracker.leechers-paradise.org%3A6969%2Fannounce&tr=udp%3A%2F%2Ftracker.coppersurfer.tk%3A6969%2Fannounce&tr=udp%3A%2F%2Ftracker.pirateparty.gr%3A6969%2Fannounce&tr=udp%3A%2F%2Ftracker.cyberia.is%3A6969%2Fannounce",
        "seeder": "82",
        "leecher": "2"
    },
    {
        "rank": "42",
        "title": "Gym For The Brain: 300 Riddles For Adults To Workout Their Mind",
        "link": "magnet:?xt=urn:btih:E8D4C4EA112048E5782DA1C3245E7E1DB2552545&dn=Gym+For+The+Brain%3A+300+Riddles+For+Adults+To+Workout+Their+Mind&tr=udp%3A%2F%2Ftracker.coppersurfer.tk%3A6969%2Fannounce&tr=udp%3A%2F%2F9.rarbg.to%3A2920%2Fannounce&tr=udp%3A%2F%2Ftracker.opentrackr.org%3A1337&tr=udp%3A%2F%2Ftracker.internetwarriors.net%3A1337%2Fannounce&tr=udp%3A%2F%2Ftracker.leechers-paradise.org%3A6969%2Fannounce&tr=udp%3A%2F%2Ftracker.coppersurfer.tk%3A6969%2Fannounce&tr=udp%3A%2F%2Ftracker.pirateparty.gr%3A6969%2Fannounce&tr=udp%3A%2F%2Ftracker.cyberia.is%3A6969%2Fannounce",
        "seeder": "82",
        "leecher": "1"
    },
    {
        "rank": "43",
        "title": "Anal Sex Basics - The Beginner's Guide to Maximizing Anal Pleasu",
        "link": "magnet:?xt=urn:btih:DC8BFC4B648F47F77650DA371C81D9D1A7D3693F&dn=Anal+Sex+Basics+-+The+Beginner%27s+Guide+to+Maximizing+Anal+Pleasu&tr=udp%3A%2F%2Ftracker.coppersurfer.tk%3A6969%2Fannounce&tr=udp%3A%2F%2F9.rarbg.to%3A2920%2Fannounce&tr=udp%3A%2F%2Ftracker.opentrackr.org%3A1337&tr=udp%3A%2F%2Ftracker.internetwarriors.net%3A1337%2Fannounce&tr=udp%3A%2F%2Ftracker.leechers-paradise.org%3A6969%2Fannounce&tr=udp%3A%2F%2Ftracker.coppersurfer.tk%3A6969%2Fannounce&tr=udp%3A%2F%2Ftracker.pirateparty.gr%3A6969%2Fannounce&tr=udp%3A%2F%2Ftracker.cyberia.is%3A6969%2Fannounce",
        "seeder": "81",
        "leecher": "8"
    },
    {
        "rank": "44",
        "title": "Tor and the Dark Art of Anonymity deep web, kali linux, hacking",
        "link": "magnet:?xt=urn:btih:15A30C6371BBF9367991AD0DD3494E46E173F0A3&dn=Tor+and+the+Dark+Art+of+Anonymity+deep+web%2C+kali+linux%2C+hacking&tr=udp%3A%2F%2Ftracker.coppersurfer.tk%3A6969%2Fannounce&tr=udp%3A%2F%2F9.rarbg.to%3A2920%2Fannounce&tr=udp%3A%2F%2Ftracker.opentrackr.org%3A1337&tr=udp%3A%2F%2Ftracker.internetwarriors.net%3A1337%2Fannounce&tr=udp%3A%2F%2Ftracker.leechers-paradise.org%3A6969%2Fannounce&tr=udp%3A%2F%2Ftracker.coppersurfer.tk%3A6969%2Fannounce&tr=udp%3A%2F%2Ftracker.pirateparty.gr%3A6969%2Fannounce&tr=udp%3A%2F%2Ftracker.cyberia.is%3A6969%2Fannounce",
        "seeder": "80",
        "leecher": "1"
    },
    {
        "rank": "45",
        "title": "How To Win Friends and Influence People",
        "link": "magnet:?xt=urn:btih:0208735CF3FCE96C0A5B9ACCEC844AAFC08CEAF6&dn=How+To+Win+Friends+and+Influence+People&tr=udp%3A%2F%2Ftracker.coppersurfer.tk%3A6969%2Fannounce&tr=udp%3A%2F%2F9.rarbg.to%3A2920%2Fannounce&tr=udp%3A%2F%2Ftracker.opentrackr.org%3A1337&tr=udp%3A%2F%2Ftracker.internetwarriors.net%3A1337%2Fannounce&tr=udp%3A%2F%2Ftracker.leechers-paradise.org%3A6969%2Fannounce&tr=udp%3A%2F%2Ftracker.coppersurfer.tk%3A6969%2Fannounce&tr=udp%3A%2F%2Ftracker.pirateparty.gr%3A6969%2Fannounce&tr=udp%3A%2F%2Ftracker.cyberia.is%3A6969%2Fannounce",
        "seeder": "79",
        "leecher": "0"
    },
    {
        "rank": "46",
        "title": "Rhythm of War by Brandon Sanderson EPUB",
        "link": "magnet:?xt=urn:btih:391C7E9EB7B5E8F37FDAE3D82C4B1B34CBD7DCFE&dn=Rhythm+of+War+by+Brandon+Sanderson+EPUB&tr=udp%3A%2F%2Ftracker.coppersurfer.tk%3A6969%2Fannounce&tr=udp%3A%2F%2F9.rarbg.to%3A2920%2Fannounce&tr=udp%3A%2F%2Ftracker.opentrackr.org%3A1337&tr=udp%3A%2F%2Ftracker.internetwarriors.net%3A1337%2Fannounce&tr=udp%3A%2F%2Ftracker.leechers-paradise.org%3A6969%2Fannounce&tr=udp%3A%2F%2Ftracker.coppersurfer.tk%3A6969%2Fannounce&tr=udp%3A%2F%2Ftracker.pirateparty.gr%3A6969%2Fannounce&tr=udp%3A%2F%2Ftracker.cyberia.is%3A6969%2Fannounce",
        "seeder": "78",
        "leecher": "1"
    },
    {
        "rank": "47",
        "title": "How To Fix Absolutely Anything A Homeowners Guide",
        "link": "magnet:?xt=urn:btih:A1A9E51C83C6DFFEF5720E0B90F9C1F24BD9C4A3&dn=How+To+Fix+Absolutely+Anything+A+Homeowners+Guide&tr=udp%3A%2F%2Ftracker.coppersurfer.tk%3A6969%2Fannounce&tr=udp%3A%2F%2F9.rarbg.to%3A2920%2Fannounce&tr=udp%3A%2F%2Ftracker.opentrackr.org%3A1337&tr=udp%3A%2F%2Ftracker.internetwarriors.net%3A1337%2Fannounce&tr=udp%3A%2F%2Ftracker.leechers-paradise.org%3A6969%2Fannounce&tr=udp%3A%2F%2Ftracker.coppersurfer.tk%3A6969%2Fannounce&tr=udp%3A%2F%2Ftracker.pirateparty.gr%3A6969%2Fannounce&tr=udp%3A%2F%2Ftracker.cyberia.is%3A6969%2Fannounce",
        "seeder": "77",
        "leecher": "3"
    },
    {
        "rank": "48",
        "title": "Deep Learning with Python -A Hands-on Introduction (2017) Gooner",
        "link": "magnet:?xt=urn:btih:E1EED9D6A62423ECDE25AA19765293A222780FCE&dn=Deep+Learning+with+Python+-A+Hands-on+Introduction+%282017%29+Gooner&tr=udp%3A%2F%2Ftracker.coppersurfer.tk%3A6969%2Fannounce&tr=udp%3A%2F%2F9.rarbg.to%3A2920%2Fannounce&tr=udp%3A%2F%2Ftracker.opentrackr.org%3A1337&tr=udp%3A%2F%2Ftracker.internetwarriors.net%3A1337%2Fannounce&tr=udp%3A%2F%2Ftracker.leechers-paradise.org%3A6969%2Fannounce&tr=udp%3A%2F%2Ftracker.coppersurfer.tk%3A6969%2Fannounce&tr=udp%3A%2F%2Ftracker.pirateparty.gr%3A6969%2Fannounce&tr=udp%3A%2F%2Ftracker.cyberia.is%3A6969%2Fannounce",
        "seeder": "76",
        "leecher": "1"
    },
    {
        "rank": "49",
        "title": "Python Programming for Beginners - Learn Coding in 7 Days",
        "link": "magnet:?xt=urn:btih:ADD458FF76196DBFDFC4CF9D77B47E8CACA4A179&dn=Python+Programming+for+Beginners+-+Learn+Coding+in+7+Days&tr=udp%3A%2F%2Ftracker.coppersurfer.tk%3A6969%2Fannounce&tr=udp%3A%2F%2F9.rarbg.to%3A2920%2Fannounce&tr=udp%3A%2F%2Ftracker.opentrackr.org%3A1337&tr=udp%3A%2F%2Ftracker.internetwarriors.net%3A1337%2Fannounce&tr=udp%3A%2F%2Ftracker.leechers-paradise.org%3A6969%2Fannounce&tr=udp%3A%2F%2Ftracker.coppersurfer.tk%3A6969%2Fannounce&tr=udp%3A%2F%2Ftracker.pirateparty.gr%3A6969%2Fannounce&tr=udp%3A%2F%2Ftracker.cyberia.is%3A6969%2Fannounce",
        "seeder": "75",
        "leecher": "0"
    },
    {
        "rank": "50",
        "title": "Playboy Sweden - March 2021",
        "link": "magnet:?xt=urn:btih:C1B2C5F63C4B10197B1E4515381E419A7EB179E6&dn=Playboy+Sweden+-+March+2021&tr=udp%3A%2F%2Ftracker.coppersurfer.tk%3A6969%2Fannounce&tr=udp%3A%2F%2F9.rarbg.to%3A2920%2Fannounce&tr=udp%3A%2F%2Ftracker.opentrackr.org%3A1337&tr=udp%3A%2F%2Ftracker.internetwarriors.net%3A1337%2Fannounce&tr=udp%3A%2F%2Ftracker.leechers-paradise.org%3A6969%2Fannounce&tr=udp%3A%2F%2Ftracker.coppersurfer.tk%3A6969%2Fannounce&tr=udp%3A%2F%2Ftracker.pirateparty.gr%3A6969%2Fannounce&tr=udp%3A%2F%2Ftracker.cyberia.is%3A6969%2Fannounce",
        "seeder": "74",
        "leecher": "2"
    },
    {
        "rank": "51",
        "title": "Haruki Murakami - First Person Singular + other works (29 books)",
        "link": "magnet:?xt=urn:btih:6D83BAA9DB2FAEC7F9A87F0E4CA1D20CAE2947F4&dn=Haruki+Murakami+-+First+Person+Singular+%2B+other+works+%2829+books%29&tr=udp%3A%2F%2Ftracker.coppersurfer.tk%3A6969%2Fannounce&tr=udp%3A%2F%2F9.rarbg.to%3A2920%2Fannounce&tr=udp%3A%2F%2Ftracker.opentrackr.org%3A1337&tr=udp%3A%2F%2Ftracker.internetwarriors.net%3A1337%2Fannounce&tr=udp%3A%2F%2Ftracker.leechers-paradise.org%3A6969%2Fannounce&tr=udp%3A%2F%2Ftracker.coppersurfer.tk%3A6969%2Fannounce&tr=udp%3A%2F%2Ftracker.pirateparty.gr%3A6969%2Fannounce&tr=udp%3A%2F%2Ftracker.cyberia.is%3A6969%2Fannounce",
        "seeder": "72",
        "leecher": "11"
    },
    {
        "rank": "52",
        "title": "How to Avoid a Climate Disaster - Bill Gates",
        "link": "magnet:?xt=urn:btih:7679494053D02BC699FE255F7EF23C65C050D70B&dn=How+to+Avoid+a+Climate+Disaster+-+Bill+Gates&tr=udp%3A%2F%2Ftracker.coppersurfer.tk%3A6969%2Fannounce&tr=udp%3A%2F%2F9.rarbg.to%3A2920%2Fannounce&tr=udp%3A%2F%2Ftracker.opentrackr.org%3A1337&tr=udp%3A%2F%2Ftracker.internetwarriors.net%3A1337%2Fannounce&tr=udp%3A%2F%2Ftracker.leechers-paradise.org%3A6969%2Fannounce&tr=udp%3A%2F%2Ftracker.coppersurfer.tk%3A6969%2Fannounce&tr=udp%3A%2F%2Ftracker.pirateparty.gr%3A6969%2Fannounce&tr=udp%3A%2F%2Ftracker.cyberia.is%3A6969%2Fannounce",
        "seeder": "72",
        "leecher": "1"
    },
    {
        "rank": "53",
        "title": "The Complete Book of Home Organization - 200+ Tips and Projects",
        "link": "magnet:?xt=urn:btih:B2AD72A6BEBA61BBEC80E510FBF07B1866934846&dn=The+Complete+Book+of+Home+Organization+-+200%2B+Tips+and+Projects&tr=udp%3A%2F%2Ftracker.coppersurfer.tk%3A6969%2Fannounce&tr=udp%3A%2F%2F9.rarbg.to%3A2920%2Fannounce&tr=udp%3A%2F%2Ftracker.opentrackr.org%3A1337&tr=udp%3A%2F%2Ftracker.internetwarriors.net%3A1337%2Fannounce&tr=udp%3A%2F%2Ftracker.leechers-paradise.org%3A6969%2Fannounce&tr=udp%3A%2F%2Ftracker.coppersurfer.tk%3A6969%2Fannounce&tr=udp%3A%2F%2Ftracker.pirateparty.gr%3A6969%2Fannounce&tr=udp%3A%2F%2Ftracker.cyberia.is%3A6969%2Fannounce",
        "seeder": "72",
        "leecher": "0"
    },
    {
        "rank": "54",
        "title": "Oxygen: The Molecule that Made the World by Nick Lane PDF",
        "link": "magnet:?xt=urn:btih:42ED17EFD3FA5737C6E6040851DF526A2D3C8DAA&dn=Oxygen%3A+The+Molecule+that+Made+the+World+by+Nick+Lane+PDF&tr=udp%3A%2F%2Ftracker.coppersurfer.tk%3A6969%2Fannounce&tr=udp%3A%2F%2F9.rarbg.to%3A2920%2Fannounce&tr=udp%3A%2F%2Ftracker.opentrackr.org%3A1337&tr=udp%3A%2F%2Ftracker.internetwarriors.net%3A1337%2Fannounce&tr=udp%3A%2F%2Ftracker.leechers-paradise.org%3A6969%2Fannounce&tr=udp%3A%2F%2Ftracker.coppersurfer.tk%3A6969%2Fannounce&tr=udp%3A%2F%2Ftracker.pirateparty.gr%3A6969%2Fannounce&tr=udp%3A%2F%2Ftracker.cyberia.is%3A6969%2Fannounce",
        "seeder": "71",
        "leecher": "1"
    },
    {
        "rank": "55",
        "title": "Teach Yourself Electricity and Electronics (6th Ed)(gnv64)",
        "link": "magnet:?xt=urn:btih:C9E23FE91B21B42C61722A5AC8132185C3DC8557&dn=Teach+Yourself+Electricity+and+Electronics+%286th+Ed%29%28gnv64%29&tr=udp%3A%2F%2Ftracker.coppersurfer.tk%3A6969%2Fannounce&tr=udp%3A%2F%2F9.rarbg.to%3A2920%2Fannounce&tr=udp%3A%2F%2Ftracker.opentrackr.org%3A1337&tr=udp%3A%2F%2Ftracker.internetwarriors.net%3A1337%2Fannounce&tr=udp%3A%2F%2Ftracker.leechers-paradise.org%3A6969%2Fannounce&tr=udp%3A%2F%2Ftracker.coppersurfer.tk%3A6969%2Fannounce&tr=udp%3A%2F%2Ftracker.pirateparty.gr%3A6969%2Fannounce&tr=udp%3A%2F%2Ftracker.cyberia.is%3A6969%2Fannounce",
        "seeder": "71",
        "leecher": "1"
    },
    {
        "rank": "56",
        "title": "The World's Most Dangerous Secret Societies by James Jackson AZW",
        "link": "magnet:?xt=urn:btih:F07AE362AADA1035FDC9FF0F4502FA13AF5087C9&dn=The+World%27s+Most+Dangerous+Secret+Societies+by+James+Jackson+AZW&tr=udp%3A%2F%2Ftracker.coppersurfer.tk%3A6969%2Fannounce&tr=udp%3A%2F%2F9.rarbg.to%3A2920%2Fannounce&tr=udp%3A%2F%2Ftracker.opentrackr.org%3A1337&tr=udp%3A%2F%2Ftracker.internetwarriors.net%3A1337%2Fannounce&tr=udp%3A%2F%2Ftracker.leechers-paradise.org%3A6969%2Fannounce&tr=udp%3A%2F%2Ftracker.coppersurfer.tk%3A6969%2Fannounce&tr=udp%3A%2F%2Ftracker.pirateparty.gr%3A6969%2Fannounce&tr=udp%3A%2F%2Ftracker.cyberia.is%3A6969%2Fannounce",
        "seeder": "70",
        "leecher": "0"
    },
    {
        "rank": "57",
        "title": "Tantra - The Art of Mind-Blowing Sex",
        "link": "magnet:?xt=urn:btih:3DA9CF17EA72C975480E82730847A1EAA0C6383F&dn=Tantra+-+The+Art+of+Mind-Blowing+Sex&tr=udp%3A%2F%2Ftracker.coppersurfer.tk%3A6969%2Fannounce&tr=udp%3A%2F%2F9.rarbg.to%3A2920%2Fannounce&tr=udp%3A%2F%2Ftracker.opentrackr.org%3A1337&tr=udp%3A%2F%2Ftracker.internetwarriors.net%3A1337%2Fannounce&tr=udp%3A%2F%2Ftracker.leechers-paradise.org%3A6969%2Fannounce&tr=udp%3A%2F%2Ftracker.coppersurfer.tk%3A6969%2Fannounce&tr=udp%3A%2F%2Ftracker.pirateparty.gr%3A6969%2Fannounce&tr=udp%3A%2F%2Ftracker.cyberia.is%3A6969%2Fannounce",
        "seeder": "69",
        "leecher": "2"
    },
    {
        "rank": "58",
        "title": "The Map of Knowledge by Violet Moller EPUB",
        "link": "magnet:?xt=urn:btih:2A6A7C9AAF1D9095907CD7BDE25304775670871B&dn=The+Map+of+Knowledge+by+Violet+Moller+EPUB&tr=udp%3A%2F%2Ftracker.coppersurfer.tk%3A6969%2Fannounce&tr=udp%3A%2F%2F9.rarbg.to%3A2920%2Fannounce&tr=udp%3A%2F%2Ftracker.opentrackr.org%3A1337&tr=udp%3A%2F%2Ftracker.internetwarriors.net%3A1337%2Fannounce&tr=udp%3A%2F%2Ftracker.leechers-paradise.org%3A6969%2Fannounce&tr=udp%3A%2F%2Ftracker.coppersurfer.tk%3A6969%2Fannounce&tr=udp%3A%2F%2Ftracker.pirateparty.gr%3A6969%2Fannounce&tr=udp%3A%2F%2Ftracker.cyberia.is%3A6969%2Fannounce",
        "seeder": "68",
        "leecher": "11"
    },
    {
        "rank": "59",
        "title": "Lady and the Tramp (2019) [WEBRip] [720p]",
        "link": "magnet:?xt=urn:btih:F1342A771D04771DCDC303381833F07B8B94AC33&dn=Lady+and+the+Tramp+%282019%29+%5BWEBRip%5D+%5B720p%5D&tr=udp%3A%2F%2Ftracker.coppersurfer.tk%3A6969%2Fannounce&tr=udp%3A%2F%2F9.rarbg.to%3A2920%2Fannounce&tr=udp%3A%2F%2Ftracker.opentrackr.org%3A1337&tr=udp%3A%2F%2Ftracker.internetwarriors.net%3A1337%2Fannounce&tr=udp%3A%2F%2Ftracker.leechers-paradise.org%3A6969%2Fannounce&tr=udp%3A%2F%2Ftracker.coppersurfer.tk%3A6969%2Fannounce&tr=udp%3A%2F%2Ftracker.pirateparty.gr%3A6969%2Fannounce&tr=udp%3A%2F%2Ftracker.cyberia.is%3A6969%2Fannounce",
        "seeder": "68",
        "leecher": "10"
    },
    {
        "rank": "60",
        "title": "Playboy Germany Special Digital Edition - Let's Dance ! - 2021",
        "link": "magnet:?xt=urn:btih:0DC4045C6779F4B7B6324A07590F51E91668544F&dn=Playboy+Germany+Special+Digital+Edition+-+Let%27s+Dance+%21+-+2021&tr=udp%3A%2F%2Ftracker.coppersurfer.tk%3A6969%2Fannounce&tr=udp%3A%2F%2F9.rarbg.to%3A2920%2Fannounce&tr=udp%3A%2F%2Ftracker.opentrackr.org%3A1337&tr=udp%3A%2F%2Ftracker.internetwarriors.net%3A1337%2Fannounce&tr=udp%3A%2F%2Ftracker.leechers-paradise.org%3A6969%2Fannounce&tr=udp%3A%2F%2Ftracker.coppersurfer.tk%3A6969%2Fannounce&tr=udp%3A%2F%2Ftracker.pirateparty.gr%3A6969%2Fannounce&tr=udp%3A%2F%2Ftracker.cyberia.is%3A6969%2Fannounce",
        "seeder": "67",
        "leecher": "3"
    },
    {
        "rank": "61",
        "title": "Squirting Female Ejaculation and the G-spot (Sexy Little Guide B",
        "link": "magnet:?xt=urn:btih:A6AF229314BD4D95B3B00B92071DEFE8FCF76554&dn=Squirting+Female+Ejaculation+and+the+G-spot+%28Sexy+Little+Guide+B&tr=udp%3A%2F%2Ftracker.coppersurfer.tk%3A6969%2Fannounce&tr=udp%3A%2F%2F9.rarbg.to%3A2920%2Fannounce&tr=udp%3A%2F%2Ftracker.opentrackr.org%3A1337&tr=udp%3A%2F%2Ftracker.internetwarriors.net%3A1337%2Fannounce&tr=udp%3A%2F%2Ftracker.leechers-paradise.org%3A6969%2Fannounce&tr=udp%3A%2F%2Ftracker.coppersurfer.tk%3A6969%2Fannounce&tr=udp%3A%2F%2Ftracker.pirateparty.gr%3A6969%2Fannounce&tr=udp%3A%2F%2Ftracker.cyberia.is%3A6969%2Fannounce",
        "seeder": "67",
        "leecher": "1"
    },
    {
        "rank": "62",
        "title": "MasterClass - Matthew Walker Teaches the Science of Better Sleep",
        "link": "magnet:?xt=urn:btih:5EB4CF50248034886F0B26071CB3CAC5A9A6D8A0&dn=MasterClass+-+Matthew+Walker+Teaches+the+Science+of+Better+Sleep&tr=udp%3A%2F%2Ftracker.coppersurfer.tk%3A6969%2Fannounce&tr=udp%3A%2F%2F9.rarbg.to%3A2920%2Fannounce&tr=udp%3A%2F%2Ftracker.opentrackr.org%3A1337&tr=udp%3A%2F%2Ftracker.internetwarriors.net%3A1337%2Fannounce&tr=udp%3A%2F%2Ftracker.leechers-paradise.org%3A6969%2Fannounce&tr=udp%3A%2F%2Ftracker.coppersurfer.tk%3A6969%2Fannounce&tr=udp%3A%2F%2Ftracker.pirateparty.gr%3A6969%2Fannounce&tr=udp%3A%2F%2Ftracker.cyberia.is%3A6969%2Fannounce",
        "seeder": "67",
        "leecher": "10"
    },
    {
        "rank": "63",
        "title": "Breath: The New Science of a Lost Art by James Nestor EPUB",
        "link": "magnet:?xt=urn:btih:E5B29463ED6DEE8A420F2E81E45B0FEC0284C649&dn=Breath%3A+The+New+Science+of+a+Lost+Art+by+James+Nestor+EPUB&tr=udp%3A%2F%2Ftracker.coppersurfer.tk%3A6969%2Fannounce&tr=udp%3A%2F%2F9.rarbg.to%3A2920%2Fannounce&tr=udp%3A%2F%2Ftracker.opentrackr.org%3A1337&tr=udp%3A%2F%2Ftracker.internetwarriors.net%3A1337%2Fannounce&tr=udp%3A%2F%2Ftracker.leechers-paradise.org%3A6969%2Fannounce&tr=udp%3A%2F%2Ftracker.coppersurfer.tk%3A6969%2Fannounce&tr=udp%3A%2F%2Ftracker.pirateparty.gr%3A6969%2Fannounce&tr=udp%3A%2F%2Ftracker.cyberia.is%3A6969%2Fannounce",
        "seeder": "67",
        "leecher": "0"
    },
    {
        "rank": "64",
        "title": "Haruki Murakami - Novels, Stories, and Non-fiction (24 books)",
        "link": "magnet:?xt=urn:btih:3B2C052CDDEB32999BDF98BCBB10071501961C0C&dn=Haruki+Murakami+-+Novels%2C+Stories%2C+and+Non-fiction+%2824+books%29&tr=udp%3A%2F%2Ftracker.coppersurfer.tk%3A6969%2Fannounce&tr=udp%3A%2F%2F9.rarbg.to%3A2920%2Fannounce&tr=udp%3A%2F%2Ftracker.opentrackr.org%3A1337&tr=udp%3A%2F%2Ftracker.internetwarriors.net%3A1337%2Fannounce&tr=udp%3A%2F%2Ftracker.leechers-paradise.org%3A6969%2Fannounce&tr=udp%3A%2F%2Ftracker.coppersurfer.tk%3A6969%2Fannounce&tr=udp%3A%2F%2Ftracker.pirateparty.gr%3A6969%2Fannounce&tr=udp%3A%2F%2Ftracker.cyberia.is%3A6969%2Fannounce",
        "seeder": "67",
        "leecher": "4"
    },
    {
        "rank": "65",
        "title": "[AnimeRG] One Punch Man - S1 (1080p) Complete Season 1 [KoTuWa]",
        "link": "magnet:?xt=urn:btih:87FC58B572A857E7B056576D26278E5D7E11EBDB&dn=%5BAnimeRG%5D+One+Punch+Man+-+S1+%281080p%29+Complete+Season+1+%5BKoTuWa%5D&tr=udp%3A%2F%2Ftracker.coppersurfer.tk%3A6969%2Fannounce&tr=udp%3A%2F%2F9.rarbg.to%3A2920%2Fannounce&tr=udp%3A%2F%2Ftracker.opentrackr.org%3A1337&tr=udp%3A%2F%2Ftracker.internetwarriors.net%3A1337%2Fannounce&tr=udp%3A%2F%2Ftracker.leechers-paradise.org%3A6969%2Fannounce&tr=udp%3A%2F%2Ftracker.coppersurfer.tk%3A6969%2Fannounce&tr=udp%3A%2F%2Ftracker.pirateparty.gr%3A6969%2Fannounce&tr=udp%3A%2F%2Ftracker.cyberia.is%3A6969%2Fannounce",
        "seeder": "67",
        "leecher": "4"
    },
    {
        "rank": "66",
        "title": "OPEN THE DOOR - A Manual to Unlocking Doors and Locks - The ulti",
        "link": "magnet:?xt=urn:btih:B521B4460DE5A83339A0EE25519CCC113558506B&dn=OPEN+THE+DOOR+-+A+Manual+to+Unlocking+Doors+and+Locks+-+The+ulti&tr=udp%3A%2F%2Ftracker.coppersurfer.tk%3A6969%2Fannounce&tr=udp%3A%2F%2F9.rarbg.to%3A2920%2Fannounce&tr=udp%3A%2F%2Ftracker.opentrackr.org%3A1337&tr=udp%3A%2F%2Ftracker.internetwarriors.net%3A1337%2Fannounce&tr=udp%3A%2F%2Ftracker.leechers-paradise.org%3A6969%2Fannounce&tr=udp%3A%2F%2Ftracker.coppersurfer.tk%3A6969%2Fannounce&tr=udp%3A%2F%2Ftracker.pirateparty.gr%3A6969%2Fannounce&tr=udp%3A%2F%2Ftracker.cyberia.is%3A6969%2Fannounce",
        "seeder": "66",
        "leecher": "1"
    },
    {
        "rank": "67",
        "title": "The Psychology of Money by Morgan Housel EPUB",
        "link": "magnet:?xt=urn:btih:D389C0235F908F6B574B4F1CA375D4EFBF4E1CD5&dn=The+Psychology+of+Money+by+Morgan+Housel+EPUB&tr=udp%3A%2F%2Ftracker.coppersurfer.tk%3A6969%2Fannounce&tr=udp%3A%2F%2F9.rarbg.to%3A2920%2Fannounce&tr=udp%3A%2F%2Ftracker.opentrackr.org%3A1337&tr=udp%3A%2F%2Ftracker.internetwarriors.net%3A1337%2Fannounce&tr=udp%3A%2F%2Ftracker.leechers-paradise.org%3A6969%2Fannounce&tr=udp%3A%2F%2Ftracker.coppersurfer.tk%3A6969%2Fannounce&tr=udp%3A%2F%2Ftracker.pirateparty.gr%3A6969%2Fannounce&tr=udp%3A%2F%2Ftracker.cyberia.is%3A6969%2Fannounce",
        "seeder": "66",
        "leecher": "1"
    },
    {
        "rank": "68",
        "title": "How Memory Works -- and How to Make It Work for You",
        "link": "magnet:?xt=urn:btih:C5015E7D230B1B09F5F6456FA4B81DDCD8A33921&dn=How+Memory+Works+--+and+How+to+Make+It+Work+for+You&tr=udp%3A%2F%2Ftracker.coppersurfer.tk%3A6969%2Fannounce&tr=udp%3A%2F%2F9.rarbg.to%3A2920%2Fannounce&tr=udp%3A%2F%2Ftracker.opentrackr.org%3A1337&tr=udp%3A%2F%2Ftracker.internetwarriors.net%3A1337%2Fannounce&tr=udp%3A%2F%2Ftracker.leechers-paradise.org%3A6969%2Fannounce&tr=udp%3A%2F%2Ftracker.coppersurfer.tk%3A6969%2Fannounce&tr=udp%3A%2F%2Ftracker.pirateparty.gr%3A6969%2Fannounce&tr=udp%3A%2F%2Ftracker.cyberia.is%3A6969%2Fannounce",
        "seeder": "65",
        "leecher": "0"
    },
    {
        "rank": "69",
        "title": "Solar Electricity Basics Powering Your Home Or Office With Solar",
        "link": "magnet:?xt=urn:btih:C9870567C71E29AF6E6CE27AD10FC38B36399D9B&dn=Solar+Electricity+Basics+Powering+Your+Home+Or+Office+With+Solar&tr=udp%3A%2F%2Ftracker.coppersurfer.tk%3A6969%2Fannounce&tr=udp%3A%2F%2F9.rarbg.to%3A2920%2Fannounce&tr=udp%3A%2F%2Ftracker.opentrackr.org%3A1337&tr=udp%3A%2F%2Ftracker.internetwarriors.net%3A1337%2Fannounce&tr=udp%3A%2F%2Ftracker.leechers-paradise.org%3A6969%2Fannounce&tr=udp%3A%2F%2Ftracker.coppersurfer.tk%3A6969%2Fannounce&tr=udp%3A%2F%2Ftracker.pirateparty.gr%3A6969%2Fannounce&tr=udp%3A%2F%2Ftracker.cyberia.is%3A6969%2Fannounce",
        "seeder": "65",
        "leecher": "0"
    },
    {
        "rank": "70",
        "title": "Ready Player Two by Ernest Cline EPUB",
        "link": "magnet:?xt=urn:btih:FF4F27CA30C1D0EA38DA218ACE0C86ABAEC97FEA&dn=Ready+Player+Two+by+Ernest+Cline+EPUB&tr=udp%3A%2F%2Ftracker.coppersurfer.tk%3A6969%2Fannounce&tr=udp%3A%2F%2F9.rarbg.to%3A2920%2Fannounce&tr=udp%3A%2F%2Ftracker.opentrackr.org%3A1337&tr=udp%3A%2F%2Ftracker.internetwarriors.net%3A1337%2Fannounce&tr=udp%3A%2F%2Ftracker.leechers-paradise.org%3A6969%2Fannounce&tr=udp%3A%2F%2Ftracker.coppersurfer.tk%3A6969%2Fannounce&tr=udp%3A%2F%2Ftracker.pirateparty.gr%3A6969%2Fannounce&tr=udp%3A%2F%2Ftracker.cyberia.is%3A6969%2Fannounce",
        "seeder": "65",
        "leecher": "1"
    },
    {
        "rank": "71",
        "title": "The Developing Mind, Third Edition by Daniel J. Siegel EPUB",
        "link": "magnet:?xt=urn:btih:35BBBE03F6C4702AC57C38D3117A29A3CC2B2EFC&dn=The+Developing+Mind%2C+Third+Edition+by+Daniel+J.+Siegel+EPUB&tr=udp%3A%2F%2Ftracker.coppersurfer.tk%3A6969%2Fannounce&tr=udp%3A%2F%2F9.rarbg.to%3A2920%2Fannounce&tr=udp%3A%2F%2Ftracker.opentrackr.org%3A1337&tr=udp%3A%2F%2Ftracker.internetwarriors.net%3A1337%2Fannounce&tr=udp%3A%2F%2Ftracker.leechers-paradise.org%3A6969%2Fannounce&tr=udp%3A%2F%2Ftracker.coppersurfer.tk%3A6969%2Fannounce&tr=udp%3A%2F%2Ftracker.pirateparty.gr%3A6969%2Fannounce&tr=udp%3A%2F%2Ftracker.cyberia.is%3A6969%2Fannounce",
        "seeder": "64",
        "leecher": "6"
    },
    {
        "rank": "72",
        "title": "Nudes and Nature - Erotic Calendar 2021",
        "link": "magnet:?xt=urn:btih:0402D779044FDB61E641238F4904C3578B5E6A58&dn=Nudes+and+Nature+-+Erotic+Calendar+2021&tr=udp%3A%2F%2Ftracker.coppersurfer.tk%3A6969%2Fannounce&tr=udp%3A%2F%2F9.rarbg.to%3A2920%2Fannounce&tr=udp%3A%2F%2Ftracker.opentrackr.org%3A1337&tr=udp%3A%2F%2Ftracker.internetwarriors.net%3A1337%2Fannounce&tr=udp%3A%2F%2Ftracker.leechers-paradise.org%3A6969%2Fannounce&tr=udp%3A%2F%2Ftracker.coppersurfer.tk%3A6969%2Fannounce&tr=udp%3A%2F%2Ftracker.pirateparty.gr%3A6969%2Fannounce&tr=udp%3A%2F%2Ftracker.cyberia.is%3A6969%2Fannounce",
        "seeder": "64",
        "leecher": "1"
    },
    {
        "rank": "73",
        "title": "How To Use A Multimeter Simplified A Complete DIY Step by Step G",
        "link": "magnet:?xt=urn:btih:43E97A710F6FF6B285EAD25FC69CD1A0E55EACAA&dn=How+To+Use+A+Multimeter+Simplified+A+Complete+DIY+Step+by+Step+G&tr=udp%3A%2F%2Ftracker.coppersurfer.tk%3A6969%2Fannounce&tr=udp%3A%2F%2F9.rarbg.to%3A2920%2Fannounce&tr=udp%3A%2F%2Ftracker.opentrackr.org%3A1337&tr=udp%3A%2F%2Ftracker.internetwarriors.net%3A1337%2Fannounce&tr=udp%3A%2F%2Ftracker.leechers-paradise.org%3A6969%2Fannounce&tr=udp%3A%2F%2Ftracker.coppersurfer.tk%3A6969%2Fannounce&tr=udp%3A%2F%2Ftracker.pirateparty.gr%3A6969%2Fannounce&tr=udp%3A%2F%2Ftracker.cyberia.is%3A6969%2Fannounce",
        "seeder": "64",
        "leecher": "1"
    },
    {
        "rank": "74",
        "title": "MasterClass - Kelly Wearstler Teaches Interior Design 2020",
        "link": "magnet:?xt=urn:btih:5D3A02078ABB4A374E69629A89C80EEB562D9F14&dn=MasterClass+-+Kelly+Wearstler+Teaches+Interior+Design+2020&tr=udp%3A%2F%2Ftracker.coppersurfer.tk%3A6969%2Fannounce&tr=udp%3A%2F%2F9.rarbg.to%3A2920%2Fannounce&tr=udp%3A%2F%2Ftracker.opentrackr.org%3A1337&tr=udp%3A%2F%2Ftracker.internetwarriors.net%3A1337%2Fannounce&tr=udp%3A%2F%2Ftracker.leechers-paradise.org%3A6969%2Fannounce&tr=udp%3A%2F%2Ftracker.coppersurfer.tk%3A6969%2Fannounce&tr=udp%3A%2F%2Ftracker.pirateparty.gr%3A6969%2Fannounce&tr=udp%3A%2F%2Ftracker.cyberia.is%3A6969%2Fannounce",
        "seeder": "64",
        "leecher": "2"
    },
    {
        "rank": "75",
        "title": "The 7 Habits of Highly Effective People By by R. Stephen Covey",
        "link": "magnet:?xt=urn:btih:96A8F4A28D0FDA36E28AF0311BE8F4B1277832EE&dn=The+7+Habits+of+Highly+Effective+People+By+by+R.+Stephen+Covey&tr=udp%3A%2F%2Ftracker.coppersurfer.tk%3A6969%2Fannounce&tr=udp%3A%2F%2F9.rarbg.to%3A2920%2Fannounce&tr=udp%3A%2F%2Ftracker.opentrackr.org%3A1337&tr=udp%3A%2F%2Ftracker.internetwarriors.net%3A1337%2Fannounce&tr=udp%3A%2F%2Ftracker.leechers-paradise.org%3A6969%2Fannounce&tr=udp%3A%2F%2Ftracker.coppersurfer.tk%3A6969%2Fannounce&tr=udp%3A%2F%2Ftracker.pirateparty.gr%3A6969%2Fannounce&tr=udp%3A%2F%2Ftracker.cyberia.is%3A6969%2Fannounce",
        "seeder": "64",
        "leecher": "3"
    },
    {
        "rank": "76",
        "title": "How to Read a Person Like a Book",
        "link": "magnet:?xt=urn:btih:73503623DA1BC5434AEF671D6FB8974752E95E72&dn=How+to+Read+a+Person+Like+a+Book&tr=udp%3A%2F%2Ftracker.coppersurfer.tk%3A6969%2Fannounce&tr=udp%3A%2F%2F9.rarbg.to%3A2920%2Fannounce&tr=udp%3A%2F%2Ftracker.opentrackr.org%3A1337&tr=udp%3A%2F%2Ftracker.internetwarriors.net%3A1337%2Fannounce&tr=udp%3A%2F%2Ftracker.leechers-paradise.org%3A6969%2Fannounce&tr=udp%3A%2F%2Ftracker.coppersurfer.tk%3A6969%2Fannounce&tr=udp%3A%2F%2Ftracker.pirateparty.gr%3A6969%2Fannounce&tr=udp%3A%2F%2Ftracker.cyberia.is%3A6969%2Fannounce",
        "seeder": "64",
        "leecher": "1"
    },
    {
        "rank": "77",
        "title": "60 Hottest Women In The World FHD - UHD 4K Wallpapers Pack 14",
        "link": "magnet:?xt=urn:btih:505D6E941C4485E3151BCEA9C167F1C947F8E2D8&dn=60+Hottest+Women+In+The+World+FHD+-+UHD+4K+Wallpapers+Pack+14&tr=udp%3A%2F%2Ftracker.coppersurfer.tk%3A6969%2Fannounce&tr=udp%3A%2F%2F9.rarbg.to%3A2920%2Fannounce&tr=udp%3A%2F%2Ftracker.opentrackr.org%3A1337&tr=udp%3A%2F%2Ftracker.internetwarriors.net%3A1337%2Fannounce&tr=udp%3A%2F%2Ftracker.leechers-paradise.org%3A6969%2Fannounce&tr=udp%3A%2F%2Ftracker.coppersurfer.tk%3A6969%2Fannounce&tr=udp%3A%2F%2Ftracker.pirateparty.gr%3A6969%2Fannounce&tr=udp%3A%2F%2Ftracker.cyberia.is%3A6969%2Fannounce",
        "seeder": "63",
        "leecher": "14"
    },
    {
        "rank": "78",
        "title": "Bartram's Encyclopedia of Herbal Medicine Containing over 900 en",
        "link": "magnet:?xt=urn:btih:2986AC6BBDF15B6E2E8B422B1625645CCFBC7265&dn=Bartram%27s+Encyclopedia+of+Herbal+Medicine+Containing+over+900+en&tr=udp%3A%2F%2Ftracker.coppersurfer.tk%3A6969%2Fannounce&tr=udp%3A%2F%2F9.rarbg.to%3A2920%2Fannounce&tr=udp%3A%2F%2Ftracker.opentrackr.org%3A1337&tr=udp%3A%2F%2Ftracker.internetwarriors.net%3A1337%2Fannounce&tr=udp%3A%2F%2Ftracker.leechers-paradise.org%3A6969%2Fannounce&tr=udp%3A%2F%2Ftracker.coppersurfer.tk%3A6969%2Fannounce&tr=udp%3A%2F%2Ftracker.pirateparty.gr%3A6969%2Fannounce&tr=udp%3A%2F%2Ftracker.cyberia.is%3A6969%2Fannounce",
        "seeder": "63",
        "leecher": "1"
    },
    {
        "rank": "79",
        "title": "The Laws of Human Nature by Robert Greene (.epub)",
        "link": "magnet:?xt=urn:btih:ED478F7218321BC69A69E31CE568610BA75D99FD&dn=The+Laws+of+Human+Nature+by+Robert+Greene+%28.epub%29&tr=udp%3A%2F%2Ftracker.coppersurfer.tk%3A6969%2Fannounce&tr=udp%3A%2F%2F9.rarbg.to%3A2920%2Fannounce&tr=udp%3A%2F%2Ftracker.opentrackr.org%3A1337&tr=udp%3A%2F%2Ftracker.internetwarriors.net%3A1337%2Fannounce&tr=udp%3A%2F%2Ftracker.leechers-paradise.org%3A6969%2Fannounce&tr=udp%3A%2F%2Ftracker.coppersurfer.tk%3A6969%2Fannounce&tr=udp%3A%2F%2Ftracker.pirateparty.gr%3A6969%2Fannounce&tr=udp%3A%2F%2Ftracker.cyberia.is%3A6969%2Fannounce",
        "seeder": "63",
        "leecher": "0"
    },
    {
        "rank": "80",
        "title": "Greek Mythology: The Gods, Goddesses .. by Liv Albert EPUB",
        "link": "magnet:?xt=urn:btih:47A7225FF69CA1DFFB8D4574324703592A3FA50C&dn=Greek+Mythology%3A+The+Gods%2C+Goddesses+..+by+Liv+Albert+EPUB&tr=udp%3A%2F%2Ftracker.coppersurfer.tk%3A6969%2Fannounce&tr=udp%3A%2F%2F9.rarbg.to%3A2920%2Fannounce&tr=udp%3A%2F%2Ftracker.opentrackr.org%3A1337&tr=udp%3A%2F%2Ftracker.internetwarriors.net%3A1337%2Fannounce&tr=udp%3A%2F%2Ftracker.leechers-paradise.org%3A6969%2Fannounce&tr=udp%3A%2F%2Ftracker.coppersurfer.tk%3A6969%2Fannounce&tr=udp%3A%2F%2Ftracker.pirateparty.gr%3A6969%2Fannounce&tr=udp%3A%2F%2Ftracker.cyberia.is%3A6969%2Fannounce",
        "seeder": "62",
        "leecher": "6"
    },
    {
        "rank": "81",
        "title": "Electronics from the Ground Up - Learn by Hacking, Designing, an",
        "link": "magnet:?xt=urn:btih:0D60B220F3B1081BC4CEC6ACB5BB83DC9607FCD0&dn=Electronics+from+the+Ground+Up+-+Learn+by+Hacking%2C+Designing%2C+an&tr=udp%3A%2F%2Ftracker.coppersurfer.tk%3A6969%2Fannounce&tr=udp%3A%2F%2F9.rarbg.to%3A2920%2Fannounce&tr=udp%3A%2F%2Ftracker.opentrackr.org%3A1337&tr=udp%3A%2F%2Ftracker.internetwarriors.net%3A1337%2Fannounce&tr=udp%3A%2F%2Ftracker.leechers-paradise.org%3A6969%2Fannounce&tr=udp%3A%2F%2Ftracker.coppersurfer.tk%3A6969%2Fannounce&tr=udp%3A%2F%2Ftracker.pirateparty.gr%3A6969%2Fannounce&tr=udp%3A%2F%2Ftracker.cyberia.is%3A6969%2Fannounce",
        "seeder": "62",
        "leecher": "1"
    },
    {
        "rank": "82",
        "title": "The Ultimate Laptop Repairing Course",
        "link": "magnet:?xt=urn:btih:D81D06EAF98BDC0A6709A1915B0204DCC670B251&dn=The+Ultimate+Laptop+Repairing+Course&tr=udp%3A%2F%2Ftracker.coppersurfer.tk%3A6969%2Fannounce&tr=udp%3A%2F%2F9.rarbg.to%3A2920%2Fannounce&tr=udp%3A%2F%2Ftracker.opentrackr.org%3A1337&tr=udp%3A%2F%2Ftracker.internetwarriors.net%3A1337%2Fannounce&tr=udp%3A%2F%2Ftracker.leechers-paradise.org%3A6969%2Fannounce&tr=udp%3A%2F%2Ftracker.coppersurfer.tk%3A6969%2Fannounce&tr=udp%3A%2F%2Ftracker.pirateparty.gr%3A6969%2Fannounce&tr=udp%3A%2F%2Ftracker.cyberia.is%3A6969%2Fannounce",
        "seeder": "61",
        "leecher": "1"
    },
    {
        "rank": "83",
        "title": "Bodyweight Training Encyclopedia +90 Exercises",
        "link": "magnet:?xt=urn:btih:6EF51F818EF874C1965709A5A1CB7203431A494A&dn=Bodyweight+Training+Encyclopedia+%2B90+Exercises&tr=udp%3A%2F%2Ftracker.coppersurfer.tk%3A6969%2Fannounce&tr=udp%3A%2F%2F9.rarbg.to%3A2920%2Fannounce&tr=udp%3A%2F%2Ftracker.opentrackr.org%3A1337&tr=udp%3A%2F%2Ftracker.internetwarriors.net%3A1337%2Fannounce&tr=udp%3A%2F%2Ftracker.leechers-paradise.org%3A6969%2Fannounce&tr=udp%3A%2F%2Ftracker.coppersurfer.tk%3A6969%2Fannounce&tr=udp%3A%2F%2Ftracker.pirateparty.gr%3A6969%2Fannounce&tr=udp%3A%2F%2Ftracker.cyberia.is%3A6969%2Fannounce",
        "seeder": "61",
        "leecher": "4"
    },
    {
        "rank": "84",
        "title": "How To Open Locks Without Keys Or Picks",
        "link": "magnet:?xt=urn:btih:640E31F161BFD3A06E7E3FFA606B2B3CE2C2FED9&dn=How+To+Open+Locks+Without+Keys+Or+Picks&tr=udp%3A%2F%2Ftracker.coppersurfer.tk%3A6969%2Fannounce&tr=udp%3A%2F%2F9.rarbg.to%3A2920%2Fannounce&tr=udp%3A%2F%2Ftracker.opentrackr.org%3A1337&tr=udp%3A%2F%2Ftracker.internetwarriors.net%3A1337%2Fannounce&tr=udp%3A%2F%2Ftracker.leechers-paradise.org%3A6969%2Fannounce&tr=udp%3A%2F%2Ftracker.coppersurfer.tk%3A6969%2Fannounce&tr=udp%3A%2F%2Ftracker.pirateparty.gr%3A6969%2Fannounce&tr=udp%3A%2F%2Ftracker.cyberia.is%3A6969%2Fannounce",
        "seeder": "61",
        "leecher": "2"
    },
    {
        "rank": "85",
        "title": "John le Carre - Complete Novels and Non-fiction (35 books)",
        "link": "magnet:?xt=urn:btih:0A4302549495C9FD40CD4B9D29D5ED5A9B47BA7A&dn=John+le+Carre+-+Complete+Novels+and+Non-fiction+%2835+books%29&tr=udp%3A%2F%2Ftracker.coppersurfer.tk%3A6969%2Fannounce&tr=udp%3A%2F%2F9.rarbg.to%3A2920%2Fannounce&tr=udp%3A%2F%2Ftracker.opentrackr.org%3A1337&tr=udp%3A%2F%2Ftracker.internetwarriors.net%3A1337%2Fannounce&tr=udp%3A%2F%2Ftracker.leechers-paradise.org%3A6969%2Fannounce&tr=udp%3A%2F%2Ftracker.coppersurfer.tk%3A6969%2Fannounce&tr=udp%3A%2F%2Ftracker.pirateparty.gr%3A6969%2Fannounce&tr=udp%3A%2F%2Ftracker.cyberia.is%3A6969%2Fannounce",
        "seeder": "61",
        "leecher": "0"
    },
    {
        "rank": "86",
        "title": "The 48 Laws of Power by Robert Greene",
        "link": "magnet:?xt=urn:btih:ED81C2B318141561CF803A399478F49C685AD1EA&dn=The+48+Laws+of+Power+by+Robert+Greene&tr=udp%3A%2F%2Ftracker.coppersurfer.tk%3A6969%2Fannounce&tr=udp%3A%2F%2F9.rarbg.to%3A2920%2Fannounce&tr=udp%3A%2F%2Ftracker.opentrackr.org%3A1337&tr=udp%3A%2F%2Ftracker.internetwarriors.net%3A1337%2Fannounce&tr=udp%3A%2F%2Ftracker.leechers-paradise.org%3A6969%2Fannounce&tr=udp%3A%2F%2Ftracker.coppersurfer.tk%3A6969%2Fannounce&tr=udp%3A%2F%2Ftracker.pirateparty.gr%3A6969%2Fannounce&tr=udp%3A%2F%2Ftracker.cyberia.is%3A6969%2Fannounce",
        "seeder": "61",
        "leecher": "2"
    },
    {
        "rank": "87",
        "title": "Excel For Professionals 2021",
        "link": "magnet:?xt=urn:btih:F2987060E4A3DDFD6E84752886CA7349518E8C3B&dn=Excel+For+Professionals+2021&tr=udp%3A%2F%2Ftracker.coppersurfer.tk%3A6969%2Fannounce&tr=udp%3A%2F%2F9.rarbg.to%3A2920%2Fannounce&tr=udp%3A%2F%2Ftracker.opentrackr.org%3A1337&tr=udp%3A%2F%2Ftracker.internetwarriors.net%3A1337%2Fannounce&tr=udp%3A%2F%2Ftracker.leechers-paradise.org%3A6969%2Fannounce&tr=udp%3A%2F%2Ftracker.coppersurfer.tk%3A6969%2Fannounce&tr=udp%3A%2F%2Ftracker.pirateparty.gr%3A6969%2Fannounce&tr=udp%3A%2F%2Ftracker.cyberia.is%3A6969%2Fannounce",
        "seeder": "60",
        "leecher": "3"
    },
    {
        "rank": "88",
        "title": "Solar Power The beginner's guide on how to design and install a",
        "link": "magnet:?xt=urn:btih:AB720F5BF50E06DCA993321F64CAADA482D9D805&dn=Solar+Power+The+beginner%27s+guide+on+how+to+design+and+install+a&tr=udp%3A%2F%2Ftracker.coppersurfer.tk%3A6969%2Fannounce&tr=udp%3A%2F%2F9.rarbg.to%3A2920%2Fannounce&tr=udp%3A%2F%2Ftracker.opentrackr.org%3A1337&tr=udp%3A%2F%2Ftracker.internetwarriors.net%3A1337%2Fannounce&tr=udp%3A%2F%2Ftracker.leechers-paradise.org%3A6969%2Fannounce&tr=udp%3A%2F%2Ftracker.coppersurfer.tk%3A6969%2Fannounce&tr=udp%3A%2F%2Ftracker.pirateparty.gr%3A6969%2Fannounce&tr=udp%3A%2F%2Ftracker.cyberia.is%3A6969%2Fannounce",
        "seeder": "59",
        "leecher": "1"
    },
    {
        "rank": "89",
        "title": "Gordon Ramsay Quick And Delicious 100 Recipes To Cook In 30 Minu",
        "link": "magnet:?xt=urn:btih:F172BF29844EF60A35754BCD41DD6A807567490A&dn=Gordon+Ramsay+Quick+And+Delicious+100+Recipes+To+Cook+In+30+Minu&tr=udp%3A%2F%2Ftracker.coppersurfer.tk%3A6969%2Fannounce&tr=udp%3A%2F%2F9.rarbg.to%3A2920%2Fannounce&tr=udp%3A%2F%2Ftracker.opentrackr.org%3A1337&tr=udp%3A%2F%2Ftracker.internetwarriors.net%3A1337%2Fannounce&tr=udp%3A%2F%2Ftracker.leechers-paradise.org%3A6969%2Fannounce&tr=udp%3A%2F%2Ftracker.coppersurfer.tk%3A6969%2Fannounce&tr=udp%3A%2F%2Ftracker.pirateparty.gr%3A6969%2Fannounce&tr=udp%3A%2F%2Ftracker.cyberia.is%3A6969%2Fannounce",
        "seeder": "59",
        "leecher": "1"
    },
    {
        "rank": "90",
        "title": "The Complete Human Body, 2nd Edition - The Definitive Visual Gui",
        "link": "magnet:?xt=urn:btih:E32EE6CA4C493455F963F04B992158D7BCA1B353&dn=The+Complete+Human+Body%2C+2nd+Edition+-+The+Definitive+Visual+Gui&tr=udp%3A%2F%2Ftracker.coppersurfer.tk%3A6969%2Fannounce&tr=udp%3A%2F%2F9.rarbg.to%3A2920%2Fannounce&tr=udp%3A%2F%2Ftracker.opentrackr.org%3A1337&tr=udp%3A%2F%2Ftracker.internetwarriors.net%3A1337%2Fannounce&tr=udp%3A%2F%2Ftracker.leechers-paradise.org%3A6969%2Fannounce&tr=udp%3A%2F%2Ftracker.coppersurfer.tk%3A6969%2Fannounce&tr=udp%3A%2F%2Ftracker.pirateparty.gr%3A6969%2Fannounce&tr=udp%3A%2F%2Ftracker.cyberia.is%3A6969%2Fannounce",
        "seeder": "59",
        "leecher": "1"
    },
    {
        "rank": "91",
        "title": "60 Assorted Magazines PDF April 4 2021 Pack 1",
        "link": "magnet:?xt=urn:btih:A19B69FCD8DB6078F5A61308C32F12054009CEC7&dn=60+Assorted+Magazines+PDF+April+4+2021+Pack+1&tr=udp%3A%2F%2Ftracker.coppersurfer.tk%3A6969%2Fannounce&tr=udp%3A%2F%2F9.rarbg.to%3A2920%2Fannounce&tr=udp%3A%2F%2Ftracker.opentrackr.org%3A1337&tr=udp%3A%2F%2Ftracker.internetwarriors.net%3A1337%2Fannounce&tr=udp%3A%2F%2Ftracker.leechers-paradise.org%3A6969%2Fannounce&tr=udp%3A%2F%2Ftracker.coppersurfer.tk%3A6969%2Fannounce&tr=udp%3A%2F%2Ftracker.pirateparty.gr%3A6969%2Fannounce&tr=udp%3A%2F%2Ftracker.cyberia.is%3A6969%2Fannounce",
        "seeder": "58",
        "leecher": "64"
    },
    {
        "rank": "92",
        "title": "1001 Amazing Jokes -  collection of 1001 of the funniest jokes",
        "link": "magnet:?xt=urn:btih:60A689DE50A4C74756822A2177D0B9D0946B27C0&dn=1001+Amazing+Jokes+-++collection+of+1001+of+the+funniest+jokes&tr=udp%3A%2F%2Ftracker.coppersurfer.tk%3A6969%2Fannounce&tr=udp%3A%2F%2F9.rarbg.to%3A2920%2Fannounce&tr=udp%3A%2F%2Ftracker.opentrackr.org%3A1337&tr=udp%3A%2F%2Ftracker.internetwarriors.net%3A1337%2Fannounce&tr=udp%3A%2F%2Ftracker.leechers-paradise.org%3A6969%2Fannounce&tr=udp%3A%2F%2Ftracker.coppersurfer.tk%3A6969%2Fannounce&tr=udp%3A%2F%2Ftracker.pirateparty.gr%3A6969%2Fannounce&tr=udp%3A%2F%2Ftracker.cyberia.is%3A6969%2Fannounce",
        "seeder": "58",
        "leecher": "0"
    },
    {
        "rank": "93",
        "title": "Passive Income 30 Strategies Ideas To Start Online Business WWRG",
        "link": "magnet:?xt=urn:btih:99CBAF52FC8A77B057C4552AB0028293FE6A7420&dn=Passive+Income+30+Strategies+Ideas+To+Start+Online+Business+WWRG&tr=udp%3A%2F%2Ftracker.coppersurfer.tk%3A6969%2Fannounce&tr=udp%3A%2F%2F9.rarbg.to%3A2920%2Fannounce&tr=udp%3A%2F%2Ftracker.opentrackr.org%3A1337&tr=udp%3A%2F%2Ftracker.internetwarriors.net%3A1337%2Fannounce&tr=udp%3A%2F%2Ftracker.leechers-paradise.org%3A6969%2Fannounce&tr=udp%3A%2F%2Ftracker.coppersurfer.tk%3A6969%2Fannounce&tr=udp%3A%2F%2Ftracker.pirateparty.gr%3A6969%2Fannounce&tr=udp%3A%2F%2Ftracker.cyberia.is%3A6969%2Fannounce",
        "seeder": "58",
        "leecher": "5"
    },
    {
        "rank": "94",
        "title": "Oxford English Grammar Course Advanced",
        "link": "magnet:?xt=urn:btih:2A9B39FDBA2C513EB5268C9B277DCC2F7685EBD0&dn=Oxford+English+Grammar+Course+Advanced&tr=udp%3A%2F%2Ftracker.coppersurfer.tk%3A6969%2Fannounce&tr=udp%3A%2F%2F9.rarbg.to%3A2920%2Fannounce&tr=udp%3A%2F%2Ftracker.opentrackr.org%3A1337&tr=udp%3A%2F%2Ftracker.internetwarriors.net%3A1337%2Fannounce&tr=udp%3A%2F%2Ftracker.leechers-paradise.org%3A6969%2Fannounce&tr=udp%3A%2F%2Ftracker.coppersurfer.tk%3A6969%2Fannounce&tr=udp%3A%2F%2Ftracker.pirateparty.gr%3A6969%2Fannounce&tr=udp%3A%2F%2Ftracker.cyberia.is%3A6969%2Fannounce",
        "seeder": "57",
        "leecher": "1"
    },
    {
        "rank": "95",
        "title": "60 Assorted Magazines PDF April 4 2021 Pack 2",
        "link": "magnet:?xt=urn:btih:C006E42A320882200A0EDE9825A1A36055B203E5&dn=60+Assorted+Magazines+PDF+April+4+2021+Pack+2&tr=udp%3A%2F%2Ftracker.coppersurfer.tk%3A6969%2Fannounce&tr=udp%3A%2F%2F9.rarbg.to%3A2920%2Fannounce&tr=udp%3A%2F%2Ftracker.opentrackr.org%3A1337&tr=udp%3A%2F%2Ftracker.internetwarriors.net%3A1337%2Fannounce&tr=udp%3A%2F%2Ftracker.leechers-paradise.org%3A6969%2Fannounce&tr=udp%3A%2F%2Ftracker.coppersurfer.tk%3A6969%2Fannounce&tr=udp%3A%2F%2Ftracker.pirateparty.gr%3A6969%2Fannounce&tr=udp%3A%2F%2Ftracker.cyberia.is%3A6969%2Fannounce",
        "seeder": "56",
        "leecher": "74"
    },
    {
        "rank": "96",
        "title": "60 Hottest Women In The World FHD - UHD 4K Wallpapers Pack 1",
        "link": "magnet:?xt=urn:btih:4C4A3FF872299C3F46C078867DCE4315E7790ABA&dn=60+Hottest+Women+In+The+World+FHD+-+UHD+4K+Wallpapers+Pack+1&tr=udp%3A%2F%2Ftracker.coppersurfer.tk%3A6969%2Fannounce&tr=udp%3A%2F%2F9.rarbg.to%3A2920%2Fannounce&tr=udp%3A%2F%2Ftracker.opentrackr.org%3A1337&tr=udp%3A%2F%2Ftracker.internetwarriors.net%3A1337%2Fannounce&tr=udp%3A%2F%2Ftracker.leechers-paradise.org%3A6969%2Fannounce&tr=udp%3A%2F%2Ftracker.coppersurfer.tk%3A6969%2Fannounce&tr=udp%3A%2F%2Ftracker.pirateparty.gr%3A6969%2Fannounce&tr=udp%3A%2F%2Ftracker.cyberia.is%3A6969%2Fannounce",
        "seeder": "55",
        "leecher": "7"
    },
    {
        "rank": "97",
        "title": "Dad Jokes Too Punnier Than Ever more than 800 eye-rollers",
        "link": "magnet:?xt=urn:btih:4A5089B2F14D2CD27955AE4350155959BC12148E&dn=Dad+Jokes+Too+Punnier+Than+Ever+more+than+800+eye-rollers&tr=udp%3A%2F%2Ftracker.coppersurfer.tk%3A6969%2Fannounce&tr=udp%3A%2F%2F9.rarbg.to%3A2920%2Fannounce&tr=udp%3A%2F%2Ftracker.opentrackr.org%3A1337&tr=udp%3A%2F%2Ftracker.internetwarriors.net%3A1337%2Fannounce&tr=udp%3A%2F%2Ftracker.leechers-paradise.org%3A6969%2Fannounce&tr=udp%3A%2F%2Ftracker.coppersurfer.tk%3A6969%2Fannounce&tr=udp%3A%2F%2Ftracker.pirateparty.gr%3A6969%2Fannounce&tr=udp%3A%2F%2Ftracker.cyberia.is%3A6969%2Fannounce",
        "seeder": "55",
        "leecher": "1"
    },
    {
        "rank": "98",
        "title": "20 Awesome Nature Ultra HD 4K Wallpapers 3840x2160 Px [Set 64]",
        "link": "magnet:?xt=urn:btih:6D651F45A01AFC35572C734C73CBF8A8F82C396F&dn=20+Awesome+Nature+Ultra+HD+4K+Wallpapers+3840x2160+Px+%5BSet+64%5D&tr=udp%3A%2F%2Ftracker.coppersurfer.tk%3A6969%2Fannounce&tr=udp%3A%2F%2F9.rarbg.to%3A2920%2Fannounce&tr=udp%3A%2F%2Ftracker.opentrackr.org%3A1337&tr=udp%3A%2F%2Ftracker.internetwarriors.net%3A1337%2Fannounce&tr=udp%3A%2F%2Ftracker.leechers-paradise.org%3A6969%2Fannounce&tr=udp%3A%2F%2Ftracker.coppersurfer.tk%3A6969%2Fannounce&tr=udp%3A%2F%2Ftracker.pirateparty.gr%3A6969%2Fannounce&tr=udp%3A%2F%2Ftracker.cyberia.is%3A6969%2Fannounce",
        "seeder": "55",
        "leecher": "3"
    },
    {
        "rank": "99",
        "title": "SkillShare - Logo Design Mastery: The Full Course",
        "link": "magnet:?xt=urn:btih:96C16CE8BEA1DB2A46434877509D9C05B34C0BB1&dn=SkillShare+-+Logo+Design+Mastery%3A+The+Full+Course&tr=udp%3A%2F%2Ftracker.coppersurfer.tk%3A6969%2Fannounce&tr=udp%3A%2F%2F9.rarbg.to%3A2920%2Fannounce&tr=udp%3A%2F%2Ftracker.opentrackr.org%3A1337&tr=udp%3A%2F%2Ftracker.internetwarriors.net%3A1337%2Fannounce&tr=udp%3A%2F%2Ftracker.leechers-paradise.org%3A6969%2Fannounce&tr=udp%3A%2F%2Ftracker.coppersurfer.tk%3A6969%2Fannounce&tr=udp%3A%2F%2Ftracker.pirateparty.gr%3A6969%2Fannounce&tr=udp%3A%2F%2Ftracker.cyberia.is%3A6969%2Fannounce",
        "seeder": "54",
        "leecher": "2"
    },
    {
        "rank": "100",
        "title": "The Room Where It Happened - John Bolton.pdf",
        "link": "magnet:?xt=urn:btih:F2909C12CCB9EB04B81E63405D17D6C13595D8E6&dn=The+Room+Where+It+Happened+-+John+Bolton.pdf&tr=udp%3A%2F%2Ftracker.coppersurfer.tk%3A6969%2Fannounce&tr=udp%3A%2F%2F9.rarbg.to%3A2920%2Fannounce&tr=udp%3A%2F%2Ftracker.opentrackr.org%3A1337&tr=udp%3A%2F%2Ftracker.internetwarriors.net%3A1337%2Fannounce&tr=udp%3A%2F%2Ftracker.leechers-paradise.org%3A6969%2Fannounce&tr=udp%3A%2F%2Ftracker.coppersurfer.tk%3A6969%2Fannounce&tr=udp%3A%2F%2Ftracker.pirateparty.gr%3A6969%2Fannounce&tr=udp%3A%2F%2Ftracker.cyberia.is%3A6969%2Fannounce",
        "seeder": "54",
        "leecher": "0"
    }
]
