[
    {
        "rank": "1",
        "title": "Apple Ipad/Iphone Games and Apps Collection",
        "link": "magnet:?xt=urn:btih:A449A36D966DDC8758CD2BB59E27D24B46DD3CCE&dn=Apple+Ipad%2FIphone+Games+and+Apps+Collection&tr=udp%3A%2F%2Ftracker.coppersurfer.tk%3A6969%2Fannounce&tr=udp%3A%2F%2F9.rarbg.to%3A2920%2Fannounce&tr=udp%3A%2F%2Ftracker.opentrackr.org%3A1337&tr=udp%3A%2F%2Ftracker.internetwarriors.net%3A1337%2Fannounce&tr=udp%3A%2F%2Ftracker.leechers-paradise.org%3A6969%2Fannounce&tr=udp%3A%2F%2Ftracker.coppersurfer.tk%3A6969%2Fannounce&tr=udp%3A%2F%2Ftracker.pirateparty.gr%3A6969%2Fannounce&tr=udp%3A%2F%2Ftracker.cyberia.is%3A6969%2Fannounce",
        "seeder": "6",
        "leecher": "1"
    },
    {
        "rank": "2",
        "title": "Tube Downloader Pro Free Video Download [Appsneon] v1.2",
        "link": "magnet:?xt=urn:btih:BA1EF03B09F346960BF12CFC197EEBA8C8C885DE&dn=Tube+Downloader+Pro+Free+Video+Download+%5BAppsneon%5D+v1.2&tr=udp%3A%2F%2Ftracker.coppersurfer.tk%3A6969%2Fannounce&tr=udp%3A%2F%2F9.rarbg.to%3A2920%2Fannounce&tr=udp%3A%2F%2Ftracker.opentrackr.org%3A1337&tr=udp%3A%2F%2Ftracker.internetwarriors.net%3A1337%2Fannounce&tr=udp%3A%2F%2Ftracker.leechers-paradise.org%3A6969%2Fannounce&tr=udp%3A%2F%2Ftracker.coppersurfer.tk%3A6969%2Fannounce&tr=udp%3A%2F%2Ftracker.pirateparty.gr%3A6969%2Fannounce&tr=udp%3A%2F%2Ftracker.cyberia.is%3A6969%2Fannounce",
        "seeder": "2",
        "leecher": "0"
    },
    {
        "rank": "3",
        "title": "\u0633\u064a\u062f\u0646\u0627 \u0635\u0627\u0644\u062d- \u0642\u0635\u0635 \u0627\u0644\u0627\u0646\u0628\u064a\u0627\u0621v1.0.0-Allal123",
        "link": "magnet:?xt=urn:btih:737B99B8F26FEC69A6B01B227CF90569907DDB59&dn=%D8%B3%D9%8A%D8%AF%D9%86%D8%A7+%D8%B5%D8%A7%D9%84%D8%AD-+%D9%82%D8%B5%D8%B5+%D8%A7%D9%84%D8%A7%D9%86%D8%A8%D9%8A%D8%A7%D8%A1v1.0.0-Allal123&tr=udp%3A%2F%2Ftracker.coppersurfer.tk%3A6969%2Fannounce&tr=udp%3A%2F%2F9.rarbg.to%3A2920%2Fannounce&tr=udp%3A%2F%2Ftracker.opentrackr.org%3A1337&tr=udp%3A%2F%2Ftracker.internetwarriors.net%3A1337%2Fannounce&tr=udp%3A%2F%2Ftracker.leechers-paradise.org%3A6969%2Fannounce&tr=udp%3A%2F%2Ftracker.coppersurfer.tk%3A6969%2Fannounce&tr=udp%3A%2F%2Ftracker.pirateparty.gr%3A6969%2Fannounce&tr=udp%3A%2F%2Ftracker.cyberia.is%3A6969%2Fannounce",
        "seeder": "2",
        "leecher": "0"
    },
    {
        "rank": "4",
        "title": "\u0633\u064a\u062f\u0646\u0627 \u064a\u0648\u0646\u0633- \u0642\u0635\u0635 \u0627\u0644\u0627\u0646\u0628\u064a\u0627\u0621v1.0.0-Allal123",
        "link": "magnet:?xt=urn:btih:F9697A2EE963AA8F39783DCEF4F5DDBE6F9757C8&dn=%D8%B3%D9%8A%D8%AF%D9%86%D8%A7+%D9%8A%D9%88%D9%86%D8%B3-+%D9%82%D8%B5%D8%B5+%D8%A7%D9%84%D8%A7%D9%86%D8%A8%D9%8A%D8%A7%D8%A1v1.0.0-Allal123&tr=udp%3A%2F%2Ftracker.coppersurfer.tk%3A6969%2Fannounce&tr=udp%3A%2F%2F9.rarbg.to%3A2920%2Fannounce&tr=udp%3A%2F%2Ftracker.opentrackr.org%3A1337&tr=udp%3A%2F%2Ftracker.internetwarriors.net%3A1337%2Fannounce&tr=udp%3A%2F%2Ftracker.leechers-paradise.org%3A6969%2Fannounce&tr=udp%3A%2F%2Ftracker.coppersurfer.tk%3A6969%2Fannounce&tr=udp%3A%2F%2Ftracker.pirateparty.gr%3A6969%2Fannounce&tr=udp%3A%2F%2Ftracker.cyberia.is%3A6969%2Fannounce",
        "seeder": "2",
        "leecher": "0"
    },
    {
        "rank": "5",
        "title": "35.Dictionnaire,Larousse,Antidote,Bescherelle,Bordas.By.Allal123",
        "link": "magnet:?xt=urn:btih:4293AE2AC6EC370B7B7ADFA5752FA23440C4227A&dn=35.Dictionnaire%2CLarousse%2CAntidote%2CBescherelle%2CBordas.By.Allal123&tr=udp%3A%2F%2Ftracker.coppersurfer.tk%3A6969%2Fannounce&tr=udp%3A%2F%2F9.rarbg.to%3A2920%2Fannounce&tr=udp%3A%2F%2Ftracker.opentrackr.org%3A1337&tr=udp%3A%2F%2Ftracker.internetwarriors.net%3A1337%2Fannounce&tr=udp%3A%2F%2Ftracker.leechers-paradise.org%3A6969%2Fannounce&tr=udp%3A%2F%2Ftracker.coppersurfer.tk%3A6969%2Fannounce&tr=udp%3A%2F%2Ftracker.pirateparty.gr%3A6969%2Fannounce&tr=udp%3A%2F%2Ftracker.cyberia.is%3A6969%2Fannounce",
        "seeder": "1",
        "leecher": "1"
    },
    {
        "rank": "6",
        "title": "Panic.Diet.Coda.v1.5.iPad-DVTPDA",
        "link": "magnet:?xt=urn:btih:F522EB3CF6F60D3D42D4DE44594B79C80CF39DBF&dn=Panic.Diet.Coda.v1.5.iPad-DVTPDA&tr=udp%3A%2F%2Ftracker.coppersurfer.tk%3A6969%2Fannounce&tr=udp%3A%2F%2F9.rarbg.to%3A2920%2Fannounce&tr=udp%3A%2F%2Ftracker.opentrackr.org%3A1337&tr=udp%3A%2F%2Ftracker.internetwarriors.net%3A1337%2Fannounce&tr=udp%3A%2F%2Ftracker.leechers-paradise.org%3A6969%2Fannounce&tr=udp%3A%2F%2Ftracker.coppersurfer.tk%3A6969%2Fannounce&tr=udp%3A%2F%2Ftracker.pirateparty.gr%3A6969%2Fannounce&tr=udp%3A%2F%2Ftracker.cyberia.is%3A6969%2Fannounce",
        "seeder": "1",
        "leecher": "0"
    },
    {
        "rank": "7",
        "title": "Easy Group [Vanbaelinghem] v3.0",
        "link": "magnet:?xt=urn:btih:EFFB8E0B98CADC56ED6374A5207555BC48023760&dn=Easy+Group+%5BVanbaelinghem%5D+v3.0&tr=udp%3A%2F%2Ftracker.coppersurfer.tk%3A6969%2Fannounce&tr=udp%3A%2F%2F9.rarbg.to%3A2920%2Fannounce&tr=udp%3A%2F%2Ftracker.opentrackr.org%3A1337&tr=udp%3A%2F%2Ftracker.internetwarriors.net%3A1337%2Fannounce&tr=udp%3A%2F%2Ftracker.leechers-paradise.org%3A6969%2Fannounce&tr=udp%3A%2F%2Ftracker.coppersurfer.tk%3A6969%2Fannounce&tr=udp%3A%2F%2Ftracker.pirateparty.gr%3A6969%2Fannounce&tr=udp%3A%2F%2Ftracker.cyberia.is%3A6969%2Fannounce",
        "seeder": "1",
        "leecher": "0"
    },
    {
        "rank": "8",
        "title": "Oxford American Handbook of Emergency Medicine ipod.ipad.iphone",
        "link": "magnet:?xt=urn:btih:02705FCDF2D832CD43420B30F2A4F2BC053C9C0F&dn=Oxford+American+Handbook+of+Emergency+Medicine+ipod.ipad.iphone&tr=udp%3A%2F%2Ftracker.coppersurfer.tk%3A6969%2Fannounce&tr=udp%3A%2F%2F9.rarbg.to%3A2920%2Fannounce&tr=udp%3A%2F%2Ftracker.opentrackr.org%3A1337&tr=udp%3A%2F%2Ftracker.internetwarriors.net%3A1337%2Fannounce&tr=udp%3A%2F%2Ftracker.leechers-paradise.org%3A6969%2Fannounce&tr=udp%3A%2F%2Ftracker.coppersurfer.tk%3A6969%2Fannounce&tr=udp%3A%2F%2Ftracker.pirateparty.gr%3A6969%2Fannounce&tr=udp%3A%2F%2Ftracker.cyberia.is%3A6969%2Fannounce",
        "seeder": "1",
        "leecher": "0"
    },
    {
        "rank": "9",
        "title": "Panic.Status.Board.v1.2.1.iPad-DVTPDA",
        "link": "magnet:?xt=urn:btih:D04649ED30F6E9D633361B63181369F00DE61448&dn=Panic.Status.Board.v1.2.1.iPad-DVTPDA&tr=udp%3A%2F%2Ftracker.coppersurfer.tk%3A6969%2Fannounce&tr=udp%3A%2F%2F9.rarbg.to%3A2920%2Fannounce&tr=udp%3A%2F%2Ftracker.opentrackr.org%3A1337&tr=udp%3A%2F%2Ftracker.internetwarriors.net%3A1337%2Fannounce&tr=udp%3A%2F%2Ftracker.leechers-paradise.org%3A6969%2Fannounce&tr=udp%3A%2F%2Ftracker.coppersurfer.tk%3A6969%2Fannounce&tr=udp%3A%2F%2Ftracker.pirateparty.gr%3A6969%2Fannounce&tr=udp%3A%2F%2Ftracker.cyberia.is%3A6969%2Fannounce",
        "seeder": "1",
        "leecher": "0"
    },
    {
        "rank": "10",
        "title": "Convert Intuitive unit converter by Ncove Studio  [Ncove Studio]",
        "link": "magnet:?xt=urn:btih:1513AFDA084FD7414D3784E4B203DDFF7B28816D&dn=Convert+Intuitive+unit+converter+by+Ncove+Studio++%5BNcove+Studio%5D&tr=udp%3A%2F%2Ftracker.coppersurfer.tk%3A6969%2Fannounce&tr=udp%3A%2F%2F9.rarbg.to%3A2920%2Fannounce&tr=udp%3A%2F%2Ftracker.opentrackr.org%3A1337&tr=udp%3A%2F%2Ftracker.internetwarriors.net%3A1337%2Fannounce&tr=udp%3A%2F%2Ftracker.leechers-paradise.org%3A6969%2Fannounce&tr=udp%3A%2F%2Ftracker.coppersurfer.tk%3A6969%2Fannounce&tr=udp%3A%2F%2Ftracker.pirateparty.gr%3A6969%2Fannounce&tr=udp%3A%2F%2Ftracker.cyberia.is%3A6969%2Fannounce",
        "seeder": "1",
        "leecher": "0"
    },
    {
        "rank": "11",
        "title": "Facebook v11 IPA for iPhone3Gs iOS 6.1.6",
        "link": "magnet:?xt=urn:btih:B44DBA136C65EBEDBBB23F9662F9149A916FE789&dn=Facebook+v11+IPA+for+iPhone3Gs+iOS+6.1.6&tr=udp%3A%2F%2Ftracker.coppersurfer.tk%3A6969%2Fannounce&tr=udp%3A%2F%2F9.rarbg.to%3A2920%2Fannounce&tr=udp%3A%2F%2Ftracker.opentrackr.org%3A1337&tr=udp%3A%2F%2Ftracker.internetwarriors.net%3A1337%2Fannounce&tr=udp%3A%2F%2Ftracker.leechers-paradise.org%3A6969%2Fannounce&tr=udp%3A%2F%2Ftracker.coppersurfer.tk%3A6969%2Fannounce&tr=udp%3A%2F%2Ftracker.pirateparty.gr%3A6969%2Fannounce&tr=udp%3A%2F%2Ftracker.cyberia.is%3A6969%2Fannounce",
        "seeder": "1",
        "leecher": "0"
    },
    {
        "rank": "12",
        "title": "\u0644\u063a\u0627\u0645\u062f\u064a- \u0627\u0644\u0642\u0631\u0627\u0646 \u0627\u0644\u0643\u0631\u064a\u0645v1.0-Allal123",
        "link": "magnet:?xt=urn:btih:2B56E11A9B6DC5C1DA27AA1305470C3A1588BF60&dn=%D9%84%D8%BA%D8%A7%D9%85%D8%AF%D9%8A-+%D8%A7%D9%84%D9%82%D8%B1%D8%A7%D9%86+%D8%A7%D9%84%D9%83%D8%B1%D9%8A%D9%85v1.0-Allal123&tr=udp%3A%2F%2Ftracker.coppersurfer.tk%3A6969%2Fannounce&tr=udp%3A%2F%2F9.rarbg.to%3A2920%2Fannounce&tr=udp%3A%2F%2Ftracker.opentrackr.org%3A1337&tr=udp%3A%2F%2Ftracker.internetwarriors.net%3A1337%2Fannounce&tr=udp%3A%2F%2Ftracker.leechers-paradise.org%3A6969%2Fannounce&tr=udp%3A%2F%2Ftracker.coppersurfer.tk%3A6969%2Fannounce&tr=udp%3A%2F%2Ftracker.pirateparty.gr%3A6969%2Fannounce&tr=udp%3A%2F%2Ftracker.cyberia.is%3A6969%2Fannounce",
        "seeder": "1",
        "leecher": "0"
    },
    {
        "rank": "13",
        "title": "1Password Pro-3.7.2",
        "link": "magnet:?xt=urn:btih:84ADC420BC55DAA356FAE68A4E9BFE2CEF5E2727&dn=1Password+Pro-3.7.2&tr=udp%3A%2F%2Ftracker.coppersurfer.tk%3A6969%2Fannounce&tr=udp%3A%2F%2F9.rarbg.to%3A2920%2Fannounce&tr=udp%3A%2F%2Ftracker.opentrackr.org%3A1337&tr=udp%3A%2F%2Ftracker.internetwarriors.net%3A1337%2Fannounce&tr=udp%3A%2F%2Ftracker.leechers-paradise.org%3A6969%2Fannounce&tr=udp%3A%2F%2Ftracker.coppersurfer.tk%3A6969%2Fannounce&tr=udp%3A%2F%2Ftracker.pirateparty.gr%3A6969%2Fannounce&tr=udp%3A%2F%2Ftracker.cyberia.is%3A6969%2Fannounce",
        "seeder": "1",
        "leecher": "0"
    },
    {
        "rank": "14",
        "title": "IM+ Pro v7.8",
        "link": "magnet:?xt=urn:btih:A527375926D001D130152B768345F3347C268BCA&dn=IM%2B+Pro+v7.8&tr=udp%3A%2F%2Ftracker.coppersurfer.tk%3A6969%2Fannounce&tr=udp%3A%2F%2F9.rarbg.to%3A2920%2Fannounce&tr=udp%3A%2F%2Ftracker.opentrackr.org%3A1337&tr=udp%3A%2F%2Ftracker.internetwarriors.net%3A1337%2Fannounce&tr=udp%3A%2F%2Ftracker.leechers-paradise.org%3A6969%2Fannounce&tr=udp%3A%2F%2Ftracker.coppersurfer.tk%3A6969%2Fannounce&tr=udp%3A%2F%2Ftracker.pirateparty.gr%3A6969%2Fannounce&tr=udp%3A%2F%2Ftracker.cyberia.is%3A6969%2Fannounce",
        "seeder": "1",
        "leecher": "0"
    },
    {
        "rank": "15",
        "title": "\u0645\u062d\u0645\u0648\u062f \u0627\u0644\u062d\u0635\u0631\u064a- \u0627\u0644\u0642\u0631\u0627\u0646 \u0627\u0644\u0643\u0631\u064a\u0645v1.0-Allal123",
        "link": "magnet:?xt=urn:btih:E3E5580299EBD6FA3F24081D9E272F534F296DD2&dn=%D9%85%D8%AD%D9%85%D9%88%D8%AF+%D8%A7%D9%84%D8%AD%D8%B5%D8%B1%D9%8A-+%D8%A7%D9%84%D9%82%D8%B1%D8%A7%D9%86+%D8%A7%D9%84%D9%83%D8%B1%D9%8A%D9%85v1.0-Allal123&tr=udp%3A%2F%2Ftracker.coppersurfer.tk%3A6969%2Fannounce&tr=udp%3A%2F%2F9.rarbg.to%3A2920%2Fannounce&tr=udp%3A%2F%2Ftracker.opentrackr.org%3A1337&tr=udp%3A%2F%2Ftracker.internetwarriors.net%3A1337%2Fannounce&tr=udp%3A%2F%2Ftracker.leechers-paradise.org%3A6969%2Fannounce&tr=udp%3A%2F%2Ftracker.coppersurfer.tk%3A6969%2Fannounce&tr=udp%3A%2F%2Ftracker.pirateparty.gr%3A6969%2Fannounce&tr=udp%3A%2F%2Ftracker.cyberia.is%3A6969%2Fannounce",
        "seeder": "1",
        "leecher": "0"
    },
    {
        "rank": "16",
        "title": "Ocarina 2 [Smule] v1.0.6",
        "link": "magnet:?xt=urn:btih:3EFF0489CA5789BA1E907B8A8AF0F2350EC8CB7C&dn=Ocarina+2+%5BSmule%5D+v1.0.6&tr=udp%3A%2F%2Ftracker.coppersurfer.tk%3A6969%2Fannounce&tr=udp%3A%2F%2F9.rarbg.to%3A2920%2Fannounce&tr=udp%3A%2F%2Ftracker.opentrackr.org%3A1337&tr=udp%3A%2F%2Ftracker.internetwarriors.net%3A1337%2Fannounce&tr=udp%3A%2F%2Ftracker.leechers-paradise.org%3A6969%2Fannounce&tr=udp%3A%2F%2Ftracker.coppersurfer.tk%3A6969%2Fannounce&tr=udp%3A%2F%2Ftracker.pirateparty.gr%3A6969%2Fannounce&tr=udp%3A%2F%2Ftracker.cyberia.is%3A6969%2Fannounce",
        "seeder": "1",
        "leecher": "0"
    },
    {
        "rank": "17",
        "title": "Skype v4.17.0.135 IPA for iPhone3Gs iOS 6.1.6",
        "link": "magnet:?xt=urn:btih:BD728E92E3C7B487486712E6ECE2EF8805907041&dn=Skype+v4.17.0.135+IPA+for+iPhone3Gs+iOS+6.1.6&tr=udp%3A%2F%2Ftracker.coppersurfer.tk%3A6969%2Fannounce&tr=udp%3A%2F%2F9.rarbg.to%3A2920%2Fannounce&tr=udp%3A%2F%2Ftracker.opentrackr.org%3A1337&tr=udp%3A%2F%2Ftracker.internetwarriors.net%3A1337%2Fannounce&tr=udp%3A%2F%2Ftracker.leechers-paradise.org%3A6969%2Fannounce&tr=udp%3A%2F%2Ftracker.coppersurfer.tk%3A6969%2Fannounce&tr=udp%3A%2F%2Ftracker.pirateparty.gr%3A6969%2Fannounce&tr=udp%3A%2F%2Ftracker.cyberia.is%3A6969%2Fannounce",
        "seeder": "1",
        "leecher": "0"
    },
    {
        "rank": "18",
        "title": "Hsuan.Chen.Scan.Connect.v1.0.2.iPad-V5PDA",
        "link": "magnet:?xt=urn:btih:35C1FEA06379C73895B072A12F69D81A053B762A&dn=Hsuan.Chen.Scan.Connect.v1.0.2.iPad-V5PDA&tr=udp%3A%2F%2Ftracker.coppersurfer.tk%3A6969%2Fannounce&tr=udp%3A%2F%2F9.rarbg.to%3A2920%2Fannounce&tr=udp%3A%2F%2Ftracker.opentrackr.org%3A1337&tr=udp%3A%2F%2Ftracker.internetwarriors.net%3A1337%2Fannounce&tr=udp%3A%2F%2Ftracker.leechers-paradise.org%3A6969%2Fannounce&tr=udp%3A%2F%2Ftracker.coppersurfer.tk%3A6969%2Fannounce&tr=udp%3A%2F%2Ftracker.pirateparty.gr%3A6969%2Fannounce&tr=udp%3A%2F%2Ftracker.cyberia.is%3A6969%2Fannounce",
        "seeder": "1",
        "leecher": "0"
    },
    {
        "rank": "19",
        "title": "Tapatalk Forum App-v1.13.6",
        "link": "magnet:?xt=urn:btih:7B5F54B5D3FB8F85D08B18047FA6CEAD5A7A35DD&dn=Tapatalk+Forum+App-v1.13.6&tr=udp%3A%2F%2Ftracker.coppersurfer.tk%3A6969%2Fannounce&tr=udp%3A%2F%2F9.rarbg.to%3A2920%2Fannounce&tr=udp%3A%2F%2Ftracker.opentrackr.org%3A1337&tr=udp%3A%2F%2Ftracker.internetwarriors.net%3A1337%2Fannounce&tr=udp%3A%2F%2Ftracker.leechers-paradise.org%3A6969%2Fannounce&tr=udp%3A%2F%2Ftracker.coppersurfer.tk%3A6969%2Fannounce&tr=udp%3A%2F%2Ftracker.pirateparty.gr%3A6969%2Fannounce&tr=udp%3A%2F%2Ftracker.cyberia.is%3A6969%2Fannounce",
        "seeder": "1",
        "leecher": "0"
    },
    {
        "rank": "20",
        "title": "55 New Apps No Games ipod.ipad.iphone",
        "link": "magnet:?xt=urn:btih:704EA146F126005FA548C0BAE61598D9D3AFA84A&dn=55+New+Apps+No+Games+ipod.ipad.iphone&tr=udp%3A%2F%2Ftracker.coppersurfer.tk%3A6969%2Fannounce&tr=udp%3A%2F%2F9.rarbg.to%3A2920%2Fannounce&tr=udp%3A%2F%2Ftracker.opentrackr.org%3A1337&tr=udp%3A%2F%2Ftracker.internetwarriors.net%3A1337%2Fannounce&tr=udp%3A%2F%2Ftracker.leechers-paradise.org%3A6969%2Fannounce&tr=udp%3A%2F%2Ftracker.coppersurfer.tk%3A6969%2Fannounce&tr=udp%3A%2F%2Ftracker.pirateparty.gr%3A6969%2Fannounce&tr=udp%3A%2F%2Ftracker.cyberia.is%3A6969%2Fannounce",
        "seeder": "1",
        "leecher": "0"
    },
    {
        "rank": "21",
        "title": "\u064a\u0627\u0633\u0631 \u0633\u0644\u0627\u0645\u0629- \u0627\u0644\u0642\u0631\u0627\u0646 \u0627\u0644\u0643\u0631\u064a\u0645v1.0-Allal123",
        "link": "magnet:?xt=urn:btih:AF564B2D244B258646ADB66ABAC291FB26753600&dn=%D9%8A%D8%A7%D8%B3%D8%B1+%D8%B3%D9%84%D8%A7%D9%85%D8%A9-+%D8%A7%D9%84%D9%82%D8%B1%D8%A7%D9%86+%D8%A7%D9%84%D9%83%D8%B1%D9%8A%D9%85v1.0-Allal123&tr=udp%3A%2F%2Ftracker.coppersurfer.tk%3A6969%2Fannounce&tr=udp%3A%2F%2F9.rarbg.to%3A2920%2Fannounce&tr=udp%3A%2F%2Ftracker.opentrackr.org%3A1337&tr=udp%3A%2F%2Ftracker.internetwarriors.net%3A1337%2Fannounce&tr=udp%3A%2F%2Ftracker.leechers-paradise.org%3A6969%2Fannounce&tr=udp%3A%2F%2Ftracker.coppersurfer.tk%3A6969%2Fannounce&tr=udp%3A%2F%2Ftracker.pirateparty.gr%3A6969%2Fannounce&tr=udp%3A%2F%2Ftracker.cyberia.is%3A6969%2Fannounce",
        "seeder": "1",
        "leecher": "0"
    },
    {
        "rank": "22",
        "title": "\u0633\u064a\u062f\u0646\u0627 \u0627\u0655\u0628\u0631\u0627\u0647\u064a\u0645-\u0642\u0635\u0635 \u0627\u0644\u0627\u0646\u0628\u064a\u0627\u0621v1.0.0-Allal123",
        "link": "magnet:?xt=urn:btih:4C73E09431A29496CADF50A2586E3E15CB8DEE2C&dn=%D8%B3%D9%8A%D8%AF%D9%86%D8%A7+%D8%A7%D9%95%D8%A8%D8%B1%D8%A7%D9%87%D9%8A%D9%85-%D9%82%D8%B5%D8%B5+%D8%A7%D9%84%D8%A7%D9%86%D8%A8%D9%8A%D8%A7%D8%A1v1.0.0-Allal123&tr=udp%3A%2F%2Ftracker.coppersurfer.tk%3A6969%2Fannounce&tr=udp%3A%2F%2F9.rarbg.to%3A2920%2Fannounce&tr=udp%3A%2F%2Ftracker.opentrackr.org%3A1337&tr=udp%3A%2F%2Ftracker.internetwarriors.net%3A1337%2Fannounce&tr=udp%3A%2F%2Ftracker.leechers-paradise.org%3A6969%2Fannounce&tr=udp%3A%2F%2Ftracker.coppersurfer.tk%3A6969%2Fannounce&tr=udp%3A%2F%2Ftracker.pirateparty.gr%3A6969%2Fannounce&tr=udp%3A%2F%2Ftracker.cyberia.is%3A6969%2Fannounce",
        "seeder": "1",
        "leecher": "0"
    },
    {
        "rank": "23",
        "title": "\u0633\u064a\u062f\u0646\u0627 \u062f\u0627\u0648\u062f- \u0642\u0635\u0635 \u0627\u0644\u0627\u0646\u0628\u064a\u0627\u0621v1.0.0-Allal123",
        "link": "magnet:?xt=urn:btih:3B0096BCA462A7770D82453B10B7CF348084609F&dn=%D8%B3%D9%8A%D8%AF%D9%86%D8%A7+%D8%AF%D8%A7%D9%88%D8%AF-+%D9%82%D8%B5%D8%B5+%D8%A7%D9%84%D8%A7%D9%86%D8%A8%D9%8A%D8%A7%D8%A1v1.0.0-Allal123&tr=udp%3A%2F%2Ftracker.coppersurfer.tk%3A6969%2Fannounce&tr=udp%3A%2F%2F9.rarbg.to%3A2920%2Fannounce&tr=udp%3A%2F%2Ftracker.opentrackr.org%3A1337&tr=udp%3A%2F%2Ftracker.internetwarriors.net%3A1337%2Fannounce&tr=udp%3A%2F%2Ftracker.leechers-paradise.org%3A6969%2Fannounce&tr=udp%3A%2F%2Ftracker.coppersurfer.tk%3A6969%2Fannounce&tr=udp%3A%2F%2Ftracker.pirateparty.gr%3A6969%2Fannounce&tr=udp%3A%2F%2Ftracker.cyberia.is%3A6969%2Fannounce",
        "seeder": "1",
        "leecher": "0"
    },
    {
        "rank": "24",
        "title": "\u0633\u064a\u062f\u0646\u0627 \u0632\u0643\u0631\u064a\u0627- \u0642\u0635\u0635 \u0627\u0644\u0627\u0646\u0628\u064a\u0627\u0621v1.0.0-Allal123",
        "link": "magnet:?xt=urn:btih:35BCE99A7F2B3169E6CAD37472667A6813044C82&dn=%D8%B3%D9%8A%D8%AF%D9%86%D8%A7+%D8%B2%D9%83%D8%B1%D9%8A%D8%A7-+%D9%82%D8%B5%D8%B5+%D8%A7%D9%84%D8%A7%D9%86%D8%A8%D9%8A%D8%A7%D8%A1v1.0.0-Allal123&tr=udp%3A%2F%2Ftracker.coppersurfer.tk%3A6969%2Fannounce&tr=udp%3A%2F%2F9.rarbg.to%3A2920%2Fannounce&tr=udp%3A%2F%2Ftracker.opentrackr.org%3A1337&tr=udp%3A%2F%2Ftracker.internetwarriors.net%3A1337%2Fannounce&tr=udp%3A%2F%2Ftracker.leechers-paradise.org%3A6969%2Fannounce&tr=udp%3A%2F%2Ftracker.coppersurfer.tk%3A6969%2Fannounce&tr=udp%3A%2F%2Ftracker.pirateparty.gr%3A6969%2Fannounce&tr=udp%3A%2F%2Ftracker.cyberia.is%3A6969%2Fannounce",
        "seeder": "1",
        "leecher": "0"
    },
    {
        "rank": "25",
        "title": "PhotoPocket - Manage your photos and videos ipad.ipod.iphone",
        "link": "magnet:?xt=urn:btih:B6AABCDE9A09982768DC506FAD98EDD4BB33D024&dn=PhotoPocket+-+Manage+your+photos+and+videos+ipad.ipod.iphone&tr=udp%3A%2F%2Ftracker.coppersurfer.tk%3A6969%2Fannounce&tr=udp%3A%2F%2F9.rarbg.to%3A2920%2Fannounce&tr=udp%3A%2F%2Ftracker.opentrackr.org%3A1337&tr=udp%3A%2F%2Ftracker.internetwarriors.net%3A1337%2Fannounce&tr=udp%3A%2F%2Ftracker.leechers-paradise.org%3A6969%2Fannounce&tr=udp%3A%2F%2Ftracker.coppersurfer.tk%3A6969%2Fannounce&tr=udp%3A%2F%2Ftracker.pirateparty.gr%3A6969%2Fannounce&tr=udp%3A%2F%2Ftracker.cyberia.is%3A6969%2Fannounce",
        "seeder": "1",
        "leecher": "0"
    },
    {
        "rank": "26",
        "title": "\u0633\u064a\u062f\u0646\u0627 \u0633\u0644\u064a\u0645\u0627\u0646- \u0642\u0635\u0635 \u0627\u0644\u0627\u0646\u0628\u064a\u0627\u0621v1.0.0-Allal123",
        "link": "magnet:?xt=urn:btih:35C6F5D6E37705E0F5E0F7761CA1C0CEC943ACBE&dn=%D8%B3%D9%8A%D8%AF%D9%86%D8%A7+%D8%B3%D9%84%D9%8A%D9%85%D8%A7%D9%86-+%D9%82%D8%B5%D8%B5+%D8%A7%D9%84%D8%A7%D9%86%D8%A8%D9%8A%D8%A7%D8%A1v1.0.0-Allal123&tr=udp%3A%2F%2Ftracker.coppersurfer.tk%3A6969%2Fannounce&tr=udp%3A%2F%2F9.rarbg.to%3A2920%2Fannounce&tr=udp%3A%2F%2Ftracker.opentrackr.org%3A1337&tr=udp%3A%2F%2Ftracker.internetwarriors.net%3A1337%2Fannounce&tr=udp%3A%2F%2Ftracker.leechers-paradise.org%3A6969%2Fannounce&tr=udp%3A%2F%2Ftracker.coppersurfer.tk%3A6969%2Fannounce&tr=udp%3A%2F%2Ftracker.pirateparty.gr%3A6969%2Fannounce&tr=udp%3A%2F%2Ftracker.cyberia.is%3A6969%2Fannounce",
        "seeder": "1",
        "leecher": "0"
    },
    {
        "rank": "27",
        "title": "Sygic_MapMyIndia_v.12.2.3_SP.rar",
        "link": "magnet:?xt=urn:btih:5F5B2461B70BABEE1E2BBF76166391AC8778874C&dn=Sygic_MapMyIndia_v.12.2.3_SP.rar&tr=udp%3A%2F%2Ftracker.coppersurfer.tk%3A6969%2Fannounce&tr=udp%3A%2F%2F9.rarbg.to%3A2920%2Fannounce&tr=udp%3A%2F%2Ftracker.opentrackr.org%3A1337&tr=udp%3A%2F%2Ftracker.internetwarriors.net%3A1337%2Fannounce&tr=udp%3A%2F%2Ftracker.leechers-paradise.org%3A6969%2Fannounce&tr=udp%3A%2F%2Ftracker.coppersurfer.tk%3A6969%2Fannounce&tr=udp%3A%2F%2Ftracker.pirateparty.gr%3A6969%2Fannounce&tr=udp%3A%2F%2Ftracker.cyberia.is%3A6969%2Fannounce",
        "seeder": "1",
        "leecher": "0"
    },
    {
        "rank": "28",
        "title": "Sing Karaoke [Smule] v2.0.6",
        "link": "magnet:?xt=urn:btih:6D42B29E1E482A55D0C6ED0DDD0AA4C2E367F942&dn=Sing+Karaoke+%5BSmule%5D+v2.0.6&tr=udp%3A%2F%2Ftracker.coppersurfer.tk%3A6969%2Fannounce&tr=udp%3A%2F%2F9.rarbg.to%3A2920%2Fannounce&tr=udp%3A%2F%2Ftracker.opentrackr.org%3A1337&tr=udp%3A%2F%2Ftracker.internetwarriors.net%3A1337%2Fannounce&tr=udp%3A%2F%2Ftracker.leechers-paradise.org%3A6969%2Fannounce&tr=udp%3A%2F%2Ftracker.coppersurfer.tk%3A6969%2Fannounce&tr=udp%3A%2F%2Ftracker.pirateparty.gr%3A6969%2Fannounce&tr=udp%3A%2F%2Ftracker.cyberia.is%3A6969%2Fannounce",
        "seeder": "1",
        "leecher": "0"
    },
    {
        "rank": "29",
        "title": "TV Television ipod.ipad.iphone",
        "link": "magnet:?xt=urn:btih:0EEAA6EA3261F0E873450781983D1E97FF5517E2&dn=TV+Television+ipod.ipad.iphone&tr=udp%3A%2F%2Ftracker.coppersurfer.tk%3A6969%2Fannounce&tr=udp%3A%2F%2F9.rarbg.to%3A2920%2Fannounce&tr=udp%3A%2F%2Ftracker.opentrackr.org%3A1337&tr=udp%3A%2F%2Ftracker.internetwarriors.net%3A1337%2Fannounce&tr=udp%3A%2F%2Ftracker.leechers-paradise.org%3A6969%2Fannounce&tr=udp%3A%2F%2Ftracker.coppersurfer.tk%3A6969%2Fannounce&tr=udp%3A%2F%2Ftracker.pirateparty.gr%3A6969%2Fannounce&tr=udp%3A%2F%2Ftracker.cyberia.is%3A6969%2Fannounce",
        "seeder": "1",
        "leecher": "0"
    },
    {
        "rank": "30",
        "title": "TomTom South East Asia v1.12 SP.ipa",
        "link": "magnet:?xt=urn:btih:A9D5F6D434753CC7DCDE138E4ADB546BD26722E8&dn=TomTom+South+East+Asia+v1.12+SP.ipa&tr=udp%3A%2F%2Ftracker.coppersurfer.tk%3A6969%2Fannounce&tr=udp%3A%2F%2F9.rarbg.to%3A2920%2Fannounce&tr=udp%3A%2F%2Ftracker.opentrackr.org%3A1337&tr=udp%3A%2F%2Ftracker.internetwarriors.net%3A1337%2Fannounce&tr=udp%3A%2F%2Ftracker.leechers-paradise.org%3A6969%2Fannounce&tr=udp%3A%2F%2Ftracker.coppersurfer.tk%3A6969%2Fannounce&tr=udp%3A%2F%2Ftracker.pirateparty.gr%3A6969%2Fannounce&tr=udp%3A%2F%2Ftracker.cyberia.is%3A6969%2Fannounce",
        "seeder": "1",
        "leecher": "0"
    },
    {
        "rank": "31",
        "title": "\u0633\u064a\u062f\u0646\u0627 \u0645\u0648\u0633\u0649- \u0642\u0635\u0635 \u0627\u0644\u0627\u0646\u0628\u064a\u0627\u0621v1.0.0-Allal123",
        "link": "magnet:?xt=urn:btih:516948CBEB07F129742E61BF9EF7B3C6A9B49FCD&dn=%D8%B3%D9%8A%D8%AF%D9%86%D8%A7+%D9%85%D9%88%D8%B3%D9%89-+%D9%82%D8%B5%D8%B5+%D8%A7%D9%84%D8%A7%D9%86%D8%A8%D9%8A%D8%A7%D8%A1v1.0.0-Allal123&tr=udp%3A%2F%2Ftracker.coppersurfer.tk%3A6969%2Fannounce&tr=udp%3A%2F%2F9.rarbg.to%3A2920%2Fannounce&tr=udp%3A%2F%2Ftracker.opentrackr.org%3A1337&tr=udp%3A%2F%2Ftracker.internetwarriors.net%3A1337%2Fannounce&tr=udp%3A%2F%2Ftracker.leechers-paradise.org%3A6969%2Fannounce&tr=udp%3A%2F%2Ftracker.coppersurfer.tk%3A6969%2Fannounce&tr=udp%3A%2F%2Ftracker.pirateparty.gr%3A6969%2Fannounce&tr=udp%3A%2F%2Ftracker.cyberia.is%3A6969%2Fannounce",
        "seeder": "1",
        "leecher": "0"
    },
    {
        "rank": "32",
        "title": "\u0633\u064a\u062f\u0646\u0627 \u0647\u0648\u062f- \u0642\u0635\u0635 \u0627\u0644\u0627\u0646\u0628\u064a\u0627\u0621v1.0.0-Allal123",
        "link": "magnet:?xt=urn:btih:5D56BD0A938CF6AB1F9A799DC880B966364EB1AE&dn=%D8%B3%D9%8A%D8%AF%D9%86%D8%A7+%D9%87%D9%88%D8%AF-+%D9%82%D8%B5%D8%B5+%D8%A7%D9%84%D8%A7%D9%86%D8%A8%D9%8A%D8%A7%D8%A1v1.0.0-Allal123&tr=udp%3A%2F%2Ftracker.coppersurfer.tk%3A6969%2Fannounce&tr=udp%3A%2F%2F9.rarbg.to%3A2920%2Fannounce&tr=udp%3A%2F%2Ftracker.opentrackr.org%3A1337&tr=udp%3A%2F%2Ftracker.internetwarriors.net%3A1337%2Fannounce&tr=udp%3A%2F%2Ftracker.leechers-paradise.org%3A6969%2Fannounce&tr=udp%3A%2F%2Ftracker.coppersurfer.tk%3A6969%2Fannounce&tr=udp%3A%2F%2Ftracker.pirateparty.gr%3A6969%2Fannounce&tr=udp%3A%2F%2Ftracker.cyberia.is%3A6969%2Fannounce",
        "seeder": "1",
        "leecher": "0"
    },
    {
        "rank": "33",
        "title": "TomTom France N VER ipod.ipad.iphone",
        "link": "magnet:?xt=urn:btih:D26489527746432D92BBB3FADB5EBCECE7D12616&dn=TomTom+France+N+VER+ipod.ipad.iphone&tr=udp%3A%2F%2Ftracker.coppersurfer.tk%3A6969%2Fannounce&tr=udp%3A%2F%2F9.rarbg.to%3A2920%2Fannounce&tr=udp%3A%2F%2Ftracker.opentrackr.org%3A1337&tr=udp%3A%2F%2Ftracker.internetwarriors.net%3A1337%2Fannounce&tr=udp%3A%2F%2Ftracker.leechers-paradise.org%3A6969%2Fannounce&tr=udp%3A%2F%2Ftracker.coppersurfer.tk%3A6969%2Fannounce&tr=udp%3A%2F%2Ftracker.pirateparty.gr%3A6969%2Fannounce&tr=udp%3A%2F%2Ftracker.cyberia.is%3A6969%2Fannounce",
        "seeder": "1",
        "leecher": "0"
    },
    {
        "rank": "34",
        "title": "cBackUP V2.0.0 (Contacts Backup Over Dropbox)",
        "link": "magnet:?xt=urn:btih:FD8F69E4F35F17A09C64A4D81AA10DDE7059F66F&dn=cBackUP+V2.0.0+%28Contacts+Backup+Over+Dropbox%29&tr=udp%3A%2F%2Ftracker.coppersurfer.tk%3A6969%2Fannounce&tr=udp%3A%2F%2F9.rarbg.to%3A2920%2Fannounce&tr=udp%3A%2F%2Ftracker.opentrackr.org%3A1337&tr=udp%3A%2F%2Ftracker.internetwarriors.net%3A1337%2Fannounce&tr=udp%3A%2F%2Ftracker.leechers-paradise.org%3A6969%2Fannounce&tr=udp%3A%2F%2Ftracker.coppersurfer.tk%3A6969%2Fannounce&tr=udp%3A%2F%2Ftracker.pirateparty.gr%3A6969%2Fannounce&tr=udp%3A%2F%2Ftracker.cyberia.is%3A6969%2Fannounce",
        "seeder": "1",
        "leecher": "0"
    },
    {
        "rank": "35",
        "title": "TomTom Greece N VER ipod.ipad.iphone",
        "link": "magnet:?xt=urn:btih:F27F1DBACDF6FE36AA047956807B8E3D98E010A0&dn=TomTom+Greece+N+VER+ipod.ipad.iphone&tr=udp%3A%2F%2Ftracker.coppersurfer.tk%3A6969%2Fannounce&tr=udp%3A%2F%2F9.rarbg.to%3A2920%2Fannounce&tr=udp%3A%2F%2Ftracker.opentrackr.org%3A1337&tr=udp%3A%2F%2Ftracker.internetwarriors.net%3A1337%2Fannounce&tr=udp%3A%2F%2Ftracker.leechers-paradise.org%3A6969%2Fannounce&tr=udp%3A%2F%2Ftracker.coppersurfer.tk%3A6969%2Fannounce&tr=udp%3A%2F%2Ftracker.pirateparty.gr%3A6969%2Fannounce&tr=udp%3A%2F%2Ftracker.cyberia.is%3A6969%2Fannounce",
        "seeder": "1",
        "leecher": "0"
    },
    {
        "rank": "36",
        "title": "TomTom Eastern Europa v1.10",
        "link": "magnet:?xt=urn:btih:8C5C120149667BEE9952125E6FB8DD893FC8018F&dn=TomTom+Eastern+Europa+v1.10&tr=udp%3A%2F%2Ftracker.coppersurfer.tk%3A6969%2Fannounce&tr=udp%3A%2F%2F9.rarbg.to%3A2920%2Fannounce&tr=udp%3A%2F%2Ftracker.opentrackr.org%3A1337&tr=udp%3A%2F%2Ftracker.internetwarriors.net%3A1337%2Fannounce&tr=udp%3A%2F%2Ftracker.leechers-paradise.org%3A6969%2Fannounce&tr=udp%3A%2F%2Ftracker.coppersurfer.tk%3A6969%2Fannounce&tr=udp%3A%2F%2Ftracker.pirateparty.gr%3A6969%2Fannounce&tr=udp%3A%2F%2Ftracker.cyberia.is%3A6969%2Fannounce",
        "seeder": "1",
        "leecher": "0"
    },
    {
        "rank": "37",
        "title": "Scanner Pro-v4.0.1149-Allal123.ipa",
        "link": "magnet:?xt=urn:btih:B2DA030E4E3683F2399CA9A52909E45590E64F89&dn=Scanner+Pro-v4.0.1149-Allal123.ipa&tr=udp%3A%2F%2Ftracker.coppersurfer.tk%3A6969%2Fannounce&tr=udp%3A%2F%2F9.rarbg.to%3A2920%2Fannounce&tr=udp%3A%2F%2Ftracker.opentrackr.org%3A1337&tr=udp%3A%2F%2Ftracker.internetwarriors.net%3A1337%2Fannounce&tr=udp%3A%2F%2Ftracker.leechers-paradise.org%3A6969%2Fannounce&tr=udp%3A%2F%2Ftracker.coppersurfer.tk%3A6969%2Fannounce&tr=udp%3A%2F%2Ftracker.pirateparty.gr%3A6969%2Fannounce&tr=udp%3A%2F%2Ftracker.cyberia.is%3A6969%2Fannounce",
        "seeder": "1",
        "leecher": "0"
    },
    {
        "rank": "38",
        "title": "Native Instruments iMaschine v1.0.4 iPhone iPod Touch iPad - DVT",
        "link": "magnet:?xt=urn:btih:6856B40B4D851E0098A4483810E89540BE87D6AE&dn=Native+Instruments+iMaschine+v1.0.4+iPhone+iPod+Touch+iPad+-+DVT&tr=udp%3A%2F%2Ftracker.coppersurfer.tk%3A6969%2Fannounce&tr=udp%3A%2F%2F9.rarbg.to%3A2920%2Fannounce&tr=udp%3A%2F%2Ftracker.opentrackr.org%3A1337&tr=udp%3A%2F%2Ftracker.internetwarriors.net%3A1337%2Fannounce&tr=udp%3A%2F%2Ftracker.leechers-paradise.org%3A6969%2Fannounce&tr=udp%3A%2F%2Ftracker.coppersurfer.tk%3A6969%2Fannounce&tr=udp%3A%2F%2Ftracker.pirateparty.gr%3A6969%2Fannounce&tr=udp%3A%2F%2Ftracker.cyberia.is%3A6969%2Fannounce",
        "seeder": "1",
        "leecher": "0"
    },
    {
        "rank": "39",
        "title": "TomTom Benelux [TomTom International BV] v1.8",
        "link": "magnet:?xt=urn:btih:079349E59BE3B78F4F1A880376EB40D2D8C5508F&dn=TomTom+Benelux+%5BTomTom+International+BV%5D+v1.8&tr=udp%3A%2F%2Ftracker.coppersurfer.tk%3A6969%2Fannounce&tr=udp%3A%2F%2F9.rarbg.to%3A2920%2Fannounce&tr=udp%3A%2F%2Ftracker.opentrackr.org%3A1337&tr=udp%3A%2F%2Ftracker.internetwarriors.net%3A1337%2Fannounce&tr=udp%3A%2F%2Ftracker.leechers-paradise.org%3A6969%2Fannounce&tr=udp%3A%2F%2Ftracker.coppersurfer.tk%3A6969%2Fannounce&tr=udp%3A%2F%2Ftracker.pirateparty.gr%3A6969%2Fannounce&tr=udp%3A%2F%2Ftracker.cyberia.is%3A6969%2Fannounce",
        "seeder": "1",
        "leecher": "0"
    },
    {
        "rank": "40",
        "title": "TomTom France [TomTom International BV] v1.10",
        "link": "magnet:?xt=urn:btih:0B6E8E7674A015DCBADF19BEA101EBB5EDC804EE&dn=TomTom+France+%5BTomTom+International+BV%5D+v1.10&tr=udp%3A%2F%2Ftracker.coppersurfer.tk%3A6969%2Fannounce&tr=udp%3A%2F%2F9.rarbg.to%3A2920%2Fannounce&tr=udp%3A%2F%2Ftracker.opentrackr.org%3A1337&tr=udp%3A%2F%2Ftracker.internetwarriors.net%3A1337%2Fannounce&tr=udp%3A%2F%2Ftracker.leechers-paradise.org%3A6969%2Fannounce&tr=udp%3A%2F%2Ftracker.coppersurfer.tk%3A6969%2Fannounce&tr=udp%3A%2F%2Ftracker.pirateparty.gr%3A6969%2Fannounce&tr=udp%3A%2F%2Ftracker.cyberia.is%3A6969%2Fannounce",
        "seeder": "1",
        "leecher": "0"
    },
    {
        "rank": "41",
        "title": "TomTom Hong Kong [TomTom International BV] v1.10",
        "link": "magnet:?xt=urn:btih:5553A613090069FC914F97C2A415C40AA5FED28B&dn=TomTom+Hong+Kong+%5BTomTom+International+BV%5D+v1.10&tr=udp%3A%2F%2Ftracker.coppersurfer.tk%3A6969%2Fannounce&tr=udp%3A%2F%2F9.rarbg.to%3A2920%2Fannounce&tr=udp%3A%2F%2Ftracker.opentrackr.org%3A1337&tr=udp%3A%2F%2Ftracker.internetwarriors.net%3A1337%2Fannounce&tr=udp%3A%2F%2Ftracker.leechers-paradise.org%3A6969%2Fannounce&tr=udp%3A%2F%2Ftracker.coppersurfer.tk%3A6969%2Fannounce&tr=udp%3A%2F%2Ftracker.pirateparty.gr%3A6969%2Fannounce&tr=udp%3A%2F%2Ftracker.cyberia.is%3A6969%2Fannounce",
        "seeder": "1",
        "leecher": "0"
    },
    {
        "rank": "42",
        "title": "TomTom Greece [TomTom International BV] 1.10",
        "link": "magnet:?xt=urn:btih:C274E671566533F775F372ED9E535598F2658768&dn=TomTom+Greece+%5BTomTom+International+BV%5D+1.10&tr=udp%3A%2F%2Ftracker.coppersurfer.tk%3A6969%2Fannounce&tr=udp%3A%2F%2F9.rarbg.to%3A2920%2Fannounce&tr=udp%3A%2F%2Ftracker.opentrackr.org%3A1337&tr=udp%3A%2F%2Ftracker.internetwarriors.net%3A1337%2Fannounce&tr=udp%3A%2F%2Ftracker.leechers-paradise.org%3A6969%2Fannounce&tr=udp%3A%2F%2Ftracker.coppersurfer.tk%3A6969%2Fannounce&tr=udp%3A%2F%2Ftracker.pirateparty.gr%3A6969%2Fannounce&tr=udp%3A%2F%2Ftracker.cyberia.is%3A6969%2Fannounce",
        "seeder": "1",
        "leecher": "0"
    },
    {
        "rank": "43",
        "title": "TomTom Iberia [TomTom International BV] v1.10",
        "link": "magnet:?xt=urn:btih:5DE037DDB58CD519D9B5A643DDEE6AA7FBFB2CEE&dn=TomTom+Iberia+%5BTomTom+International+BV%5D+v1.10&tr=udp%3A%2F%2Ftracker.coppersurfer.tk%3A6969%2Fannounce&tr=udp%3A%2F%2F9.rarbg.to%3A2920%2Fannounce&tr=udp%3A%2F%2Ftracker.opentrackr.org%3A1337&tr=udp%3A%2F%2Ftracker.internetwarriors.net%3A1337%2Fannounce&tr=udp%3A%2F%2Ftracker.leechers-paradise.org%3A6969%2Fannounce&tr=udp%3A%2F%2Ftracker.coppersurfer.tk%3A6969%2Fannounce&tr=udp%3A%2F%2Ftracker.pirateparty.gr%3A6969%2Fannounce&tr=udp%3A%2F%2Ftracker.cyberia.is%3A6969%2Fannounce",
        "seeder": "1",
        "leecher": "0"
    },
    {
        "rank": "44",
        "title": "TomTom Mexico [TomTom International BV] v.1.10",
        "link": "magnet:?xt=urn:btih:F37D4BDC6A6B01052061DC9E68D71448A8DA7C2E&dn=TomTom+Mexico+%5BTomTom+International+BV%5D+v.1.10&tr=udp%3A%2F%2Ftracker.coppersurfer.tk%3A6969%2Fannounce&tr=udp%3A%2F%2F9.rarbg.to%3A2920%2Fannounce&tr=udp%3A%2F%2Ftracker.opentrackr.org%3A1337&tr=udp%3A%2F%2Ftracker.internetwarriors.net%3A1337%2Fannounce&tr=udp%3A%2F%2Ftracker.leechers-paradise.org%3A6969%2Fannounce&tr=udp%3A%2F%2Ftracker.coppersurfer.tk%3A6969%2Fannounce&tr=udp%3A%2F%2Ftracker.pirateparty.gr%3A6969%2Fannounce&tr=udp%3A%2F%2Ftracker.cyberia.is%3A6969%2Fannounce",
        "seeder": "1",
        "leecher": "0"
    },
    {
        "rank": "45",
        "title": "TomTom Middle East [TomTom International BV] v1.10",
        "link": "magnet:?xt=urn:btih:FF4164C7EA363177D55CB737C16DBC5641D63800&dn=TomTom+Middle+East+%5BTomTom+International+BV%5D+v1.10&tr=udp%3A%2F%2Ftracker.coppersurfer.tk%3A6969%2Fannounce&tr=udp%3A%2F%2F9.rarbg.to%3A2920%2Fannounce&tr=udp%3A%2F%2Ftracker.opentrackr.org%3A1337&tr=udp%3A%2F%2Ftracker.internetwarriors.net%3A1337%2Fannounce&tr=udp%3A%2F%2Ftracker.leechers-paradise.org%3A6969%2Fannounce&tr=udp%3A%2F%2Ftracker.coppersurfer.tk%3A6969%2Fannounce&tr=udp%3A%2F%2Ftracker.pirateparty.gr%3A6969%2Fannounce&tr=udp%3A%2F%2Ftracker.cyberia.is%3A6969%2Fannounce",
        "seeder": "1",
        "leecher": "0"
    },
    {
        "rank": "46",
        "title": "Heroes Land Deluxe",
        "link": "magnet:?xt=urn:btih:89708B23B83ED68CCC029D91ACEA2EE95376A4FC&dn=Heroes+Land+Deluxe&tr=udp%3A%2F%2Ftracker.coppersurfer.tk%3A6969%2Fannounce&tr=udp%3A%2F%2F9.rarbg.to%3A2920%2Fannounce&tr=udp%3A%2F%2Ftracker.opentrackr.org%3A1337&tr=udp%3A%2F%2Ftracker.internetwarriors.net%3A1337%2Fannounce&tr=udp%3A%2F%2Ftracker.leechers-paradise.org%3A6969%2Fannounce&tr=udp%3A%2F%2Ftracker.coppersurfer.tk%3A6969%2Fannounce&tr=udp%3A%2F%2Ftracker.pirateparty.gr%3A6969%2Fannounce&tr=udp%3A%2F%2Ftracker.cyberia.is%3A6969%2Fannounce",
        "seeder": "1",
        "leecher": "0"
    },
    {
        "rank": "47",
        "title": "TomTom Turkey [TomTom International BV] v1.10",
        "link": "magnet:?xt=urn:btih:7F6272787DD3B378EC83F6C3F3C3654B5F8E0E46&dn=TomTom+Turkey+%5BTomTom+International+BV%5D+v1.10&tr=udp%3A%2F%2Ftracker.coppersurfer.tk%3A6969%2Fannounce&tr=udp%3A%2F%2F9.rarbg.to%3A2920%2Fannounce&tr=udp%3A%2F%2Ftracker.opentrackr.org%3A1337&tr=udp%3A%2F%2Ftracker.internetwarriors.net%3A1337%2Fannounce&tr=udp%3A%2F%2Ftracker.leechers-paradise.org%3A6969%2Fannounce&tr=udp%3A%2F%2Ftracker.coppersurfer.tk%3A6969%2Fannounce&tr=udp%3A%2F%2Ftracker.pirateparty.gr%3A6969%2Fannounce&tr=udp%3A%2F%2Ftracker.cyberia.is%3A6969%2Fannounce",
        "seeder": "1",
        "leecher": "0"
    },
    {
        "rank": "48",
        "title": "FullControl - remote control ipod.iphone.ipad",
        "link": "magnet:?xt=urn:btih:8AF3F35C8AE687A37B9FE41BC1031EAA519421F9&dn=FullControl+-+remote+control+ipod.iphone.ipad&tr=udp%3A%2F%2Ftracker.coppersurfer.tk%3A6969%2Fannounce&tr=udp%3A%2F%2F9.rarbg.to%3A2920%2Fannounce&tr=udp%3A%2F%2Ftracker.opentrackr.org%3A1337&tr=udp%3A%2F%2Ftracker.internetwarriors.net%3A1337%2Fannounce&tr=udp%3A%2F%2Ftracker.leechers-paradise.org%3A6969%2Fannounce&tr=udp%3A%2F%2Ftracker.coppersurfer.tk%3A6969%2Fannounce&tr=udp%3A%2F%2Ftracker.pirateparty.gr%3A6969%2Fannounce&tr=udp%3A%2F%2Ftracker.cyberia.is%3A6969%2Fannounce",
        "seeder": "1",
        "leecher": "0"
    },
    {
        "rank": "49",
        "title": "TomTom Brazil 1.10",
        "link": "magnet:?xt=urn:btih:478CB77D1B42A64AC751D128349FEC5ECFC3027F&dn=TomTom+Brazil+1.10&tr=udp%3A%2F%2Ftracker.coppersurfer.tk%3A6969%2Fannounce&tr=udp%3A%2F%2F9.rarbg.to%3A2920%2Fannounce&tr=udp%3A%2F%2Ftracker.opentrackr.org%3A1337&tr=udp%3A%2F%2Ftracker.internetwarriors.net%3A1337%2Fannounce&tr=udp%3A%2F%2Ftracker.leechers-paradise.org%3A6969%2Fannounce&tr=udp%3A%2F%2Ftracker.coppersurfer.tk%3A6969%2Fannounce&tr=udp%3A%2F%2Ftracker.pirateparty.gr%3A6969%2Fannounce&tr=udp%3A%2F%2Ftracker.cyberia.is%3A6969%2Fannounce",
        "seeder": "1",
        "leecher": "0"
    },
    {
        "rank": "50",
        "title": "Batman Arkham Lockdown",
        "link": "magnet:?xt=urn:btih:9CF3F37AF7E4FB9FBEF10BF1BA4A70E7BDFE5281&dn=Batman+Arkham+Lockdown&tr=udp%3A%2F%2Ftracker.coppersurfer.tk%3A6969%2Fannounce&tr=udp%3A%2F%2F9.rarbg.to%3A2920%2Fannounce&tr=udp%3A%2F%2Ftracker.opentrackr.org%3A1337&tr=udp%3A%2F%2Ftracker.internetwarriors.net%3A1337%2Fannounce&tr=udp%3A%2F%2Ftracker.leechers-paradise.org%3A6969%2Fannounce&tr=udp%3A%2F%2Ftracker.coppersurfer.tk%3A6969%2Fannounce&tr=udp%3A%2F%2Ftracker.pirateparty.gr%3A6969%2Fannounce&tr=udp%3A%2F%2Ftracker.cyberia.is%3A6969%2Fannounce",
        "seeder": "1",
        "leecher": "0"
    },
    {
        "rank": "51",
        "title": "\u0623\u0633\u0628\u0627\u0628 \u0627\u0644\u0646\u0632\u0648\u0644-v1.0Allal123",
        "link": "magnet:?xt=urn:btih:1211643E576DE19CFD9194E6AE94A05B6CC27D16&dn=%D8%A3%D8%B3%D8%A8%D8%A7%D8%A8+%D8%A7%D9%84%D9%86%D8%B2%D9%88%D9%84-v1.0Allal123&tr=udp%3A%2F%2Ftracker.coppersurfer.tk%3A6969%2Fannounce&tr=udp%3A%2F%2F9.rarbg.to%3A2920%2Fannounce&tr=udp%3A%2F%2Ftracker.opentrackr.org%3A1337&tr=udp%3A%2F%2Ftracker.internetwarriors.net%3A1337%2Fannounce&tr=udp%3A%2F%2Ftracker.leechers-paradise.org%3A6969%2Fannounce&tr=udp%3A%2F%2Ftracker.coppersurfer.tk%3A6969%2Fannounce&tr=udp%3A%2F%2Ftracker.pirateparty.gr%3A6969%2Fannounce&tr=udp%3A%2F%2Ftracker.cyberia.is%3A6969%2Fannounce",
        "seeder": "1",
        "leecher": "0"
    },
    {
        "rank": "52",
        "title": "TeamViewer pro v7.0.9607 Cracked",
        "link": "magnet:?xt=urn:btih:1FC5509246D42A9AAB5CE1C1AC3AFA614372A4EB&dn=TeamViewer+pro+v7.0.9607+Cracked&tr=udp%3A%2F%2Ftracker.coppersurfer.tk%3A6969%2Fannounce&tr=udp%3A%2F%2F9.rarbg.to%3A2920%2Fannounce&tr=udp%3A%2F%2Ftracker.opentrackr.org%3A1337&tr=udp%3A%2F%2Ftracker.internetwarriors.net%3A1337%2Fannounce&tr=udp%3A%2F%2Ftracker.leechers-paradise.org%3A6969%2Fannounce&tr=udp%3A%2F%2Ftracker.coppersurfer.tk%3A6969%2Fannounce&tr=udp%3A%2F%2Ftracker.pirateparty.gr%3A6969%2Fannounce&tr=udp%3A%2F%2Ftracker.cyberia.is%3A6969%2Fannounce",
        "seeder": "1",
        "leecher": "0"
    },
    {
        "rank": "53",
        "title": "Euro 2012+ ipod.iphone.ipad",
        "link": "magnet:?xt=urn:btih:793539E52E6AF11137FA8C16A56DFF6D67FE5562&dn=Euro+2012%2B+ipod.iphone.ipad&tr=udp%3A%2F%2Ftracker.coppersurfer.tk%3A6969%2Fannounce&tr=udp%3A%2F%2F9.rarbg.to%3A2920%2Fannounce&tr=udp%3A%2F%2Ftracker.opentrackr.org%3A1337&tr=udp%3A%2F%2Ftracker.internetwarriors.net%3A1337%2Fannounce&tr=udp%3A%2F%2Ftracker.leechers-paradise.org%3A6969%2Fannounce&tr=udp%3A%2F%2Ftracker.coppersurfer.tk%3A6969%2Fannounce&tr=udp%3A%2F%2Ftracker.pirateparty.gr%3A6969%2Fannounce&tr=udp%3A%2F%2Ftracker.cyberia.is%3A6969%2Fannounce",
        "seeder": "1",
        "leecher": "0"
    },
    {
        "rank": "54",
        "title": "TomTom.Western.Europe.(v1.12 LP os421)-ADDiCT.ipa",
        "link": "magnet:?xt=urn:btih:88AB03FFC8D77E23F0F7F958E8570D70768F2574&dn=TomTom.Western.Europe.%28v1.12+LP+os421%29-ADDiCT.ipa&tr=udp%3A%2F%2Ftracker.coppersurfer.tk%3A6969%2Fannounce&tr=udp%3A%2F%2F9.rarbg.to%3A2920%2Fannounce&tr=udp%3A%2F%2Ftracker.opentrackr.org%3A1337&tr=udp%3A%2F%2Ftracker.internetwarriors.net%3A1337%2Fannounce&tr=udp%3A%2F%2Ftracker.leechers-paradise.org%3A6969%2Fannounce&tr=udp%3A%2F%2Ftracker.coppersurfer.tk%3A6969%2Fannounce&tr=udp%3A%2F%2Ftracker.pirateparty.gr%3A6969%2Fannounce&tr=udp%3A%2F%2Ftracker.cyberia.is%3A6969%2Fannounce",
        "seeder": "0",
        "leecher": "1"
    },
    {
        "rank": "55",
        "title": "iQuran HD iPad v.1819 Cracked",
        "link": "magnet:?xt=urn:btih:C1ED51F4BB0B02843B0F6C67CB1CBCB0E4E9E5A6&dn=iQuran+HD+iPad+v.1819+Cracked&tr=udp%3A%2F%2Ftracker.coppersurfer.tk%3A6969%2Fannounce&tr=udp%3A%2F%2F9.rarbg.to%3A2920%2Fannounce&tr=udp%3A%2F%2Ftracker.opentrackr.org%3A1337&tr=udp%3A%2F%2Ftracker.internetwarriors.net%3A1337%2Fannounce&tr=udp%3A%2F%2Ftracker.leechers-paradise.org%3A6969%2Fannounce&tr=udp%3A%2F%2Ftracker.coppersurfer.tk%3A6969%2Fannounce&tr=udp%3A%2F%2Ftracker.pirateparty.gr%3A6969%2Fannounce&tr=udp%3A%2F%2Ftracker.cyberia.is%3A6969%2Fannounce",
        "seeder": "0",
        "leecher": "1"
    },
    {
        "rank": "56",
        "title": "iPhone 4 (GSM) iOS 5 GM",
        "link": "magnet:?xt=urn:btih:A4F09A1225E89778B841045AD1DE1EB1E08CDEAC&dn=iPhone+4+%28GSM%29+iOS+5+GM&tr=udp%3A%2F%2Ftracker.coppersurfer.tk%3A6969%2Fannounce&tr=udp%3A%2F%2F9.rarbg.to%3A2920%2Fannounce&tr=udp%3A%2F%2Ftracker.opentrackr.org%3A1337&tr=udp%3A%2F%2Ftracker.internetwarriors.net%3A1337%2Fannounce&tr=udp%3A%2F%2Ftracker.leechers-paradise.org%3A6969%2Fannounce&tr=udp%3A%2F%2Ftracker.coppersurfer.tk%3A6969%2Fannounce&tr=udp%3A%2F%2Ftracker.pirateparty.gr%3A6969%2Fannounce&tr=udp%3A%2F%2Ftracker.cyberia.is%3A6969%2Fannounce",
        "seeder": "0",
        "leecher": "1"
    },
    {
        "rank": "57",
        "title": "Islamic Compass for iPad-v1.1 Prayer Times & Qibla Cracked",
        "link": "magnet:?xt=urn:btih:659DD3C3E51095862B5400AD936CEB4167F70DD8&dn=Islamic+Compass+for+iPad-v1.1+Prayer+Times+%26amp%3B+Qibla+Cracked&tr=udp%3A%2F%2Ftracker.coppersurfer.tk%3A6969%2Fannounce&tr=udp%3A%2F%2F9.rarbg.to%3A2920%2Fannounce&tr=udp%3A%2F%2Ftracker.opentrackr.org%3A1337&tr=udp%3A%2F%2Ftracker.internetwarriors.net%3A1337%2Fannounce&tr=udp%3A%2F%2Ftracker.leechers-paradise.org%3A6969%2Fannounce&tr=udp%3A%2F%2Ftracker.coppersurfer.tk%3A6969%2Fannounce&tr=udp%3A%2F%2Ftracker.pirateparty.gr%3A6969%2Fannounce&tr=udp%3A%2F%2Ftracker.cyberia.is%3A6969%2Fannounce",
        "seeder": "0",
        "leecher": "1"
    },
    {
        "rank": "58",
        "title": "TrakProDJ - Deluxe Edition ipod.ipad.iphone",
        "link": "magnet:?xt=urn:btih:E80A5BE5AAD6A87E7B5F80BD4B1F64087E514B49&dn=TrakProDJ+-+Deluxe+Edition+ipod.ipad.iphone&tr=udp%3A%2F%2Ftracker.coppersurfer.tk%3A6969%2Fannounce&tr=udp%3A%2F%2F9.rarbg.to%3A2920%2Fannounce&tr=udp%3A%2F%2Ftracker.opentrackr.org%3A1337&tr=udp%3A%2F%2Ftracker.internetwarriors.net%3A1337%2Fannounce&tr=udp%3A%2F%2Ftracker.leechers-paradise.org%3A6969%2Fannounce&tr=udp%3A%2F%2Ftracker.coppersurfer.tk%3A6969%2Fannounce&tr=udp%3A%2F%2Ftracker.pirateparty.gr%3A6969%2Fannounce&tr=udp%3A%2F%2Ftracker.cyberia.is%3A6969%2Fannounce",
        "seeder": "0",
        "leecher": "1"
    },
    {
        "rank": "59",
        "title": "Islamic Compass for iPhone-v2.3 Prayer Times & Athan Alarm C",
        "link": "magnet:?xt=urn:btih:C444BDCB19F5A67DD0AAAD988C24F783F2FAE893&dn=Islamic+Compass+for+iPhone-v2.3+Prayer+Times+%26amp%3B+Athan+Alarm+C&tr=udp%3A%2F%2Ftracker.coppersurfer.tk%3A6969%2Fannounce&tr=udp%3A%2F%2F9.rarbg.to%3A2920%2Fannounce&tr=udp%3A%2F%2Ftracker.opentrackr.org%3A1337&tr=udp%3A%2F%2Ftracker.internetwarriors.net%3A1337%2Fannounce&tr=udp%3A%2F%2Ftracker.leechers-paradise.org%3A6969%2Fannounce&tr=udp%3A%2F%2Ftracker.coppersurfer.tk%3A6969%2Fannounce&tr=udp%3A%2F%2Ftracker.pirateparty.gr%3A6969%2Fannounce&tr=udp%3A%2F%2Ftracker.cyberia.is%3A6969%2Fannounce",
        "seeder": "0",
        "leecher": "1"
    },
    {
        "rank": "60",
        "title": "Armed and Gorgeous HD i[hone.ipad.ipod",
        "link": "magnet:?xt=urn:btih:DF6423005B2C2B8EDC0ECC8EC62315F222FC2209&dn=Armed+and+Gorgeous+HD+i%5Bhone.ipad.ipod&tr=udp%3A%2F%2Ftracker.coppersurfer.tk%3A6969%2Fannounce&tr=udp%3A%2F%2F9.rarbg.to%3A2920%2Fannounce&tr=udp%3A%2F%2Ftracker.opentrackr.org%3A1337&tr=udp%3A%2F%2Ftracker.internetwarriors.net%3A1337%2Fannounce&tr=udp%3A%2F%2Ftracker.leechers-paradise.org%3A6969%2Fannounce&tr=udp%3A%2F%2Ftracker.coppersurfer.tk%3A6969%2Fannounce&tr=udp%3A%2F%2Ftracker.pirateparty.gr%3A6969%2Fannounce&tr=udp%3A%2F%2Ftracker.cyberia.is%3A6969%2Fannounce",
        "seeder": "0",
        "leecher": "1"
    },
    {
        "rank": "61",
        "title": "IslamTVHD 12000+ Islamic Videos.Quran,Nasheed-v1.0.1293060574 Cr",
        "link": "magnet:?xt=urn:btih:8DDF7392349105911661FF4ECB8B6C20A2B95B25&dn=IslamTVHD+12000%2B+Islamic+Videos.Quran%2CNasheed-v1.0.1293060574+Cr&tr=udp%3A%2F%2Ftracker.coppersurfer.tk%3A6969%2Fannounce&tr=udp%3A%2F%2F9.rarbg.to%3A2920%2Fannounce&tr=udp%3A%2F%2Ftracker.opentrackr.org%3A1337&tr=udp%3A%2F%2Ftracker.internetwarriors.net%3A1337%2Fannounce&tr=udp%3A%2F%2Ftracker.leechers-paradise.org%3A6969%2Fannounce&tr=udp%3A%2F%2Ftracker.coppersurfer.tk%3A6969%2Fannounce&tr=udp%3A%2F%2Ftracker.pirateparty.gr%3A6969%2Fannounce&tr=udp%3A%2F%2Ftracker.cyberia.is%3A6969%2Fannounce",
        "seeder": "0",
        "leecher": "1"
    },
    {
        "rank": "62",
        "title": "Quran Reader HD iPad-v1.1.4 Cracked",
        "link": "magnet:?xt=urn:btih:2928B3CBE1B2F2224E76B13BE9C01726A9D08023&dn=Quran+Reader+HD+iPad-v1.1.4+Cracked&tr=udp%3A%2F%2Ftracker.coppersurfer.tk%3A6969%2Fannounce&tr=udp%3A%2F%2F9.rarbg.to%3A2920%2Fannounce&tr=udp%3A%2F%2Ftracker.opentrackr.org%3A1337&tr=udp%3A%2F%2Ftracker.internetwarriors.net%3A1337%2Fannounce&tr=udp%3A%2F%2Ftracker.leechers-paradise.org%3A6969%2Fannounce&tr=udp%3A%2F%2Ftracker.coppersurfer.tk%3A6969%2Fannounce&tr=udp%3A%2F%2Ftracker.pirateparty.gr%3A6969%2Fannounce&tr=udp%3A%2F%2Ftracker.cyberia.is%3A6969%2Fannounce",
        "seeder": "0",
        "leecher": "1"
    },
    {
        "rank": "63",
        "title": "Quran Reciter 66+Recitations of the Quran Audio & Video v6.0",
        "link": "magnet:?xt=urn:btih:B9F42315BECF0B44A571D4D7EB29E1C18836A08C&dn=Quran+Reciter+66%2BRecitations+of+the+Quran+Audio+%26amp%3B+Video+v6.0&tr=udp%3A%2F%2Ftracker.coppersurfer.tk%3A6969%2Fannounce&tr=udp%3A%2F%2F9.rarbg.to%3A2920%2Fannounce&tr=udp%3A%2F%2Ftracker.opentrackr.org%3A1337&tr=udp%3A%2F%2Ftracker.internetwarriors.net%3A1337%2Fannounce&tr=udp%3A%2F%2Ftracker.leechers-paradise.org%3A6969%2Fannounce&tr=udp%3A%2F%2Ftracker.coppersurfer.tk%3A6969%2Fannounce&tr=udp%3A%2F%2Ftracker.pirateparty.gr%3A6969%2Fannounce&tr=udp%3A%2F%2Ftracker.cyberia.is%3A6969%2Fannounce",
        "seeder": "0",
        "leecher": "1"
    },
    {
        "rank": "64",
        "title": "Rhythm Pad (Drums/Drum Pad) ipod.ipad.iphone",
        "link": "magnet:?xt=urn:btih:923807B38A7D9115821A4F4988C02038180623BA&dn=Rhythm+Pad+%28Drums%2FDrum+Pad%29+ipod.ipad.iphone&tr=udp%3A%2F%2Ftracker.coppersurfer.tk%3A6969%2Fannounce&tr=udp%3A%2F%2F9.rarbg.to%3A2920%2Fannounce&tr=udp%3A%2F%2Ftracker.opentrackr.org%3A1337&tr=udp%3A%2F%2Ftracker.internetwarriors.net%3A1337%2Fannounce&tr=udp%3A%2F%2Ftracker.leechers-paradise.org%3A6969%2Fannounce&tr=udp%3A%2F%2Ftracker.coppersurfer.tk%3A6969%2Fannounce&tr=udp%3A%2F%2Ftracker.pirateparty.gr%3A6969%2Fannounce&tr=udp%3A%2F%2Ftracker.cyberia.is%3A6969%2Fannounce",
        "seeder": "0",
        "leecher": "1"
    },
    {
        "rank": "65",
        "title": "Action Movie FX [Bad Robot Interactive] v2.5.1",
        "link": "magnet:?xt=urn:btih:9BFB042AE6F97BEB5C483A80EBAEA726BD968FC2&dn=Action+Movie+FX+%5BBad+Robot+Interactive%5D+v2.5.1&tr=udp%3A%2F%2Ftracker.coppersurfer.tk%3A6969%2Fannounce&tr=udp%3A%2F%2F9.rarbg.to%3A2920%2Fannounce&tr=udp%3A%2F%2Ftracker.opentrackr.org%3A1337&tr=udp%3A%2F%2Ftracker.internetwarriors.net%3A1337%2Fannounce&tr=udp%3A%2F%2Ftracker.leechers-paradise.org%3A6969%2Fannounce&tr=udp%3A%2F%2Ftracker.coppersurfer.tk%3A6969%2Fannounce&tr=udp%3A%2F%2Ftracker.pirateparty.gr%3A6969%2Fannounce&tr=udp%3A%2F%2Ftracker.cyberia.is%3A6969%2Fannounce",
        "seeder": "0",
        "leecher": "1"
    },
    {
        "rank": "66",
        "title": "AutoRap [Smule] v1.0.8",
        "link": "magnet:?xt=urn:btih:47FEFA864C99A08A09AB108A87F4C40B74EBCDE0&dn=AutoRap+%5BSmule%5D+v1.0.8&tr=udp%3A%2F%2Ftracker.coppersurfer.tk%3A6969%2Fannounce&tr=udp%3A%2F%2F9.rarbg.to%3A2920%2Fannounce&tr=udp%3A%2F%2Ftracker.opentrackr.org%3A1337&tr=udp%3A%2F%2Ftracker.internetwarriors.net%3A1337%2Fannounce&tr=udp%3A%2F%2Ftracker.leechers-paradise.org%3A6969%2Fannounce&tr=udp%3A%2F%2Ftracker.coppersurfer.tk%3A6969%2Fannounce&tr=udp%3A%2F%2Ftracker.pirateparty.gr%3A6969%2Fannounce&tr=udp%3A%2F%2Ftracker.cyberia.is%3A6969%2Fannounce",
        "seeder": "0",
        "leecher": "1"
    },
    {
        "rank": "67",
        "title": "TNR-i Music Maker ipod.ipad.iphone",
        "link": "magnet:?xt=urn:btih:CCA9EE2402A8B909F599A1E668FFD5296639E550&dn=TNR-i+Music+Maker+ipod.ipad.iphone&tr=udp%3A%2F%2Ftracker.coppersurfer.tk%3A6969%2Fannounce&tr=udp%3A%2F%2F9.rarbg.to%3A2920%2Fannounce&tr=udp%3A%2F%2Ftracker.opentrackr.org%3A1337&tr=udp%3A%2F%2Ftracker.internetwarriors.net%3A1337%2Fannounce&tr=udp%3A%2F%2Ftracker.leechers-paradise.org%3A6969%2Fannounce&tr=udp%3A%2F%2Ftracker.coppersurfer.tk%3A6969%2Fannounce&tr=udp%3A%2F%2Ftracker.pirateparty.gr%3A6969%2Fannounce&tr=udp%3A%2F%2Ftracker.cyberia.is%3A6969%2Fannounce",
        "seeder": "0",
        "leecher": "1"
    },
    {
        "rank": "68",
        "title": "Camera FX Pro [Ketchapp] v1.2",
        "link": "magnet:?xt=urn:btih:45047192D37607C6886F9F89DCAED6E4BD86DC2B&dn=Camera+FX+Pro+%5BKetchapp%5D+v1.2&tr=udp%3A%2F%2Ftracker.coppersurfer.tk%3A6969%2Fannounce&tr=udp%3A%2F%2F9.rarbg.to%3A2920%2Fannounce&tr=udp%3A%2F%2Ftracker.opentrackr.org%3A1337&tr=udp%3A%2F%2Ftracker.internetwarriors.net%3A1337%2Fannounce&tr=udp%3A%2F%2Ftracker.leechers-paradise.org%3A6969%2Fannounce&tr=udp%3A%2F%2Ftracker.coppersurfer.tk%3A6969%2Fannounce&tr=udp%3A%2F%2Ftracker.pirateparty.gr%3A6969%2Fannounce&tr=udp%3A%2F%2Ftracker.cyberia.is%3A6969%2Fannounce",
        "seeder": "0",
        "leecher": "1"
    },
    {
        "rank": "69",
        "title": "Camera Pro Effects [Irina Mantalutsa] v3.0",
        "link": "magnet:?xt=urn:btih:AB6332E8D9FE74797D22417AA38FAEA6F53993FB&dn=Camera+Pro+Effects+%5BIrina+Mantalutsa%5D+v3.0&tr=udp%3A%2F%2Ftracker.coppersurfer.tk%3A6969%2Fannounce&tr=udp%3A%2F%2F9.rarbg.to%3A2920%2Fannounce&tr=udp%3A%2F%2Ftracker.opentrackr.org%3A1337&tr=udp%3A%2F%2Ftracker.internetwarriors.net%3A1337%2Fannounce&tr=udp%3A%2F%2Ftracker.leechers-paradise.org%3A6969%2Fannounce&tr=udp%3A%2F%2Ftracker.coppersurfer.tk%3A6969%2Fannounce&tr=udp%3A%2F%2Ftracker.pirateparty.gr%3A6969%2Fannounce&tr=udp%3A%2F%2Ftracker.cyberia.is%3A6969%2Fannounce",
        "seeder": "0",
        "leecher": "1"
    },
    {
        "rank": "70",
        "title": "Oxford American Handbook of Clinical Dentistry ipod.ipad.iphone",
        "link": "magnet:?xt=urn:btih:1750E7CA7D8E478417E2A9518417618A65DBA164&dn=Oxford+American+Handbook+of+Clinical+Dentistry+ipod.ipad.iphone&tr=udp%3A%2F%2Ftracker.coppersurfer.tk%3A6969%2Fannounce&tr=udp%3A%2F%2F9.rarbg.to%3A2920%2Fannounce&tr=udp%3A%2F%2Ftracker.opentrackr.org%3A1337&tr=udp%3A%2F%2Ftracker.internetwarriors.net%3A1337%2Fannounce&tr=udp%3A%2F%2Ftracker.leechers-paradise.org%3A6969%2Fannounce&tr=udp%3A%2F%2Ftracker.coppersurfer.tk%3A6969%2Fannounce&tr=udp%3A%2F%2Ftracker.pirateparty.gr%3A6969%2Fannounce&tr=udp%3A%2F%2Ftracker.cyberia.is%3A6969%2Fannounce",
        "seeder": "0",
        "leecher": "1"
    },
    {
        "rank": "71",
        "title": "\u0627\u0644\u0633\u062f\u064a\u0633- \u0627\u0644\u0642\u0631\u0627\u0646 \u0627\u0644\u0643\u0631\u064a\u0645v1.0-Allal123",
        "link": "magnet:?xt=urn:btih:DFA34733FA31A9E668633742528C6481D2D25871&dn=%D8%A7%D9%84%D8%B3%D8%AF%D9%8A%D8%B3-+%D8%A7%D9%84%D9%82%D8%B1%D8%A7%D9%86+%D8%A7%D9%84%D9%83%D8%B1%D9%8A%D9%85v1.0-Allal123&tr=udp%3A%2F%2Ftracker.coppersurfer.tk%3A6969%2Fannounce&tr=udp%3A%2F%2F9.rarbg.to%3A2920%2Fannounce&tr=udp%3A%2F%2Ftracker.opentrackr.org%3A1337&tr=udp%3A%2F%2Ftracker.internetwarriors.net%3A1337%2Fannounce&tr=udp%3A%2F%2Ftracker.leechers-paradise.org%3A6969%2Fannounce&tr=udp%3A%2F%2Ftracker.coppersurfer.tk%3A6969%2Fannounce&tr=udp%3A%2F%2Ftracker.pirateparty.gr%3A6969%2Fannounce&tr=udp%3A%2F%2Ftracker.cyberia.is%3A6969%2Fannounce",
        "seeder": "0",
        "leecher": "0"
    },
    {
        "rank": "72",
        "title": "Cleaner Remove Duplicate Contacts [Yoni Tserruya] v2.1",
        "link": "magnet:?xt=urn:btih:528FF97DF76E0678E2CD036F4841B42246B75145&dn=Cleaner+Remove+Duplicate+Contacts+%5BYoni+Tserruya%5D+v2.1&tr=udp%3A%2F%2Ftracker.coppersurfer.tk%3A6969%2Fannounce&tr=udp%3A%2F%2F9.rarbg.to%3A2920%2Fannounce&tr=udp%3A%2F%2Ftracker.opentrackr.org%3A1337&tr=udp%3A%2F%2Ftracker.internetwarriors.net%3A1337%2Fannounce&tr=udp%3A%2F%2Ftracker.leechers-paradise.org%3A6969%2Fannounce&tr=udp%3A%2F%2Ftracker.coppersurfer.tk%3A6969%2Fannounce&tr=udp%3A%2F%2Ftracker.pirateparty.gr%3A6969%2Fannounce&tr=udp%3A%2F%2Ftracker.cyberia.is%3A6969%2Fannounce",
        "seeder": "0",
        "leecher": "1"
    },
    {
        "rank": "73",
        "title": "Document Manager Pro PDF Converter [Ralf Hollax] v4.2",
        "link": "magnet:?xt=urn:btih:351D6223414A5C499C926738766D590A1B90E29F&dn=Document+Manager+Pro+PDF+Converter+%5BRalf+Hollax%5D+v4.2&tr=udp%3A%2F%2Ftracker.coppersurfer.tk%3A6969%2Fannounce&tr=udp%3A%2F%2F9.rarbg.to%3A2920%2Fannounce&tr=udp%3A%2F%2Ftracker.opentrackr.org%3A1337&tr=udp%3A%2F%2Ftracker.internetwarriors.net%3A1337%2Fannounce&tr=udp%3A%2F%2Ftracker.leechers-paradise.org%3A6969%2Fannounce&tr=udp%3A%2F%2Ftracker.coppersurfer.tk%3A6969%2Fannounce&tr=udp%3A%2F%2Ftracker.pirateparty.gr%3A6969%2Fannounce&tr=udp%3A%2F%2Ftracker.cyberia.is%3A6969%2Fannounce",
        "seeder": "0",
        "leecher": "1"
    },
    {
        "rank": "74",
        "title": "\u0627\u0654\u062d\u0645\u062f \u0627\u0644\u0639\u062c\u0645\u064a- \u0627\u0644\u0642\u0631\u0627\u0646 \u0627\u0644\u0643\u0631\u064a\u0645v1.0-Allal123",
        "link": "magnet:?xt=urn:btih:3C6EE0C88B677790B9B17010FBD37D1F6F6C5D30&dn=%D8%A7%D9%94%D8%AD%D9%85%D8%AF+%D8%A7%D9%84%D8%B9%D8%AC%D9%85%D9%8A-+%D8%A7%D9%84%D9%82%D8%B1%D8%A7%D9%86+%D8%A7%D9%84%D9%83%D8%B1%D9%8A%D9%85v1.0-Allal123&tr=udp%3A%2F%2Ftracker.coppersurfer.tk%3A6969%2Fannounce&tr=udp%3A%2F%2F9.rarbg.to%3A2920%2Fannounce&tr=udp%3A%2F%2Ftracker.opentrackr.org%3A1337&tr=udp%3A%2F%2Ftracker.internetwarriors.net%3A1337%2Fannounce&tr=udp%3A%2F%2Ftracker.leechers-paradise.org%3A6969%2Fannounce&tr=udp%3A%2F%2Ftracker.coppersurfer.tk%3A6969%2Fannounce&tr=udp%3A%2F%2Ftracker.pirateparty.gr%3A6969%2Fannounce&tr=udp%3A%2F%2Ftracker.cyberia.is%3A6969%2Fannounce",
        "seeder": "0",
        "leecher": "1"
    },
    {
        "rank": "75",
        "title": "Easy Backup My Contacts Backup Assistant [Yoni Tserruya] v2.1",
        "link": "magnet:?xt=urn:btih:42705C05A3D692EA6E71646CB723B71C8CE3F3C2&dn=Easy+Backup+My+Contacts+Backup+Assistant+%5BYoni+Tserruya%5D+v2.1&tr=udp%3A%2F%2Ftracker.coppersurfer.tk%3A6969%2Fannounce&tr=udp%3A%2F%2F9.rarbg.to%3A2920%2Fannounce&tr=udp%3A%2F%2Ftracker.opentrackr.org%3A1337&tr=udp%3A%2F%2Ftracker.internetwarriors.net%3A1337%2Fannounce&tr=udp%3A%2F%2Ftracker.leechers-paradise.org%3A6969%2Fannounce&tr=udp%3A%2F%2Ftracker.coppersurfer.tk%3A6969%2Fannounce&tr=udp%3A%2F%2Ftracker.pirateparty.gr%3A6969%2Fannounce&tr=udp%3A%2F%2Ftracker.cyberia.is%3A6969%2Fannounce",
        "seeder": "0",
        "leecher": "1"
    },
    {
        "rank": "76",
        "title": "Atomic Web Browser-v6.0.1-Allal123",
        "link": "magnet:?xt=urn:btih:7D5355B880439DA197FF7FF1B94BE20EF067536A&dn=Atomic+Web+Browser-v6.0.1-Allal123&tr=udp%3A%2F%2Ftracker.coppersurfer.tk%3A6969%2Fannounce&tr=udp%3A%2F%2F9.rarbg.to%3A2920%2Fannounce&tr=udp%3A%2F%2Ftracker.opentrackr.org%3A1337&tr=udp%3A%2F%2Ftracker.internetwarriors.net%3A1337%2Fannounce&tr=udp%3A%2F%2Ftracker.leechers-paradise.org%3A6969%2Fannounce&tr=udp%3A%2F%2Ftracker.coppersurfer.tk%3A6969%2Fannounce&tr=udp%3A%2F%2Ftracker.pirateparty.gr%3A6969%2Fannounce&tr=udp%3A%2F%2Ftracker.cyberia.is%3A6969%2Fannounce",
        "seeder": "0",
        "leecher": "1"
    },
    {
        "rank": "77",
        "title": "TomTom Europe ipod.ipad.iphone",
        "link": "magnet:?xt=urn:btih:3F04F9E03E1877420574E331F365FCC9069274A2&dn=TomTom+Europe+ipod.ipad.iphone&tr=udp%3A%2F%2Ftracker.coppersurfer.tk%3A6969%2Fannounce&tr=udp%3A%2F%2F9.rarbg.to%3A2920%2Fannounce&tr=udp%3A%2F%2Ftracker.opentrackr.org%3A1337&tr=udp%3A%2F%2Ftracker.internetwarriors.net%3A1337%2Fannounce&tr=udp%3A%2F%2Ftracker.leechers-paradise.org%3A6969%2Fannounce&tr=udp%3A%2F%2Ftracker.coppersurfer.tk%3A6969%2Fannounce&tr=udp%3A%2F%2Ftracker.pirateparty.gr%3A6969%2Fannounce&tr=udp%3A%2F%2Ftracker.cyberia.is%3A6969%2Fannounce",
        "seeder": "0",
        "leecher": "1"
    },
    {
        "rank": "78",
        "title": "FX Photo Studio pro effects filters fast camera plus photo edito",
        "link": "magnet:?xt=urn:btih:CBDDC00BB189D02D0B6ADC50A5503E5DBAC6C3C2&dn=FX+Photo+Studio+pro+effects+filters+fast+camera+plus+photo+edito&tr=udp%3A%2F%2Ftracker.coppersurfer.tk%3A6969%2Fannounce&tr=udp%3A%2F%2F9.rarbg.to%3A2920%2Fannounce&tr=udp%3A%2F%2Ftracker.opentrackr.org%3A1337&tr=udp%3A%2F%2Ftracker.internetwarriors.net%3A1337%2Fannounce&tr=udp%3A%2F%2Ftracker.leechers-paradise.org%3A6969%2Fannounce&tr=udp%3A%2F%2Ftracker.coppersurfer.tk%3A6969%2Fannounce&tr=udp%3A%2F%2Ftracker.pirateparty.gr%3A6969%2Fannounce&tr=udp%3A%2F%2Ftracker.cyberia.is%3A6969%2Fannounce",
        "seeder": "0",
        "leecher": "1"
    },
    {
        "rank": "79",
        "title": "Badoo Meet New People Chat Socialize and Play with Super Powers",
        "link": "magnet:?xt=urn:btih:1576F99931148011C98860338FF1159741FD507E&dn=Badoo+Meet+New+People+Chat+Socialize+and+Play+with+Super+Powers&tr=udp%3A%2F%2Ftracker.coppersurfer.tk%3A6969%2Fannounce&tr=udp%3A%2F%2F9.rarbg.to%3A2920%2Fannounce&tr=udp%3A%2F%2Ftracker.opentrackr.org%3A1337&tr=udp%3A%2F%2Ftracker.internetwarriors.net%3A1337%2Fannounce&tr=udp%3A%2F%2Ftracker.leechers-paradise.org%3A6969%2Fannounce&tr=udp%3A%2F%2Ftracker.coppersurfer.tk%3A6969%2Fannounce&tr=udp%3A%2F%2Ftracker.pirateparty.gr%3A6969%2Fannounce&tr=udp%3A%2F%2Ftracker.cyberia.is%3A6969%2Fannounce",
        "seeder": "0",
        "leecher": "1"
    },
    {
        "rank": "80",
        "title": "\u0644\u0639\u0641\u0627\u0633\u064a- \u0627\u0644\u0642\u0631\u0627\u0646 \u0627\u0644\u0643\u0631\u064a\u0645v1.0-Allal123",
        "link": "magnet:?xt=urn:btih:E240DF6AEA3910F05CD21C433EBA83707EA94092&dn=%D9%84%D8%B9%D9%81%D8%A7%D8%B3%D9%8A-+%D8%A7%D9%84%D9%82%D8%B1%D8%A7%D9%86+%D8%A7%D9%84%D9%83%D8%B1%D9%8A%D9%85v1.0-Allal123&tr=udp%3A%2F%2Ftracker.coppersurfer.tk%3A6969%2Fannounce&tr=udp%3A%2F%2F9.rarbg.to%3A2920%2Fannounce&tr=udp%3A%2F%2Ftracker.opentrackr.org%3A1337&tr=udp%3A%2F%2Ftracker.internetwarriors.net%3A1337%2Fannounce&tr=udp%3A%2F%2Ftracker.leechers-paradise.org%3A6969%2Fannounce&tr=udp%3A%2F%2Ftracker.coppersurfer.tk%3A6969%2Fannounce&tr=udp%3A%2F%2Ftracker.pirateparty.gr%3A6969%2Fannounce&tr=udp%3A%2F%2Ftracker.cyberia.is%3A6969%2Fannounce",
        "seeder": "0",
        "leecher": "1"
    },
    {
        "rank": "81",
        "title": "BeejiveIM with Push-v4.7.6-Allal123",
        "link": "magnet:?xt=urn:btih:34A517E23EB63CDC1C2796E8DF7F056AA138C2C3&dn=BeejiveIM+with+Push-v4.7.6-Allal123&tr=udp%3A%2F%2Ftracker.coppersurfer.tk%3A6969%2Fannounce&tr=udp%3A%2F%2F9.rarbg.to%3A2920%2Fannounce&tr=udp%3A%2F%2Ftracker.opentrackr.org%3A1337&tr=udp%3A%2F%2Ftracker.internetwarriors.net%3A1337%2Fannounce&tr=udp%3A%2F%2Ftracker.leechers-paradise.org%3A6969%2Fannounce&tr=udp%3A%2F%2Ftracker.coppersurfer.tk%3A6969%2Fannounce&tr=udp%3A%2F%2Ftracker.pirateparty.gr%3A6969%2Fannounce&tr=udp%3A%2F%2Ftracker.cyberia.is%3A6969%2Fannounce",
        "seeder": "0",
        "leecher": "1"
    },
    {
        "rank": "82",
        "title": "\u0645\u0627\u0647\u0631 \u0627\u0644\u0645\u0639\u064a\u0642\u0644\u064a - \u0627\u0644\u0642\u0631\u0627\u0646 \u0627\u0644\u0643\u0631\u064a\u0645v1.0-Allal123",
        "link": "magnet:?xt=urn:btih:DEEDF52407B7F03916C878CFCDD49487E06127B0&dn=%D9%85%D8%A7%D9%87%D8%B1+%D8%A7%D9%84%D9%85%D8%B9%D9%8A%D9%82%D9%84%D9%8A+-+%D8%A7%D9%84%D9%82%D8%B1%D8%A7%D9%86+%D8%A7%D9%84%D9%83%D8%B1%D9%8A%D9%85v1.0-Allal123&tr=udp%3A%2F%2Ftracker.coppersurfer.tk%3A6969%2Fannounce&tr=udp%3A%2F%2F9.rarbg.to%3A2920%2Fannounce&tr=udp%3A%2F%2Ftracker.opentrackr.org%3A1337&tr=udp%3A%2F%2Ftracker.internetwarriors.net%3A1337%2Fannounce&tr=udp%3A%2F%2Ftracker.leechers-paradise.org%3A6969%2Fannounce&tr=udp%3A%2F%2Ftracker.coppersurfer.tk%3A6969%2Fannounce&tr=udp%3A%2F%2Ftracker.pirateparty.gr%3A6969%2Fannounce&tr=udp%3A%2F%2Ftracker.cyberia.is%3A6969%2Fannounce",
        "seeder": "0",
        "leecher": "1"
    },
    {
        "rank": "83",
        "title": "ContactsTool 9.0-Allal123",
        "link": "magnet:?xt=urn:btih:298206ED2932DE0E8B8C42DEEF4A336A1410C740&dn=ContactsTool+9.0-Allal123&tr=udp%3A%2F%2Ftracker.coppersurfer.tk%3A6969%2Fannounce&tr=udp%3A%2F%2F9.rarbg.to%3A2920%2Fannounce&tr=udp%3A%2F%2Ftracker.opentrackr.org%3A1337&tr=udp%3A%2F%2Ftracker.internetwarriors.net%3A1337%2Fannounce&tr=udp%3A%2F%2Ftracker.leechers-paradise.org%3A6969%2Fannounce&tr=udp%3A%2F%2Ftracker.coppersurfer.tk%3A6969%2Fannounce&tr=udp%3A%2F%2Ftracker.pirateparty.gr%3A6969%2Fannounce&tr=udp%3A%2F%2Ftracker.cyberia.is%3A6969%2Fannounce",
        "seeder": "0",
        "leecher": "1"
    },
    {
        "rank": "84",
        "title": "8player new Version 2.6 ipod.ipad.iphone",
        "link": "magnet:?xt=urn:btih:3B6D7295C27B8AB1D70851DF492ECD10D2992DEB&dn=8player+new+Version+2.6+ipod.ipad.iphone&tr=udp%3A%2F%2Ftracker.coppersurfer.tk%3A6969%2Fannounce&tr=udp%3A%2F%2F9.rarbg.to%3A2920%2Fannounce&tr=udp%3A%2F%2Ftracker.opentrackr.org%3A1337&tr=udp%3A%2F%2Ftracker.internetwarriors.net%3A1337%2Fannounce&tr=udp%3A%2F%2Ftracker.leechers-paradise.org%3A6969%2Fannounce&tr=udp%3A%2F%2Ftracker.coppersurfer.tk%3A6969%2Fannounce&tr=udp%3A%2F%2Ftracker.pirateparty.gr%3A6969%2Fannounce&tr=udp%3A%2F%2Ftracker.cyberia.is%3A6969%2Fannounce",
        "seeder": "0",
        "leecher": "1"
    },
    {
        "rank": "85",
        "title": "eBuddy Pro 5.0.1-Allal123",
        "link": "magnet:?xt=urn:btih:CF02FC0EE60A440ED0C64756E666C1F72FFD5C50&dn=eBuddy+Pro+5.0.1-Allal123&tr=udp%3A%2F%2Ftracker.coppersurfer.tk%3A6969%2Fannounce&tr=udp%3A%2F%2F9.rarbg.to%3A2920%2Fannounce&tr=udp%3A%2F%2Ftracker.opentrackr.org%3A1337&tr=udp%3A%2F%2Ftracker.internetwarriors.net%3A1337%2Fannounce&tr=udp%3A%2F%2Ftracker.leechers-paradise.org%3A6969%2Fannounce&tr=udp%3A%2F%2Ftracker.coppersurfer.tk%3A6969%2Fannounce&tr=udp%3A%2F%2Ftracker.pirateparty.gr%3A6969%2Fannounce&tr=udp%3A%2F%2Ftracker.cyberia.is%3A6969%2Fannounce",
        "seeder": "0",
        "leecher": "1"
    },
    {
        "rank": "86",
        "title": "Facebook Messenger v6.0 IPA for iPhone3Gs iOS 6.1.6",
        "link": "magnet:?xt=urn:btih:554FF421ED62F9F4A30F934A7A7693F434998F77&dn=Facebook+Messenger+v6.0+IPA+for+iPhone3Gs+iOS+6.1.6&tr=udp%3A%2F%2Ftracker.coppersurfer.tk%3A6969%2Fannounce&tr=udp%3A%2F%2F9.rarbg.to%3A2920%2Fannounce&tr=udp%3A%2F%2Ftracker.opentrackr.org%3A1337&tr=udp%3A%2F%2Ftracker.internetwarriors.net%3A1337%2Fannounce&tr=udp%3A%2F%2Ftracker.leechers-paradise.org%3A6969%2Fannounce&tr=udp%3A%2F%2Ftracker.coppersurfer.tk%3A6969%2Fannounce&tr=udp%3A%2F%2Ftracker.pirateparty.gr%3A6969%2Fannounce&tr=udp%3A%2F%2Ftracker.cyberia.is%3A6969%2Fannounce",
        "seeder": "0",
        "leecher": "2"
    },
    {
        "rank": "87",
        "title": "cBackup-v1.7.0-Allal123",
        "link": "magnet:?xt=urn:btih:C37B1E1445031896B8AA9500F2CF72B419AC93CA&dn=cBackup-v1.7.0-Allal123&tr=udp%3A%2F%2Ftracker.coppersurfer.tk%3A6969%2Fannounce&tr=udp%3A%2F%2F9.rarbg.to%3A2920%2Fannounce&tr=udp%3A%2F%2Ftracker.opentrackr.org%3A1337&tr=udp%3A%2F%2Ftracker.internetwarriors.net%3A1337%2Fannounce&tr=udp%3A%2F%2Ftracker.leechers-paradise.org%3A6969%2Fannounce&tr=udp%3A%2F%2Ftracker.coppersurfer.tk%3A6969%2Fannounce&tr=udp%3A%2F%2Ftracker.pirateparty.gr%3A6969%2Fannounce&tr=udp%3A%2F%2Ftracker.cyberia.is%3A6969%2Fannounce",
        "seeder": "0",
        "leecher": "1"
    },
    {
        "rank": "88",
        "title": "G0Docs-v3.1[Cracked]",
        "link": "magnet:?xt=urn:btih:75838F9F73ECB980DDF5978727BEA68D402C7A46&dn=G0Docs-v3.1%5BCracked%5D&tr=udp%3A%2F%2Ftracker.coppersurfer.tk%3A6969%2Fannounce&tr=udp%3A%2F%2F9.rarbg.to%3A2920%2Fannounce&tr=udp%3A%2F%2Ftracker.opentrackr.org%3A1337&tr=udp%3A%2F%2Ftracker.internetwarriors.net%3A1337%2Fannounce&tr=udp%3A%2F%2Ftracker.leechers-paradise.org%3A6969%2Fannounce&tr=udp%3A%2F%2Ftracker.coppersurfer.tk%3A6969%2Fannounce&tr=udp%3A%2F%2Ftracker.pirateparty.gr%3A6969%2Fannounce&tr=udp%3A%2F%2Ftracker.cyberia.is%3A6969%2Fannounce",
        "seeder": "0",
        "leecher": "1"
    },
    {
        "rank": "89",
        "title": "Contacts Backup to Dropbox-v1.0.2-Allal123",
        "link": "magnet:?xt=urn:btih:AB4062AC9DA40C3E60AB81E3F5E7EB66627A3504&dn=Contacts+Backup+to+Dropbox-v1.0.2-Allal123&tr=udp%3A%2F%2Ftracker.coppersurfer.tk%3A6969%2Fannounce&tr=udp%3A%2F%2F9.rarbg.to%3A2920%2Fannounce&tr=udp%3A%2F%2Ftracker.opentrackr.org%3A1337&tr=udp%3A%2F%2Ftracker.internetwarriors.net%3A1337%2Fannounce&tr=udp%3A%2F%2Ftracker.leechers-paradise.org%3A6969%2Fannounce&tr=udp%3A%2F%2Ftracker.coppersurfer.tk%3A6969%2Fannounce&tr=udp%3A%2F%2Ftracker.pirateparty.gr%3A6969%2Fannounce&tr=udp%3A%2F%2Ftracker.cyberia.is%3A6969%2Fannounce",
        "seeder": "0",
        "leecher": "1"
    },
    {
        "rank": "90",
        "title": "Figure",
        "link": "magnet:?xt=urn:btih:7DB2505C551E95B68D5100018832364159B3A7D2&dn=Figure&tr=udp%3A%2F%2Ftracker.coppersurfer.tk%3A6969%2Fannounce&tr=udp%3A%2F%2F9.rarbg.to%3A2920%2Fannounce&tr=udp%3A%2F%2Ftracker.opentrackr.org%3A1337&tr=udp%3A%2F%2Ftracker.internetwarriors.net%3A1337%2Fannounce&tr=udp%3A%2F%2Ftracker.leechers-paradise.org%3A6969%2Fannounce&tr=udp%3A%2F%2Ftracker.coppersurfer.tk%3A6969%2Fannounce&tr=udp%3A%2F%2Ftracker.pirateparty.gr%3A6969%2Fannounce&tr=udp%3A%2F%2Ftracker.cyberia.is%3A6969%2Fannounce",
        "seeder": "0",
        "leecher": "1"
    },
    {
        "rank": "91",
        "title": "eBuddy Pro Messenger-5.5.4",
        "link": "magnet:?xt=urn:btih:865505E51008FACFE9F1AB8A52974DE2AC45FADB&dn=eBuddy+Pro+Messenger-5.5.4&tr=udp%3A%2F%2Ftracker.coppersurfer.tk%3A6969%2Fannounce&tr=udp%3A%2F%2F9.rarbg.to%3A2920%2Fannounce&tr=udp%3A%2F%2Ftracker.opentrackr.org%3A1337&tr=udp%3A%2F%2Ftracker.internetwarriors.net%3A1337%2Fannounce&tr=udp%3A%2F%2Ftracker.leechers-paradise.org%3A6969%2Fannounce&tr=udp%3A%2F%2Ftracker.coppersurfer.tk%3A6969%2Fannounce&tr=udp%3A%2F%2Ftracker.pirateparty.gr%3A6969%2Fannounce&tr=udp%3A%2F%2Ftracker.cyberia.is%3A6969%2Fannounce",
        "seeder": "0",
        "leecher": "0"
    },
    {
        "rank": "92",
        "title": "TomTom South Africa 1.10",
        "link": "magnet:?xt=urn:btih:E7FAB0312B4B2B08E81B82FD6877FDAC7A397007&dn=TomTom+South+Africa+1.10&tr=udp%3A%2F%2Ftracker.coppersurfer.tk%3A6969%2Fannounce&tr=udp%3A%2F%2F9.rarbg.to%3A2920%2Fannounce&tr=udp%3A%2F%2Ftracker.opentrackr.org%3A1337&tr=udp%3A%2F%2Ftracker.internetwarriors.net%3A1337%2Fannounce&tr=udp%3A%2F%2Ftracker.leechers-paradise.org%3A6969%2Fannounce&tr=udp%3A%2F%2Ftracker.coppersurfer.tk%3A6969%2Fannounce&tr=udp%3A%2F%2Ftracker.pirateparty.gr%3A6969%2Fannounce&tr=udp%3A%2F%2Ftracker.cyberia.is%3A6969%2Fannounce",
        "seeder": "0",
        "leecher": "1"
    },
    {
        "rank": "93",
        "title": "ForumRunner-v1.5.12-Allal123",
        "link": "magnet:?xt=urn:btih:931B92D13CBB24CDAE4E75B3F64A78433C78BB52&dn=ForumRunner-v1.5.12-Allal123&tr=udp%3A%2F%2Ftracker.coppersurfer.tk%3A6969%2Fannounce&tr=udp%3A%2F%2F9.rarbg.to%3A2920%2Fannounce&tr=udp%3A%2F%2Ftracker.opentrackr.org%3A1337&tr=udp%3A%2F%2Ftracker.internetwarriors.net%3A1337%2Fannounce&tr=udp%3A%2F%2Ftracker.leechers-paradise.org%3A6969%2Fannounce&tr=udp%3A%2F%2Ftracker.coppersurfer.tk%3A6969%2Fannounce&tr=udp%3A%2F%2Ftracker.pirateparty.gr%3A6969%2Fannounce&tr=udp%3A%2F%2Ftracker.cyberia.is%3A6969%2Fannounce",
        "seeder": "0",
        "leecher": "1"
    },
    {
        "rank": "94",
        "title": "Media Downloader Pro Universal Downloads Manager [Gu Jing] v2.2",
        "link": "magnet:?xt=urn:btih:E39D0E6614C0A236C363A2346BA20E4712C768A7&dn=Media+Downloader+Pro+Universal+Downloads+Manager+%5BGu+Jing%5D+v2.2&tr=udp%3A%2F%2Ftracker.coppersurfer.tk%3A6969%2Fannounce&tr=udp%3A%2F%2F9.rarbg.to%3A2920%2Fannounce&tr=udp%3A%2F%2Ftracker.opentrackr.org%3A1337&tr=udp%3A%2F%2Ftracker.internetwarriors.net%3A1337%2Fannounce&tr=udp%3A%2F%2Ftracker.leechers-paradise.org%3A6969%2Fannounce&tr=udp%3A%2F%2Ftracker.coppersurfer.tk%3A6969%2Fannounce&tr=udp%3A%2F%2Ftracker.pirateparty.gr%3A6969%2Fannounce&tr=udp%3A%2F%2Ftracker.cyberia.is%3A6969%2Fannounce",
        "seeder": "0",
        "leecher": "1"
    },
    {
        "rank": "95",
        "title": "Justin.TV (v3.7.8)",
        "link": "magnet:?xt=urn:btih:3BF28DF8316522C96395DD2B0AD0444EC5110990&dn=Justin.TV+%28v3.7.8%29&tr=udp%3A%2F%2Ftracker.coppersurfer.tk%3A6969%2Fannounce&tr=udp%3A%2F%2F9.rarbg.to%3A2920%2Fannounce&tr=udp%3A%2F%2Ftracker.opentrackr.org%3A1337&tr=udp%3A%2F%2Ftracker.internetwarriors.net%3A1337%2Fannounce&tr=udp%3A%2F%2Ftracker.leechers-paradise.org%3A6969%2Fannounce&tr=udp%3A%2F%2Ftracker.coppersurfer.tk%3A6969%2Fannounce&tr=udp%3A%2F%2Ftracker.pirateparty.gr%3A6969%2Fannounce&tr=udp%3A%2F%2Ftracker.cyberia.is%3A6969%2Fannounce",
        "seeder": "0",
        "leecher": "1"
    },
    {
        "rank": "96",
        "title": "Notesy for Dropbox v2.1[Cracked]",
        "link": "magnet:?xt=urn:btih:88238803EFD09B02555A36BE1BD7A5BA4BE43447&dn=Notesy+for+Dropbox+v2.1%5BCracked%5D&tr=udp%3A%2F%2Ftracker.coppersurfer.tk%3A6969%2Fannounce&tr=udp%3A%2F%2F9.rarbg.to%3A2920%2Fannounce&tr=udp%3A%2F%2Ftracker.opentrackr.org%3A1337&tr=udp%3A%2F%2Ftracker.internetwarriors.net%3A1337%2Fannounce&tr=udp%3A%2F%2Ftracker.leechers-paradise.org%3A6969%2Fannounce&tr=udp%3A%2F%2Ftracker.coppersurfer.tk%3A6969%2Fannounce&tr=udp%3A%2F%2Ftracker.pirateparty.gr%3A6969%2Fannounce&tr=udp%3A%2F%2Ftracker.cyberia.is%3A6969%2Fannounce",
        "seeder": "0",
        "leecher": "1"
    },
    {
        "rank": "97",
        "title": "iOS 5 Firmware for iPod Touch 4G",
        "link": "magnet:?xt=urn:btih:92E99D9F73B7190DBBCC17A871FF7A20DFA060C6&dn=iOS+5+Firmware+for+iPod+Touch+4G&tr=udp%3A%2F%2Ftracker.coppersurfer.tk%3A6969%2Fannounce&tr=udp%3A%2F%2F9.rarbg.to%3A2920%2Fannounce&tr=udp%3A%2F%2Ftracker.opentrackr.org%3A1337&tr=udp%3A%2F%2Ftracker.internetwarriors.net%3A1337%2Fannounce&tr=udp%3A%2F%2Ftracker.leechers-paradise.org%3A6969%2Fannounce&tr=udp%3A%2F%2Ftracker.coppersurfer.tk%3A6969%2Fannounce&tr=udp%3A%2F%2Ftracker.pirateparty.gr%3A6969%2Fannounce&tr=udp%3A%2F%2Ftracker.cyberia.is%3A6969%2Fannounce",
        "seeder": "0",
        "leecher": "1"
    },
    {
        "rank": "98",
        "title": "TomTom South East Asia 1.10",
        "link": "magnet:?xt=urn:btih:D310F5D9B1A3C1762C11182B0054C7307D0A1295&dn=TomTom+South+East+Asia+1.10&tr=udp%3A%2F%2Ftracker.coppersurfer.tk%3A6969%2Fannounce&tr=udp%3A%2F%2F9.rarbg.to%3A2920%2Fannounce&tr=udp%3A%2F%2Ftracker.opentrackr.org%3A1337&tr=udp%3A%2F%2Ftracker.internetwarriors.net%3A1337%2Fannounce&tr=udp%3A%2F%2Ftracker.leechers-paradise.org%3A6969%2Fannounce&tr=udp%3A%2F%2Ftracker.coppersurfer.tk%3A6969%2Fannounce&tr=udp%3A%2F%2Ftracker.pirateparty.gr%3A6969%2Fannounce&tr=udp%3A%2F%2Ftracker.cyberia.is%3A6969%2Fannounce",
        "seeder": "0",
        "leecher": "1"
    },
    {
        "rank": "99",
        "title": "GoodPlayer-v5.3-Allal123",
        "link": "magnet:?xt=urn:btih:2284C0F1C522A7BA0F07C4259CEE9816F2D51475&dn=GoodPlayer-v5.3-Allal123&tr=udp%3A%2F%2Ftracker.coppersurfer.tk%3A6969%2Fannounce&tr=udp%3A%2F%2F9.rarbg.to%3A2920%2Fannounce&tr=udp%3A%2F%2Ftracker.opentrackr.org%3A1337&tr=udp%3A%2F%2Ftracker.internetwarriors.net%3A1337%2Fannounce&tr=udp%3A%2F%2Ftracker.leechers-paradise.org%3A6969%2Fannounce&tr=udp%3A%2F%2Ftracker.coppersurfer.tk%3A6969%2Fannounce&tr=udp%3A%2F%2Ftracker.pirateparty.gr%3A6969%2Fannounce&tr=udp%3A%2F%2Ftracker.cyberia.is%3A6969%2Fannounce",
        "seeder": "0",
        "leecher": "1"
    },
    {
        "rank": "100",
        "title": "Mail 2 Group Email To Contacts Fast [Yoni Tserruya] v2.1",
        "link": "magnet:?xt=urn:btih:8784D023E1011B445254F219AD04590E94B37511&dn=Mail+2+Group+Email+To+Contacts+Fast+%5BYoni+Tserruya%5D+v2.1&tr=udp%3A%2F%2Ftracker.coppersurfer.tk%3A6969%2Fannounce&tr=udp%3A%2F%2F9.rarbg.to%3A2920%2Fannounce&tr=udp%3A%2F%2Ftracker.opentrackr.org%3A1337&tr=udp%3A%2F%2Ftracker.internetwarriors.net%3A1337%2Fannounce&tr=udp%3A%2F%2Ftracker.leechers-paradise.org%3A6969%2Fannounce&tr=udp%3A%2F%2Ftracker.coppersurfer.tk%3A6969%2Fannounce&tr=udp%3A%2F%2Ftracker.pirateparty.gr%3A6969%2Fannounce&tr=udp%3A%2F%2Ftracker.cyberia.is%3A6969%2Fannounce",
        "seeder": "0",
        "leecher": "0"
    }
]
