[
    {
        "rank": "1",
        "title": "MICROSOFT Office PRO Plus 2016 v16.0.4266.1003 RTM + Activator",
        "link": "magnet:?xt=urn:btih:4E64AAAF48D922DBD93F8B9E4ACAA78C99BC1F40&dn=MICROSOFT+Office+PRO+Plus+2016+v16.0.4266.1003+RTM+%2B+Activator&tr=udp%3A%2F%2Ftracker.coppersurfer.tk%3A6969%2Fannounce&tr=udp%3A%2F%2F9.rarbg.to%3A2920%2Fannounce&tr=udp%3A%2F%2Ftracker.opentrackr.org%3A1337&tr=udp%3A%2F%2Ftracker.internetwarriors.net%3A1337%2Fannounce&tr=udp%3A%2F%2Ftracker.leechers-paradise.org%3A6969%2Fannounce&tr=udp%3A%2F%2Ftracker.coppersurfer.tk%3A6969%2Fannounce&tr=udp%3A%2F%2Ftracker.pirateparty.gr%3A6969%2Fannounce&tr=udp%3A%2F%2Ftracker.cyberia.is%3A6969%2Fannounce",
        "seeder": "3456",
        "leecher": "67"
    },
    {
        "rank": "2",
        "title": "Adobe Photoshop 2020 v21.0.1.47 (Pre-Activated) {B4tman}",
        "link": "magnet:?xt=urn:btih:51229301ED59CA87ECA9F3BAF420AD1F3A148780&dn=Adobe+Photoshop+2020+v21.0.1.47+%28Pre-Activated%29+%7BB4tman%7D&tr=udp%3A%2F%2Ftracker.coppersurfer.tk%3A6969%2Fannounce&tr=udp%3A%2F%2F9.rarbg.to%3A2920%2Fannounce&tr=udp%3A%2F%2Ftracker.opentrackr.org%3A1337&tr=udp%3A%2F%2Ftracker.internetwarriors.net%3A1337%2Fannounce&tr=udp%3A%2F%2Ftracker.leechers-paradise.org%3A6969%2Fannounce&tr=udp%3A%2F%2Ftracker.coppersurfer.tk%3A6969%2Fannounce&tr=udp%3A%2F%2Ftracker.pirateparty.gr%3A6969%2Fannounce&tr=udp%3A%2F%2Ftracker.cyberia.is%3A6969%2Fannounce",
        "seeder": "1465",
        "leecher": "28"
    },
    {
        "rank": "3",
        "title": "Microsoft OFFICE 2010  Pro Plus PRECRACKED",
        "link": "magnet:?xt=urn:btih:27113327FBC680659464B72F63A2C1C644AC8EF8&dn=Microsoft+OFFICE+2010++Pro+Plus+PRECRACKED&tr=udp%3A%2F%2Ftracker.coppersurfer.tk%3A6969%2Fannounce&tr=udp%3A%2F%2F9.rarbg.to%3A2920%2Fannounce&tr=udp%3A%2F%2Ftracker.opentrackr.org%3A1337&tr=udp%3A%2F%2Ftracker.internetwarriors.net%3A1337%2Fannounce&tr=udp%3A%2F%2Ftracker.leechers-paradise.org%3A6969%2Fannounce&tr=udp%3A%2F%2Ftracker.coppersurfer.tk%3A6969%2Fannounce&tr=udp%3A%2F%2Ftracker.pirateparty.gr%3A6969%2Fannounce&tr=udp%3A%2F%2Ftracker.cyberia.is%3A6969%2Fannounce",
        "seeder": "1290",
        "leecher": "18"
    },
    {
        "rank": "4",
        "title": "Adobe Premiere Pro 2020 v14.0.3.1 (x64) (Activated) {B4tman}",
        "link": "magnet:?xt=urn:btih:4A8C4A5313607CBB2CBE1B31D80ED519AD5683D0&dn=Adobe+Premiere+Pro+2020+v14.0.3.1+%28x64%29+%28Activated%29+%7BB4tman%7D&tr=udp%3A%2F%2Ftracker.coppersurfer.tk%3A6969%2Fannounce&tr=udp%3A%2F%2F9.rarbg.to%3A2920%2Fannounce&tr=udp%3A%2F%2Ftracker.opentrackr.org%3A1337&tr=udp%3A%2F%2Ftracker.internetwarriors.net%3A1337%2Fannounce&tr=udp%3A%2F%2Ftracker.leechers-paradise.org%3A6969%2Fannounce&tr=udp%3A%2F%2Ftracker.coppersurfer.tk%3A6969%2Fannounce&tr=udp%3A%2F%2Ftracker.pirateparty.gr%3A6969%2Fannounce&tr=udp%3A%2F%2Ftracker.cyberia.is%3A6969%2Fannounce",
        "seeder": "928",
        "leecher": "15"
    },
    {
        "rank": "5",
        "title": "FL Studio Producer Edition 20.7.2 Build 1852 + Patch - [haxNode]",
        "link": "magnet:?xt=urn:btih:397695BEDFB8F35083694EA4276CB6B2D21CFA5B&dn=FL+Studio+Producer+Edition+20.7.2+Build+1852+%2B+Patch+-+%5BhaxNode%5D&tr=udp%3A%2F%2Ftracker.coppersurfer.tk%3A6969%2Fannounce&tr=udp%3A%2F%2F9.rarbg.to%3A2920%2Fannounce&tr=udp%3A%2F%2Ftracker.opentrackr.org%3A1337&tr=udp%3A%2F%2Ftracker.internetwarriors.net%3A1337%2Fannounce&tr=udp%3A%2F%2Ftracker.leechers-paradise.org%3A6969%2Fannounce&tr=udp%3A%2F%2Ftracker.coppersurfer.tk%3A6969%2Fannounce&tr=udp%3A%2F%2Ftracker.pirateparty.gr%3A6969%2Fannounce&tr=udp%3A%2F%2Ftracker.cyberia.is%3A6969%2Fannounce",
        "seeder": "917",
        "leecher": "19"
    },
    {
        "rank": "6",
        "title": "MICROSOFT OFFICE 2010 WORD X64 [thethingy]",
        "link": "magnet:?xt=urn:btih:C4F56282FB8151B828B9A30FCA4D5DFCDC2C7962&dn=MICROSOFT+OFFICE+2010+WORD+X64+%5Bthethingy%5D&tr=udp%3A%2F%2Ftracker.coppersurfer.tk%3A6969%2Fannounce&tr=udp%3A%2F%2F9.rarbg.to%3A2920%2Fannounce&tr=udp%3A%2F%2Ftracker.opentrackr.org%3A1337&tr=udp%3A%2F%2Ftracker.internetwarriors.net%3A1337%2Fannounce&tr=udp%3A%2F%2Ftracker.leechers-paradise.org%3A6969%2Fannounce&tr=udp%3A%2F%2Ftracker.coppersurfer.tk%3A6969%2Fannounce&tr=udp%3A%2F%2Ftracker.pirateparty.gr%3A6969%2Fannounce&tr=udp%3A%2F%2Ftracker.cyberia.is%3A6969%2Fannounce",
        "seeder": "896",
        "leecher": "7"
    },
    {
        "rank": "7",
        "title": "Adobe Photoshop Lightroom CC 2019 v8.2.1.10 (x64) {B4tman}",
        "link": "magnet:?xt=urn:btih:1EF1BABB48E80CC0706B55C5C9DE50BCE7BD2763&dn=Adobe+Photoshop+Lightroom+CC+2019+v8.2.1.10+%28x64%29+%7BB4tman%7D&tr=udp%3A%2F%2Ftracker.coppersurfer.tk%3A6969%2Fannounce&tr=udp%3A%2F%2F9.rarbg.to%3A2920%2Fannounce&tr=udp%3A%2F%2Ftracker.opentrackr.org%3A1337&tr=udp%3A%2F%2Ftracker.internetwarriors.net%3A1337%2Fannounce&tr=udp%3A%2F%2Ftracker.leechers-paradise.org%3A6969%2Fannounce&tr=udp%3A%2F%2Ftracker.coppersurfer.tk%3A6969%2Fannounce&tr=udp%3A%2F%2Ftracker.pirateparty.gr%3A6969%2Fannounce&tr=udp%3A%2F%2Ftracker.cyberia.is%3A6969%2Fannounce",
        "seeder": "821",
        "leecher": "16"
    },
    {
        "rank": "8",
        "title": "KMSpico 10.1.8 FINAL + Portable (Office and Windows 10 Activator",
        "link": "magnet:?xt=urn:btih:A53E3226A59F4032EEFA26CEFE6A9BDEE17AA970&dn=KMSpico+10.1.8+FINAL+%2B+Portable+%28Office+and+Windows+10+Activator&tr=udp%3A%2F%2Ftracker.coppersurfer.tk%3A6969%2Fannounce&tr=udp%3A%2F%2F9.rarbg.to%3A2920%2Fannounce&tr=udp%3A%2F%2Ftracker.opentrackr.org%3A1337&tr=udp%3A%2F%2Ftracker.internetwarriors.net%3A1337%2Fannounce&tr=udp%3A%2F%2Ftracker.leechers-paradise.org%3A6969%2Fannounce&tr=udp%3A%2F%2Ftracker.coppersurfer.tk%3A6969%2Fannounce&tr=udp%3A%2F%2Ftracker.pirateparty.gr%3A6969%2Fannounce&tr=udp%3A%2F%2Ftracker.cyberia.is%3A6969%2Fannounce",
        "seeder": "781",
        "leecher": "36"
    },
    {
        "rank": "9",
        "title": "Adobe Photoshop CC 2015 (20150529.r.88) (32+64Bit) + Crack",
        "link": "magnet:?xt=urn:btih:89EBCCD43FA8F75F8439896EA5211EA60E041A4F&dn=Adobe+Photoshop+CC+2015+%2820150529.r.88%29+%2832%2B64Bit%29+%2B+Crack&tr=udp%3A%2F%2Ftracker.coppersurfer.tk%3A6969%2Fannounce&tr=udp%3A%2F%2F9.rarbg.to%3A2920%2Fannounce&tr=udp%3A%2F%2Ftracker.opentrackr.org%3A1337&tr=udp%3A%2F%2Ftracker.internetwarriors.net%3A1337%2Fannounce&tr=udp%3A%2F%2Ftracker.leechers-paradise.org%3A6969%2Fannounce&tr=udp%3A%2F%2Ftracker.coppersurfer.tk%3A6969%2Fannounce&tr=udp%3A%2F%2Ftracker.pirateparty.gr%3A6969%2Fannounce&tr=udp%3A%2F%2Ftracker.cyberia.is%3A6969%2Fannounce",
        "seeder": "762",
        "leecher": "67"
    },
    {
        "rank": "10",
        "title": "Adobe Acrobat XI Pro 11.0.20 FINAL + Crack [TechTools]",
        "link": "magnet:?xt=urn:btih:3E599558B0A59150FBF597B5A1A13F8BCAA25558&dn=Adobe+Acrobat+XI+Pro+11.0.20+FINAL+%2B+Crack+%5BTechTools%5D&tr=udp%3A%2F%2Ftracker.coppersurfer.tk%3A6969%2Fannounce&tr=udp%3A%2F%2F9.rarbg.to%3A2920%2Fannounce&tr=udp%3A%2F%2Ftracker.opentrackr.org%3A1337&tr=udp%3A%2F%2Ftracker.internetwarriors.net%3A1337%2Fannounce&tr=udp%3A%2F%2Ftracker.leechers-paradise.org%3A6969%2Fannounce&tr=udp%3A%2F%2Ftracker.coppersurfer.tk%3A6969%2Fannounce&tr=udp%3A%2F%2Ftracker.pirateparty.gr%3A6969%2Fannounce&tr=udp%3A%2F%2Ftracker.cyberia.is%3A6969%2Fannounce",
        "seeder": "618",
        "leecher": "27"
    },
    {
        "rank": "11",
        "title": "Microsoft Windows 10 Home and Pro x64 Clean ISO",
        "link": "magnet:?xt=urn:btih:37C6FC8D200C45BF23D38FA254B21ED8A7C9FB8F&dn=Microsoft+Windows+10+Home+and+Pro+x64+Clean+ISO&tr=udp%3A%2F%2Ftracker.coppersurfer.tk%3A6969%2Fannounce&tr=udp%3A%2F%2F9.rarbg.to%3A2920%2Fannounce&tr=udp%3A%2F%2Ftracker.opentrackr.org%3A1337&tr=udp%3A%2F%2Ftracker.internetwarriors.net%3A1337%2Fannounce&tr=udp%3A%2F%2Ftracker.leechers-paradise.org%3A6969%2Fannounce&tr=udp%3A%2F%2Ftracker.coppersurfer.tk%3A6969%2Fannounce&tr=udp%3A%2F%2Ftracker.pirateparty.gr%3A6969%2Fannounce&tr=udp%3A%2F%2Ftracker.cyberia.is%3A6969%2Fannounce",
        "seeder": "594",
        "leecher": "27"
    },
    {
        "rank": "12",
        "title": "SketchUp Pro 2020 v20.0.363 + Crack {B4tman}",
        "link": "magnet:?xt=urn:btih:EE3B8A5DBE416D34119ACE407A6961B33EFCB248&dn=SketchUp+Pro+2020+v20.0.363+%2B+Crack+%7BB4tman%7D&tr=udp%3A%2F%2Ftracker.coppersurfer.tk%3A6969%2Fannounce&tr=udp%3A%2F%2F9.rarbg.to%3A2920%2Fannounce&tr=udp%3A%2F%2Ftracker.opentrackr.org%3A1337&tr=udp%3A%2F%2Ftracker.internetwarriors.net%3A1337%2Fannounce&tr=udp%3A%2F%2Ftracker.leechers-paradise.org%3A6969%2Fannounce&tr=udp%3A%2F%2Ftracker.coppersurfer.tk%3A6969%2Fannounce&tr=udp%3A%2F%2Ftracker.pirateparty.gr%3A6969%2Fannounce&tr=udp%3A%2F%2Ftracker.cyberia.is%3A6969%2Fannounce",
        "seeder": "482",
        "leecher": "15"
    },
    {
        "rank": "13",
        "title": "Adobe After Effects 2020 v17.0.4.59 (Pre-Activated) {B4tman}",
        "link": "magnet:?xt=urn:btih:FA719A6C465FB07A3982C3AB150DEC35EC9B1DC7&dn=Adobe+After+Effects+2020+v17.0.4.59+%28Pre-Activated%29+%7BB4tman%7D&tr=udp%3A%2F%2Ftracker.coppersurfer.tk%3A6969%2Fannounce&tr=udp%3A%2F%2F9.rarbg.to%3A2920%2Fannounce&tr=udp%3A%2F%2Ftracker.opentrackr.org%3A1337&tr=udp%3A%2F%2Ftracker.internetwarriors.net%3A1337%2Fannounce&tr=udp%3A%2F%2Ftracker.leechers-paradise.org%3A6969%2Fannounce&tr=udp%3A%2F%2Ftracker.coppersurfer.tk%3A6969%2Fannounce&tr=udp%3A%2F%2Ftracker.pirateparty.gr%3A6969%2Fannounce&tr=udp%3A%2F%2Ftracker.cyberia.is%3A6969%2Fannounce",
        "seeder": "437",
        "leecher": "12"
    },
    {
        "rank": "14",
        "title": "Adobe Acrobat PRO DC 2020.009.20063 FULL [TheWindowsForum]",
        "link": "magnet:?xt=urn:btih:A3624F40AE475BC6E2145EFDA80E6BD40F121B26&dn=Adobe+Acrobat+PRO+DC+2020.009.20063+FULL+%5BTheWindowsForum%5D&tr=udp%3A%2F%2Ftracker.coppersurfer.tk%3A6969%2Fannounce&tr=udp%3A%2F%2F9.rarbg.to%3A2920%2Fannounce&tr=udp%3A%2F%2Ftracker.opentrackr.org%3A1337&tr=udp%3A%2F%2Ftracker.internetwarriors.net%3A1337%2Fannounce&tr=udp%3A%2F%2Ftracker.leechers-paradise.org%3A6969%2Fannounce&tr=udp%3A%2F%2Ftracker.coppersurfer.tk%3A6969%2Fannounce&tr=udp%3A%2F%2Ftracker.pirateparty.gr%3A6969%2Fannounce&tr=udp%3A%2F%2Ftracker.cyberia.is%3A6969%2Fannounce",
        "seeder": "385",
        "leecher": "8"
    },
    {
        "rank": "15",
        "title": "WinRAR 5.71 FINAL + Key [TheWindowsForum]",
        "link": "magnet:?xt=urn:btih:5FCFC76584E114282643694E5C8283C757DD4617&dn=WinRAR+5.71+FINAL+%2B+Key+%5BTheWindowsForum%5D&tr=udp%3A%2F%2Ftracker.coppersurfer.tk%3A6969%2Fannounce&tr=udp%3A%2F%2F9.rarbg.to%3A2920%2Fannounce&tr=udp%3A%2F%2Ftracker.opentrackr.org%3A1337&tr=udp%3A%2F%2Ftracker.internetwarriors.net%3A1337%2Fannounce&tr=udp%3A%2F%2Ftracker.leechers-paradise.org%3A6969%2Fannounce&tr=udp%3A%2F%2Ftracker.coppersurfer.tk%3A6969%2Fannounce&tr=udp%3A%2F%2Ftracker.pirateparty.gr%3A6969%2Fannounce&tr=udp%3A%2F%2Ftracker.cyberia.is%3A6969%2Fannounce",
        "seeder": "381",
        "leecher": "4"
    },
    {
        "rank": "16",
        "title": "Adobe Photoshop CS6 13.0.1 Final  Multilanguage (cracked dll) [C",
        "link": "magnet:?xt=urn:btih:6CE4C1686CAB55CB21ED6BD54AEEF36A49550431&dn=Adobe+Photoshop+CS6+13.0.1+Final++Multilanguage+%28cracked+dll%29+%5BC&tr=udp%3A%2F%2Ftracker.coppersurfer.tk%3A6969%2Fannounce&tr=udp%3A%2F%2F9.rarbg.to%3A2920%2Fannounce&tr=udp%3A%2F%2Ftracker.opentrackr.org%3A1337&tr=udp%3A%2F%2Ftracker.internetwarriors.net%3A1337%2Fannounce&tr=udp%3A%2F%2Ftracker.leechers-paradise.org%3A6969%2Fannounce&tr=udp%3A%2F%2Ftracker.coppersurfer.tk%3A6969%2Fannounce&tr=udp%3A%2F%2Ftracker.pirateparty.gr%3A6969%2Fannounce&tr=udp%3A%2F%2Ftracker.cyberia.is%3A6969%2Fannounce",
        "seeder": "371",
        "leecher": "9"
    },
    {
        "rank": "17",
        "title": "Windows 7 SP1 Ultimate 6in1 OEM ESD pt-BR JULY 2020 {Gen2}",
        "link": "magnet:?xt=urn:btih:3CB591F0FF463E0BB0C9C99479283B24C5B14E19&dn=Windows+7+SP1+Ultimate+6in1+OEM+ESD+pt-BR+JULY+2020+%7BGen2%7D&tr=udp%3A%2F%2Ftracker.coppersurfer.tk%3A6969%2Fannounce&tr=udp%3A%2F%2F9.rarbg.to%3A2920%2Fannounce&tr=udp%3A%2F%2Ftracker.opentrackr.org%3A1337&tr=udp%3A%2F%2Ftracker.internetwarriors.net%3A1337%2Fannounce&tr=udp%3A%2F%2Ftracker.leechers-paradise.org%3A6969%2Fannounce&tr=udp%3A%2F%2Ftracker.coppersurfer.tk%3A6969%2Fannounce&tr=udp%3A%2F%2Ftracker.pirateparty.gr%3A6969%2Fannounce&tr=udp%3A%2F%2Ftracker.cyberia.is%3A6969%2Fannounce",
        "seeder": "366",
        "leecher": "11"
    },
    {
        "rank": "18",
        "title": "microsoft Office Enterprise 2007 + Key  - THADOGG",
        "link": "magnet:?xt=urn:btih:7C476CDA494495D00E8AC96357258E9E66B5C53A&dn=microsoft+Office+Enterprise+2007+%2B+Key++-+THADOGG&tr=udp%3A%2F%2Ftracker.coppersurfer.tk%3A6969%2Fannounce&tr=udp%3A%2F%2F9.rarbg.to%3A2920%2Fannounce&tr=udp%3A%2F%2Ftracker.opentrackr.org%3A1337&tr=udp%3A%2F%2Ftracker.internetwarriors.net%3A1337%2Fannounce&tr=udp%3A%2F%2Ftracker.leechers-paradise.org%3A6969%2Fannounce&tr=udp%3A%2F%2Ftracker.coppersurfer.tk%3A6969%2Fannounce&tr=udp%3A%2F%2Ftracker.pirateparty.gr%3A6969%2Fannounce&tr=udp%3A%2F%2Ftracker.cyberia.is%3A6969%2Fannounce",
        "seeder": "363",
        "leecher": "3"
    },
    {
        "rank": "19",
        "title": "WINDOWS 7 ALL IN ONE PRE-ACTIVATED(EXCELLENT)",
        "link": "magnet:?xt=urn:btih:905356F34DC3E26955D9ECCB38C27FE662C0FABB&dn=WINDOWS+7+ALL+IN+ONE+PRE-ACTIVATED%28EXCELLENT%29&tr=udp%3A%2F%2Ftracker.coppersurfer.tk%3A6969%2Fannounce&tr=udp%3A%2F%2F9.rarbg.to%3A2920%2Fannounce&tr=udp%3A%2F%2Ftracker.opentrackr.org%3A1337&tr=udp%3A%2F%2Ftracker.internetwarriors.net%3A1337%2Fannounce&tr=udp%3A%2F%2Ftracker.leechers-paradise.org%3A6969%2Fannounce&tr=udp%3A%2F%2Ftracker.coppersurfer.tk%3A6969%2Fannounce&tr=udp%3A%2F%2Ftracker.pirateparty.gr%3A6969%2Fannounce&tr=udp%3A%2F%2Ftracker.cyberia.is%3A6969%2Fannounce",
        "seeder": "355",
        "leecher": "9"
    },
    {
        "rank": "20",
        "title": "MICROSOFT OFFICE 2010 EXCEL X64 [thethingy]",
        "link": "magnet:?xt=urn:btih:FC90C79132212CB884D4F628DC185E852C31C8C0&dn=MICROSOFT+OFFICE+2010+EXCEL+X64+%5Bthethingy%5D&tr=udp%3A%2F%2Ftracker.coppersurfer.tk%3A6969%2Fannounce&tr=udp%3A%2F%2F9.rarbg.to%3A2920%2Fannounce&tr=udp%3A%2F%2Ftracker.opentrackr.org%3A1337&tr=udp%3A%2F%2Ftracker.internetwarriors.net%3A1337%2Fannounce&tr=udp%3A%2F%2Ftracker.leechers-paradise.org%3A6969%2Fannounce&tr=udp%3A%2F%2Ftracker.coppersurfer.tk%3A6969%2Fannounce&tr=udp%3A%2F%2Ftracker.pirateparty.gr%3A6969%2Fannounce&tr=udp%3A%2F%2Ftracker.cyberia.is%3A6969%2Fannounce",
        "seeder": "354",
        "leecher": "1"
    },
    {
        "rank": "21",
        "title": "IDM 6.38 build 18 incl Patch [32bit + 64bit][CrackingPatching]",
        "link": "magnet:?xt=urn:btih:222C98F48967550EFE1CD53AA058E3214B311304&dn=IDM+6.38+build+18+incl+Patch+%5B32bit+%2B+64bit%5D%5BCrackingPatching%5D&tr=udp%3A%2F%2Ftracker.coppersurfer.tk%3A6969%2Fannounce&tr=udp%3A%2F%2F9.rarbg.to%3A2920%2Fannounce&tr=udp%3A%2F%2Ftracker.opentrackr.org%3A1337&tr=udp%3A%2F%2Ftracker.internetwarriors.net%3A1337%2Fannounce&tr=udp%3A%2F%2Ftracker.leechers-paradise.org%3A6969%2Fannounce&tr=udp%3A%2F%2Ftracker.coppersurfer.tk%3A6969%2Fannounce&tr=udp%3A%2F%2Ftracker.pirateparty.gr%3A6969%2Fannounce&tr=udp%3A%2F%2Ftracker.cyberia.is%3A6969%2Fannounce",
        "seeder": "343",
        "leecher": "6"
    },
    {
        "rank": "22",
        "title": "Wondershare Dr.Fone Toolkit for iOS and Android 10.0.x{B4tman}",
        "link": "magnet:?xt=urn:btih:45CC149DE70D15CF4F29437DF05CAA76152EF896&dn=Wondershare+Dr.Fone+Toolkit+for+iOS+and+Android+10.0.x%7BB4tman%7D&tr=udp%3A%2F%2Ftracker.coppersurfer.tk%3A6969%2Fannounce&tr=udp%3A%2F%2F9.rarbg.to%3A2920%2Fannounce&tr=udp%3A%2F%2Ftracker.opentrackr.org%3A1337&tr=udp%3A%2F%2Ftracker.internetwarriors.net%3A1337%2Fannounce&tr=udp%3A%2F%2Ftracker.leechers-paradise.org%3A6969%2Fannounce&tr=udp%3A%2F%2Ftracker.coppersurfer.tk%3A6969%2Fannounce&tr=udp%3A%2F%2Ftracker.pirateparty.gr%3A6969%2Fannounce&tr=udp%3A%2F%2Ftracker.cyberia.is%3A6969%2Fannounce",
        "seeder": "308",
        "leecher": "8"
    },
    {
        "rank": "23",
        "title": "Windows 7 Ultimate with SP1 X64 Genuine ISO Untouched + Windows7",
        "link": "magnet:?xt=urn:btih:176EBBB9C620C1419E5DAC9E78847259378AE33C&dn=Windows+7+Ultimate+with+SP1+X64+Genuine+ISO+Untouched+%2B+Windows7&tr=udp%3A%2F%2Ftracker.coppersurfer.tk%3A6969%2Fannounce&tr=udp%3A%2F%2F9.rarbg.to%3A2920%2Fannounce&tr=udp%3A%2F%2Ftracker.opentrackr.org%3A1337&tr=udp%3A%2F%2Ftracker.internetwarriors.net%3A1337%2Fannounce&tr=udp%3A%2F%2Ftracker.leechers-paradise.org%3A6969%2Fannounce&tr=udp%3A%2F%2Ftracker.coppersurfer.tk%3A6969%2Fannounce&tr=udp%3A%2F%2Ftracker.pirateparty.gr%3A6969%2Fannounce&tr=udp%3A%2F%2Ftracker.cyberia.is%3A6969%2Fannounce",
        "seeder": "292",
        "leecher": "21"
    },
    {
        "rank": "24",
        "title": "KMS Tools (01.12.19) (Office And Windows Activators) {B4tman}",
        "link": "magnet:?xt=urn:btih:08F6B3F651F9FAF0F7B34B585026FA1B7FC72331&dn=KMS+Tools+%2801.12.19%29+%28Office+And+Windows+Activators%29+%7BB4tman%7D&tr=udp%3A%2F%2Ftracker.coppersurfer.tk%3A6969%2Fannounce&tr=udp%3A%2F%2F9.rarbg.to%3A2920%2Fannounce&tr=udp%3A%2F%2Ftracker.opentrackr.org%3A1337&tr=udp%3A%2F%2Ftracker.internetwarriors.net%3A1337%2Fannounce&tr=udp%3A%2F%2Ftracker.leechers-paradise.org%3A6969%2Fannounce&tr=udp%3A%2F%2Ftracker.coppersurfer.tk%3A6969%2Fannounce&tr=udp%3A%2F%2Ftracker.pirateparty.gr%3A6969%2Fannounce&tr=udp%3A%2F%2Ftracker.cyberia.is%3A6969%2Fannounce",
        "seeder": "289",
        "leecher": "4"
    },
    {
        "rank": "25",
        "title": "Minecraft 1.15.2 Cracked [Full, Cracked, Online, Server List]",
        "link": "magnet:?xt=urn:btih:C65F0F09C88FB2612B22B77EE41609805C48D5EA&dn=Minecraft+1.15.2+Cracked+%5BFull%2C+Cracked%2C+Online%2C+Server+List%5D&tr=udp%3A%2F%2Ftracker.coppersurfer.tk%3A6969%2Fannounce&tr=udp%3A%2F%2F9.rarbg.to%3A2920%2Fannounce&tr=udp%3A%2F%2Ftracker.opentrackr.org%3A1337&tr=udp%3A%2F%2Ftracker.internetwarriors.net%3A1337%2Fannounce&tr=udp%3A%2F%2Ftracker.leechers-paradise.org%3A6969%2Fannounce&tr=udp%3A%2F%2Ftracker.coppersurfer.tk%3A6969%2Fannounce&tr=udp%3A%2F%2Ftracker.pirateparty.gr%3A6969%2Fannounce&tr=udp%3A%2F%2Ftracker.cyberia.is%3A6969%2Fannounce",
        "seeder": "270",
        "leecher": "1"
    },
    {
        "rank": "26",
        "title": "Windows 10 X64 20H2 Pro OEM ESD MULTi-7 MARCH 2021 {Gen2}",
        "link": "magnet:?xt=urn:btih:608656BFE0938E7AC9A16DC0E836927F4C49446E&dn=Windows+10+X64+20H2+Pro+OEM+ESD+MULTi-7+MARCH+2021+%7BGen2%7D&tr=udp%3A%2F%2Ftracker.coppersurfer.tk%3A6969%2Fannounce&tr=udp%3A%2F%2F9.rarbg.to%3A2920%2Fannounce&tr=udp%3A%2F%2Ftracker.opentrackr.org%3A1337&tr=udp%3A%2F%2Ftracker.internetwarriors.net%3A1337%2Fannounce&tr=udp%3A%2F%2Ftracker.leechers-paradise.org%3A6969%2Fannounce&tr=udp%3A%2F%2Ftracker.coppersurfer.tk%3A6969%2Fannounce&tr=udp%3A%2F%2Ftracker.pirateparty.gr%3A6969%2Fannounce&tr=udp%3A%2F%2Ftracker.cyberia.is%3A6969%2Fannounce",
        "seeder": "264",
        "leecher": "33"
    },
    {
        "rank": "27",
        "title": "IBM SPSS Statistics 26.0 IF006 + Crack [TheWindowsForum]",
        "link": "magnet:?xt=urn:btih:D8EBAC54C02F20C8E654A310D9F77F9E2C9F67D0&dn=IBM+SPSS+Statistics+26.0+IF006+%2B+Crack+%5BTheWindowsForum%5D&tr=udp%3A%2F%2Ftracker.coppersurfer.tk%3A6969%2Fannounce&tr=udp%3A%2F%2F9.rarbg.to%3A2920%2Fannounce&tr=udp%3A%2F%2Ftracker.opentrackr.org%3A1337&tr=udp%3A%2F%2Ftracker.internetwarriors.net%3A1337%2Fannounce&tr=udp%3A%2F%2Ftracker.leechers-paradise.org%3A6969%2Fannounce&tr=udp%3A%2F%2Ftracker.coppersurfer.tk%3A6969%2Fannounce&tr=udp%3A%2F%2Ftracker.pirateparty.gr%3A6969%2Fannounce&tr=udp%3A%2F%2Ftracker.cyberia.is%3A6969%2Fannounce",
        "seeder": "261",
        "leecher": "9"
    },
    {
        "rank": "28",
        "title": "Adobe Acrobat PRO DC 2019.010.20098+Crack [TechTools]",
        "link": "magnet:?xt=urn:btih:29E45ECB38348C3BED6CA5110B879D938E55D14A&dn=Adobe+Acrobat+PRO+DC+2019.010.20098%2BCrack+%5BTechTools%5D&tr=udp%3A%2F%2Ftracker.coppersurfer.tk%3A6969%2Fannounce&tr=udp%3A%2F%2F9.rarbg.to%3A2920%2Fannounce&tr=udp%3A%2F%2Ftracker.opentrackr.org%3A1337&tr=udp%3A%2F%2Ftracker.internetwarriors.net%3A1337%2Fannounce&tr=udp%3A%2F%2Ftracker.leechers-paradise.org%3A6969%2Fannounce&tr=udp%3A%2F%2Ftracker.coppersurfer.tk%3A6969%2Fannounce&tr=udp%3A%2F%2Ftracker.pirateparty.gr%3A6969%2Fannounce&tr=udp%3A%2F%2Ftracker.cyberia.is%3A6969%2Fannounce",
        "seeder": "260",
        "leecher": "17"
    },
    {
        "rank": "29",
        "title": "YTD Youtube Downloader 6.12.11 + Crack {B4tman}",
        "link": "magnet:?xt=urn:btih:24DED9728DD11A8FB2CDE141FE736B6598698393&dn=YTD+Youtube+Downloader+6.12.11+%2B+Crack+%7BB4tman%7D&tr=udp%3A%2F%2Ftracker.coppersurfer.tk%3A6969%2Fannounce&tr=udp%3A%2F%2F9.rarbg.to%3A2920%2Fannounce&tr=udp%3A%2F%2Ftracker.opentrackr.org%3A1337&tr=udp%3A%2F%2Ftracker.internetwarriors.net%3A1337%2Fannounce&tr=udp%3A%2F%2Ftracker.leechers-paradise.org%3A6969%2Fannounce&tr=udp%3A%2F%2Ftracker.coppersurfer.tk%3A6969%2Fannounce&tr=udp%3A%2F%2Ftracker.pirateparty.gr%3A6969%2Fannounce&tr=udp%3A%2F%2Ftracker.cyberia.is%3A6969%2Fannounce",
        "seeder": "256",
        "leecher": "3"
    },
    {
        "rank": "30",
        "title": "Adobe Premiere Pro CC 2015 v9.0 + Crack",
        "link": "magnet:?xt=urn:btih:B6D07AF1BA3877AB504EC99B7CC69BB319C18CE4&dn=Adobe+Premiere+Pro+CC+2015+v9.0+%2B+Crack&tr=udp%3A%2F%2Ftracker.coppersurfer.tk%3A6969%2Fannounce&tr=udp%3A%2F%2F9.rarbg.to%3A2920%2Fannounce&tr=udp%3A%2F%2Ftracker.opentrackr.org%3A1337&tr=udp%3A%2F%2Ftracker.internetwarriors.net%3A1337%2Fannounce&tr=udp%3A%2F%2Ftracker.leechers-paradise.org%3A6969%2Fannounce&tr=udp%3A%2F%2Ftracker.coppersurfer.tk%3A6969%2Fannounce&tr=udp%3A%2F%2Ftracker.pirateparty.gr%3A6969%2Fannounce&tr=udp%3A%2F%2Ftracker.cyberia.is%3A6969%2Fannounce",
        "seeder": "251",
        "leecher": "4"
    },
    {
        "rank": "31",
        "title": "Adobe Illustrator CC 2015 19.0.0 (64-Bit) + Crack",
        "link": "magnet:?xt=urn:btih:2493D0A43A655BCA8F47BBC5F2FE17D96BCF7F7F&dn=Adobe+Illustrator+CC+2015+19.0.0+%2864-Bit%29+%2B+Crack&tr=udp%3A%2F%2Ftracker.coppersurfer.tk%3A6969%2Fannounce&tr=udp%3A%2F%2F9.rarbg.to%3A2920%2Fannounce&tr=udp%3A%2F%2Ftracker.opentrackr.org%3A1337&tr=udp%3A%2F%2Ftracker.internetwarriors.net%3A1337%2Fannounce&tr=udp%3A%2F%2Ftracker.leechers-paradise.org%3A6969%2Fannounce&tr=udp%3A%2F%2Ftracker.coppersurfer.tk%3A6969%2Fannounce&tr=udp%3A%2F%2Ftracker.pirateparty.gr%3A6969%2Fannounce&tr=udp%3A%2F%2Ftracker.cyberia.is%3A6969%2Fannounce",
        "seeder": "243",
        "leecher": "7"
    },
    {
        "rank": "32",
        "title": "Windows XP Professional SP3 - Activated",
        "link": "magnet:?xt=urn:btih:C6DF2F47D033D54B054CAFE7EF683BA167222D92&dn=Windows+XP+Professional+SP3+-+Activated&tr=udp%3A%2F%2Ftracker.coppersurfer.tk%3A6969%2Fannounce&tr=udp%3A%2F%2F9.rarbg.to%3A2920%2Fannounce&tr=udp%3A%2F%2Ftracker.opentrackr.org%3A1337&tr=udp%3A%2F%2Ftracker.internetwarriors.net%3A1337%2Fannounce&tr=udp%3A%2F%2Ftracker.leechers-paradise.org%3A6969%2Fannounce&tr=udp%3A%2F%2Ftracker.coppersurfer.tk%3A6969%2Fannounce&tr=udp%3A%2F%2Ftracker.pirateparty.gr%3A6969%2Fannounce&tr=udp%3A%2F%2Ftracker.cyberia.is%3A6969%2Fannounce",
        "seeder": "241",
        "leecher": "5"
    },
    {
        "rank": "33",
        "title": "SolidWorks 2020 SP0 Full Premium + Crack ~ [FileRiver]",
        "link": "magnet:?xt=urn:btih:02C75F9E430B07399E11A2D1F171B4F55196B7CA&dn=SolidWorks+2020+SP0+Full+Premium+%2B+Crack+%7E+%5BFileRiver%5D&tr=udp%3A%2F%2Ftracker.coppersurfer.tk%3A6969%2Fannounce&tr=udp%3A%2F%2F9.rarbg.to%3A2920%2Fannounce&tr=udp%3A%2F%2Ftracker.opentrackr.org%3A1337&tr=udp%3A%2F%2Ftracker.internetwarriors.net%3A1337%2Fannounce&tr=udp%3A%2F%2Ftracker.leechers-paradise.org%3A6969%2Fannounce&tr=udp%3A%2F%2Ftracker.coppersurfer.tk%3A6969%2Fannounce&tr=udp%3A%2F%2Ftracker.pirateparty.gr%3A6969%2Fannounce&tr=udp%3A%2F%2Ftracker.cyberia.is%3A6969%2Fannounce",
        "seeder": "225",
        "leecher": "20"
    },
    {
        "rank": "34",
        "title": "Adobe Indesign CC 2019 v14.0.3.413 (x64) {B4tman}",
        "link": "magnet:?xt=urn:btih:9B2397B7E89B33E4DCA39B0364322D4202D1DF46&dn=Adobe+Indesign+CC+2019+v14.0.3.413+%28x64%29+%7BB4tman%7D&tr=udp%3A%2F%2Ftracker.coppersurfer.tk%3A6969%2Fannounce&tr=udp%3A%2F%2F9.rarbg.to%3A2920%2Fannounce&tr=udp%3A%2F%2Ftracker.opentrackr.org%3A1337&tr=udp%3A%2F%2Ftracker.internetwarriors.net%3A1337%2Fannounce&tr=udp%3A%2F%2Ftracker.leechers-paradise.org%3A6969%2Fannounce&tr=udp%3A%2F%2Ftracker.coppersurfer.tk%3A6969%2Fannounce&tr=udp%3A%2F%2Ftracker.pirateparty.gr%3A6969%2Fannounce&tr=udp%3A%2F%2Ftracker.cyberia.is%3A6969%2Fannounce",
        "seeder": "217",
        "leecher": "1"
    },
    {
        "rank": "35",
        "title": "WinRAR 6.0 FINAL + Key [TheWindowsForum]",
        "link": "magnet:?xt=urn:btih:C5947D7CE25BFA2C46DF6C42EA9DF21AF4D9D145&dn=WinRAR+6.0+FINAL+%2B+Key+%5BTheWindowsForum%5D&tr=udp%3A%2F%2Ftracker.coppersurfer.tk%3A6969%2Fannounce&tr=udp%3A%2F%2F9.rarbg.to%3A2920%2Fannounce&tr=udp%3A%2F%2Ftracker.opentrackr.org%3A1337&tr=udp%3A%2F%2Ftracker.internetwarriors.net%3A1337%2Fannounce&tr=udp%3A%2F%2Ftracker.leechers-paradise.org%3A6969%2Fannounce&tr=udp%3A%2F%2Ftracker.coppersurfer.tk%3A6969%2Fannounce&tr=udp%3A%2F%2Ftracker.pirateparty.gr%3A6969%2Fannounce&tr=udp%3A%2F%2Ftracker.cyberia.is%3A6969%2Fannounce",
        "seeder": "214",
        "leecher": "3"
    },
    {
        "rank": "36",
        "title": "ReFX Nexus v2.2 VSTi RTAS DVDR - AiRISO [deepstatus]",
        "link": "magnet:?xt=urn:btih:C089BE3C45F8D24C3F44A2F99A2CA43E4F6BF31D&dn=ReFX+Nexus+v2.2+VSTi+RTAS+DVDR+-+AiRISO+%5Bdeepstatus%5D&tr=udp%3A%2F%2Ftracker.coppersurfer.tk%3A6969%2Fannounce&tr=udp%3A%2F%2F9.rarbg.to%3A2920%2Fannounce&tr=udp%3A%2F%2Ftracker.opentrackr.org%3A1337&tr=udp%3A%2F%2Ftracker.internetwarriors.net%3A1337%2Fannounce&tr=udp%3A%2F%2Ftracker.leechers-paradise.org%3A6969%2Fannounce&tr=udp%3A%2F%2Ftracker.coppersurfer.tk%3A6969%2Fannounce&tr=udp%3A%2F%2Ftracker.pirateparty.gr%3A6969%2Fannounce&tr=udp%3A%2F%2Ftracker.cyberia.is%3A6969%2Fannounce",
        "seeder": "213",
        "leecher": "7"
    },
    {
        "rank": "37",
        "title": "Windows 10 Pro X64 incl Office 2019 en-US MAY 2020 {Gen2}",
        "link": "magnet:?xt=urn:btih:B1135E0B02F17F39A9EDF4B81289E503AC0D2FF3&dn=Windows+10+Pro+X64+incl+Office+2019+en-US+MAY+2020+%7BGen2%7D&tr=udp%3A%2F%2Ftracker.coppersurfer.tk%3A6969%2Fannounce&tr=udp%3A%2F%2F9.rarbg.to%3A2920%2Fannounce&tr=udp%3A%2F%2Ftracker.opentrackr.org%3A1337&tr=udp%3A%2F%2Ftracker.internetwarriors.net%3A1337%2Fannounce&tr=udp%3A%2F%2Ftracker.leechers-paradise.org%3A6969%2Fannounce&tr=udp%3A%2F%2Ftracker.coppersurfer.tk%3A6969%2Fannounce&tr=udp%3A%2F%2Ftracker.pirateparty.gr%3A6969%2Fannounce&tr=udp%3A%2F%2Ftracker.cyberia.is%3A6969%2Fannounce",
        "seeder": "203",
        "leecher": "16"
    },
    {
        "rank": "38",
        "title": "Microsoft Office 2019 Pro Plus v2012 13530.20316 + Activation",
        "link": "magnet:?xt=urn:btih:104DA7CA8E742C7065D8BFEEF1957A756E84E74B&dn=Microsoft+Office+2019+Pro+Plus+v2012+13530.20316+%2B+Activation&tr=udp%3A%2F%2Ftracker.coppersurfer.tk%3A6969%2Fannounce&tr=udp%3A%2F%2F9.rarbg.to%3A2920%2Fannounce&tr=udp%3A%2F%2Ftracker.opentrackr.org%3A1337&tr=udp%3A%2F%2Ftracker.internetwarriors.net%3A1337%2Fannounce&tr=udp%3A%2F%2Ftracker.leechers-paradise.org%3A6969%2Fannounce&tr=udp%3A%2F%2Ftracker.coppersurfer.tk%3A6969%2Fannounce&tr=udp%3A%2F%2Ftracker.pirateparty.gr%3A6969%2Fannounce&tr=udp%3A%2F%2Ftracker.cyberia.is%3A6969%2Fannounce",
        "seeder": "199",
        "leecher": "21"
    },
    {
        "rank": "39",
        "title": "Adobe Photoshop CC 2019 v20.0.0 Multilingual + Crack [TechTools]",
        "link": "magnet:?xt=urn:btih:7395FBDE9908F9B0CDC987AD5DDB5B05646225E3&dn=Adobe+Photoshop+CC+2019+v20.0.0+Multilingual+%2B+Crack+%5BTechTools%5D&tr=udp%3A%2F%2Ftracker.coppersurfer.tk%3A6969%2Fannounce&tr=udp%3A%2F%2F9.rarbg.to%3A2920%2Fannounce&tr=udp%3A%2F%2Ftracker.opentrackr.org%3A1337&tr=udp%3A%2F%2Ftracker.internetwarriors.net%3A1337%2Fannounce&tr=udp%3A%2F%2Ftracker.leechers-paradise.org%3A6969%2Fannounce&tr=udp%3A%2F%2Ftracker.coppersurfer.tk%3A6969%2Fannounce&tr=udp%3A%2F%2Ftracker.pirateparty.gr%3A6969%2Fannounce&tr=udp%3A%2F%2Ftracker.cyberia.is%3A6969%2Fannounce",
        "seeder": "197",
        "leecher": "4"
    },
    {
        "rank": "40",
        "title": "WINDOWS 8.1 PRO x64-ACTIVATED(EXCELLENT)",
        "link": "magnet:?xt=urn:btih:0463EBAB1D3A130B1A59194199932DB2AD327D63&dn=WINDOWS+8.1+PRO+x64-ACTIVATED%28EXCELLENT%29&tr=udp%3A%2F%2Ftracker.coppersurfer.tk%3A6969%2Fannounce&tr=udp%3A%2F%2F9.rarbg.to%3A2920%2Fannounce&tr=udp%3A%2F%2Ftracker.opentrackr.org%3A1337&tr=udp%3A%2F%2Ftracker.internetwarriors.net%3A1337%2Fannounce&tr=udp%3A%2F%2Ftracker.leechers-paradise.org%3A6969%2Fannounce&tr=udp%3A%2F%2Ftracker.coppersurfer.tk%3A6969%2Fannounce&tr=udp%3A%2F%2Ftracker.pirateparty.gr%3A6969%2Fannounce&tr=udp%3A%2F%2Ftracker.cyberia.is%3A6969%2Fannounce",
        "seeder": "197",
        "leecher": "17"
    },
    {
        "rank": "41",
        "title": "TechSmith Camtasia Studio 9.0.4 Build 1948 + Serials [TechTools]",
        "link": "magnet:?xt=urn:btih:488E49444B1830FA0FA86E9D3A5C9AC6D6B5752A&dn=TechSmith+Camtasia+Studio+9.0.4+Build+1948+%2B+Serials+%5BTechTools%5D&tr=udp%3A%2F%2Ftracker.coppersurfer.tk%3A6969%2Fannounce&tr=udp%3A%2F%2F9.rarbg.to%3A2920%2Fannounce&tr=udp%3A%2F%2Ftracker.opentrackr.org%3A1337&tr=udp%3A%2F%2Ftracker.internetwarriors.net%3A1337%2Fannounce&tr=udp%3A%2F%2Ftracker.leechers-paradise.org%3A6969%2Fannounce&tr=udp%3A%2F%2Ftracker.coppersurfer.tk%3A6969%2Fannounce&tr=udp%3A%2F%2Ftracker.pirateparty.gr%3A6969%2Fannounce&tr=udp%3A%2F%2Ftracker.cyberia.is%3A6969%2Fannounce",
        "seeder": "192",
        "leecher": "5"
    },
    {
        "rank": "42",
        "title": "MICROSOFT OFFICE 2010 POWERPOINT X64 [thethingy]",
        "link": "magnet:?xt=urn:btih:A27EE7C4D688EFB3752B8E65E0F5D69200A5C0C2&dn=MICROSOFT+OFFICE+2010+POWERPOINT+X64+%5Bthethingy%5D&tr=udp%3A%2F%2Ftracker.coppersurfer.tk%3A6969%2Fannounce&tr=udp%3A%2F%2F9.rarbg.to%3A2920%2Fannounce&tr=udp%3A%2F%2Ftracker.opentrackr.org%3A1337&tr=udp%3A%2F%2Ftracker.internetwarriors.net%3A1337%2Fannounce&tr=udp%3A%2F%2Ftracker.leechers-paradise.org%3A6969%2Fannounce&tr=udp%3A%2F%2Ftracker.coppersurfer.tk%3A6969%2Fannounce&tr=udp%3A%2F%2Ftracker.pirateparty.gr%3A6969%2Fannounce&tr=udp%3A%2F%2Ftracker.cyberia.is%3A6969%2Fannounce",
        "seeder": "186",
        "leecher": "1"
    },
    {
        "rank": "43",
        "title": "Windows Loader v2 2 2 by Daz",
        "link": "magnet:?xt=urn:btih:37041BA60196E8EFF7050A801EBE73CEDB8C0748&dn=Windows+Loader+v2+2+2+by+Daz&tr=udp%3A%2F%2Ftracker.coppersurfer.tk%3A6969%2Fannounce&tr=udp%3A%2F%2F9.rarbg.to%3A2920%2Fannounce&tr=udp%3A%2F%2Ftracker.opentrackr.org%3A1337&tr=udp%3A%2F%2Ftracker.internetwarriors.net%3A1337%2Fannounce&tr=udp%3A%2F%2Ftracker.leechers-paradise.org%3A6969%2Fannounce&tr=udp%3A%2F%2Ftracker.coppersurfer.tk%3A6969%2Fannounce&tr=udp%3A%2F%2Ftracker.pirateparty.gr%3A6969%2Fannounce&tr=udp%3A%2F%2Ftracker.cyberia.is%3A6969%2Fannounce",
        "seeder": "181",
        "leecher": "2"
    },
    {
        "rank": "44",
        "title": "KMSpico 10 2 0 FINAL (Office and Win 10 Activator) [TechTools]",
        "link": "magnet:?xt=urn:btih:F925B5BA9A9BCE6CC44F354A5931FC323EAA4CAA&dn=KMSpico+10+2+0+FINAL+%28Office+and+Win+10+Activator%29+%5BTechTools%5D&tr=udp%3A%2F%2Ftracker.coppersurfer.tk%3A6969%2Fannounce&tr=udp%3A%2F%2F9.rarbg.to%3A2920%2Fannounce&tr=udp%3A%2F%2Ftracker.opentrackr.org%3A1337&tr=udp%3A%2F%2Ftracker.internetwarriors.net%3A1337%2Fannounce&tr=udp%3A%2F%2Ftracker.leechers-paradise.org%3A6969%2Fannounce&tr=udp%3A%2F%2Ftracker.coppersurfer.tk%3A6969%2Fannounce&tr=udp%3A%2F%2Ftracker.pirateparty.gr%3A6969%2Fannounce&tr=udp%3A%2F%2Ftracker.cyberia.is%3A6969%2Fannounce",
        "seeder": "176",
        "leecher": "9"
    },
    {
        "rank": "45",
        "title": "EaseUS Data Recovery Wizard v13.6 + Keygen + WinPE - [haxNode]",
        "link": "magnet:?xt=urn:btih:94D7570A8C18944F7E84FA7EAE7ADB5589303345&dn=EaseUS+Data+Recovery+Wizard+v13.6+%2B+Keygen+%2B+WinPE+-+%5BhaxNode%5D&tr=udp%3A%2F%2Ftracker.coppersurfer.tk%3A6969%2Fannounce&tr=udp%3A%2F%2F9.rarbg.to%3A2920%2Fannounce&tr=udp%3A%2F%2Ftracker.opentrackr.org%3A1337&tr=udp%3A%2F%2Ftracker.internetwarriors.net%3A1337%2Fannounce&tr=udp%3A%2F%2Ftracker.leechers-paradise.org%3A6969%2Fannounce&tr=udp%3A%2F%2Ftracker.coppersurfer.tk%3A6969%2Fannounce&tr=udp%3A%2F%2Ftracker.pirateparty.gr%3A6969%2Fannounce&tr=udp%3A%2F%2Ftracker.cyberia.is%3A6969%2Fannounce",
        "seeder": "174",
        "leecher": "8"
    },
    {
        "rank": "46",
        "title": "Windows 7 SP1 Ultimate (32 Bit)",
        "link": "magnet:?xt=urn:btih:07878CDC8D68314276B044A97F13AC3973D6EA6D&dn=Windows+7+SP1+Ultimate+%2832+Bit%29&tr=udp%3A%2F%2Ftracker.coppersurfer.tk%3A6969%2Fannounce&tr=udp%3A%2F%2F9.rarbg.to%3A2920%2Fannounce&tr=udp%3A%2F%2Ftracker.opentrackr.org%3A1337&tr=udp%3A%2F%2Ftracker.internetwarriors.net%3A1337%2Fannounce&tr=udp%3A%2F%2Ftracker.leechers-paradise.org%3A6969%2Fannounce&tr=udp%3A%2F%2Ftracker.coppersurfer.tk%3A6969%2Fannounce&tr=udp%3A%2F%2Ftracker.pirateparty.gr%3A6969%2Fannounce&tr=udp%3A%2F%2Ftracker.cyberia.is%3A6969%2Fannounce",
        "seeder": "172",
        "leecher": "15"
    },
    {
        "rank": "47",
        "title": "KMS_VL_ALL Activator CMD Windows and Office - August 2019",
        "link": "magnet:?xt=urn:btih:6C67694784FF2F67A258FC07D6D850AF9E025499&dn=KMS_VL_ALL+Activator+CMD+Windows+and+Office+-+August+2019&tr=udp%3A%2F%2Ftracker.coppersurfer.tk%3A6969%2Fannounce&tr=udp%3A%2F%2F9.rarbg.to%3A2920%2Fannounce&tr=udp%3A%2F%2Ftracker.opentrackr.org%3A1337&tr=udp%3A%2F%2Ftracker.internetwarriors.net%3A1337%2Fannounce&tr=udp%3A%2F%2Ftracker.leechers-paradise.org%3A6969%2Fannounce&tr=udp%3A%2F%2Ftracker.coppersurfer.tk%3A6969%2Fannounce&tr=udp%3A%2F%2Ftracker.pirateparty.gr%3A6969%2Fannounce&tr=udp%3A%2F%2Ftracker.cyberia.is%3A6969%2Fannounce",
        "seeder": "169",
        "leecher": "0"
    },
    {
        "rank": "48",
        "title": "MS Office 2019 Pro Plus Retail x86 x64  MULTi-22 OCT 2018 {Gen2}",
        "link": "magnet:?xt=urn:btih:01951F4D0CC55FEF375AC0177F68511772F8E0BE&dn=MS+Office+2019+Pro+Plus+Retail+x86+x64++MULTi-22+OCT+2018+%7BGen2%7D&tr=udp%3A%2F%2Ftracker.coppersurfer.tk%3A6969%2Fannounce&tr=udp%3A%2F%2F9.rarbg.to%3A2920%2Fannounce&tr=udp%3A%2F%2Ftracker.opentrackr.org%3A1337&tr=udp%3A%2F%2Ftracker.internetwarriors.net%3A1337%2Fannounce&tr=udp%3A%2F%2Ftracker.leechers-paradise.org%3A6969%2Fannounce&tr=udp%3A%2F%2Ftracker.coppersurfer.tk%3A6969%2Fannounce&tr=udp%3A%2F%2Ftracker.pirateparty.gr%3A6969%2Fannounce&tr=udp%3A%2F%2Ftracker.cyberia.is%3A6969%2Fannounce",
        "seeder": "168",
        "leecher": "46"
    },
    {
        "rank": "49",
        "title": "Foxit Advanced PDF Editor v3.0.5 Incl Crack [TorDigger]",
        "link": "magnet:?xt=urn:btih:F9A25E056F13103CCC813EDD2F1027FF9506D730&dn=Foxit+Advanced+PDF+Editor+v3.0.5+Incl+Crack+%5BTorDigger%5D&tr=udp%3A%2F%2Ftracker.coppersurfer.tk%3A6969%2Fannounce&tr=udp%3A%2F%2F9.rarbg.to%3A2920%2Fannounce&tr=udp%3A%2F%2Ftracker.opentrackr.org%3A1337&tr=udp%3A%2F%2Ftracker.internetwarriors.net%3A1337%2Fannounce&tr=udp%3A%2F%2Ftracker.leechers-paradise.org%3A6969%2Fannounce&tr=udp%3A%2F%2Ftracker.coppersurfer.tk%3A6969%2Fannounce&tr=udp%3A%2F%2Ftracker.pirateparty.gr%3A6969%2Fannounce&tr=udp%3A%2F%2Ftracker.cyberia.is%3A6969%2Fannounce",
        "seeder": "168",
        "leecher": "1"
    },
    {
        "rank": "50",
        "title": "Wondershare Filmora 10.0.0.91 (Repack & Portable) {B4tman}",
        "link": "magnet:?xt=urn:btih:66C15502809F68D419794B2495B6F66A85CF35F2&dn=Wondershare+Filmora+10.0.0.91+%28Repack+%26amp%3B+Portable%29+%7BB4tman%7D&tr=udp%3A%2F%2Ftracker.coppersurfer.tk%3A6969%2Fannounce&tr=udp%3A%2F%2F9.rarbg.to%3A2920%2Fannounce&tr=udp%3A%2F%2Ftracker.opentrackr.org%3A1337&tr=udp%3A%2F%2Ftracker.internetwarriors.net%3A1337%2Fannounce&tr=udp%3A%2F%2Ftracker.leechers-paradise.org%3A6969%2Fannounce&tr=udp%3A%2F%2Ftracker.coppersurfer.tk%3A6969%2Fannounce&tr=udp%3A%2F%2Ftracker.pirateparty.gr%3A6969%2Fannounce&tr=udp%3A%2F%2Ftracker.cyberia.is%3A6969%2Fannounce",
        "seeder": "167",
        "leecher": "1"
    },
    {
        "rank": "51",
        "title": "NITRO PRO PDF 10.5.1.17 incl. serial-DeGun Pirates-forum.org",
        "link": "magnet:?xt=urn:btih:9A7F2ADE072C7A753150E58AE291CBDBBBD97A2F&dn=NITRO+PRO+PDF+10.5.1.17+incl.+serial-DeGun+Pirates-forum.org&tr=udp%3A%2F%2Ftracker.coppersurfer.tk%3A6969%2Fannounce&tr=udp%3A%2F%2F9.rarbg.to%3A2920%2Fannounce&tr=udp%3A%2F%2Ftracker.opentrackr.org%3A1337&tr=udp%3A%2F%2Ftracker.internetwarriors.net%3A1337%2Fannounce&tr=udp%3A%2F%2Ftracker.leechers-paradise.org%3A6969%2Fannounce&tr=udp%3A%2F%2Ftracker.coppersurfer.tk%3A6969%2Fannounce&tr=udp%3A%2F%2Ftracker.pirateparty.gr%3A6969%2Fannounce&tr=udp%3A%2F%2Ftracker.cyberia.is%3A6969%2Fannounce",
        "seeder": "166",
        "leecher": "3"
    },
    {
        "rank": "52",
        "title": "Adobe Photoshop Portable CS6 13.1 (x32/x64) Multi",
        "link": "magnet:?xt=urn:btih:559070BE4BC32592E06C69F6A6F8F4DCCF7A4546&dn=Adobe+Photoshop+Portable+CS6+13.1+%28x32%2Fx64%29+Multi&tr=udp%3A%2F%2Ftracker.coppersurfer.tk%3A6969%2Fannounce&tr=udp%3A%2F%2F9.rarbg.to%3A2920%2Fannounce&tr=udp%3A%2F%2Ftracker.opentrackr.org%3A1337&tr=udp%3A%2F%2Ftracker.internetwarriors.net%3A1337%2Fannounce&tr=udp%3A%2F%2Ftracker.leechers-paradise.org%3A6969%2Fannounce&tr=udp%3A%2F%2Ftracker.coppersurfer.tk%3A6969%2Fannounce&tr=udp%3A%2F%2Ftracker.pirateparty.gr%3A6969%2Fannounce&tr=udp%3A%2F%2Ftracker.cyberia.is%3A6969%2Fannounce",
        "seeder": "162",
        "leecher": "10"
    },
    {
        "rank": "53",
        "title": "4K Video Downloader 4.14.0.4010 (Repack & Portable) {B4tman}",
        "link": "magnet:?xt=urn:btih:B74762519194ABA4FEA80723939E54F67A1BCD36&dn=4K+Video+Downloader+4.14.0.4010+%28Repack+%26amp%3B+Portable%29+%7BB4tman%7D&tr=udp%3A%2F%2Ftracker.coppersurfer.tk%3A6969%2Fannounce&tr=udp%3A%2F%2F9.rarbg.to%3A2920%2Fannounce&tr=udp%3A%2F%2Ftracker.opentrackr.org%3A1337&tr=udp%3A%2F%2Ftracker.internetwarriors.net%3A1337%2Fannounce&tr=udp%3A%2F%2Ftracker.leechers-paradise.org%3A6969%2Fannounce&tr=udp%3A%2F%2Ftracker.coppersurfer.tk%3A6969%2Fannounce&tr=udp%3A%2F%2Ftracker.pirateparty.gr%3A6969%2Fannounce&tr=udp%3A%2F%2Ftracker.cyberia.is%3A6969%2Fannounce",
        "seeder": "160",
        "leecher": "5"
    },
    {
        "rank": "54",
        "title": "Microsoft Office 2016 Pro Plus VL x64 MULTi-22 FEB 2020 {Gen2}",
        "link": "magnet:?xt=urn:btih:F1508E72F191B1DADCAC0B552EE02CAFC04145FE&dn=Microsoft+Office+2016+Pro+Plus+VL+x64+MULTi-22+FEB+2020+%7BGen2%7D&tr=udp%3A%2F%2Ftracker.coppersurfer.tk%3A6969%2Fannounce&tr=udp%3A%2F%2F9.rarbg.to%3A2920%2Fannounce&tr=udp%3A%2F%2Ftracker.opentrackr.org%3A1337&tr=udp%3A%2F%2Ftracker.internetwarriors.net%3A1337%2Fannounce&tr=udp%3A%2F%2Ftracker.leechers-paradise.org%3A6969%2Fannounce&tr=udp%3A%2F%2Ftracker.coppersurfer.tk%3A6969%2Fannounce&tr=udp%3A%2F%2Ftracker.pirateparty.gr%3A6969%2Fannounce&tr=udp%3A%2F%2Ftracker.cyberia.is%3A6969%2Fannounce",
        "seeder": "158",
        "leecher": "37"
    },
    {
        "rank": "55",
        "title": "CorelDRAW Graphics Suite 2020 v22.1.0.517 (x86) Multilanguage",
        "link": "magnet:?xt=urn:btih:9B61E1223425F8C1404712B6B2CCD2E95C59F3B0&dn=CorelDRAW+Graphics+Suite+2020+v22.1.0.517+%28x86%29+Multilanguage&tr=udp%3A%2F%2Ftracker.coppersurfer.tk%3A6969%2Fannounce&tr=udp%3A%2F%2F9.rarbg.to%3A2920%2Fannounce&tr=udp%3A%2F%2Ftracker.opentrackr.org%3A1337&tr=udp%3A%2F%2Ftracker.internetwarriors.net%3A1337%2Fannounce&tr=udp%3A%2F%2Ftracker.leechers-paradise.org%3A6969%2Fannounce&tr=udp%3A%2F%2Ftracker.coppersurfer.tk%3A6969%2Fannounce&tr=udp%3A%2F%2Ftracker.pirateparty.gr%3A6969%2Fannounce&tr=udp%3A%2F%2Ftracker.cyberia.is%3A6969%2Fannounce",
        "seeder": "156",
        "leecher": "2"
    },
    {
        "rank": "56",
        "title": "AUTODATA 3.45 + Crack FULL [TechTools]",
        "link": "magnet:?xt=urn:btih:CCA3A2C2C3B9D373C3230F916E4F59AC029444B2&dn=AUTODATA+3.45+%2B+Crack+FULL+%5BTechTools%5D&tr=udp%3A%2F%2Ftracker.coppersurfer.tk%3A6969%2Fannounce&tr=udp%3A%2F%2F9.rarbg.to%3A2920%2Fannounce&tr=udp%3A%2F%2Ftracker.opentrackr.org%3A1337&tr=udp%3A%2F%2Ftracker.internetwarriors.net%3A1337%2Fannounce&tr=udp%3A%2F%2Ftracker.leechers-paradise.org%3A6969%2Fannounce&tr=udp%3A%2F%2Ftracker.coppersurfer.tk%3A6969%2Fannounce&tr=udp%3A%2F%2Ftracker.pirateparty.gr%3A6969%2Fannounce&tr=udp%3A%2F%2Ftracker.cyberia.is%3A6969%2Fannounce",
        "seeder": "156",
        "leecher": "4"
    },
    {
        "rank": "57",
        "title": "Windows 7 SP1 Ultimate (64 Bit)",
        "link": "magnet:?xt=urn:btih:7EF0145BC19F53251DF9FF7E11A795E9E088B65C&dn=Windows+7+SP1+Ultimate+%2864+Bit%29&tr=udp%3A%2F%2Ftracker.coppersurfer.tk%3A6969%2Fannounce&tr=udp%3A%2F%2F9.rarbg.to%3A2920%2Fannounce&tr=udp%3A%2F%2Ftracker.opentrackr.org%3A1337&tr=udp%3A%2F%2Ftracker.internetwarriors.net%3A1337%2Fannounce&tr=udp%3A%2F%2Ftracker.leechers-paradise.org%3A6969%2Fannounce&tr=udp%3A%2F%2Ftracker.coppersurfer.tk%3A6969%2Fannounce&tr=udp%3A%2F%2Ftracker.pirateparty.gr%3A6969%2Fannounce&tr=udp%3A%2F%2Ftracker.cyberia.is%3A6969%2Fannounce",
        "seeder": "156",
        "leecher": "5"
    },
    {
        "rank": "58",
        "title": "Adobe Photoshop Lightroom CC 2015 6.1 + Crack",
        "link": "magnet:?xt=urn:btih:A5FD7C9CCE5E39C6053E1BF02CCAF5288461C81C&dn=Adobe+Photoshop+Lightroom+CC+2015+6.1+%2B+Crack&tr=udp%3A%2F%2Ftracker.coppersurfer.tk%3A6969%2Fannounce&tr=udp%3A%2F%2F9.rarbg.to%3A2920%2Fannounce&tr=udp%3A%2F%2Ftracker.opentrackr.org%3A1337&tr=udp%3A%2F%2Ftracker.internetwarriors.net%3A1337%2Fannounce&tr=udp%3A%2F%2Ftracker.leechers-paradise.org%3A6969%2Fannounce&tr=udp%3A%2F%2Ftracker.coppersurfer.tk%3A6969%2Fannounce&tr=udp%3A%2F%2Ftracker.pirateparty.gr%3A6969%2Fannounce&tr=udp%3A%2F%2Ftracker.cyberia.is%3A6969%2Fannounce",
        "seeder": "155",
        "leecher": "3"
    },
    {
        "rank": "59",
        "title": "Microsoft Office Pro Plus 2013 (32bit + 64bit)",
        "link": "magnet:?xt=urn:btih:6F051C2041AEE3A4BBA2515B61553FF16EA4ACA1&dn=Microsoft+Office+Pro+Plus+2013+%2832bit+%2B+64bit%29&tr=udp%3A%2F%2Ftracker.coppersurfer.tk%3A6969%2Fannounce&tr=udp%3A%2F%2F9.rarbg.to%3A2920%2Fannounce&tr=udp%3A%2F%2Ftracker.opentrackr.org%3A1337&tr=udp%3A%2F%2Ftracker.internetwarriors.net%3A1337%2Fannounce&tr=udp%3A%2F%2Ftracker.leechers-paradise.org%3A6969%2Fannounce&tr=udp%3A%2F%2Ftracker.coppersurfer.tk%3A6969%2Fannounce&tr=udp%3A%2F%2Ftracker.pirateparty.gr%3A6969%2Fannounce&tr=udp%3A%2F%2Ftracker.cyberia.is%3A6969%2Fannounce",
        "seeder": "155",
        "leecher": "21"
    },
    {
        "rank": "60",
        "title": "Wondershare UniConverter 11.7.2.6 {B4tman}",
        "link": "magnet:?xt=urn:btih:997299020ABB8CA707451DC1ADA7A9F105BC7F31&dn=Wondershare+UniConverter+11.7.2.6+%7BB4tman%7D&tr=udp%3A%2F%2Ftracker.coppersurfer.tk%3A6969%2Fannounce&tr=udp%3A%2F%2F9.rarbg.to%3A2920%2Fannounce&tr=udp%3A%2F%2Ftracker.opentrackr.org%3A1337&tr=udp%3A%2F%2Ftracker.internetwarriors.net%3A1337%2Fannounce&tr=udp%3A%2F%2Ftracker.leechers-paradise.org%3A6969%2Fannounce&tr=udp%3A%2F%2Ftracker.coppersurfer.tk%3A6969%2Fannounce&tr=udp%3A%2F%2Ftracker.pirateparty.gr%3A6969%2Fannounce&tr=udp%3A%2F%2Ftracker.cyberia.is%3A6969%2Fannounce",
        "seeder": "154",
        "leecher": "4"
    },
    {
        "rank": "61",
        "title": "Adobe After Effects CC 2015 v13.5 + Crack",
        "link": "magnet:?xt=urn:btih:833D62ACDD363BCEA3F2FAFEB56ADBFDA56B7959&dn=Adobe+After+Effects+CC+2015+v13.5+%2B+Crack&tr=udp%3A%2F%2Ftracker.coppersurfer.tk%3A6969%2Fannounce&tr=udp%3A%2F%2F9.rarbg.to%3A2920%2Fannounce&tr=udp%3A%2F%2Ftracker.opentrackr.org%3A1337&tr=udp%3A%2F%2Ftracker.internetwarriors.net%3A1337%2Fannounce&tr=udp%3A%2F%2Ftracker.leechers-paradise.org%3A6969%2Fannounce&tr=udp%3A%2F%2Ftracker.coppersurfer.tk%3A6969%2Fannounce&tr=udp%3A%2F%2Ftracker.pirateparty.gr%3A6969%2Fannounce&tr=udp%3A%2F%2Ftracker.cyberia.is%3A6969%2Fannounce",
        "seeder": "151",
        "leecher": "6"
    },
    {
        "rank": "62",
        "title": "Waves All Plugins Bundle v9 r15 Windows (Fixed crack R2R) [Ching",
        "link": "magnet:?xt=urn:btih:4C69B9EA69B00A44F9C4F2197F0EBE589F78E399&dn=Waves+All+Plugins+Bundle+v9+r15+Windows+%28Fixed+crack+R2R%29+%5BChing&tr=udp%3A%2F%2Ftracker.coppersurfer.tk%3A6969%2Fannounce&tr=udp%3A%2F%2F9.rarbg.to%3A2920%2Fannounce&tr=udp%3A%2F%2Ftracker.opentrackr.org%3A1337&tr=udp%3A%2F%2Ftracker.internetwarriors.net%3A1337%2Fannounce&tr=udp%3A%2F%2Ftracker.leechers-paradise.org%3A6969%2Fannounce&tr=udp%3A%2F%2Ftracker.coppersurfer.tk%3A6969%2Fannounce&tr=udp%3A%2F%2Ftracker.pirateparty.gr%3A6969%2Fannounce&tr=udp%3A%2F%2Ftracker.cyberia.is%3A6969%2Fannounce",
        "seeder": "145",
        "leecher": "1"
    },
    {
        "rank": "63",
        "title": "Windows 10 X64 20H2 Pro 3in1 OEM ESD pt-BR JAN 2021 {Gen2}",
        "link": "magnet:?xt=urn:btih:9B4389E6F3E8B0753F054A0A605A99A185A8DA36&dn=Windows+10+X64+20H2+Pro+3in1+OEM+ESD+pt-BR+JAN+2021+%7BGen2%7D&tr=udp%3A%2F%2Ftracker.coppersurfer.tk%3A6969%2Fannounce&tr=udp%3A%2F%2F9.rarbg.to%3A2920%2Fannounce&tr=udp%3A%2F%2Ftracker.opentrackr.org%3A1337&tr=udp%3A%2F%2Ftracker.internetwarriors.net%3A1337%2Fannounce&tr=udp%3A%2F%2Ftracker.leechers-paradise.org%3A6969%2Fannounce&tr=udp%3A%2F%2Ftracker.coppersurfer.tk%3A6969%2Fannounce&tr=udp%3A%2F%2Ftracker.pirateparty.gr%3A6969%2Fannounce&tr=udp%3A%2F%2Ftracker.cyberia.is%3A6969%2Fannounce",
        "seeder": "144",
        "leecher": "7"
    },
    {
        "rank": "64",
        "title": "Descargar Assassin\u2019s Creed Odyssey Gold Edition - Rjaa",
        "link": "magnet:?xt=urn:btih:FDE3A2F3F81089C713BFF82F24A198D700B3BDEC&dn=Descargar+Assassin%26rsquo%3Bs+Creed+Odyssey+Gold+Edition+-+Rjaa&tr=udp%3A%2F%2Ftracker.coppersurfer.tk%3A6969%2Fannounce&tr=udp%3A%2F%2F9.rarbg.to%3A2920%2Fannounce&tr=udp%3A%2F%2Ftracker.opentrackr.org%3A1337&tr=udp%3A%2F%2Ftracker.internetwarriors.net%3A1337%2Fannounce&tr=udp%3A%2F%2Ftracker.leechers-paradise.org%3A6969%2Fannounce&tr=udp%3A%2F%2Ftracker.coppersurfer.tk%3A6969%2Fannounce&tr=udp%3A%2F%2Ftracker.pirateparty.gr%3A6969%2Fannounce&tr=udp%3A%2F%2Ftracker.cyberia.is%3A6969%2Fannounce",
        "seeder": "141",
        "leecher": "18"
    },
    {
        "rank": "65",
        "title": "Adobe Reader XI 11.0.10 {Latest Version} {PDF Reader} [UJ]",
        "link": "magnet:?xt=urn:btih:0F968744E90C3A3365650A95D7A0B1AF5CB671F8&dn=Adobe+Reader+XI+11.0.10+%7BLatest+Version%7D+%7BPDF+Reader%7D+%5BUJ%5D&tr=udp%3A%2F%2Ftracker.coppersurfer.tk%3A6969%2Fannounce&tr=udp%3A%2F%2F9.rarbg.to%3A2920%2Fannounce&tr=udp%3A%2F%2Ftracker.opentrackr.org%3A1337&tr=udp%3A%2F%2Ftracker.internetwarriors.net%3A1337%2Fannounce&tr=udp%3A%2F%2Ftracker.leechers-paradise.org%3A6969%2Fannounce&tr=udp%3A%2F%2Ftracker.coppersurfer.tk%3A6969%2Fannounce&tr=udp%3A%2F%2Ftracker.pirateparty.gr%3A6969%2Fannounce&tr=udp%3A%2F%2Ftracker.cyberia.is%3A6969%2Fannounce",
        "seeder": "141",
        "leecher": "0"
    },
    {
        "rank": "66",
        "title": "Microsoft Office 2019 Pro Plus Retail MULTi-25 NOV 2020 {Gen2}",
        "link": "magnet:?xt=urn:btih:96CF99E10FC76A9925E9E4CE4E98D4BBB3D0FB06&dn=Microsoft+Office+2019+Pro+Plus+Retail+MULTi-25+NOV+2020+%7BGen2%7D&tr=udp%3A%2F%2Ftracker.coppersurfer.tk%3A6969%2Fannounce&tr=udp%3A%2F%2F9.rarbg.to%3A2920%2Fannounce&tr=udp%3A%2F%2Ftracker.opentrackr.org%3A1337&tr=udp%3A%2F%2Ftracker.internetwarriors.net%3A1337%2Fannounce&tr=udp%3A%2F%2Ftracker.leechers-paradise.org%3A6969%2Fannounce&tr=udp%3A%2F%2Ftracker.coppersurfer.tk%3A6969%2Fannounce&tr=udp%3A%2F%2Ftracker.pirateparty.gr%3A6969%2Fannounce&tr=udp%3A%2F%2Ftracker.cyberia.is%3A6969%2Fannounce",
        "seeder": "140",
        "leecher": "63"
    },
    {
        "rank": "67",
        "title": "Ableton live Suite v9.5 WiN x86 x64-d33p57a7u5",
        "link": "magnet:?xt=urn:btih:A90AD74E05E70157B539284D7072BD2EDA086388&dn=Ableton+live+Suite+v9.5+WiN+x86+x64-d33p57a7u5&tr=udp%3A%2F%2Ftracker.coppersurfer.tk%3A6969%2Fannounce&tr=udp%3A%2F%2F9.rarbg.to%3A2920%2Fannounce&tr=udp%3A%2F%2Ftracker.opentrackr.org%3A1337&tr=udp%3A%2F%2Ftracker.internetwarriors.net%3A1337%2Fannounce&tr=udp%3A%2F%2Ftracker.leechers-paradise.org%3A6969%2Fannounce&tr=udp%3A%2F%2Ftracker.coppersurfer.tk%3A6969%2Fannounce&tr=udp%3A%2F%2Ftracker.pirateparty.gr%3A6969%2Fannounce&tr=udp%3A%2F%2Ftracker.cyberia.is%3A6969%2Fannounce",
        "seeder": "139",
        "leecher": "3"
    },
    {
        "rank": "68",
        "title": "BS Player Pro 2.74 Build 1085 + Keys {B4tman}",
        "link": "magnet:?xt=urn:btih:3107C7190AAE624D5CB4F73CC46531B078D7CDE8&dn=BS+Player+Pro+2.74+Build+1085+%2B+Keys+%7BB4tman%7D&tr=udp%3A%2F%2Ftracker.coppersurfer.tk%3A6969%2Fannounce&tr=udp%3A%2F%2F9.rarbg.to%3A2920%2Fannounce&tr=udp%3A%2F%2Ftracker.opentrackr.org%3A1337&tr=udp%3A%2F%2Ftracker.internetwarriors.net%3A1337%2Fannounce&tr=udp%3A%2F%2Ftracker.leechers-paradise.org%3A6969%2Fannounce&tr=udp%3A%2F%2Ftracker.coppersurfer.tk%3A6969%2Fannounce&tr=udp%3A%2F%2Ftracker.pirateparty.gr%3A6969%2Fannounce&tr=udp%3A%2F%2Ftracker.cyberia.is%3A6969%2Fannounce",
        "seeder": "138",
        "leecher": "2"
    },
    {
        "rank": "69",
        "title": "Adobe Illustrator 2021 v25.0.1.66 (x64) Patched - [haxNode]",
        "link": "magnet:?xt=urn:btih:3A8677D22E8D49CF22CF47A421B31BAFD19A5AE1&dn=Adobe+Illustrator+2021+v25.0.1.66+%28x64%29+Patched+-+%5BhaxNode%5D&tr=udp%3A%2F%2Ftracker.coppersurfer.tk%3A6969%2Fannounce&tr=udp%3A%2F%2F9.rarbg.to%3A2920%2Fannounce&tr=udp%3A%2F%2Ftracker.opentrackr.org%3A1337&tr=udp%3A%2F%2Ftracker.internetwarriors.net%3A1337%2Fannounce&tr=udp%3A%2F%2Ftracker.leechers-paradise.org%3A6969%2Fannounce&tr=udp%3A%2F%2Ftracker.coppersurfer.tk%3A6969%2Fannounce&tr=udp%3A%2F%2Ftracker.pirateparty.gr%3A6969%2Fannounce&tr=udp%3A%2F%2Ftracker.cyberia.is%3A6969%2Fannounce",
        "seeder": "135",
        "leecher": "7"
    },
    {
        "rank": "70",
        "title": "Adobe Photoshop 2021 v22.0.0.35 (x64) Final Patched - [haxNode]",
        "link": "magnet:?xt=urn:btih:057CB6F4080F8A39333AD0DE34D8CBBB44F8A39D&dn=Adobe+Photoshop+2021+v22.0.0.35+%28x64%29+Final+Patched+-+%5BhaxNode%5D&tr=udp%3A%2F%2Ftracker.coppersurfer.tk%3A6969%2Fannounce&tr=udp%3A%2F%2F9.rarbg.to%3A2920%2Fannounce&tr=udp%3A%2F%2Ftracker.opentrackr.org%3A1337&tr=udp%3A%2F%2Ftracker.internetwarriors.net%3A1337%2Fannounce&tr=udp%3A%2F%2Ftracker.leechers-paradise.org%3A6969%2Fannounce&tr=udp%3A%2F%2Ftracker.coppersurfer.tk%3A6969%2Fannounce&tr=udp%3A%2F%2Ftracker.pirateparty.gr%3A6969%2Fannounce&tr=udp%3A%2F%2Ftracker.cyberia.is%3A6969%2Fannounce",
        "seeder": "135",
        "leecher": "4"
    },
    {
        "rank": "71",
        "title": "Pixologic ZBrush 2021 Final + Crack - [haxNode]",
        "link": "magnet:?xt=urn:btih:D77D90DF486FE0F83EFC218A2EAD912707FD98A6&dn=Pixologic+ZBrush+2021+Final+%2B+Crack+-+%5BhaxNode%5D&tr=udp%3A%2F%2Ftracker.coppersurfer.tk%3A6969%2Fannounce&tr=udp%3A%2F%2F9.rarbg.to%3A2920%2Fannounce&tr=udp%3A%2F%2Ftracker.opentrackr.org%3A1337&tr=udp%3A%2F%2Ftracker.internetwarriors.net%3A1337%2Fannounce&tr=udp%3A%2F%2Ftracker.leechers-paradise.org%3A6969%2Fannounce&tr=udp%3A%2F%2Ftracker.coppersurfer.tk%3A6969%2Fannounce&tr=udp%3A%2F%2Ftracker.pirateparty.gr%3A6969%2Fannounce&tr=udp%3A%2F%2Ftracker.cyberia.is%3A6969%2Fannounce",
        "seeder": "131",
        "leecher": "1"
    },
    {
        "rank": "72",
        "title": "IDM 6.38 build 16 incl Patch [32bit + 64bit][CrackingPatching]",
        "link": "magnet:?xt=urn:btih:4618590ADAA202A93507BDA980D8382EBAA2F33A&dn=IDM+6.38+build+16+incl+Patch+%5B32bit+%2B+64bit%5D%5BCrackingPatching%5D&tr=udp%3A%2F%2Ftracker.coppersurfer.tk%3A6969%2Fannounce&tr=udp%3A%2F%2F9.rarbg.to%3A2920%2Fannounce&tr=udp%3A%2F%2Ftracker.opentrackr.org%3A1337&tr=udp%3A%2F%2Ftracker.internetwarriors.net%3A1337%2Fannounce&tr=udp%3A%2F%2Ftracker.leechers-paradise.org%3A6969%2Fannounce&tr=udp%3A%2F%2Ftracker.coppersurfer.tk%3A6969%2Fannounce&tr=udp%3A%2F%2Ftracker.pirateparty.gr%3A6969%2Fannounce&tr=udp%3A%2F%2Ftracker.cyberia.is%3A6969%2Fannounce",
        "seeder": "130",
        "leecher": "0"
    },
    {
        "rank": "73",
        "title": "IObit Driver Booster Pro 8.0.2.189 (Repack + Portable) {B4tman}",
        "link": "magnet:?xt=urn:btih:F3D9AC06A537F31393937D63AEEE986BC4375D81&dn=IObit+Driver+Booster+Pro+8.0.2.189+%28Repack+%2B+Portable%29+%7BB4tman%7D&tr=udp%3A%2F%2Ftracker.coppersurfer.tk%3A6969%2Fannounce&tr=udp%3A%2F%2F9.rarbg.to%3A2920%2Fannounce&tr=udp%3A%2F%2Ftracker.opentrackr.org%3A1337&tr=udp%3A%2F%2Ftracker.internetwarriors.net%3A1337%2Fannounce&tr=udp%3A%2F%2Ftracker.leechers-paradise.org%3A6969%2Fannounce&tr=udp%3A%2F%2Ftracker.coppersurfer.tk%3A6969%2Fannounce&tr=udp%3A%2F%2Ftracker.pirateparty.gr%3A6969%2Fannounce&tr=udp%3A%2F%2Ftracker.cyberia.is%3A6969%2Fannounce",
        "seeder": "129",
        "leecher": "3"
    },
    {
        "rank": "74",
        "title": "Wondershare PDFelement (PDF Editor) 7.6.2.4929 {B4tman}",
        "link": "magnet:?xt=urn:btih:BAAEBEC1AD437CCEC25A70B1CBA8B029782A89E0&dn=Wondershare+PDFelement+%28PDF+Editor%29+7.6.2.4929+%7BB4tman%7D&tr=udp%3A%2F%2Ftracker.coppersurfer.tk%3A6969%2Fannounce&tr=udp%3A%2F%2F9.rarbg.to%3A2920%2Fannounce&tr=udp%3A%2F%2Ftracker.opentrackr.org%3A1337&tr=udp%3A%2F%2Ftracker.internetwarriors.net%3A1337%2Fannounce&tr=udp%3A%2F%2Ftracker.leechers-paradise.org%3A6969%2Fannounce&tr=udp%3A%2F%2Ftracker.coppersurfer.tk%3A6969%2Fannounce&tr=udp%3A%2F%2Ftracker.pirateparty.gr%3A6969%2Fannounce&tr=udp%3A%2F%2Ftracker.cyberia.is%3A6969%2Fannounce",
        "seeder": "129",
        "leecher": "3"
    },
    {
        "rank": "75",
        "title": "Microsoft Project 2016 x64 Pro VL Multi-17 Apr 2016 {Gen2}",
        "link": "magnet:?xt=urn:btih:F2C078437C86E5CB341D44E72CA6A733FFDA400F&dn=Microsoft+Project+2016+x64+Pro+VL+Multi-17+Apr+2016+%7BGen2%7D&tr=udp%3A%2F%2Ftracker.coppersurfer.tk%3A6969%2Fannounce&tr=udp%3A%2F%2F9.rarbg.to%3A2920%2Fannounce&tr=udp%3A%2F%2Ftracker.opentrackr.org%3A1337&tr=udp%3A%2F%2Ftracker.internetwarriors.net%3A1337%2Fannounce&tr=udp%3A%2F%2Ftracker.leechers-paradise.org%3A6969%2Fannounce&tr=udp%3A%2F%2Ftracker.coppersurfer.tk%3A6969%2Fannounce&tr=udp%3A%2F%2Ftracker.pirateparty.gr%3A6969%2Fannounce&tr=udp%3A%2F%2Ftracker.cyberia.is%3A6969%2Fannounce",
        "seeder": "126",
        "leecher": "21"
    },
    {
        "rank": "76",
        "title": "Atomix Virtual DJ Pro 8.0.2048 Incl. Crack [TechTools]",
        "link": "magnet:?xt=urn:btih:AB8E370ABBEB5058ECBFC52DB950494C3CB76324&dn=Atomix+Virtual+DJ+Pro+8.0.2048+Incl.+Crack+%5BTechTools%5D&tr=udp%3A%2F%2Ftracker.coppersurfer.tk%3A6969%2Fannounce&tr=udp%3A%2F%2F9.rarbg.to%3A2920%2Fannounce&tr=udp%3A%2F%2Ftracker.opentrackr.org%3A1337&tr=udp%3A%2F%2Ftracker.internetwarriors.net%3A1337%2Fannounce&tr=udp%3A%2F%2Ftracker.leechers-paradise.org%3A6969%2Fannounce&tr=udp%3A%2F%2Ftracker.coppersurfer.tk%3A6969%2Fannounce&tr=udp%3A%2F%2Ftracker.pirateparty.gr%3A6969%2Fannounce&tr=udp%3A%2F%2Ftracker.cyberia.is%3A6969%2Fannounce",
        "seeder": "122",
        "leecher": "0"
    },
    {
        "rank": "77",
        "title": "Windows 7 SP1 Ultimate X64 incl Office16 pt-BR FEB 2021 {Gen2}",
        "link": "magnet:?xt=urn:btih:D6332C605854703A8589405A376B4217594F6E26&dn=Windows+7+SP1+Ultimate+X64+incl+Office16+pt-BR+FEB+2021+%7BGen2%7D&tr=udp%3A%2F%2Ftracker.coppersurfer.tk%3A6969%2Fannounce&tr=udp%3A%2F%2F9.rarbg.to%3A2920%2Fannounce&tr=udp%3A%2F%2Ftracker.opentrackr.org%3A1337&tr=udp%3A%2F%2Ftracker.internetwarriors.net%3A1337%2Fannounce&tr=udp%3A%2F%2Ftracker.leechers-paradise.org%3A6969%2Fannounce&tr=udp%3A%2F%2Ftracker.coppersurfer.tk%3A6969%2Fannounce&tr=udp%3A%2F%2Ftracker.pirateparty.gr%3A6969%2Fannounce&tr=udp%3A%2F%2Ftracker.cyberia.is%3A6969%2Fannounce",
        "seeder": "121",
        "leecher": "8"
    },
    {
        "rank": "78",
        "title": "Windows 10 Pro X64 incl Office 2019 pt-BR MAY 2020 {Gen2}",
        "link": "magnet:?xt=urn:btih:9DEB0A94EE0461D719D0B5F49AA2D5642F858521&dn=Windows+10+Pro+X64+incl+Office+2019+pt-BR+MAY+2020+%7BGen2%7D&tr=udp%3A%2F%2Ftracker.coppersurfer.tk%3A6969%2Fannounce&tr=udp%3A%2F%2F9.rarbg.to%3A2920%2Fannounce&tr=udp%3A%2F%2Ftracker.opentrackr.org%3A1337&tr=udp%3A%2F%2Ftracker.internetwarriors.net%3A1337%2Fannounce&tr=udp%3A%2F%2Ftracker.leechers-paradise.org%3A6969%2Fannounce&tr=udp%3A%2F%2Ftracker.coppersurfer.tk%3A6969%2Fannounce&tr=udp%3A%2F%2Ftracker.pirateparty.gr%3A6969%2Fannounce&tr=udp%3A%2F%2Ftracker.cyberia.is%3A6969%2Fannounce",
        "seeder": "121",
        "leecher": "2"
    },
    {
        "rank": "79",
        "title": "Native Instruments Guitar Rig 5 Pro v5.1.1 UNLOCKED - R2R [deeps",
        "link": "magnet:?xt=urn:btih:2C23A7A387706BFC2ACB130FB74E2FCAFDF6652C&dn=Native+Instruments+Guitar+Rig+5+Pro+v5.1.1+UNLOCKED+-+R2R+%5Bdeeps&tr=udp%3A%2F%2Ftracker.coppersurfer.tk%3A6969%2Fannounce&tr=udp%3A%2F%2F9.rarbg.to%3A2920%2Fannounce&tr=udp%3A%2F%2Ftracker.opentrackr.org%3A1337&tr=udp%3A%2F%2Ftracker.internetwarriors.net%3A1337%2Fannounce&tr=udp%3A%2F%2Ftracker.leechers-paradise.org%3A6969%2Fannounce&tr=udp%3A%2F%2Ftracker.coppersurfer.tk%3A6969%2Fannounce&tr=udp%3A%2F%2Ftracker.pirateparty.gr%3A6969%2Fannounce&tr=udp%3A%2F%2Ftracker.cyberia.is%3A6969%2Fannounce",
        "seeder": "121",
        "leecher": "7"
    },
    {
        "rank": "80",
        "title": "VMware Workstation Pro 16.1.0 Build 117198959 incl keygen [Crack",
        "link": "magnet:?xt=urn:btih:0AC1D083E8D49020544C950F78C9CA55DDB34D05&dn=VMware+Workstation+Pro+16.1.0+Build+117198959+incl+keygen+%5BCrack&tr=udp%3A%2F%2Ftracker.coppersurfer.tk%3A6969%2Fannounce&tr=udp%3A%2F%2F9.rarbg.to%3A2920%2Fannounce&tr=udp%3A%2F%2Ftracker.opentrackr.org%3A1337&tr=udp%3A%2F%2Ftracker.internetwarriors.net%3A1337%2Fannounce&tr=udp%3A%2F%2Ftracker.leechers-paradise.org%3A6969%2Fannounce&tr=udp%3A%2F%2Ftracker.coppersurfer.tk%3A6969%2Fannounce&tr=udp%3A%2F%2Ftracker.pirateparty.gr%3A6969%2Fannounce&tr=udp%3A%2F%2Ftracker.cyberia.is%3A6969%2Fannounce",
        "seeder": "120",
        "leecher": "7"
    },
    {
        "rank": "81",
        "title": "Adobe Photoshop Lightroom Classic 2021 v10.1 (x64) + Crack",
        "link": "magnet:?xt=urn:btih:EC1454B30F8113B9972422AF3A34F6753C4FB446&dn=Adobe+Photoshop+Lightroom+Classic+2021+v10.1+%28x64%29+%2B+Crack&tr=udp%3A%2F%2Ftracker.coppersurfer.tk%3A6969%2Fannounce&tr=udp%3A%2F%2F9.rarbg.to%3A2920%2Fannounce&tr=udp%3A%2F%2Ftracker.opentrackr.org%3A1337&tr=udp%3A%2F%2Ftracker.internetwarriors.net%3A1337%2Fannounce&tr=udp%3A%2F%2Ftracker.leechers-paradise.org%3A6969%2Fannounce&tr=udp%3A%2F%2Ftracker.coppersurfer.tk%3A6969%2Fannounce&tr=udp%3A%2F%2Ftracker.pirateparty.gr%3A6969%2Fannounce&tr=udp%3A%2F%2Ftracker.cyberia.is%3A6969%2Fannounce",
        "seeder": "120",
        "leecher": "6"
    },
    {
        "rank": "82",
        "title": "Adobe Master Collection CC 2020 [November 2019] ~ FileRiver",
        "link": "magnet:?xt=urn:btih:BD874BE66659BD78BE7496305C32CE2DC6A66936&dn=Adobe+Master+Collection+CC+2020+%5BNovember+2019%5D+%7E+FileRiver&tr=udp%3A%2F%2Ftracker.coppersurfer.tk%3A6969%2Fannounce&tr=udp%3A%2F%2F9.rarbg.to%3A2920%2Fannounce&tr=udp%3A%2F%2Ftracker.opentrackr.org%3A1337&tr=udp%3A%2F%2Ftracker.internetwarriors.net%3A1337%2Fannounce&tr=udp%3A%2F%2Ftracker.leechers-paradise.org%3A6969%2Fannounce&tr=udp%3A%2F%2Ftracker.coppersurfer.tk%3A6969%2Fannounce&tr=udp%3A%2F%2Ftracker.pirateparty.gr%3A6969%2Fannounce&tr=udp%3A%2F%2Ftracker.cyberia.is%3A6969%2Fannounce",
        "seeder": "120",
        "leecher": "5"
    },
    {
        "rank": "83",
        "title": "MICROSOFT OFFICE WORD 2007 [thethingy]",
        "link": "magnet:?xt=urn:btih:7A4E3D433A2C8F7A06F549B0491C846A8919DA82&dn=MICROSOFT+OFFICE+WORD+2007+%5Bthethingy%5D&tr=udp%3A%2F%2Ftracker.coppersurfer.tk%3A6969%2Fannounce&tr=udp%3A%2F%2F9.rarbg.to%3A2920%2Fannounce&tr=udp%3A%2F%2Ftracker.opentrackr.org%3A1337&tr=udp%3A%2F%2Ftracker.internetwarriors.net%3A1337%2Fannounce&tr=udp%3A%2F%2Ftracker.leechers-paradise.org%3A6969%2Fannounce&tr=udp%3A%2F%2Ftracker.coppersurfer.tk%3A6969%2Fannounce&tr=udp%3A%2F%2Ftracker.pirateparty.gr%3A6969%2Fannounce&tr=udp%3A%2F%2Ftracker.cyberia.is%3A6969%2Fannounce",
        "seeder": "120",
        "leecher": "1"
    },
    {
        "rank": "84",
        "title": "MICROSOFT OFFICE 2010 ACTIVATOR [thethingy]",
        "link": "magnet:?xt=urn:btih:D5AD2F2D3E170C21CFD54D90800916E3690AB36A&dn=MICROSOFT+OFFICE+2010+ACTIVATOR+%5Bthethingy%5D&tr=udp%3A%2F%2Ftracker.coppersurfer.tk%3A6969%2Fannounce&tr=udp%3A%2F%2F9.rarbg.to%3A2920%2Fannounce&tr=udp%3A%2F%2Ftracker.opentrackr.org%3A1337&tr=udp%3A%2F%2Ftracker.internetwarriors.net%3A1337%2Fannounce&tr=udp%3A%2F%2Ftracker.leechers-paradise.org%3A6969%2Fannounce&tr=udp%3A%2F%2Ftracker.coppersurfer.tk%3A6969%2Fannounce&tr=udp%3A%2F%2Ftracker.pirateparty.gr%3A6969%2Fannounce&tr=udp%3A%2F%2Ftracker.cyberia.is%3A6969%2Fannounce",
        "seeder": "118",
        "leecher": "0"
    },
    {
        "rank": "85",
        "title": "Bandicam 5.0.1.1799 (Repack & Portable) (Activated) {B4tman}",
        "link": "magnet:?xt=urn:btih:4FC7FC60927E3FDA49BA85AAC8E762377D4381AB&dn=Bandicam+5.0.1.1799+%28Repack+%26amp%3B+Portable%29+%28Activated%29+%7BB4tman%7D&tr=udp%3A%2F%2Ftracker.coppersurfer.tk%3A6969%2Fannounce&tr=udp%3A%2F%2F9.rarbg.to%3A2920%2Fannounce&tr=udp%3A%2F%2Ftracker.opentrackr.org%3A1337&tr=udp%3A%2F%2Ftracker.internetwarriors.net%3A1337%2Fannounce&tr=udp%3A%2F%2Ftracker.leechers-paradise.org%3A6969%2Fannounce&tr=udp%3A%2F%2Ftracker.coppersurfer.tk%3A6969%2Fannounce&tr=udp%3A%2F%2Ftracker.pirateparty.gr%3A6969%2Fannounce&tr=udp%3A%2F%2Ftracker.cyberia.is%3A6969%2Fannounce",
        "seeder": "117",
        "leecher": "1"
    },
    {
        "rank": "86",
        "title": "FL Studio v.20.0.3.532 Incl.Patch and Keygen-R2R [deepstatus]",
        "link": "magnet:?xt=urn:btih:249BDAE0401477F84B32790472AE4EE00BBF141A&dn=FL+Studio+v.20.0.3.532+Incl.Patch+and+Keygen-R2R+%5Bdeepstatus%5D&tr=udp%3A%2F%2Ftracker.coppersurfer.tk%3A6969%2Fannounce&tr=udp%3A%2F%2F9.rarbg.to%3A2920%2Fannounce&tr=udp%3A%2F%2Ftracker.opentrackr.org%3A1337&tr=udp%3A%2F%2Ftracker.internetwarriors.net%3A1337%2Fannounce&tr=udp%3A%2F%2Ftracker.leechers-paradise.org%3A6969%2Fannounce&tr=udp%3A%2F%2Ftracker.coppersurfer.tk%3A6969%2Fannounce&tr=udp%3A%2F%2Ftracker.pirateparty.gr%3A6969%2Fannounce&tr=udp%3A%2F%2Ftracker.cyberia.is%3A6969%2Fannounce",
        "seeder": "117",
        "leecher": "1"
    },
    {
        "rank": "87",
        "title": "Windows 7 SP1 X86 X64 AIO 30in1 OEM ESD pt-PT NOV 2019 {Gen2}",
        "link": "magnet:?xt=urn:btih:DD06D0C94EF03038B38F6BB4A032B36D10A6C960&dn=Windows+7+SP1+X86+X64+AIO+30in1+OEM+ESD+pt-PT+NOV+2019+%7BGen2%7D&tr=udp%3A%2F%2Ftracker.coppersurfer.tk%3A6969%2Fannounce&tr=udp%3A%2F%2F9.rarbg.to%3A2920%2Fannounce&tr=udp%3A%2F%2Ftracker.opentrackr.org%3A1337&tr=udp%3A%2F%2Ftracker.internetwarriors.net%3A1337%2Fannounce&tr=udp%3A%2F%2Ftracker.leechers-paradise.org%3A6969%2Fannounce&tr=udp%3A%2F%2Ftracker.coppersurfer.tk%3A6969%2Fannounce&tr=udp%3A%2F%2Ftracker.pirateparty.gr%3A6969%2Fannounce&tr=udp%3A%2F%2Ftracker.cyberia.is%3A6969%2Fannounce",
        "seeder": "116",
        "leecher": "4"
    },
    {
        "rank": "88",
        "title": "Waves Complete v.10.0.1.3 Incl.Patch-V.R [deepstatus]",
        "link": "magnet:?xt=urn:btih:46C6B9D0CF69D0EDBFF079A6B927DE92DF465A45&dn=Waves+Complete+v.10.0.1.3+Incl.Patch-V.R+%5Bdeepstatus%5D&tr=udp%3A%2F%2Ftracker.coppersurfer.tk%3A6969%2Fannounce&tr=udp%3A%2F%2F9.rarbg.to%3A2920%2Fannounce&tr=udp%3A%2F%2Ftracker.opentrackr.org%3A1337&tr=udp%3A%2F%2Ftracker.internetwarriors.net%3A1337%2Fannounce&tr=udp%3A%2F%2Ftracker.leechers-paradise.org%3A6969%2Fannounce&tr=udp%3A%2F%2Ftracker.coppersurfer.tk%3A6969%2Fannounce&tr=udp%3A%2F%2Ftracker.pirateparty.gr%3A6969%2Fannounce&tr=udp%3A%2F%2Ftracker.cyberia.is%3A6969%2Fannounce",
        "seeder": "116",
        "leecher": "1"
    },
    {
        "rank": "89",
        "title": "Driver Easy Pro 5.6.12 + Crack {B4tman}",
        "link": "magnet:?xt=urn:btih:2AC77314296AAC76CF8D17DF050C30CCE2301B0B&dn=Driver+Easy+Pro+5.6.12+%2B+Crack+%7BB4tman%7D&tr=udp%3A%2F%2Ftracker.coppersurfer.tk%3A6969%2Fannounce&tr=udp%3A%2F%2F9.rarbg.to%3A2920%2Fannounce&tr=udp%3A%2F%2Ftracker.opentrackr.org%3A1337&tr=udp%3A%2F%2Ftracker.internetwarriors.net%3A1337%2Fannounce&tr=udp%3A%2F%2Ftracker.leechers-paradise.org%3A6969%2Fannounce&tr=udp%3A%2F%2Ftracker.coppersurfer.tk%3A6969%2Fannounce&tr=udp%3A%2F%2Ftracker.pirateparty.gr%3A6969%2Fannounce&tr=udp%3A%2F%2Ftracker.cyberia.is%3A6969%2Fannounce",
        "seeder": "114",
        "leecher": "1"
    },
    {
        "rank": "90",
        "title": "Windows 10 X64 10in1 2004 OEM ESD pt-BR JUNE 2020 {Gen2}",
        "link": "magnet:?xt=urn:btih:F930AE2B148E37D8D0D29EFFEDF8664EFEBED1EC&dn=Windows+10+X64+10in1+2004+OEM+ESD+pt-BR+JUNE+2020+%7BGen2%7D&tr=udp%3A%2F%2Ftracker.coppersurfer.tk%3A6969%2Fannounce&tr=udp%3A%2F%2F9.rarbg.to%3A2920%2Fannounce&tr=udp%3A%2F%2Ftracker.opentrackr.org%3A1337&tr=udp%3A%2F%2Ftracker.internetwarriors.net%3A1337%2Fannounce&tr=udp%3A%2F%2Ftracker.leechers-paradise.org%3A6969%2Fannounce&tr=udp%3A%2F%2Ftracker.coppersurfer.tk%3A6969%2Fannounce&tr=udp%3A%2F%2Ftracker.pirateparty.gr%3A6969%2Fannounce&tr=udp%3A%2F%2Ftracker.cyberia.is%3A6969%2Fannounce",
        "seeder": "112",
        "leecher": "0"
    },
    {
        "rank": "91",
        "title": "Windows 10 X64 Pro incl Office 2019 en-US MARCH 2021 {Gen2}",
        "link": "magnet:?xt=urn:btih:7FA1A6288680098D1F7C69D34340A021B165403A&dn=Windows+10+X64+Pro+incl+Office+2019+en-US+MARCH+2021+%7BGen2%7D&tr=udp%3A%2F%2Ftracker.coppersurfer.tk%3A6969%2Fannounce&tr=udp%3A%2F%2F9.rarbg.to%3A2920%2Fannounce&tr=udp%3A%2F%2Ftracker.opentrackr.org%3A1337&tr=udp%3A%2F%2Ftracker.internetwarriors.net%3A1337%2Fannounce&tr=udp%3A%2F%2Ftracker.leechers-paradise.org%3A6969%2Fannounce&tr=udp%3A%2F%2Ftracker.coppersurfer.tk%3A6969%2Fannounce&tr=udp%3A%2F%2Ftracker.pirateparty.gr%3A6969%2Fannounce&tr=udp%3A%2F%2Ftracker.cyberia.is%3A6969%2Fannounce",
        "seeder": "111",
        "leecher": "10"
    },
    {
        "rank": "92",
        "title": "Windows 10 Pro 19H2 X64 incl Office 2019 pt-BR NOV 2019 {Gen2}",
        "link": "magnet:?xt=urn:btih:CCB2EA73B8CBDECB31FA0FE94DEF2E74273F5A1E&dn=Windows+10+Pro+19H2+X64+incl+Office+2019+pt-BR+NOV+2019+%7BGen2%7D&tr=udp%3A%2F%2Ftracker.coppersurfer.tk%3A6969%2Fannounce&tr=udp%3A%2F%2F9.rarbg.to%3A2920%2Fannounce&tr=udp%3A%2F%2Ftracker.opentrackr.org%3A1337&tr=udp%3A%2F%2Ftracker.internetwarriors.net%3A1337%2Fannounce&tr=udp%3A%2F%2Ftracker.leechers-paradise.org%3A6969%2Fannounce&tr=udp%3A%2F%2Ftracker.coppersurfer.tk%3A6969%2Fannounce&tr=udp%3A%2F%2Ftracker.pirateparty.gr%3A6969%2Fannounce&tr=udp%3A%2F%2Ftracker.cyberia.is%3A6969%2Fannounce",
        "seeder": "111",
        "leecher": "2"
    },
    {
        "rank": "93",
        "title": "IDM 6.38 build 17 incl Patch [32bit + 64bit][CrackingPatching]",
        "link": "magnet:?xt=urn:btih:06E77463F89ACCCE7919A61B108174C111398D91&dn=IDM+6.38+build+17+incl+Patch+%5B32bit+%2B+64bit%5D%5BCrackingPatching%5D&tr=udp%3A%2F%2Ftracker.coppersurfer.tk%3A6969%2Fannounce&tr=udp%3A%2F%2F9.rarbg.to%3A2920%2Fannounce&tr=udp%3A%2F%2Ftracker.opentrackr.org%3A1337&tr=udp%3A%2F%2Ftracker.internetwarriors.net%3A1337%2Fannounce&tr=udp%3A%2F%2Ftracker.leechers-paradise.org%3A6969%2Fannounce&tr=udp%3A%2F%2Ftracker.coppersurfer.tk%3A6969%2Fannounce&tr=udp%3A%2F%2Ftracker.pirateparty.gr%3A6969%2Fannounce&tr=udp%3A%2F%2Ftracker.cyberia.is%3A6969%2Fannounce",
        "seeder": "106",
        "leecher": "1"
    },
    {
        "rank": "94",
        "title": "EaseUS Partition Master 12.10 Technician Edition + Crack [TT]",
        "link": "magnet:?xt=urn:btih:A599F0FF97ADEA8E46F973075E5F3F82614B61C2&dn=EaseUS+Partition+Master+12.10+Technician+Edition+%2B+Crack+%5BTT%5D&tr=udp%3A%2F%2Ftracker.coppersurfer.tk%3A6969%2Fannounce&tr=udp%3A%2F%2F9.rarbg.to%3A2920%2Fannounce&tr=udp%3A%2F%2Ftracker.opentrackr.org%3A1337&tr=udp%3A%2F%2Ftracker.internetwarriors.net%3A1337%2Fannounce&tr=udp%3A%2F%2Ftracker.leechers-paradise.org%3A6969%2Fannounce&tr=udp%3A%2F%2Ftracker.coppersurfer.tk%3A6969%2Fannounce&tr=udp%3A%2F%2Ftracker.pirateparty.gr%3A6969%2Fannounce&tr=udp%3A%2F%2Ftracker.cyberia.is%3A6969%2Fannounce",
        "seeder": "106",
        "leecher": "2"
    },
    {
        "rank": "95",
        "title": "Adobe Illustrator CS6 16.0.0 (32-64 bit) [ChingLiu]",
        "link": "magnet:?xt=urn:btih:05713C8847D7AA303CBA3A4F8FBB0D95C4DBC2B7&dn=Adobe+Illustrator+CS6+16.0.0+%2832-64+bit%29+%5BChingLiu%5D&tr=udp%3A%2F%2Ftracker.coppersurfer.tk%3A6969%2Fannounce&tr=udp%3A%2F%2F9.rarbg.to%3A2920%2Fannounce&tr=udp%3A%2F%2Ftracker.opentrackr.org%3A1337&tr=udp%3A%2F%2Ftracker.internetwarriors.net%3A1337%2Fannounce&tr=udp%3A%2F%2Ftracker.leechers-paradise.org%3A6969%2Fannounce&tr=udp%3A%2F%2Ftracker.coppersurfer.tk%3A6969%2Fannounce&tr=udp%3A%2F%2Ftracker.pirateparty.gr%3A6969%2Fannounce&tr=udp%3A%2F%2Ftracker.cyberia.is%3A6969%2Fannounce",
        "seeder": "106",
        "leecher": "4"
    },
    {
        "rank": "96",
        "title": "Adobe Media Encoder 2020 v14.5.0.48 (x64) Patched - [haxNode]",
        "link": "magnet:?xt=urn:btih:9F34A3C14CEFADED3EA2680DD7AFFC01AA215052&dn=Adobe+Media+Encoder+2020+v14.5.0.48+%28x64%29+Patched+-+%5BhaxNode%5D&tr=udp%3A%2F%2Ftracker.coppersurfer.tk%3A6969%2Fannounce&tr=udp%3A%2F%2F9.rarbg.to%3A2920%2Fannounce&tr=udp%3A%2F%2Ftracker.opentrackr.org%3A1337&tr=udp%3A%2F%2Ftracker.internetwarriors.net%3A1337%2Fannounce&tr=udp%3A%2F%2Ftracker.leechers-paradise.org%3A6969%2Fannounce&tr=udp%3A%2F%2Ftracker.coppersurfer.tk%3A6969%2Fannounce&tr=udp%3A%2F%2Ftracker.pirateparty.gr%3A6969%2Fannounce&tr=udp%3A%2F%2Ftracker.cyberia.is%3A6969%2Fannounce",
        "seeder": "105",
        "leecher": "3"
    },
    {
        "rank": "97",
        "title": "Autodesk Revit 2017 Win64",
        "link": "magnet:?xt=urn:btih:3855C1DC7A275A180F216356043985B875C35537&dn=Autodesk+Revit+2017+Win64&tr=udp%3A%2F%2Ftracker.coppersurfer.tk%3A6969%2Fannounce&tr=udp%3A%2F%2F9.rarbg.to%3A2920%2Fannounce&tr=udp%3A%2F%2Ftracker.opentrackr.org%3A1337&tr=udp%3A%2F%2Ftracker.internetwarriors.net%3A1337%2Fannounce&tr=udp%3A%2F%2Ftracker.leechers-paradise.org%3A6969%2Fannounce&tr=udp%3A%2F%2Ftracker.coppersurfer.tk%3A6969%2Fannounce&tr=udp%3A%2F%2Ftracker.pirateparty.gr%3A6969%2Fannounce&tr=udp%3A%2F%2Ftracker.cyberia.is%3A6969%2Fannounce",
        "seeder": "104",
        "leecher": "5"
    },
    {
        "rank": "98",
        "title": "Adobe Audition CC 2015 v8.0.0.192 (64-Bit) + Crack",
        "link": "magnet:?xt=urn:btih:F7AE6A1F9A37489852063D1ACAB7F8BE5E4E3DCB&dn=Adobe+Audition+CC+2015+v8.0.0.192+%2864-Bit%29+%2B+Crack&tr=udp%3A%2F%2Ftracker.coppersurfer.tk%3A6969%2Fannounce&tr=udp%3A%2F%2F9.rarbg.to%3A2920%2Fannounce&tr=udp%3A%2F%2Ftracker.opentrackr.org%3A1337&tr=udp%3A%2F%2Ftracker.internetwarriors.net%3A1337%2Fannounce&tr=udp%3A%2F%2Ftracker.leechers-paradise.org%3A6969%2Fannounce&tr=udp%3A%2F%2Ftracker.coppersurfer.tk%3A6969%2Fannounce&tr=udp%3A%2F%2Ftracker.pirateparty.gr%3A6969%2Fannounce&tr=udp%3A%2F%2Ftracker.cyberia.is%3A6969%2Fannounce",
        "seeder": "101",
        "leecher": "2"
    },
    {
        "rank": "99",
        "title": "MICROSOFT OFFICE 2010 POWERPOINT X86 [thethingy]",
        "link": "magnet:?xt=urn:btih:D29B6144A03C206D11E499582C9B5263B9E563A3&dn=MICROSOFT+OFFICE+2010+POWERPOINT+X86+%5Bthethingy%5D&tr=udp%3A%2F%2Ftracker.coppersurfer.tk%3A6969%2Fannounce&tr=udp%3A%2F%2F9.rarbg.to%3A2920%2Fannounce&tr=udp%3A%2F%2Ftracker.opentrackr.org%3A1337&tr=udp%3A%2F%2Ftracker.internetwarriors.net%3A1337%2Fannounce&tr=udp%3A%2F%2Ftracker.leechers-paradise.org%3A6969%2Fannounce&tr=udp%3A%2F%2Ftracker.coppersurfer.tk%3A6969%2Fannounce&tr=udp%3A%2F%2Ftracker.pirateparty.gr%3A6969%2Fannounce&tr=udp%3A%2F%2Ftracker.cyberia.is%3A6969%2Fannounce",
        "seeder": "101",
        "leecher": "0"
    },
    {
        "rank": "100",
        "title": "Microsoft Visio 2016 x64 Pro VL MULTi-17 Apr 2016 {Gen2}",
        "link": "magnet:?xt=urn:btih:5CF87CF2CF5DC9021B904BBB466B24BC6A0108F6&dn=Microsoft+Visio+2016+x64+Pro+VL+MULTi-17+Apr+2016+%7BGen2%7D&tr=udp%3A%2F%2Ftracker.coppersurfer.tk%3A6969%2Fannounce&tr=udp%3A%2F%2F9.rarbg.to%3A2920%2Fannounce&tr=udp%3A%2F%2Ftracker.opentrackr.org%3A1337&tr=udp%3A%2F%2Ftracker.internetwarriors.net%3A1337%2Fannounce&tr=udp%3A%2F%2Ftracker.leechers-paradise.org%3A6969%2Fannounce&tr=udp%3A%2F%2Ftracker.coppersurfer.tk%3A6969%2Fannounce&tr=udp%3A%2F%2Ftracker.pirateparty.gr%3A6969%2Fannounce&tr=udp%3A%2F%2Ftracker.cyberia.is%3A6969%2Fannounce",
        "seeder": "100",
        "leecher": "15"
    }
]
