[
    {
        "rank": "1",
        "title": "LegalPorno - Second Round BBC anal fucking for Niccole Andrews",
        "link": "magnet:?xt=urn:btih:F22193B8EC6C57BB29CE35B3F69525C63422E0E2&dn=LegalPorno+-+Second+Round+BBC+anal+fucking+for+Niccole+Andrews&tr=udp%3A%2F%2Ftracker.coppersurfer.tk%3A6969%2Fannounce&tr=udp%3A%2F%2F9.rarbg.to%3A2920%2Fannounce&tr=udp%3A%2F%2Ftracker.opentrackr.org%3A1337&tr=udp%3A%2F%2Ftracker.internetwarriors.net%3A1337%2Fannounce&tr=udp%3A%2F%2Ftracker.leechers-paradise.org%3A6969%2Fannounce&tr=udp%3A%2F%2Ftracker.coppersurfer.tk%3A6969%2Fannounce&tr=udp%3A%2F%2Ftracker.pirateparty.gr%3A6969%2Fannounce&tr=udp%3A%2F%2Ftracker.cyberia.is%3A6969%2Fannounce",
        "seeder": "700",
        "leecher": "133"
    },
    {
        "rank": "2",
        "title": "BrazzersExxtra 21 04 07 Siri Dahl A Pocket Pussy Full Of Sploog",
        "link": "magnet:?xt=urn:btih:1C3BE26671EC18F9EFB2CEBBDE3F89DFA2158676&dn=BrazzersExxtra+21+04+07+Siri+Dahl+A+Pocket+Pussy+Full+Of+Sploog&tr=udp%3A%2F%2Ftracker.coppersurfer.tk%3A6969%2Fannounce&tr=udp%3A%2F%2F9.rarbg.to%3A2920%2Fannounce&tr=udp%3A%2F%2Ftracker.opentrackr.org%3A1337&tr=udp%3A%2F%2Ftracker.internetwarriors.net%3A1337%2Fannounce&tr=udp%3A%2F%2Ftracker.leechers-paradise.org%3A6969%2Fannounce&tr=udp%3A%2F%2Ftracker.coppersurfer.tk%3A6969%2Fannounce&tr=udp%3A%2F%2Ftracker.pirateparty.gr%3A6969%2Fannounce&tr=udp%3A%2F%2Ftracker.cyberia.is%3A6969%2Fannounce",
        "seeder": "683",
        "leecher": "279"
    },
    {
        "rank": "3",
        "title": "ShesNew 21 04 06 April Valentino Confident New Star  480p mp4",
        "link": "magnet:?xt=urn:btih:73D983102F1A64BDBB9B5E8AD02D9F1D8DE07E86&dn=ShesNew+21+04+06+April+Valentino+Confident+New+Star++480p+mp4&tr=udp%3A%2F%2Ftracker.coppersurfer.tk%3A6969%2Fannounce&tr=udp%3A%2F%2F9.rarbg.to%3A2920%2Fannounce&tr=udp%3A%2F%2Ftracker.opentrackr.org%3A1337&tr=udp%3A%2F%2Ftracker.internetwarriors.net%3A1337%2Fannounce&tr=udp%3A%2F%2Ftracker.leechers-paradise.org%3A6969%2Fannounce&tr=udp%3A%2F%2Ftracker.coppersurfer.tk%3A6969%2Fannounce&tr=udp%3A%2F%2Ftracker.pirateparty.gr%3A6969%2Fannounce&tr=udp%3A%2F%2Ftracker.cyberia.is%3A6969%2Fannounce",
        "seeder": "657",
        "leecher": "150"
    },
    {
        "rank": "4",
        "title": "BackroomCastingCouch 21 03 22 Lexus  480p mp4",
        "link": "magnet:?xt=urn:btih:1546A1B54144BCF2AA691572E35C855BC30F7286&dn=BackroomCastingCouch+21+03+22+Lexus++480p+mp4&tr=udp%3A%2F%2Ftracker.coppersurfer.tk%3A6969%2Fannounce&tr=udp%3A%2F%2F9.rarbg.to%3A2920%2Fannounce&tr=udp%3A%2F%2Ftracker.opentrackr.org%3A1337&tr=udp%3A%2F%2Ftracker.internetwarriors.net%3A1337%2Fannounce&tr=udp%3A%2F%2Ftracker.leechers-paradise.org%3A6969%2Fannounce&tr=udp%3A%2F%2Ftracker.coppersurfer.tk%3A6969%2Fannounce&tr=udp%3A%2F%2Ftracker.pirateparty.gr%3A6969%2Fannounce&tr=udp%3A%2F%2Ftracker.cyberia.is%3A6969%2Fannounce",
        "seeder": "621",
        "leecher": "136"
    },
    {
        "rank": "5",
        "title": "SexMex 21 04 06 Kourtney Love Psichologyst And A Nutty Guy  480",
        "link": "magnet:?xt=urn:btih:1903262D6C39A18BF452F0EDA64E26378875B49F&dn=SexMex+21+04+06+Kourtney+Love+Psichologyst+And+A+Nutty+Guy++480&tr=udp%3A%2F%2Ftracker.coppersurfer.tk%3A6969%2Fannounce&tr=udp%3A%2F%2F9.rarbg.to%3A2920%2Fannounce&tr=udp%3A%2F%2Ftracker.opentrackr.org%3A1337&tr=udp%3A%2F%2Ftracker.internetwarriors.net%3A1337%2Fannounce&tr=udp%3A%2F%2Ftracker.leechers-paradise.org%3A6969%2Fannounce&tr=udp%3A%2F%2Ftracker.coppersurfer.tk%3A6969%2Fannounce&tr=udp%3A%2F%2Ftracker.pirateparty.gr%3A6969%2Fannounce&tr=udp%3A%2F%2Ftracker.cyberia.is%3A6969%2Fannounce",
        "seeder": "613",
        "leecher": "130"
    },
    {
        "rank": "6",
        "title": "LegalPorno - Jessy Jey Paints Her Vision with her ass",
        "link": "magnet:?xt=urn:btih:3515E258D9C61357FD63D82470FB5519E3282FBF&dn=LegalPorno+-+Jessy+Jey+Paints+Her+Vision+with+her+ass&tr=udp%3A%2F%2Ftracker.coppersurfer.tk%3A6969%2Fannounce&tr=udp%3A%2F%2F9.rarbg.to%3A2920%2Fannounce&tr=udp%3A%2F%2Ftracker.opentrackr.org%3A1337&tr=udp%3A%2F%2Ftracker.internetwarriors.net%3A1337%2Fannounce&tr=udp%3A%2F%2Ftracker.leechers-paradise.org%3A6969%2Fannounce&tr=udp%3A%2F%2Ftracker.coppersurfer.tk%3A6969%2Fannounce&tr=udp%3A%2F%2Ftracker.pirateparty.gr%3A6969%2Fannounce&tr=udp%3A%2F%2Ftracker.cyberia.is%3A6969%2Fannounce",
        "seeder": "578",
        "leecher": "101"
    },
    {
        "rank": "7",
        "title": "LegalPorno - Classy Clea Gaultier Goes Hard for Analmanias DP",
        "link": "magnet:?xt=urn:btih:B9B8933AE90AAC5F2ACB7C81C25D5548ECB7FB8D&dn=LegalPorno+-+Classy+Clea+Gaultier+Goes+Hard+for+Analmanias+DP&tr=udp%3A%2F%2Ftracker.coppersurfer.tk%3A6969%2Fannounce&tr=udp%3A%2F%2F9.rarbg.to%3A2920%2Fannounce&tr=udp%3A%2F%2Ftracker.opentrackr.org%3A1337&tr=udp%3A%2F%2Ftracker.internetwarriors.net%3A1337%2Fannounce&tr=udp%3A%2F%2Ftracker.leechers-paradise.org%3A6969%2Fannounce&tr=udp%3A%2F%2Ftracker.coppersurfer.tk%3A6969%2Fannounce&tr=udp%3A%2F%2Ftracker.pirateparty.gr%3A6969%2Fannounce&tr=udp%3A%2F%2Ftracker.cyberia.is%3A6969%2Fannounce",
        "seeder": "490",
        "leecher": "210"
    },
    {
        "rank": "8",
        "title": "PervMom 21 04 04 Havana Bleu Nailing More Than My Test  480p mp",
        "link": "magnet:?xt=urn:btih:D6AE6362863E03EFB5A7D80A068F51C264FE1081&dn=PervMom+21+04+04+Havana+Bleu+Nailing+More+Than+My+Test++480p+mp&tr=udp%3A%2F%2Ftracker.coppersurfer.tk%3A6969%2Fannounce&tr=udp%3A%2F%2F9.rarbg.to%3A2920%2Fannounce&tr=udp%3A%2F%2Ftracker.opentrackr.org%3A1337&tr=udp%3A%2F%2Ftracker.internetwarriors.net%3A1337%2Fannounce&tr=udp%3A%2F%2Ftracker.leechers-paradise.org%3A6969%2Fannounce&tr=udp%3A%2F%2Ftracker.coppersurfer.tk%3A6969%2Fannounce&tr=udp%3A%2F%2Ftracker.pirateparty.gr%3A6969%2Fannounce&tr=udp%3A%2F%2Ftracker.cyberia.is%3A6969%2Fannounce",
        "seeder": "456",
        "leecher": "83"
    },
    {
        "rank": "9",
        "title": "HandsOnHardcore 21 04 07 Shalina Devine And Kira Queen Poolside",
        "link": "magnet:?xt=urn:btih:075B419A7D7DC665C2DF115FF525458265156D93&dn=HandsOnHardcore+21+04+07+Shalina+Devine+And+Kira+Queen+Poolside&tr=udp%3A%2F%2Ftracker.coppersurfer.tk%3A6969%2Fannounce&tr=udp%3A%2F%2F9.rarbg.to%3A2920%2Fannounce&tr=udp%3A%2F%2Ftracker.opentrackr.org%3A1337&tr=udp%3A%2F%2Ftracker.internetwarriors.net%3A1337%2Fannounce&tr=udp%3A%2F%2Ftracker.leechers-paradise.org%3A6969%2Fannounce&tr=udp%3A%2F%2Ftracker.coppersurfer.tk%3A6969%2Fannounce&tr=udp%3A%2F%2Ftracker.pirateparty.gr%3A6969%2Fannounce&tr=udp%3A%2F%2Ftracker.cyberia.is%3A6969%2Fannounce",
        "seeder": "447",
        "leecher": "152"
    },
    {
        "rank": "10",
        "title": "MyPervyFamily 21 03 30 Reagan Foxx Upset Stepmom Swallows  480p",
        "link": "magnet:?xt=urn:btih:051A08FDD669C4C7362CB9BF4330266DA4A000AB&dn=MyPervyFamily+21+03+30+Reagan+Foxx+Upset+Stepmom+Swallows++480p&tr=udp%3A%2F%2Ftracker.coppersurfer.tk%3A6969%2Fannounce&tr=udp%3A%2F%2F9.rarbg.to%3A2920%2Fannounce&tr=udp%3A%2F%2Ftracker.opentrackr.org%3A1337&tr=udp%3A%2F%2Ftracker.internetwarriors.net%3A1337%2Fannounce&tr=udp%3A%2F%2Ftracker.leechers-paradise.org%3A6969%2Fannounce&tr=udp%3A%2F%2Ftracker.coppersurfer.tk%3A6969%2Fannounce&tr=udp%3A%2F%2Ftracker.pirateparty.gr%3A6969%2Fannounce&tr=udp%3A%2F%2Ftracker.cyberia.is%3A6969%2Fannounce",
        "seeder": "432",
        "leecher": "43"
    },
    {
        "rank": "11",
        "title": "SexMex 21 04 04 Camila Mush Grateful Girl  480p mp4",
        "link": "magnet:?xt=urn:btih:46168D51391F7577E214333C3DDDA07AE0E86A81&dn=SexMex+21+04+04+Camila+Mush+Grateful+Girl++480p+mp4&tr=udp%3A%2F%2Ftracker.coppersurfer.tk%3A6969%2Fannounce&tr=udp%3A%2F%2F9.rarbg.to%3A2920%2Fannounce&tr=udp%3A%2F%2Ftracker.opentrackr.org%3A1337&tr=udp%3A%2F%2Ftracker.internetwarriors.net%3A1337%2Fannounce&tr=udp%3A%2F%2Ftracker.leechers-paradise.org%3A6969%2Fannounce&tr=udp%3A%2F%2Ftracker.coppersurfer.tk%3A6969%2Fannounce&tr=udp%3A%2F%2Ftracker.pirateparty.gr%3A6969%2Fannounce&tr=udp%3A%2F%2Ftracker.cyberia.is%3A6969%2Fannounce",
        "seeder": "427",
        "leecher": "62"
    },
    {
        "rank": "12",
        "title": "LegalPorno - Submissive teen Candy Crush is back to get fucked a",
        "link": "magnet:?xt=urn:btih:53234DF4B3EC6F6992AF586680CF9A1D1443632C&dn=LegalPorno+-+Submissive+teen+Candy+Crush+is+back+to+get+fucked+a&tr=udp%3A%2F%2Ftracker.coppersurfer.tk%3A6969%2Fannounce&tr=udp%3A%2F%2F9.rarbg.to%3A2920%2Fannounce&tr=udp%3A%2F%2Ftracker.opentrackr.org%3A1337&tr=udp%3A%2F%2Ftracker.internetwarriors.net%3A1337%2Fannounce&tr=udp%3A%2F%2Ftracker.leechers-paradise.org%3A6969%2Fannounce&tr=udp%3A%2F%2Ftracker.coppersurfer.tk%3A6969%2Fannounce&tr=udp%3A%2F%2Ftracker.pirateparty.gr%3A6969%2Fannounce&tr=udp%3A%2F%2Ftracker.cyberia.is%3A6969%2Fannounce",
        "seeder": "416",
        "leecher": "106"
    },
    {
        "rank": "13",
        "title": "DadCrush 21 04 03 Michelle Anthony A Stepdaughter Like You  480",
        "link": "magnet:?xt=urn:btih:D378F73C31FC698E97D23C39CD5E8CFEBAD40E0C&dn=DadCrush+21+04+03+Michelle+Anthony+A+Stepdaughter+Like+You++480&tr=udp%3A%2F%2Ftracker.coppersurfer.tk%3A6969%2Fannounce&tr=udp%3A%2F%2F9.rarbg.to%3A2920%2Fannounce&tr=udp%3A%2F%2Ftracker.opentrackr.org%3A1337&tr=udp%3A%2F%2Ftracker.internetwarriors.net%3A1337%2Fannounce&tr=udp%3A%2F%2Ftracker.leechers-paradise.org%3A6969%2Fannounce&tr=udp%3A%2F%2Ftracker.coppersurfer.tk%3A6969%2Fannounce&tr=udp%3A%2F%2Ftracker.pirateparty.gr%3A6969%2Fannounce&tr=udp%3A%2F%2Ftracker.cyberia.is%3A6969%2Fannounce",
        "seeder": "392",
        "leecher": "46"
    },
    {
        "rank": "14",
        "title": "BrazzersExxtra 21 04 07 Adira Allure Pussy Therapy  480p mp4",
        "link": "magnet:?xt=urn:btih:B478DD221804642D67978F5C714C7D7F39FB986E&dn=BrazzersExxtra+21+04+07+Adira+Allure+Pussy+Therapy++480p+mp4&tr=udp%3A%2F%2Ftracker.coppersurfer.tk%3A6969%2Fannounce&tr=udp%3A%2F%2F9.rarbg.to%3A2920%2Fannounce&tr=udp%3A%2F%2Ftracker.opentrackr.org%3A1337&tr=udp%3A%2F%2Ftracker.internetwarriors.net%3A1337%2Fannounce&tr=udp%3A%2F%2Ftracker.leechers-paradise.org%3A6969%2Fannounce&tr=udp%3A%2F%2Ftracker.coppersurfer.tk%3A6969%2Fannounce&tr=udp%3A%2F%2Ftracker.pirateparty.gr%3A6969%2Fannounce&tr=udp%3A%2F%2Ftracker.cyberia.is%3A6969%2Fannounce",
        "seeder": "378",
        "leecher": "136"
    },
    {
        "rank": "15",
        "title": "JulesJordan - Angela White, Gabbie Carter - Battle For Big Breas",
        "link": "magnet:?xt=urn:btih:0C9BF776A375A02A3CAE72C1AF9D79A6472036B9&dn=JulesJordan+-+Angela+White%2C+Gabbie+Carter+-+Battle+For+Big+Breas&tr=udp%3A%2F%2Ftracker.coppersurfer.tk%3A6969%2Fannounce&tr=udp%3A%2F%2F9.rarbg.to%3A2920%2Fannounce&tr=udp%3A%2F%2Ftracker.opentrackr.org%3A1337&tr=udp%3A%2F%2Ftracker.internetwarriors.net%3A1337%2Fannounce&tr=udp%3A%2F%2Ftracker.leechers-paradise.org%3A6969%2Fannounce&tr=udp%3A%2F%2Ftracker.coppersurfer.tk%3A6969%2Fannounce&tr=udp%3A%2F%2Ftracker.pirateparty.gr%3A6969%2Fannounce&tr=udp%3A%2F%2Ftracker.cyberia.is%3A6969%2Fannounce",
        "seeder": "378",
        "leecher": "43"
    },
    {
        "rank": "16",
        "title": "MomsTeachSex 21 04 07 Jordan Maxx Stepmom Helps Me Get Over My",
        "link": "magnet:?xt=urn:btih:BDF69AE83C3D38C284A7408887069A9DC6611ABC&dn=MomsTeachSex+21+04+07+Jordan+Maxx+Stepmom+Helps+Me+Get+Over+My&tr=udp%3A%2F%2Ftracker.coppersurfer.tk%3A6969%2Fannounce&tr=udp%3A%2F%2F9.rarbg.to%3A2920%2Fannounce&tr=udp%3A%2F%2Ftracker.opentrackr.org%3A1337&tr=udp%3A%2F%2Ftracker.internetwarriors.net%3A1337%2Fannounce&tr=udp%3A%2F%2Ftracker.leechers-paradise.org%3A6969%2Fannounce&tr=udp%3A%2F%2Ftracker.coppersurfer.tk%3A6969%2Fannounce&tr=udp%3A%2F%2Ftracker.pirateparty.gr%3A6969%2Fannounce&tr=udp%3A%2F%2Ftracker.cyberia.is%3A6969%2Fannounce",
        "seeder": "377",
        "leecher": "120"
    },
    {
        "rank": "17",
        "title": "SellYourGF 21 04 07 Queenlin Busty Chick Fucks BF Debt Away  48",
        "link": "magnet:?xt=urn:btih:4816D686C51DF1BC0F63225E1B30309A70E5DAAE&dn=SellYourGF+21+04+07+Queenlin+Busty+Chick+Fucks+BF+Debt+Away++48&tr=udp%3A%2F%2Ftracker.coppersurfer.tk%3A6969%2Fannounce&tr=udp%3A%2F%2F9.rarbg.to%3A2920%2Fannounce&tr=udp%3A%2F%2Ftracker.opentrackr.org%3A1337&tr=udp%3A%2F%2Ftracker.internetwarriors.net%3A1337%2Fannounce&tr=udp%3A%2F%2Ftracker.leechers-paradise.org%3A6969%2Fannounce&tr=udp%3A%2F%2Ftracker.coppersurfer.tk%3A6969%2Fannounce&tr=udp%3A%2F%2Ftracker.pirateparty.gr%3A6969%2Fannounce&tr=udp%3A%2F%2Ftracker.cyberia.is%3A6969%2Fannounce",
        "seeder": "374",
        "leecher": "165"
    },
    {
        "rank": "18",
        "title": "JacquieEtMichelTV 21 04 06 Charlotte 19 Student At The BeauxArt",
        "link": "magnet:?xt=urn:btih:019EAB28E0FC488CE580F93BE7C5EC4A28CCB9AF&dn=JacquieEtMichelTV+21+04+06+Charlotte+19+Student+At+The+BeauxArt&tr=udp%3A%2F%2Ftracker.coppersurfer.tk%3A6969%2Fannounce&tr=udp%3A%2F%2F9.rarbg.to%3A2920%2Fannounce&tr=udp%3A%2F%2Ftracker.opentrackr.org%3A1337&tr=udp%3A%2F%2Ftracker.internetwarriors.net%3A1337%2Fannounce&tr=udp%3A%2F%2Ftracker.leechers-paradise.org%3A6969%2Fannounce&tr=udp%3A%2F%2Ftracker.coppersurfer.tk%3A6969%2Fannounce&tr=udp%3A%2F%2Ftracker.pirateparty.gr%3A6969%2Fannounce&tr=udp%3A%2F%2Ftracker.cyberia.is%3A6969%2Fannounce",
        "seeder": "374",
        "leecher": "66"
    },
    {
        "rank": "19",
        "title": "DadCrush 21 03 27 Kali Roses Stepdaughter Knows How To Bargain",
        "link": "magnet:?xt=urn:btih:234C458E7CCD03F1DD0DCB8AF996F4B543CEA915&dn=DadCrush+21+03+27+Kali+Roses+Stepdaughter+Knows+How+To+Bargain&tr=udp%3A%2F%2Ftracker.coppersurfer.tk%3A6969%2Fannounce&tr=udp%3A%2F%2F9.rarbg.to%3A2920%2Fannounce&tr=udp%3A%2F%2Ftracker.opentrackr.org%3A1337&tr=udp%3A%2F%2Ftracker.internetwarriors.net%3A1337%2Fannounce&tr=udp%3A%2F%2Ftracker.leechers-paradise.org%3A6969%2Fannounce&tr=udp%3A%2F%2Ftracker.coppersurfer.tk%3A6969%2Fannounce&tr=udp%3A%2F%2Ftracker.pirateparty.gr%3A6969%2Fannounce&tr=udp%3A%2F%2Ftracker.cyberia.is%3A6969%2Fannounce",
        "seeder": "372",
        "leecher": "31"
    },
    {
        "rank": "20",
        "title": "MomSwap 21 03 29 Karen Fisher And Syren De Mer Swapping Needy B",
        "link": "magnet:?xt=urn:btih:AC76848B91EB4A3915179B25FDDD3BB6D6FCBF35&dn=MomSwap+21+03+29+Karen+Fisher+And+Syren+De+Mer+Swapping+Needy+B&tr=udp%3A%2F%2Ftracker.coppersurfer.tk%3A6969%2Fannounce&tr=udp%3A%2F%2F9.rarbg.to%3A2920%2Fannounce&tr=udp%3A%2F%2Ftracker.opentrackr.org%3A1337&tr=udp%3A%2F%2Ftracker.internetwarriors.net%3A1337%2Fannounce&tr=udp%3A%2F%2Ftracker.leechers-paradise.org%3A6969%2Fannounce&tr=udp%3A%2F%2Ftracker.coppersurfer.tk%3A6969%2Fannounce&tr=udp%3A%2F%2Ftracker.pirateparty.gr%3A6969%2Fannounce&tr=udp%3A%2F%2Ftracker.cyberia.is%3A6969%2Fannounce",
        "seeder": "363",
        "leecher": "26"
    },
    {
        "rank": "21",
        "title": "EvilAngel 21 02 27 Purple Bitch Anal Creampie For DVA  480p mp4",
        "link": "magnet:?xt=urn:btih:A10D05C31DB61183E02C012DA9119435C5586B8E&dn=EvilAngel+21+02+27+Purple+Bitch+Anal+Creampie+For+DVA++480p+mp4&tr=udp%3A%2F%2Ftracker.coppersurfer.tk%3A6969%2Fannounce&tr=udp%3A%2F%2F9.rarbg.to%3A2920%2Fannounce&tr=udp%3A%2F%2Ftracker.opentrackr.org%3A1337&tr=udp%3A%2F%2Ftracker.internetwarriors.net%3A1337%2Fannounce&tr=udp%3A%2F%2Ftracker.leechers-paradise.org%3A6969%2Fannounce&tr=udp%3A%2F%2Ftracker.coppersurfer.tk%3A6969%2Fannounce&tr=udp%3A%2F%2Ftracker.pirateparty.gr%3A6969%2Fannounce&tr=udp%3A%2F%2Ftracker.cyberia.is%3A6969%2Fannounce",
        "seeder": "361",
        "leecher": "127"
    },
    {
        "rank": "22",
        "title": "PornstarsLikeItBig 21 04 02 Gabbie Carter And Skylar Vox  480p",
        "link": "magnet:?xt=urn:btih:3353BBE745D1725D9E24D727B6F252AE1E62A424&dn=PornstarsLikeItBig+21+04+02+Gabbie+Carter+And+Skylar+Vox++480p&tr=udp%3A%2F%2Ftracker.coppersurfer.tk%3A6969%2Fannounce&tr=udp%3A%2F%2F9.rarbg.to%3A2920%2Fannounce&tr=udp%3A%2F%2Ftracker.opentrackr.org%3A1337&tr=udp%3A%2F%2Ftracker.internetwarriors.net%3A1337%2Fannounce&tr=udp%3A%2F%2Ftracker.leechers-paradise.org%3A6969%2Fannounce&tr=udp%3A%2F%2Ftracker.coppersurfer.tk%3A6969%2Fannounce&tr=udp%3A%2F%2Ftracker.pirateparty.gr%3A6969%2Fannounce&tr=udp%3A%2F%2Ftracker.cyberia.is%3A6969%2Fannounce",
        "seeder": "328",
        "leecher": "46"
    },
    {
        "rank": "23",
        "title": "FamilySwap 21 04 04 Artemisia Love And Indica Monroe  480p mp4",
        "link": "magnet:?xt=urn:btih:4F60E0FDED462BAE892539B478EBBAEAC6F62638&dn=FamilySwap+21+04+04+Artemisia+Love+And+Indica+Monroe++480p+mp4&tr=udp%3A%2F%2Ftracker.coppersurfer.tk%3A6969%2Fannounce&tr=udp%3A%2F%2F9.rarbg.to%3A2920%2Fannounce&tr=udp%3A%2F%2Ftracker.opentrackr.org%3A1337&tr=udp%3A%2F%2Ftracker.internetwarriors.net%3A1337%2Fannounce&tr=udp%3A%2F%2Ftracker.leechers-paradise.org%3A6969%2Fannounce&tr=udp%3A%2F%2Ftracker.coppersurfer.tk%3A6969%2Fannounce&tr=udp%3A%2F%2Ftracker.pirateparty.gr%3A6969%2Fannounce&tr=udp%3A%2F%2Ftracker.cyberia.is%3A6969%2Fannounce",
        "seeder": "324",
        "leecher": "40"
    },
    {
        "rank": "24",
        "title": "MyFriendsHotMom 21 04 07 Richelle Ryan  480p mp4",
        "link": "magnet:?xt=urn:btih:1081C855B555B32034F3F151D483CB29BD44F6E2&dn=MyFriendsHotMom+21+04+07+Richelle+Ryan++480p+mp4&tr=udp%3A%2F%2Ftracker.coppersurfer.tk%3A6969%2Fannounce&tr=udp%3A%2F%2F9.rarbg.to%3A2920%2Fannounce&tr=udp%3A%2F%2Ftracker.opentrackr.org%3A1337&tr=udp%3A%2F%2Ftracker.internetwarriors.net%3A1337%2Fannounce&tr=udp%3A%2F%2Ftracker.leechers-paradise.org%3A6969%2Fannounce&tr=udp%3A%2F%2Ftracker.coppersurfer.tk%3A6969%2Fannounce&tr=udp%3A%2F%2Ftracker.pirateparty.gr%3A6969%2Fannounce&tr=udp%3A%2F%2Ftracker.cyberia.is%3A6969%2Fannounce",
        "seeder": "322",
        "leecher": "168"
    },
    {
        "rank": "25",
        "title": "MilfsLikeItBig 21 04 05 Casca Akashova Cleanliness Is Next To F",
        "link": "magnet:?xt=urn:btih:0CC319053C304097DD3EE03CF172EA60829037B8&dn=MilfsLikeItBig+21+04+05+Casca+Akashova+Cleanliness+Is+Next+To+F&tr=udp%3A%2F%2Ftracker.coppersurfer.tk%3A6969%2Fannounce&tr=udp%3A%2F%2F9.rarbg.to%3A2920%2Fannounce&tr=udp%3A%2F%2Ftracker.opentrackr.org%3A1337&tr=udp%3A%2F%2Ftracker.internetwarriors.net%3A1337%2Fannounce&tr=udp%3A%2F%2Ftracker.leechers-paradise.org%3A6969%2Fannounce&tr=udp%3A%2F%2Ftracker.coppersurfer.tk%3A6969%2Fannounce&tr=udp%3A%2F%2Ftracker.pirateparty.gr%3A6969%2Fannounce&tr=udp%3A%2F%2Ftracker.cyberia.is%3A6969%2Fannounce",
        "seeder": "309",
        "leecher": "46"
    },
    {
        "rank": "26",
        "title": "Tushy 21 03 14 Little Caprice  480p mp4",
        "link": "magnet:?xt=urn:btih:5167AC74AE2BC1DC8217D9D9F650397D03565CF0&dn=Tushy+21+03+14+Little+Caprice++480p+mp4&tr=udp%3A%2F%2Ftracker.coppersurfer.tk%3A6969%2Fannounce&tr=udp%3A%2F%2F9.rarbg.to%3A2920%2Fannounce&tr=udp%3A%2F%2Ftracker.opentrackr.org%3A1337&tr=udp%3A%2F%2Ftracker.internetwarriors.net%3A1337%2Fannounce&tr=udp%3A%2F%2Ftracker.leechers-paradise.org%3A6969%2Fannounce&tr=udp%3A%2F%2Ftracker.coppersurfer.tk%3A6969%2Fannounce&tr=udp%3A%2F%2Ftracker.pirateparty.gr%3A6969%2Fannounce&tr=udp%3A%2F%2Ftracker.cyberia.is%3A6969%2Fannounce",
        "seeder": "275",
        "leecher": "27"
    },
    {
        "rank": "27",
        "title": "BellesaHouse 21 04 07 Gianna Dior Gianna And Ryan  480p mp4",
        "link": "magnet:?xt=urn:btih:D0D6BECDECFB6E841BA906504C67E977875F4002&dn=BellesaHouse+21+04+07+Gianna+Dior+Gianna+And+Ryan++480p+mp4&tr=udp%3A%2F%2Ftracker.coppersurfer.tk%3A6969%2Fannounce&tr=udp%3A%2F%2F9.rarbg.to%3A2920%2Fannounce&tr=udp%3A%2F%2Ftracker.opentrackr.org%3A1337&tr=udp%3A%2F%2Ftracker.internetwarriors.net%3A1337%2Fannounce&tr=udp%3A%2F%2Ftracker.leechers-paradise.org%3A6969%2Fannounce&tr=udp%3A%2F%2Ftracker.coppersurfer.tk%3A6969%2Fannounce&tr=udp%3A%2F%2Ftracker.pirateparty.gr%3A6969%2Fannounce&tr=udp%3A%2F%2Ftracker.cyberia.is%3A6969%2Fannounce",
        "seeder": "274",
        "leecher": "146"
    },
    {
        "rank": "28",
        "title": "WoodmanCastingX - Aria Logan - Casting X 221",
        "link": "magnet:?xt=urn:btih:3AB92460BEE4B8742C24A3DB657C6E09A8A04D5D&dn=WoodmanCastingX+-+Aria+Logan+-+Casting+X+221&tr=udp%3A%2F%2Ftracker.coppersurfer.tk%3A6969%2Fannounce&tr=udp%3A%2F%2F9.rarbg.to%3A2920%2Fannounce&tr=udp%3A%2F%2Ftracker.opentrackr.org%3A1337&tr=udp%3A%2F%2Ftracker.internetwarriors.net%3A1337%2Fannounce&tr=udp%3A%2F%2Ftracker.leechers-paradise.org%3A6969%2Fannounce&tr=udp%3A%2F%2Ftracker.coppersurfer.tk%3A6969%2Fannounce&tr=udp%3A%2F%2Ftracker.pirateparty.gr%3A6969%2Fannounce&tr=udp%3A%2F%2Ftracker.cyberia.is%3A6969%2Fannounce",
        "seeder": "274",
        "leecher": "65"
    },
    {
        "rank": "29",
        "title": "RealWifeStories 21 04 06 Leila Larocco Getting Her Husband A Ra",
        "link": "magnet:?xt=urn:btih:891A42B11BC752F08D52A992B214DA7070B899C9&dn=RealWifeStories+21+04+06+Leila+Larocco+Getting+Her+Husband+A+Ra&tr=udp%3A%2F%2Ftracker.coppersurfer.tk%3A6969%2Fannounce&tr=udp%3A%2F%2F9.rarbg.to%3A2920%2Fannounce&tr=udp%3A%2F%2Ftracker.opentrackr.org%3A1337&tr=udp%3A%2F%2Ftracker.internetwarriors.net%3A1337%2Fannounce&tr=udp%3A%2F%2Ftracker.leechers-paradise.org%3A6969%2Fannounce&tr=udp%3A%2F%2Ftracker.coppersurfer.tk%3A6969%2Fannounce&tr=udp%3A%2F%2Ftracker.pirateparty.gr%3A6969%2Fannounce&tr=udp%3A%2F%2Ftracker.cyberia.is%3A6969%2Fannounce",
        "seeder": "274",
        "leecher": "74"
    },
    {
        "rank": "30",
        "title": "5KPorn 21 04 07 Stacy Cruz  480p mp4",
        "link": "magnet:?xt=urn:btih:1DFD85A0BFC9481108C65E6D13B6BAE884D3031E&dn=5KPorn+21+04+07+Stacy+Cruz++480p+mp4&tr=udp%3A%2F%2Ftracker.coppersurfer.tk%3A6969%2Fannounce&tr=udp%3A%2F%2F9.rarbg.to%3A2920%2Fannounce&tr=udp%3A%2F%2Ftracker.opentrackr.org%3A1337&tr=udp%3A%2F%2Ftracker.internetwarriors.net%3A1337%2Fannounce&tr=udp%3A%2F%2Ftracker.leechers-paradise.org%3A6969%2Fannounce&tr=udp%3A%2F%2Ftracker.coppersurfer.tk%3A6969%2Fannounce&tr=udp%3A%2F%2Ftracker.pirateparty.gr%3A6969%2Fannounce&tr=udp%3A%2F%2Ftracker.cyberia.is%3A6969%2Fannounce",
        "seeder": "272",
        "leecher": "145"
    },
    {
        "rank": "31",
        "title": "Tushy 21 03 21 Destiny Cruz  480p mp4",
        "link": "magnet:?xt=urn:btih:F3A56FB24B2D38FBF36EA4BEDFA1229299BEF6F5&dn=Tushy+21+03+21+Destiny+Cruz++480p+mp4&tr=udp%3A%2F%2Ftracker.coppersurfer.tk%3A6969%2Fannounce&tr=udp%3A%2F%2F9.rarbg.to%3A2920%2Fannounce&tr=udp%3A%2F%2Ftracker.opentrackr.org%3A1337&tr=udp%3A%2F%2Ftracker.internetwarriors.net%3A1337%2Fannounce&tr=udp%3A%2F%2Ftracker.leechers-paradise.org%3A6969%2Fannounce&tr=udp%3A%2F%2Ftracker.coppersurfer.tk%3A6969%2Fannounce&tr=udp%3A%2F%2Ftracker.pirateparty.gr%3A6969%2Fannounce&tr=udp%3A%2F%2Ftracker.cyberia.is%3A6969%2Fannounce",
        "seeder": "267",
        "leecher": "43"
    },
    {
        "rank": "32",
        "title": "PureTaboo 21 04 06 Lily Larimar No Regrets  480p mp4",
        "link": "magnet:?xt=urn:btih:D60096CB866FFB80311B8C72D01FC0640CFAF217&dn=PureTaboo+21+04+06+Lily+Larimar+No+Regrets++480p+mp4&tr=udp%3A%2F%2Ftracker.coppersurfer.tk%3A6969%2Fannounce&tr=udp%3A%2F%2F9.rarbg.to%3A2920%2Fannounce&tr=udp%3A%2F%2Ftracker.opentrackr.org%3A1337&tr=udp%3A%2F%2Ftracker.internetwarriors.net%3A1337%2Fannounce&tr=udp%3A%2F%2Ftracker.leechers-paradise.org%3A6969%2Fannounce&tr=udp%3A%2F%2Ftracker.coppersurfer.tk%3A6969%2Fannounce&tr=udp%3A%2F%2Ftracker.pirateparty.gr%3A6969%2Fannounce&tr=udp%3A%2F%2Ftracker.cyberia.is%3A6969%2Fannounce",
        "seeder": "255",
        "leecher": "46"
    },
    {
        "rank": "33",
        "title": "LegalPorno - Cindy Shine and Freya Dee Vs 2 BBC, Balls Deep Anal",
        "link": "magnet:?xt=urn:btih:8A0BC387B6D42298832C7947B44CCB073C331583&dn=LegalPorno+-+Cindy+Shine+and+Freya+Dee+Vs+2+BBC%2C+Balls+Deep+Anal&tr=udp%3A%2F%2Ftracker.coppersurfer.tk%3A6969%2Fannounce&tr=udp%3A%2F%2F9.rarbg.to%3A2920%2Fannounce&tr=udp%3A%2F%2Ftracker.opentrackr.org%3A1337&tr=udp%3A%2F%2Ftracker.internetwarriors.net%3A1337%2Fannounce&tr=udp%3A%2F%2Ftracker.leechers-paradise.org%3A6969%2Fannounce&tr=udp%3A%2F%2Ftracker.coppersurfer.tk%3A6969%2Fannounce&tr=udp%3A%2F%2Ftracker.pirateparty.gr%3A6969%2Fannounce&tr=udp%3A%2F%2Ftracker.cyberia.is%3A6969%2Fannounce",
        "seeder": "236",
        "leecher": "77"
    },
    {
        "rank": "34",
        "title": "Blacked - Agatha Vega - Vacay",
        "link": "magnet:?xt=urn:btih:98D47117A72654E4883F786941BDFC562FBE560C&dn=Blacked+-+Agatha+Vega+-+Vacay&tr=udp%3A%2F%2Ftracker.coppersurfer.tk%3A6969%2Fannounce&tr=udp%3A%2F%2F9.rarbg.to%3A2920%2Fannounce&tr=udp%3A%2F%2Ftracker.opentrackr.org%3A1337&tr=udp%3A%2F%2Ftracker.internetwarriors.net%3A1337%2Fannounce&tr=udp%3A%2F%2Ftracker.leechers-paradise.org%3A6969%2Fannounce&tr=udp%3A%2F%2Ftracker.coppersurfer.tk%3A6969%2Fannounce&tr=udp%3A%2F%2Ftracker.pirateparty.gr%3A6969%2Fannounce&tr=udp%3A%2F%2Ftracker.cyberia.is%3A6969%2Fannounce",
        "seeder": "236",
        "leecher": "57"
    },
    {
        "rank": "35",
        "title": "PervMom 21 03 28 Canela Skin Make Me Scream Like Her  480p mp4",
        "link": "magnet:?xt=urn:btih:DC3E1EE4EDD1874D605F3B74CB2315CD536806EC&dn=PervMom+21+03+28+Canela+Skin+Make+Me+Scream+Like+Her++480p+mp4&tr=udp%3A%2F%2Ftracker.coppersurfer.tk%3A6969%2Fannounce&tr=udp%3A%2F%2F9.rarbg.to%3A2920%2Fannounce&tr=udp%3A%2F%2Ftracker.opentrackr.org%3A1337&tr=udp%3A%2F%2Ftracker.internetwarriors.net%3A1337%2Fannounce&tr=udp%3A%2F%2Ftracker.leechers-paradise.org%3A6969%2Fannounce&tr=udp%3A%2F%2Ftracker.coppersurfer.tk%3A6969%2Fannounce&tr=udp%3A%2F%2Ftracker.pirateparty.gr%3A6969%2Fannounce&tr=udp%3A%2F%2Ftracker.cyberia.is%3A6969%2Fannounce",
        "seeder": "236",
        "leecher": "20"
    },
    {
        "rank": "36",
        "title": "HandsOnHardcore - Anastasia Brokelyn, Lya Missy - 2 Spanish Sexp",
        "link": "magnet:?xt=urn:btih:C1B4528BB4902B3EF2D3FC2EBC60496E9977DE9B&dn=HandsOnHardcore+-+Anastasia+Brokelyn%2C+Lya+Missy+-+2+Spanish+Sexp&tr=udp%3A%2F%2Ftracker.coppersurfer.tk%3A6969%2Fannounce&tr=udp%3A%2F%2F9.rarbg.to%3A2920%2Fannounce&tr=udp%3A%2F%2Ftracker.opentrackr.org%3A1337&tr=udp%3A%2F%2Ftracker.internetwarriors.net%3A1337%2Fannounce&tr=udp%3A%2F%2Ftracker.leechers-paradise.org%3A6969%2Fannounce&tr=udp%3A%2F%2Ftracker.coppersurfer.tk%3A6969%2Fannounce&tr=udp%3A%2F%2Ftracker.pirateparty.gr%3A6969%2Fannounce&tr=udp%3A%2F%2Ftracker.cyberia.is%3A6969%2Fannounce",
        "seeder": "235",
        "leecher": "100"
    },
    {
        "rank": "37",
        "title": "LegalPorno - Paola Hard DAP'ed by 4 huge cocks",
        "link": "magnet:?xt=urn:btih:0BFCEC0D68B80B31F3CD35622218B193FCB6B690&dn=LegalPorno+-+Paola+Hard+DAP%27ed+by+4+huge+cocks&tr=udp%3A%2F%2Ftracker.coppersurfer.tk%3A6969%2Fannounce&tr=udp%3A%2F%2F9.rarbg.to%3A2920%2Fannounce&tr=udp%3A%2F%2Ftracker.opentrackr.org%3A1337&tr=udp%3A%2F%2Ftracker.internetwarriors.net%3A1337%2Fannounce&tr=udp%3A%2F%2Ftracker.leechers-paradise.org%3A6969%2Fannounce&tr=udp%3A%2F%2Ftracker.coppersurfer.tk%3A6969%2Fannounce&tr=udp%3A%2F%2Ftracker.pirateparty.gr%3A6969%2Fannounce&tr=udp%3A%2F%2Ftracker.cyberia.is%3A6969%2Fannounce",
        "seeder": "234",
        "leecher": "85"
    },
    {
        "rank": "38",
        "title": "DaughterSwap 21 04 05 Cecelia Taylor And Katie Kush Naughty Bun",
        "link": "magnet:?xt=urn:btih:4674F73683D9D54F836F0CFD2BDCCF57023CB664&dn=DaughterSwap+21+04+05+Cecelia+Taylor+And+Katie+Kush+Naughty+Bun&tr=udp%3A%2F%2Ftracker.coppersurfer.tk%3A6969%2Fannounce&tr=udp%3A%2F%2F9.rarbg.to%3A2920%2Fannounce&tr=udp%3A%2F%2Ftracker.opentrackr.org%3A1337&tr=udp%3A%2F%2Ftracker.internetwarriors.net%3A1337%2Fannounce&tr=udp%3A%2F%2Ftracker.leechers-paradise.org%3A6969%2Fannounce&tr=udp%3A%2F%2Ftracker.coppersurfer.tk%3A6969%2Fannounce&tr=udp%3A%2F%2Ftracker.pirateparty.gr%3A6969%2Fannounce&tr=udp%3A%2F%2Ftracker.cyberia.is%3A6969%2Fannounce",
        "seeder": "233",
        "leecher": "35"
    },
    {
        "rank": "39",
        "title": "DeepLush 21 04 07 Anaire Clouds This Is It  480p mp4",
        "link": "magnet:?xt=urn:btih:18301B17765E3DAECC1E677B5709D9A51DC26815&dn=DeepLush+21+04+07+Anaire+Clouds+This+Is+It++480p+mp4&tr=udp%3A%2F%2Ftracker.coppersurfer.tk%3A6969%2Fannounce&tr=udp%3A%2F%2F9.rarbg.to%3A2920%2Fannounce&tr=udp%3A%2F%2Ftracker.opentrackr.org%3A1337&tr=udp%3A%2F%2Ftracker.internetwarriors.net%3A1337%2Fannounce&tr=udp%3A%2F%2Ftracker.leechers-paradise.org%3A6969%2Fannounce&tr=udp%3A%2F%2Ftracker.coppersurfer.tk%3A6969%2Fannounce&tr=udp%3A%2F%2Ftracker.pirateparty.gr%3A6969%2Fannounce&tr=udp%3A%2F%2Ftracker.cyberia.is%3A6969%2Fannounce",
        "seeder": "232",
        "leecher": "96"
    },
    {
        "rank": "40",
        "title": "RKPrime 21 03 23 Kayla Kayden Unexpected Package  480p mp4",
        "link": "magnet:?xt=urn:btih:B5DBB8966391202EA64E742EAE6A2A5A8856104D&dn=RKPrime+21+03+23+Kayla+Kayden+Unexpected+Package++480p+mp4&tr=udp%3A%2F%2Ftracker.coppersurfer.tk%3A6969%2Fannounce&tr=udp%3A%2F%2F9.rarbg.to%3A2920%2Fannounce&tr=udp%3A%2F%2Ftracker.opentrackr.org%3A1337&tr=udp%3A%2F%2Ftracker.internetwarriors.net%3A1337%2Fannounce&tr=udp%3A%2F%2Ftracker.leechers-paradise.org%3A6969%2Fannounce&tr=udp%3A%2F%2Ftracker.coppersurfer.tk%3A6969%2Fannounce&tr=udp%3A%2F%2Ftracker.pirateparty.gr%3A6969%2Fannounce&tr=udp%3A%2F%2Ftracker.cyberia.is%3A6969%2Fannounce",
        "seeder": "232",
        "leecher": "18"
    },
    {
        "rank": "41",
        "title": "FamilySwap - Artemisia Love, Indica Monroe - Swap Mom Keeps Touc",
        "link": "magnet:?xt=urn:btih:3B66557004B02441F78B0EF9DAE779E100A0B478&dn=FamilySwap+-+Artemisia+Love%2C+Indica+Monroe+-+Swap+Mom+Keeps+Touc&tr=udp%3A%2F%2Ftracker.coppersurfer.tk%3A6969%2Fannounce&tr=udp%3A%2F%2F9.rarbg.to%3A2920%2Fannounce&tr=udp%3A%2F%2Ftracker.opentrackr.org%3A1337&tr=udp%3A%2F%2Ftracker.internetwarriors.net%3A1337%2Fannounce&tr=udp%3A%2F%2Ftracker.leechers-paradise.org%3A6969%2Fannounce&tr=udp%3A%2F%2Ftracker.coppersurfer.tk%3A6969%2Fannounce&tr=udp%3A%2F%2Ftracker.pirateparty.gr%3A6969%2Fannounce&tr=udp%3A%2F%2Ftracker.cyberia.is%3A6969%2Fannounce",
        "seeder": "222",
        "leecher": "102"
    },
    {
        "rank": "42",
        "title": "BFFS 21 04 06 Sia Lust Dixie Lynn And Lola Fae My Stepsis And H",
        "link": "magnet:?xt=urn:btih:AA8BFB96D42AFF6BA7144C19D372227C6A9336FA&dn=BFFS+21+04+06+Sia+Lust+Dixie+Lynn+And+Lola+Fae+My+Stepsis+And+H&tr=udp%3A%2F%2Ftracker.coppersurfer.tk%3A6969%2Fannounce&tr=udp%3A%2F%2F9.rarbg.to%3A2920%2Fannounce&tr=udp%3A%2F%2Ftracker.opentrackr.org%3A1337&tr=udp%3A%2F%2Ftracker.internetwarriors.net%3A1337%2Fannounce&tr=udp%3A%2F%2Ftracker.leechers-paradise.org%3A6969%2Fannounce&tr=udp%3A%2F%2Ftracker.coppersurfer.tk%3A6969%2Fannounce&tr=udp%3A%2F%2Ftracker.pirateparty.gr%3A6969%2Fannounce&tr=udp%3A%2F%2Ftracker.cyberia.is%3A6969%2Fannounce",
        "seeder": "222",
        "leecher": "55"
    },
    {
        "rank": "43",
        "title": "BangBus 21 03 31 Honey Hayes  480p mp4",
        "link": "magnet:?xt=urn:btih:57BF95582E8A976D0DF973E9D4F8131C71020BE9&dn=BangBus+21+03+31+Honey+Hayes++480p+mp4&tr=udp%3A%2F%2Ftracker.coppersurfer.tk%3A6969%2Fannounce&tr=udp%3A%2F%2F9.rarbg.to%3A2920%2Fannounce&tr=udp%3A%2F%2Ftracker.opentrackr.org%3A1337&tr=udp%3A%2F%2Ftracker.internetwarriors.net%3A1337%2Fannounce&tr=udp%3A%2F%2Ftracker.leechers-paradise.org%3A6969%2Fannounce&tr=udp%3A%2F%2Ftracker.coppersurfer.tk%3A6969%2Fannounce&tr=udp%3A%2F%2Ftracker.pirateparty.gr%3A6969%2Fannounce&tr=udp%3A%2F%2Ftracker.cyberia.is%3A6969%2Fannounce",
        "seeder": "222",
        "leecher": "12"
    },
    {
        "rank": "44",
        "title": "[Tushy] Emily Willis - Living Dangerously (04.04.2021)",
        "link": "magnet:?xt=urn:btih:338C6273050AF6EFE7A181F010212C72844BB7AB&dn=%5BTushy%5D+Emily+Willis+-+Living+Dangerously+%2804.04.2021%29&tr=udp%3A%2F%2Ftracker.coppersurfer.tk%3A6969%2Fannounce&tr=udp%3A%2F%2F9.rarbg.to%3A2920%2Fannounce&tr=udp%3A%2F%2Ftracker.opentrackr.org%3A1337&tr=udp%3A%2F%2Ftracker.internetwarriors.net%3A1337%2Fannounce&tr=udp%3A%2F%2Ftracker.leechers-paradise.org%3A6969%2Fannounce&tr=udp%3A%2F%2Ftracker.coppersurfer.tk%3A6969%2Fannounce&tr=udp%3A%2F%2Ftracker.pirateparty.gr%3A6969%2Fannounce&tr=udp%3A%2F%2Ftracker.cyberia.is%3A6969%2Fannounce",
        "seeder": "221",
        "leecher": "22"
    },
    {
        "rank": "45",
        "title": "BrazzersExxtra 21 03 21 Gabbie Carter Featherfall  480p mp4",
        "link": "magnet:?xt=urn:btih:32F1B5D1673D2E709C9FAB5623B3177530635FB5&dn=BrazzersExxtra+21+03+21+Gabbie+Carter+Featherfall++480p+mp4&tr=udp%3A%2F%2Ftracker.coppersurfer.tk%3A6969%2Fannounce&tr=udp%3A%2F%2F9.rarbg.to%3A2920%2Fannounce&tr=udp%3A%2F%2Ftracker.opentrackr.org%3A1337&tr=udp%3A%2F%2Ftracker.internetwarriors.net%3A1337%2Fannounce&tr=udp%3A%2F%2Ftracker.leechers-paradise.org%3A6969%2Fannounce&tr=udp%3A%2F%2Ftracker.coppersurfer.tk%3A6969%2Fannounce&tr=udp%3A%2F%2Ftracker.pirateparty.gr%3A6969%2Fannounce&tr=udp%3A%2F%2Ftracker.cyberia.is%3A6969%2Fannounce",
        "seeder": "221",
        "leecher": "14"
    },
    {
        "rank": "46",
        "title": "RKPrime 21 04 07 Aften Opal And Tokyolynn Roommate Threesome Sw",
        "link": "magnet:?xt=urn:btih:EF1E6873F9A76F729F569CC4692A381ED610508A&dn=RKPrime+21+04+07+Aften+Opal+And+Tokyolynn+Roommate+Threesome+Sw&tr=udp%3A%2F%2Ftracker.coppersurfer.tk%3A6969%2Fannounce&tr=udp%3A%2F%2F9.rarbg.to%3A2920%2Fannounce&tr=udp%3A%2F%2Ftracker.opentrackr.org%3A1337&tr=udp%3A%2F%2Ftracker.internetwarriors.net%3A1337%2Fannounce&tr=udp%3A%2F%2Ftracker.leechers-paradise.org%3A6969%2Fannounce&tr=udp%3A%2F%2Ftracker.coppersurfer.tk%3A6969%2Fannounce&tr=udp%3A%2F%2Ftracker.pirateparty.gr%3A6969%2Fannounce&tr=udp%3A%2F%2Ftracker.cyberia.is%3A6969%2Fannounce",
        "seeder": "219",
        "leecher": "89"
    },
    {
        "rank": "47",
        "title": "Shoplyfter 21 03 17 Percy Sires And Blake Blossom Busty Blonde",
        "link": "magnet:?xt=urn:btih:D3886F7FAFE76BC9AD40703DBB65EB843F70B07F&dn=Shoplyfter+21+03+17+Percy+Sires+And+Blake+Blossom+Busty+Blonde&tr=udp%3A%2F%2Ftracker.coppersurfer.tk%3A6969%2Fannounce&tr=udp%3A%2F%2F9.rarbg.to%3A2920%2Fannounce&tr=udp%3A%2F%2Ftracker.opentrackr.org%3A1337&tr=udp%3A%2F%2Ftracker.internetwarriors.net%3A1337%2Fannounce&tr=udp%3A%2F%2Ftracker.leechers-paradise.org%3A6969%2Fannounce&tr=udp%3A%2F%2Ftracker.coppersurfer.tk%3A6969%2Fannounce&tr=udp%3A%2F%2Ftracker.pirateparty.gr%3A6969%2Fannounce&tr=udp%3A%2F%2Ftracker.cyberia.is%3A6969%2Fannounce",
        "seeder": "217",
        "leecher": "14"
    },
    {
        "rank": "48",
        "title": "MomDrips 21 03 26 Mckenzie Lee Great Misunderstanding  480p mp4",
        "link": "magnet:?xt=urn:btih:5B8F6632CA5CBA647C68F6C0C2C7B83E0F5C522C&dn=MomDrips+21+03+26+Mckenzie+Lee+Great+Misunderstanding++480p+mp4&tr=udp%3A%2F%2Ftracker.coppersurfer.tk%3A6969%2Fannounce&tr=udp%3A%2F%2F9.rarbg.to%3A2920%2Fannounce&tr=udp%3A%2F%2Ftracker.opentrackr.org%3A1337&tr=udp%3A%2F%2Ftracker.internetwarriors.net%3A1337%2Fannounce&tr=udp%3A%2F%2Ftracker.leechers-paradise.org%3A6969%2Fannounce&tr=udp%3A%2F%2Ftracker.coppersurfer.tk%3A6969%2Fannounce&tr=udp%3A%2F%2Ftracker.pirateparty.gr%3A6969%2Fannounce&tr=udp%3A%2F%2Ftracker.cyberia.is%3A6969%2Fannounce",
        "seeder": "216",
        "leecher": "10"
    },
    {
        "rank": "49",
        "title": "TeacherFucksTeens 21 04 06 Silvia Saige Who Wants To Be Teacher",
        "link": "magnet:?xt=urn:btih:CB129A26C18CCFC6514617F3AB98CE6B65884C00&dn=TeacherFucksTeens+21+04+06+Silvia+Saige+Who+Wants+To+Be+Teacher&tr=udp%3A%2F%2Ftracker.coppersurfer.tk%3A6969%2Fannounce&tr=udp%3A%2F%2F9.rarbg.to%3A2920%2Fannounce&tr=udp%3A%2F%2Ftracker.opentrackr.org%3A1337&tr=udp%3A%2F%2Ftracker.internetwarriors.net%3A1337%2Fannounce&tr=udp%3A%2F%2Ftracker.leechers-paradise.org%3A6969%2Fannounce&tr=udp%3A%2F%2Ftracker.coppersurfer.tk%3A6969%2Fannounce&tr=udp%3A%2F%2Ftracker.pirateparty.gr%3A6969%2Fannounce&tr=udp%3A%2F%2Ftracker.cyberia.is%3A6969%2Fannounce",
        "seeder": "215",
        "leecher": "26"
    },
    {
        "rank": "50",
        "title": "BlackedRaw 21 03 22 Naomi Swann And Cecilia Lion  480p mp4",
        "link": "magnet:?xt=urn:btih:E99423C73146CABA22B64FF972FDB3B66BC6D81C&dn=BlackedRaw+21+03+22+Naomi+Swann+And+Cecilia+Lion++480p+mp4&tr=udp%3A%2F%2Ftracker.coppersurfer.tk%3A6969%2Fannounce&tr=udp%3A%2F%2F9.rarbg.to%3A2920%2Fannounce&tr=udp%3A%2F%2Ftracker.opentrackr.org%3A1337&tr=udp%3A%2F%2Ftracker.internetwarriors.net%3A1337%2Fannounce&tr=udp%3A%2F%2Ftracker.leechers-paradise.org%3A6969%2Fannounce&tr=udp%3A%2F%2Ftracker.coppersurfer.tk%3A6969%2Fannounce&tr=udp%3A%2F%2Ftracker.pirateparty.gr%3A6969%2Fannounce&tr=udp%3A%2F%2Ftracker.cyberia.is%3A6969%2Fannounce",
        "seeder": "213",
        "leecher": "97"
    },
    {
        "rank": "51",
        "title": "RealityJunkies 21 04 02 Sofi Ryan Cheating Housewive  480p mp4",
        "link": "magnet:?xt=urn:btih:C4395343C530A504355DA70890769983760E6FAD&dn=RealityJunkies+21+04+02+Sofi+Ryan+Cheating+Housewive++480p+mp4&tr=udp%3A%2F%2Ftracker.coppersurfer.tk%3A6969%2Fannounce&tr=udp%3A%2F%2F9.rarbg.to%3A2920%2Fannounce&tr=udp%3A%2F%2Ftracker.opentrackr.org%3A1337&tr=udp%3A%2F%2Ftracker.internetwarriors.net%3A1337%2Fannounce&tr=udp%3A%2F%2Ftracker.leechers-paradise.org%3A6969%2Fannounce&tr=udp%3A%2F%2Ftracker.coppersurfer.tk%3A6969%2Fannounce&tr=udp%3A%2F%2Ftracker.pirateparty.gr%3A6969%2Fannounce&tr=udp%3A%2F%2Ftracker.cyberia.is%3A6969%2Fannounce",
        "seeder": "212",
        "leecher": "25"
    },
    {
        "rank": "52",
        "title": "MyPervyFamily 21 03 26 Misty Quinn Busty Stepsister Seduction",
        "link": "magnet:?xt=urn:btih:A343AA2C2B812D16E1CBF057C7CE73900A2A1F1F&dn=MyPervyFamily+21+03+26+Misty+Quinn+Busty+Stepsister+Seduction&tr=udp%3A%2F%2Ftracker.coppersurfer.tk%3A6969%2Fannounce&tr=udp%3A%2F%2F9.rarbg.to%3A2920%2Fannounce&tr=udp%3A%2F%2Ftracker.opentrackr.org%3A1337&tr=udp%3A%2F%2Ftracker.internetwarriors.net%3A1337%2Fannounce&tr=udp%3A%2F%2Ftracker.leechers-paradise.org%3A6969%2Fannounce&tr=udp%3A%2F%2Ftracker.coppersurfer.tk%3A6969%2Fannounce&tr=udp%3A%2F%2Ftracker.pirateparty.gr%3A6969%2Fannounce&tr=udp%3A%2F%2Ftracker.cyberia.is%3A6969%2Fannounce",
        "seeder": "210",
        "leecher": "17"
    },
    {
        "rank": "53",
        "title": "Tushy - Emily Willis - Living Dangerously",
        "link": "magnet:?xt=urn:btih:1E32099418A9A3FCED62BE13884E322F47095516&dn=Tushy+-+Emily+Willis+-+Living+Dangerously&tr=udp%3A%2F%2Ftracker.coppersurfer.tk%3A6969%2Fannounce&tr=udp%3A%2F%2F9.rarbg.to%3A2920%2Fannounce&tr=udp%3A%2F%2Ftracker.opentrackr.org%3A1337&tr=udp%3A%2F%2Ftracker.internetwarriors.net%3A1337%2Fannounce&tr=udp%3A%2F%2Ftracker.leechers-paradise.org%3A6969%2Fannounce&tr=udp%3A%2F%2Ftracker.coppersurfer.tk%3A6969%2Fannounce&tr=udp%3A%2F%2Ftracker.pirateparty.gr%3A6969%2Fannounce&tr=udp%3A%2F%2Ftracker.cyberia.is%3A6969%2Fannounce",
        "seeder": "204",
        "leecher": "223"
    },
    {
        "rank": "54",
        "title": "[Shoplyfter] Jane Rogers, Lauren Phillips - Case No. 7906138",
        "link": "magnet:?xt=urn:btih:7E95D9895B22CB79857D4FA593CC105B6E4198F0&dn=%5BShoplyfter%5D+Jane+Rogers%2C+Lauren+Phillips+-+Case+No.+7906138&tr=udp%3A%2F%2Ftracker.coppersurfer.tk%3A6969%2Fannounce&tr=udp%3A%2F%2F9.rarbg.to%3A2920%2Fannounce&tr=udp%3A%2F%2Ftracker.opentrackr.org%3A1337&tr=udp%3A%2F%2Ftracker.internetwarriors.net%3A1337%2Fannounce&tr=udp%3A%2F%2Ftracker.leechers-paradise.org%3A6969%2Fannounce&tr=udp%3A%2F%2Ftracker.coppersurfer.tk%3A6969%2Fannounce&tr=udp%3A%2F%2Ftracker.pirateparty.gr%3A6969%2Fannounce&tr=udp%3A%2F%2Ftracker.cyberia.is%3A6969%2Fannounce",
        "seeder": "200",
        "leecher": "84"
    },
    {
        "rank": "55",
        "title": "RKPrime 21 04 07 Aften Opal And Tokyolynn Roommate Threesome Sw",
        "link": "magnet:?xt=urn:btih:5E943C2210F5E471C104A956DBA89BE38D36F995&dn=RKPrime+21+04+07+Aften+Opal+And+Tokyolynn+Roommate+Threesome+Sw&tr=udp%3A%2F%2Ftracker.coppersurfer.tk%3A6969%2Fannounce&tr=udp%3A%2F%2F9.rarbg.to%3A2920%2Fannounce&tr=udp%3A%2F%2Ftracker.opentrackr.org%3A1337&tr=udp%3A%2F%2Ftracker.internetwarriors.net%3A1337%2Fannounce&tr=udp%3A%2F%2Ftracker.leechers-paradise.org%3A6969%2Fannounce&tr=udp%3A%2F%2Ftracker.coppersurfer.tk%3A6969%2Fannounce&tr=udp%3A%2F%2Ftracker.pirateparty.gr%3A6969%2Fannounce&tr=udp%3A%2F%2Ftracker.cyberia.is%3A6969%2Fannounce",
        "seeder": "199",
        "leecher": "104"
    },
    {
        "rank": "56",
        "title": "BrattySis 21 03 26 Hime Marie And Kylie Rocket My Step Sisters",
        "link": "magnet:?xt=urn:btih:5DFF3764885DD6856B5F535A901C6934DAF5A02F&dn=BrattySis+21+03+26+Hime+Marie+And+Kylie+Rocket+My+Step+Sisters&tr=udp%3A%2F%2Ftracker.coppersurfer.tk%3A6969%2Fannounce&tr=udp%3A%2F%2F9.rarbg.to%3A2920%2Fannounce&tr=udp%3A%2F%2Ftracker.opentrackr.org%3A1337&tr=udp%3A%2F%2Ftracker.internetwarriors.net%3A1337%2Fannounce&tr=udp%3A%2F%2Ftracker.leechers-paradise.org%3A6969%2Fannounce&tr=udp%3A%2F%2Ftracker.coppersurfer.tk%3A6969%2Fannounce&tr=udp%3A%2F%2Ftracker.pirateparty.gr%3A6969%2Fannounce&tr=udp%3A%2F%2Ftracker.cyberia.is%3A6969%2Fannounce",
        "seeder": "191",
        "leecher": "13"
    },
    {
        "rank": "57",
        "title": "BlacksOnBlondes 21 04 06 Lauren Phillips  480p mp4",
        "link": "magnet:?xt=urn:btih:7283BC3399C31EEDC8C83B4854ADC625191596C9&dn=BlacksOnBlondes+21+04+06+Lauren+Phillips++480p+mp4&tr=udp%3A%2F%2Ftracker.coppersurfer.tk%3A6969%2Fannounce&tr=udp%3A%2F%2F9.rarbg.to%3A2920%2Fannounce&tr=udp%3A%2F%2Ftracker.opentrackr.org%3A1337&tr=udp%3A%2F%2Ftracker.internetwarriors.net%3A1337%2Fannounce&tr=udp%3A%2F%2Ftracker.leechers-paradise.org%3A6969%2Fannounce&tr=udp%3A%2F%2Ftracker.coppersurfer.tk%3A6969%2Fannounce&tr=udp%3A%2F%2Ftracker.pirateparty.gr%3A6969%2Fannounce&tr=udp%3A%2F%2Ftracker.cyberia.is%3A6969%2Fannounce",
        "seeder": "188",
        "leecher": "28"
    },
    {
        "rank": "58",
        "title": "EvilAngel 21 04 07 Paige Owens DP 3Way  480p mp4",
        "link": "magnet:?xt=urn:btih:2B007F40E19DA34828E29FC1856F1F062E10A9A6&dn=EvilAngel+21+04+07+Paige+Owens+DP+3Way++480p+mp4&tr=udp%3A%2F%2Ftracker.coppersurfer.tk%3A6969%2Fannounce&tr=udp%3A%2F%2F9.rarbg.to%3A2920%2Fannounce&tr=udp%3A%2F%2Ftracker.opentrackr.org%3A1337&tr=udp%3A%2F%2Ftracker.internetwarriors.net%3A1337%2Fannounce&tr=udp%3A%2F%2Ftracker.leechers-paradise.org%3A6969%2Fannounce&tr=udp%3A%2F%2Ftracker.coppersurfer.tk%3A6969%2Fannounce&tr=udp%3A%2F%2Ftracker.pirateparty.gr%3A6969%2Fannounce&tr=udp%3A%2F%2Ftracker.cyberia.is%3A6969%2Fannounce",
        "seeder": "187",
        "leecher": "96"
    },
    {
        "rank": "59",
        "title": "TeenPies 21 04 02 Elena Koshka A True Model  480p mp4",
        "link": "magnet:?xt=urn:btih:30444EC2E6A1F3D9C73C88B542086A1598E4C955&dn=TeenPies+21+04+02+Elena+Koshka+A+True+Model++480p+mp4&tr=udp%3A%2F%2Ftracker.coppersurfer.tk%3A6969%2Fannounce&tr=udp%3A%2F%2F9.rarbg.to%3A2920%2Fannounce&tr=udp%3A%2F%2Ftracker.opentrackr.org%3A1337&tr=udp%3A%2F%2Ftracker.internetwarriors.net%3A1337%2Fannounce&tr=udp%3A%2F%2Ftracker.leechers-paradise.org%3A6969%2Fannounce&tr=udp%3A%2F%2Ftracker.coppersurfer.tk%3A6969%2Fannounce&tr=udp%3A%2F%2Ftracker.pirateparty.gr%3A6969%2Fannounce&tr=udp%3A%2F%2Ftracker.cyberia.is%3A6969%2Fannounce",
        "seeder": "186",
        "leecher": "22"
    },
    {
        "rank": "60",
        "title": "Blacked 21 03 20 Lina Luxa  480p mp4",
        "link": "magnet:?xt=urn:btih:58A2718F06BEDF42378F7D683C261C6E717BEED0&dn=Blacked+21+03+20+Lina+Luxa++480p+mp4&tr=udp%3A%2F%2Ftracker.coppersurfer.tk%3A6969%2Fannounce&tr=udp%3A%2F%2F9.rarbg.to%3A2920%2Fannounce&tr=udp%3A%2F%2Ftracker.opentrackr.org%3A1337&tr=udp%3A%2F%2Ftracker.internetwarriors.net%3A1337%2Fannounce&tr=udp%3A%2F%2Ftracker.leechers-paradise.org%3A6969%2Fannounce&tr=udp%3A%2F%2Ftracker.coppersurfer.tk%3A6969%2Fannounce&tr=udp%3A%2F%2Ftracker.pirateparty.gr%3A6969%2Fannounce&tr=udp%3A%2F%2Ftracker.cyberia.is%3A6969%2Fannounce",
        "seeder": "185",
        "leecher": "29"
    },
    {
        "rank": "61",
        "title": "NubileFilms - Chloe Cherry, Eliza Ibarra - Dont Be Shy",
        "link": "magnet:?xt=urn:btih:7CD59510829015BB03494D2F0B13314A0F1758DF&dn=NubileFilms+-+Chloe+Cherry%2C+Eliza+Ibarra+-+Dont+Be+Shy&tr=udp%3A%2F%2Ftracker.coppersurfer.tk%3A6969%2Fannounce&tr=udp%3A%2F%2F9.rarbg.to%3A2920%2Fannounce&tr=udp%3A%2F%2Ftracker.opentrackr.org%3A1337&tr=udp%3A%2F%2Ftracker.internetwarriors.net%3A1337%2Fannounce&tr=udp%3A%2F%2Ftracker.leechers-paradise.org%3A6969%2Fannounce&tr=udp%3A%2F%2Ftracker.coppersurfer.tk%3A6969%2Fannounce&tr=udp%3A%2F%2Ftracker.pirateparty.gr%3A6969%2Fannounce&tr=udp%3A%2F%2Ftracker.cyberia.is%3A6969%2Fannounce",
        "seeder": "183",
        "leecher": "87"
    },
    {
        "rank": "62",
        "title": "DogHouseDigital 21 04 07 Lilly Bell Unrvy  480p mp4",
        "link": "magnet:?xt=urn:btih:AC5D5109B994C341985F77952F69936E9161F05A&dn=DogHouseDigital+21+04+07+Lilly+Bell+Unrvy++480p+mp4&tr=udp%3A%2F%2Ftracker.coppersurfer.tk%3A6969%2Fannounce&tr=udp%3A%2F%2F9.rarbg.to%3A2920%2Fannounce&tr=udp%3A%2F%2Ftracker.opentrackr.org%3A1337&tr=udp%3A%2F%2Ftracker.internetwarriors.net%3A1337%2Fannounce&tr=udp%3A%2F%2Ftracker.leechers-paradise.org%3A6969%2Fannounce&tr=udp%3A%2F%2Ftracker.coppersurfer.tk%3A6969%2Fannounce&tr=udp%3A%2F%2Ftracker.pirateparty.gr%3A6969%2Fannounce&tr=udp%3A%2F%2Ftracker.cyberia.is%3A6969%2Fannounce",
        "seeder": "179",
        "leecher": "75"
    },
    {
        "rank": "63",
        "title": "[Analized] Valentina Nappi - Wreck My Tight Teen Ass (06.04.2021",
        "link": "magnet:?xt=urn:btih:CDC9F83BAA870424450E67E25BB8B1F0B6AAF6C0&dn=%5BAnalized%5D+Valentina+Nappi+-+Wreck+My+Tight+Teen+Ass+%2806.04.2021&tr=udp%3A%2F%2Ftracker.coppersurfer.tk%3A6969%2Fannounce&tr=udp%3A%2F%2F9.rarbg.to%3A2920%2Fannounce&tr=udp%3A%2F%2Ftracker.opentrackr.org%3A1337&tr=udp%3A%2F%2Ftracker.internetwarriors.net%3A1337%2Fannounce&tr=udp%3A%2F%2Ftracker.leechers-paradise.org%3A6969%2Fannounce&tr=udp%3A%2F%2Ftracker.coppersurfer.tk%3A6969%2Fannounce&tr=udp%3A%2F%2Ftracker.pirateparty.gr%3A6969%2Fannounce&tr=udp%3A%2F%2Ftracker.cyberia.is%3A6969%2Fannounce",
        "seeder": "179",
        "leecher": "78"
    },
    {
        "rank": "64",
        "title": "WeFuckBlackGirls 21 04 06 Cecilia Lion  480p mp4",
        "link": "magnet:?xt=urn:btih:881F85865B1DBF1B3878E0BFB53AEFC6E850A0C4&dn=WeFuckBlackGirls+21+04+06+Cecilia+Lion++480p+mp4&tr=udp%3A%2F%2Ftracker.coppersurfer.tk%3A6969%2Fannounce&tr=udp%3A%2F%2F9.rarbg.to%3A2920%2Fannounce&tr=udp%3A%2F%2Ftracker.opentrackr.org%3A1337&tr=udp%3A%2F%2Ftracker.internetwarriors.net%3A1337%2Fannounce&tr=udp%3A%2F%2Ftracker.leechers-paradise.org%3A6969%2Fannounce&tr=udp%3A%2F%2Ftracker.coppersurfer.tk%3A6969%2Fannounce&tr=udp%3A%2F%2Ftracker.pirateparty.gr%3A6969%2Fannounce&tr=udp%3A%2F%2Ftracker.cyberia.is%3A6969%2Fannounce",
        "seeder": "179",
        "leecher": "36"
    },
    {
        "rank": "65",
        "title": "WoodmanCastingX - Elena Lux - Casting X",
        "link": "magnet:?xt=urn:btih:36CC0C093C6901E9D77A17DFA99D6A2D64BB1C8D&dn=WoodmanCastingX+-+Elena+Lux+-+Casting+X&tr=udp%3A%2F%2Ftracker.coppersurfer.tk%3A6969%2Fannounce&tr=udp%3A%2F%2F9.rarbg.to%3A2920%2Fannounce&tr=udp%3A%2F%2Ftracker.opentrackr.org%3A1337&tr=udp%3A%2F%2Ftracker.internetwarriors.net%3A1337%2Fannounce&tr=udp%3A%2F%2Ftracker.leechers-paradise.org%3A6969%2Fannounce&tr=udp%3A%2F%2Ftracker.coppersurfer.tk%3A6969%2Fannounce&tr=udp%3A%2F%2Ftracker.pirateparty.gr%3A6969%2Fannounce&tr=udp%3A%2F%2Ftracker.cyberia.is%3A6969%2Fannounce",
        "seeder": "177",
        "leecher": "5"
    },
    {
        "rank": "66",
        "title": "SneakySex - Gabbie Carter And La Sirena (I Fucked Your Boyfriend",
        "link": "magnet:?xt=urn:btih:323A2808E5E21A51C462E5C6C2CA476C15D3AA43&dn=SneakySex+-+Gabbie+Carter+And+La+Sirena+%28I+Fucked+Your+Boyfriend&tr=udp%3A%2F%2Ftracker.coppersurfer.tk%3A6969%2Fannounce&tr=udp%3A%2F%2F9.rarbg.to%3A2920%2Fannounce&tr=udp%3A%2F%2Ftracker.opentrackr.org%3A1337&tr=udp%3A%2F%2Ftracker.internetwarriors.net%3A1337%2Fannounce&tr=udp%3A%2F%2Ftracker.leechers-paradise.org%3A6969%2Fannounce&tr=udp%3A%2F%2Ftracker.coppersurfer.tk%3A6969%2Fannounce&tr=udp%3A%2F%2Ftracker.pirateparty.gr%3A6969%2Fannounce&tr=udp%3A%2F%2Ftracker.cyberia.is%3A6969%2Fannounce",
        "seeder": "176",
        "leecher": "12"
    },
    {
        "rank": "67",
        "title": "AnalBeauty 21 04 04 Queenlin  480p mp4",
        "link": "magnet:?xt=urn:btih:C51CDB14A742EDAE598E7A895D6CC6103CA3903A&dn=AnalBeauty+21+04+04+Queenlin++480p+mp4&tr=udp%3A%2F%2Ftracker.coppersurfer.tk%3A6969%2Fannounce&tr=udp%3A%2F%2F9.rarbg.to%3A2920%2Fannounce&tr=udp%3A%2F%2Ftracker.opentrackr.org%3A1337&tr=udp%3A%2F%2Ftracker.internetwarriors.net%3A1337%2Fannounce&tr=udp%3A%2F%2Ftracker.leechers-paradise.org%3A6969%2Fannounce&tr=udp%3A%2F%2Ftracker.coppersurfer.tk%3A6969%2Fannounce&tr=udp%3A%2F%2Ftracker.pirateparty.gr%3A6969%2Fannounce&tr=udp%3A%2F%2Ftracker.cyberia.is%3A6969%2Fannounce",
        "seeder": "173",
        "leecher": "30"
    },
    {
        "rank": "68",
        "title": "TeenFidelity E459 Stacy Cruz  480p mp4",
        "link": "magnet:?xt=urn:btih:11A199A0C521D7999E26FBE4A99AE81CAF940468&dn=TeenFidelity+E459+Stacy+Cruz++480p+mp4&tr=udp%3A%2F%2Ftracker.coppersurfer.tk%3A6969%2Fannounce&tr=udp%3A%2F%2F9.rarbg.to%3A2920%2Fannounce&tr=udp%3A%2F%2Ftracker.opentrackr.org%3A1337&tr=udp%3A%2F%2Ftracker.internetwarriors.net%3A1337%2Fannounce&tr=udp%3A%2F%2Ftracker.leechers-paradise.org%3A6969%2Fannounce&tr=udp%3A%2F%2Ftracker.coppersurfer.tk%3A6969%2Fannounce&tr=udp%3A%2F%2Ftracker.pirateparty.gr%3A6969%2Fannounce&tr=udp%3A%2F%2Ftracker.cyberia.is%3A6969%2Fannounce",
        "seeder": "173",
        "leecher": "16"
    },
    {
        "rank": "69",
        "title": "[BlackedRaw] Jessie Saint - Impatient (05.04.2021)",
        "link": "magnet:?xt=urn:btih:CAD2388E786E437EEE834DDA1CD00334D0493455&dn=%5BBlackedRaw%5D+Jessie+Saint+-+Impatient+%2805.04.2021%29&tr=udp%3A%2F%2Ftracker.coppersurfer.tk%3A6969%2Fannounce&tr=udp%3A%2F%2F9.rarbg.to%3A2920%2Fannounce&tr=udp%3A%2F%2Ftracker.opentrackr.org%3A1337&tr=udp%3A%2F%2Ftracker.internetwarriors.net%3A1337%2Fannounce&tr=udp%3A%2F%2Ftracker.leechers-paradise.org%3A6969%2Fannounce&tr=udp%3A%2F%2Ftracker.coppersurfer.tk%3A6969%2Fannounce&tr=udp%3A%2F%2Ftracker.pirateparty.gr%3A6969%2Fannounce&tr=udp%3A%2F%2Ftracker.cyberia.is%3A6969%2Fannounce",
        "seeder": "171",
        "leecher": "20"
    },
    {
        "rank": "70",
        "title": "FamilyStrokes 21 04 01 Jane Rogers And Jessica Ryan  480p mp4",
        "link": "magnet:?xt=urn:btih:45A6C858C41CA735E1A430BA1B05ABFE2AC14592&dn=FamilyStrokes+21+04+01+Jane+Rogers+And+Jessica+Ryan++480p+mp4&tr=udp%3A%2F%2Ftracker.coppersurfer.tk%3A6969%2Fannounce&tr=udp%3A%2F%2F9.rarbg.to%3A2920%2Fannounce&tr=udp%3A%2F%2Ftracker.opentrackr.org%3A1337&tr=udp%3A%2F%2Ftracker.internetwarriors.net%3A1337%2Fannounce&tr=udp%3A%2F%2Ftracker.leechers-paradise.org%3A6969%2Fannounce&tr=udp%3A%2F%2Ftracker.coppersurfer.tk%3A6969%2Fannounce&tr=udp%3A%2F%2Ftracker.pirateparty.gr%3A6969%2Fannounce&tr=udp%3A%2F%2Ftracker.cyberia.is%3A6969%2Fannounce",
        "seeder": "170",
        "leecher": "19"
    },
    {
        "rank": "71",
        "title": "RKPrime 21 03 30 Kendra Sunderland No Rest For Cheats  480p mp4",
        "link": "magnet:?xt=urn:btih:2BDFC1D6B7EC4D58E65F9F0E617EEFD8F5216D69&dn=RKPrime+21+03+30+Kendra+Sunderland+No+Rest+For+Cheats++480p+mp4&tr=udp%3A%2F%2Ftracker.coppersurfer.tk%3A6969%2Fannounce&tr=udp%3A%2F%2F9.rarbg.to%3A2920%2Fannounce&tr=udp%3A%2F%2Ftracker.opentrackr.org%3A1337&tr=udp%3A%2F%2Ftracker.internetwarriors.net%3A1337%2Fannounce&tr=udp%3A%2F%2Ftracker.leechers-paradise.org%3A6969%2Fannounce&tr=udp%3A%2F%2Ftracker.coppersurfer.tk%3A6969%2Fannounce&tr=udp%3A%2F%2Ftracker.pirateparty.gr%3A6969%2Fannounce&tr=udp%3A%2F%2Ftracker.cyberia.is%3A6969%2Fannounce",
        "seeder": "170",
        "leecher": "7"
    },
    {
        "rank": "72",
        "title": "[Blacked] Agatha Vega - Vacay (03.04.2021)",
        "link": "magnet:?xt=urn:btih:36DA7FCCE78EB7E0849DDB47D6756F16E4B04F41&dn=%5BBlacked%5D+Agatha+Vega+-+Vacay+%2803.04.2021%29&tr=udp%3A%2F%2Ftracker.coppersurfer.tk%3A6969%2Fannounce&tr=udp%3A%2F%2F9.rarbg.to%3A2920%2Fannounce&tr=udp%3A%2F%2Ftracker.opentrackr.org%3A1337&tr=udp%3A%2F%2Ftracker.internetwarriors.net%3A1337%2Fannounce&tr=udp%3A%2F%2Ftracker.leechers-paradise.org%3A6969%2Fannounce&tr=udp%3A%2F%2Ftracker.coppersurfer.tk%3A6969%2Fannounce&tr=udp%3A%2F%2Ftracker.pirateparty.gr%3A6969%2Fannounce&tr=udp%3A%2F%2Ftracker.cyberia.is%3A6969%2Fannounce",
        "seeder": "168",
        "leecher": "15"
    },
    {
        "rank": "73",
        "title": "MommysBoy 21 03 17 Reagan Foxx Some Quality Family Time  480p m",
        "link": "magnet:?xt=urn:btih:834E4CDF39A74D43E8EF14980A264B137A8BD686&dn=MommysBoy+21+03+17+Reagan+Foxx+Some+Quality+Family+Time++480p+m&tr=udp%3A%2F%2Ftracker.coppersurfer.tk%3A6969%2Fannounce&tr=udp%3A%2F%2F9.rarbg.to%3A2920%2Fannounce&tr=udp%3A%2F%2Ftracker.opentrackr.org%3A1337&tr=udp%3A%2F%2Ftracker.internetwarriors.net%3A1337%2Fannounce&tr=udp%3A%2F%2Ftracker.leechers-paradise.org%3A6969%2Fannounce&tr=udp%3A%2F%2Ftracker.coppersurfer.tk%3A6969%2Fannounce&tr=udp%3A%2F%2Ftracker.pirateparty.gr%3A6969%2Fannounce&tr=udp%3A%2F%2Ftracker.cyberia.is%3A6969%2Fannounce",
        "seeder": "167",
        "leecher": "11"
    },
    {
        "rank": "74",
        "title": "RKPrime 21 04 05 Havana Bleu Is That A Condom  480p mp4",
        "link": "magnet:?xt=urn:btih:842CDFA403C7749BA4DC2C7BC47542F19D984B40&dn=RKPrime+21+04+05+Havana+Bleu+Is+That+A+Condom++480p+mp4&tr=udp%3A%2F%2Ftracker.coppersurfer.tk%3A6969%2Fannounce&tr=udp%3A%2F%2F9.rarbg.to%3A2920%2Fannounce&tr=udp%3A%2F%2Ftracker.opentrackr.org%3A1337&tr=udp%3A%2F%2Ftracker.internetwarriors.net%3A1337%2Fannounce&tr=udp%3A%2F%2Ftracker.leechers-paradise.org%3A6969%2Fannounce&tr=udp%3A%2F%2Ftracker.coppersurfer.tk%3A6969%2Fannounce&tr=udp%3A%2F%2Ftracker.pirateparty.gr%3A6969%2Fannounce&tr=udp%3A%2F%2Ftracker.cyberia.is%3A6969%2Fannounce",
        "seeder": "166",
        "leecher": "24"
    },
    {
        "rank": "75",
        "title": "FreeUseFantasy 21 03 10 Sofie Reyez Extra Lovey Stepbro  480p m",
        "link": "magnet:?xt=urn:btih:82FCDEA785AEE0E43A6BDB6D1D14FD2A6918CBDA&dn=FreeUseFantasy+21+03+10+Sofie+Reyez+Extra+Lovey+Stepbro++480p+m&tr=udp%3A%2F%2Ftracker.coppersurfer.tk%3A6969%2Fannounce&tr=udp%3A%2F%2F9.rarbg.to%3A2920%2Fannounce&tr=udp%3A%2F%2Ftracker.opentrackr.org%3A1337&tr=udp%3A%2F%2Ftracker.internetwarriors.net%3A1337%2Fannounce&tr=udp%3A%2F%2Ftracker.leechers-paradise.org%3A6969%2Fannounce&tr=udp%3A%2F%2Ftracker.coppersurfer.tk%3A6969%2Fannounce&tr=udp%3A%2F%2Ftracker.pirateparty.gr%3A6969%2Fannounce&tr=udp%3A%2F%2Ftracker.cyberia.is%3A6969%2Fannounce",
        "seeder": "166",
        "leecher": "7"
    },
    {
        "rank": "76",
        "title": "AnalMom 21 03 11 Clea Gaultier Special Trip With Stepmom  480p",
        "link": "magnet:?xt=urn:btih:ABF1A70B53E87AC7A33073FC792509F35CA91661&dn=AnalMom+21+03+11+Clea+Gaultier+Special+Trip+With+Stepmom++480p&tr=udp%3A%2F%2Ftracker.coppersurfer.tk%3A6969%2Fannounce&tr=udp%3A%2F%2F9.rarbg.to%3A2920%2Fannounce&tr=udp%3A%2F%2Ftracker.opentrackr.org%3A1337&tr=udp%3A%2F%2Ftracker.internetwarriors.net%3A1337%2Fannounce&tr=udp%3A%2F%2Ftracker.leechers-paradise.org%3A6969%2Fannounce&tr=udp%3A%2F%2Ftracker.coppersurfer.tk%3A6969%2Fannounce&tr=udp%3A%2F%2Ftracker.pirateparty.gr%3A6969%2Fannounce&tr=udp%3A%2F%2Ftracker.cyberia.is%3A6969%2Fannounce",
        "seeder": "165",
        "leecher": "9"
    },
    {
        "rank": "77",
        "title": "BrazzersExxtra 21 03 14 Aidra Fox My SisterInLaw For Breakfast",
        "link": "magnet:?xt=urn:btih:608B91DFFB7D29C342E31730CEFC672B42FA90C4&dn=BrazzersExxtra+21+03+14+Aidra+Fox+My+SisterInLaw+For+Breakfast&tr=udp%3A%2F%2Ftracker.coppersurfer.tk%3A6969%2Fannounce&tr=udp%3A%2F%2F9.rarbg.to%3A2920%2Fannounce&tr=udp%3A%2F%2Ftracker.opentrackr.org%3A1337&tr=udp%3A%2F%2Ftracker.internetwarriors.net%3A1337%2Fannounce&tr=udp%3A%2F%2Ftracker.leechers-paradise.org%3A6969%2Fannounce&tr=udp%3A%2F%2Ftracker.coppersurfer.tk%3A6969%2Fannounce&tr=udp%3A%2F%2Ftracker.pirateparty.gr%3A6969%2Fannounce&tr=udp%3A%2F%2Ftracker.cyberia.is%3A6969%2Fannounce",
        "seeder": "163",
        "leecher": "6"
    },
    {
        "rank": "78",
        "title": "Loan4K E12 Alex  480p mp4",
        "link": "magnet:?xt=urn:btih:E37F31281A2194136917B3298539FBA980875DC1&dn=Loan4K+E12+Alex++480p+mp4&tr=udp%3A%2F%2Ftracker.coppersurfer.tk%3A6969%2Fannounce&tr=udp%3A%2F%2F9.rarbg.to%3A2920%2Fannounce&tr=udp%3A%2F%2Ftracker.opentrackr.org%3A1337&tr=udp%3A%2F%2Ftracker.internetwarriors.net%3A1337%2Fannounce&tr=udp%3A%2F%2Ftracker.leechers-paradise.org%3A6969%2Fannounce&tr=udp%3A%2F%2Ftracker.coppersurfer.tk%3A6969%2Fannounce&tr=udp%3A%2F%2Ftracker.pirateparty.gr%3A6969%2Fannounce&tr=udp%3A%2F%2Ftracker.cyberia.is%3A6969%2Fannounce",
        "seeder": "162",
        "leecher": "14"
    },
    {
        "rank": "79",
        "title": "SisLovesMe 21 03 26 Maya Wolfe Help Me Stepsis  480p mp4",
        "link": "magnet:?xt=urn:btih:6F6B08FF54DCE84128D71854E7C0EB52B3A52151&dn=SisLovesMe+21+03+26+Maya+Wolfe+Help+Me+Stepsis++480p+mp4&tr=udp%3A%2F%2Ftracker.coppersurfer.tk%3A6969%2Fannounce&tr=udp%3A%2F%2F9.rarbg.to%3A2920%2Fannounce&tr=udp%3A%2F%2Ftracker.opentrackr.org%3A1337&tr=udp%3A%2F%2Ftracker.internetwarriors.net%3A1337%2Fannounce&tr=udp%3A%2F%2Ftracker.leechers-paradise.org%3A6969%2Fannounce&tr=udp%3A%2F%2Ftracker.coppersurfer.tk%3A6969%2Fannounce&tr=udp%3A%2F%2Ftracker.pirateparty.gr%3A6969%2Fannounce&tr=udp%3A%2F%2Ftracker.cyberia.is%3A6969%2Fannounce",
        "seeder": "159",
        "leecher": "11"
    },
    {
        "rank": "80",
        "title": "AnalMom 21 03 25 Canela Skin Cheater Gets It From Behind  480p",
        "link": "magnet:?xt=urn:btih:013D1C6C772A7138B98F7E814C76C5CEB541F126&dn=AnalMom+21+03+25+Canela+Skin+Cheater+Gets+It+From+Behind++480p&tr=udp%3A%2F%2Ftracker.coppersurfer.tk%3A6969%2Fannounce&tr=udp%3A%2F%2F9.rarbg.to%3A2920%2Fannounce&tr=udp%3A%2F%2Ftracker.opentrackr.org%3A1337&tr=udp%3A%2F%2Ftracker.internetwarriors.net%3A1337%2Fannounce&tr=udp%3A%2F%2Ftracker.leechers-paradise.org%3A6969%2Fannounce&tr=udp%3A%2F%2Ftracker.coppersurfer.tk%3A6969%2Fannounce&tr=udp%3A%2F%2Ftracker.pirateparty.gr%3A6969%2Fannounce&tr=udp%3A%2F%2Ftracker.cyberia.is%3A6969%2Fannounce",
        "seeder": "159",
        "leecher": "7"
    },
    {
        "rank": "81",
        "title": "Shoplyfter 21 03 24 Charly Summer The Obvious Thief  480p mp4",
        "link": "magnet:?xt=urn:btih:C8C7E0E4B7FEE65FC8A841A24C004804864F05BD&dn=Shoplyfter+21+03+24+Charly+Summer+The+Obvious+Thief++480p+mp4&tr=udp%3A%2F%2Ftracker.coppersurfer.tk%3A6969%2Fannounce&tr=udp%3A%2F%2F9.rarbg.to%3A2920%2Fannounce&tr=udp%3A%2F%2Ftracker.opentrackr.org%3A1337&tr=udp%3A%2F%2Ftracker.internetwarriors.net%3A1337%2Fannounce&tr=udp%3A%2F%2Ftracker.leechers-paradise.org%3A6969%2Fannounce&tr=udp%3A%2F%2Ftracker.coppersurfer.tk%3A6969%2Fannounce&tr=udp%3A%2F%2Ftracker.pirateparty.gr%3A6969%2Fannounce&tr=udp%3A%2F%2Ftracker.cyberia.is%3A6969%2Fannounce",
        "seeder": "159",
        "leecher": "10"
    },
    {
        "rank": "82",
        "title": "BrazzersExxtra 21 03 24 Kayley Gunner And Jenna Starr  480p mp4",
        "link": "magnet:?xt=urn:btih:AA066EF42E47DFDE8B01A35523369D3080BAD048&dn=BrazzersExxtra+21+03+24+Kayley+Gunner+And+Jenna+Starr++480p+mp4&tr=udp%3A%2F%2Ftracker.coppersurfer.tk%3A6969%2Fannounce&tr=udp%3A%2F%2F9.rarbg.to%3A2920%2Fannounce&tr=udp%3A%2F%2Ftracker.opentrackr.org%3A1337&tr=udp%3A%2F%2Ftracker.internetwarriors.net%3A1337%2Fannounce&tr=udp%3A%2F%2Ftracker.leechers-paradise.org%3A6969%2Fannounce&tr=udp%3A%2F%2Ftracker.coppersurfer.tk%3A6969%2Fannounce&tr=udp%3A%2F%2Ftracker.pirateparty.gr%3A6969%2Fannounce&tr=udp%3A%2F%2Ftracker.cyberia.is%3A6969%2Fannounce",
        "seeder": "159",
        "leecher": "9"
    },
    {
        "rank": "83",
        "title": "AnalAngels 21 04 06 Alien Fox  480p mp4",
        "link": "magnet:?xt=urn:btih:B3BC3862D4DC82FB12D1594D7D36F24E19DF5B1F&dn=AnalAngels+21+04+06+Alien+Fox++480p+mp4&tr=udp%3A%2F%2Ftracker.coppersurfer.tk%3A6969%2Fannounce&tr=udp%3A%2F%2F9.rarbg.to%3A2920%2Fannounce&tr=udp%3A%2F%2Ftracker.opentrackr.org%3A1337&tr=udp%3A%2F%2Ftracker.internetwarriors.net%3A1337%2Fannounce&tr=udp%3A%2F%2Ftracker.leechers-paradise.org%3A6969%2Fannounce&tr=udp%3A%2F%2Ftracker.coppersurfer.tk%3A6969%2Fannounce&tr=udp%3A%2F%2Ftracker.pirateparty.gr%3A6969%2Fannounce&tr=udp%3A%2F%2Ftracker.cyberia.is%3A6969%2Fannounce",
        "seeder": "158",
        "leecher": "13"
    },
    {
        "rank": "84",
        "title": "FamilySwap 21 03 25 Christie Stevens And Kenzie Reeves  480p mp",
        "link": "magnet:?xt=urn:btih:B841F82EFD5D535E52AE081E5A44AF890E34FAF0&dn=FamilySwap+21+03+25+Christie+Stevens+And+Kenzie+Reeves++480p+mp&tr=udp%3A%2F%2Ftracker.coppersurfer.tk%3A6969%2Fannounce&tr=udp%3A%2F%2F9.rarbg.to%3A2920%2Fannounce&tr=udp%3A%2F%2Ftracker.opentrackr.org%3A1337&tr=udp%3A%2F%2Ftracker.internetwarriors.net%3A1337%2Fannounce&tr=udp%3A%2F%2Ftracker.leechers-paradise.org%3A6969%2Fannounce&tr=udp%3A%2F%2Ftracker.coppersurfer.tk%3A6969%2Fannounce&tr=udp%3A%2F%2Ftracker.pirateparty.gr%3A6969%2Fannounce&tr=udp%3A%2F%2Ftracker.cyberia.is%3A6969%2Fannounce",
        "seeder": "157",
        "leecher": "10"
    },
    {
        "rank": "85",
        "title": "TittyAttack 21 04 05 Gabriela Lopez Blow You Away  480p mp4",
        "link": "magnet:?xt=urn:btih:977A0F6107F7623E41F37A018B44741E35970C5F&dn=TittyAttack+21+04+05+Gabriela+Lopez+Blow+You+Away++480p+mp4&tr=udp%3A%2F%2Ftracker.coppersurfer.tk%3A6969%2Fannounce&tr=udp%3A%2F%2F9.rarbg.to%3A2920%2Fannounce&tr=udp%3A%2F%2Ftracker.opentrackr.org%3A1337&tr=udp%3A%2F%2Ftracker.internetwarriors.net%3A1337%2Fannounce&tr=udp%3A%2F%2Ftracker.leechers-paradise.org%3A6969%2Fannounce&tr=udp%3A%2F%2Ftracker.coppersurfer.tk%3A6969%2Fannounce&tr=udp%3A%2F%2Ftracker.pirateparty.gr%3A6969%2Fannounce&tr=udp%3A%2F%2Ftracker.cyberia.is%3A6969%2Fannounce",
        "seeder": "156",
        "leecher": "29"
    },
    {
        "rank": "86",
        "title": "DigitalPlayground 21 04 05 Emily Willis She Came Back  480p mp4",
        "link": "magnet:?xt=urn:btih:A90E45BBA2253D7E95AF7901D64D8F081DF4B6C2&dn=DigitalPlayground+21+04+05+Emily+Willis+She+Came+Back++480p+mp4&tr=udp%3A%2F%2Ftracker.coppersurfer.tk%3A6969%2Fannounce&tr=udp%3A%2F%2F9.rarbg.to%3A2920%2Fannounce&tr=udp%3A%2F%2Ftracker.opentrackr.org%3A1337&tr=udp%3A%2F%2Ftracker.internetwarriors.net%3A1337%2Fannounce&tr=udp%3A%2F%2Ftracker.leechers-paradise.org%3A6969%2Fannounce&tr=udp%3A%2F%2Ftracker.coppersurfer.tk%3A6969%2Fannounce&tr=udp%3A%2F%2Ftracker.pirateparty.gr%3A6969%2Fannounce&tr=udp%3A%2F%2Ftracker.cyberia.is%3A6969%2Fannounce",
        "seeder": "155",
        "leecher": "27"
    },
    {
        "rank": "87",
        "title": "[BackroomCastingCouch] Roxy - 18 year old (05.04.2021)",
        "link": "magnet:?xt=urn:btih:C20B7A752FAD870150ACD0C8D48B654B87F5CA59&dn=%5BBackroomCastingCouch%5D+Roxy+-+18+year+old+%2805.04.2021%29&tr=udp%3A%2F%2Ftracker.coppersurfer.tk%3A6969%2Fannounce&tr=udp%3A%2F%2F9.rarbg.to%3A2920%2Fannounce&tr=udp%3A%2F%2Ftracker.opentrackr.org%3A1337&tr=udp%3A%2F%2Ftracker.internetwarriors.net%3A1337%2Fannounce&tr=udp%3A%2F%2Ftracker.leechers-paradise.org%3A6969%2Fannounce&tr=udp%3A%2F%2Ftracker.coppersurfer.tk%3A6969%2Fannounce&tr=udp%3A%2F%2Ftracker.pirateparty.gr%3A6969%2Fannounce&tr=udp%3A%2F%2Ftracker.cyberia.is%3A6969%2Fannounce",
        "seeder": "154",
        "leecher": "20"
    },
    {
        "rank": "88",
        "title": "TeamSkeetXLuxuryGirl 21 03 09 Luxury Girl Massaging My Stepmom",
        "link": "magnet:?xt=urn:btih:086456AA88E403D8CA02A55298A309BB78FF2DC5&dn=TeamSkeetXLuxuryGirl+21+03+09+Luxury+Girl+Massaging+My+Stepmom&tr=udp%3A%2F%2Ftracker.coppersurfer.tk%3A6969%2Fannounce&tr=udp%3A%2F%2F9.rarbg.to%3A2920%2Fannounce&tr=udp%3A%2F%2Ftracker.opentrackr.org%3A1337&tr=udp%3A%2F%2Ftracker.internetwarriors.net%3A1337%2Fannounce&tr=udp%3A%2F%2Ftracker.leechers-paradise.org%3A6969%2Fannounce&tr=udp%3A%2F%2Ftracker.coppersurfer.tk%3A6969%2Fannounce&tr=udp%3A%2F%2Ftracker.pirateparty.gr%3A6969%2Fannounce&tr=udp%3A%2F%2Ftracker.cyberia.is%3A6969%2Fannounce",
        "seeder": "154",
        "leecher": "9"
    },
    {
        "rank": "89",
        "title": "[SexArt] Stacy Cruz - Turn The Sport Off (07.04.2021)",
        "link": "magnet:?xt=urn:btih:71D0465E45C956DB1BD2F3B2256D179373FE2162&dn=%5BSexArt%5D+Stacy+Cruz+-+Turn+The+Sport+Off+%2807.04.2021%29&tr=udp%3A%2F%2Ftracker.coppersurfer.tk%3A6969%2Fannounce&tr=udp%3A%2F%2F9.rarbg.to%3A2920%2Fannounce&tr=udp%3A%2F%2Ftracker.opentrackr.org%3A1337&tr=udp%3A%2F%2Ftracker.internetwarriors.net%3A1337%2Fannounce&tr=udp%3A%2F%2Ftracker.leechers-paradise.org%3A6969%2Fannounce&tr=udp%3A%2F%2Ftracker.coppersurfer.tk%3A6969%2Fannounce&tr=udp%3A%2F%2Ftracker.pirateparty.gr%3A6969%2Fannounce&tr=udp%3A%2F%2Ftracker.cyberia.is%3A6969%2Fannounce",
        "seeder": "153",
        "leecher": "45"
    },
    {
        "rank": "90",
        "title": "DeepLush 21 03 24 Emma Hix Anal With Emma  480p mp4",
        "link": "magnet:?xt=urn:btih:632C43F96112A2CE8590632CFF1BCD7BAED24FBC&dn=DeepLush+21+03+24+Emma+Hix+Anal+With+Emma++480p+mp4&tr=udp%3A%2F%2Ftracker.coppersurfer.tk%3A6969%2Fannounce&tr=udp%3A%2F%2F9.rarbg.to%3A2920%2Fannounce&tr=udp%3A%2F%2Ftracker.opentrackr.org%3A1337&tr=udp%3A%2F%2Ftracker.internetwarriors.net%3A1337%2Fannounce&tr=udp%3A%2F%2Ftracker.leechers-paradise.org%3A6969%2Fannounce&tr=udp%3A%2F%2Ftracker.coppersurfer.tk%3A6969%2Fannounce&tr=udp%3A%2F%2Ftracker.pirateparty.gr%3A6969%2Fannounce&tr=udp%3A%2F%2Ftracker.cyberia.is%3A6969%2Fannounce",
        "seeder": "153",
        "leecher": "1"
    },
    {
        "rank": "91",
        "title": "TabooHeat 21 03 27 Cory Chase Stuck At Home With My Stepmom  48",
        "link": "magnet:?xt=urn:btih:30AEB0E3A3FF241130BDD2F802657119FA68F44B&dn=TabooHeat+21+03+27+Cory+Chase+Stuck+At+Home+With+My+Stepmom++48&tr=udp%3A%2F%2Ftracker.coppersurfer.tk%3A6969%2Fannounce&tr=udp%3A%2F%2F9.rarbg.to%3A2920%2Fannounce&tr=udp%3A%2F%2Ftracker.opentrackr.org%3A1337&tr=udp%3A%2F%2Ftracker.internetwarriors.net%3A1337%2Fannounce&tr=udp%3A%2F%2Ftracker.leechers-paradise.org%3A6969%2Fannounce&tr=udp%3A%2F%2Ftracker.coppersurfer.tk%3A6969%2Fannounce&tr=udp%3A%2F%2Ftracker.pirateparty.gr%3A6969%2Fannounce&tr=udp%3A%2F%2Ftracker.cyberia.is%3A6969%2Fannounce",
        "seeder": "152",
        "leecher": "15"
    },
    {
        "rank": "92",
        "title": "EvilAngel 21 04 05 Emma Hix DP Threesome Submission  480p mp4",
        "link": "magnet:?xt=urn:btih:1FE572E199840B26D7DCD108075E4838319C7658&dn=EvilAngel+21+04+05+Emma+Hix+DP+Threesome+Submission++480p+mp4&tr=udp%3A%2F%2Ftracker.coppersurfer.tk%3A6969%2Fannounce&tr=udp%3A%2F%2F9.rarbg.to%3A2920%2Fannounce&tr=udp%3A%2F%2Ftracker.opentrackr.org%3A1337&tr=udp%3A%2F%2Ftracker.internetwarriors.net%3A1337%2Fannounce&tr=udp%3A%2F%2Ftracker.leechers-paradise.org%3A6969%2Fannounce&tr=udp%3A%2F%2Ftracker.coppersurfer.tk%3A6969%2Fannounce&tr=udp%3A%2F%2Ftracker.pirateparty.gr%3A6969%2Fannounce&tr=udp%3A%2F%2Ftracker.cyberia.is%3A6969%2Fannounce",
        "seeder": "151",
        "leecher": "16"
    },
    {
        "rank": "93",
        "title": "JacquieEtMichelTV 21 04 04 Katrinas Caliente Curves FRENCH  480",
        "link": "magnet:?xt=urn:btih:6DED8BB213B3F4004DEC1BC43D6020F830B4947C&dn=JacquieEtMichelTV+21+04+04+Katrinas+Caliente+Curves+FRENCH++480&tr=udp%3A%2F%2Ftracker.coppersurfer.tk%3A6969%2Fannounce&tr=udp%3A%2F%2F9.rarbg.to%3A2920%2Fannounce&tr=udp%3A%2F%2Ftracker.opentrackr.org%3A1337&tr=udp%3A%2F%2Ftracker.internetwarriors.net%3A1337%2Fannounce&tr=udp%3A%2F%2Ftracker.leechers-paradise.org%3A6969%2Fannounce&tr=udp%3A%2F%2Ftracker.coppersurfer.tk%3A6969%2Fannounce&tr=udp%3A%2F%2Ftracker.pirateparty.gr%3A6969%2Fannounce&tr=udp%3A%2F%2Ftracker.cyberia.is%3A6969%2Fannounce",
        "seeder": "151",
        "leecher": "24"
    },
    {
        "rank": "94",
        "title": "BackroomCastingCouch - Lexus Love - 18 years old",
        "link": "magnet:?xt=urn:btih:2484B6B3EA9EE73A43F437C717350E4715E127D6&dn=BackroomCastingCouch+-+Lexus+Love+-+18+years+old&tr=udp%3A%2F%2Ftracker.coppersurfer.tk%3A6969%2Fannounce&tr=udp%3A%2F%2F9.rarbg.to%3A2920%2Fannounce&tr=udp%3A%2F%2Ftracker.opentrackr.org%3A1337&tr=udp%3A%2F%2Ftracker.internetwarriors.net%3A1337%2Fannounce&tr=udp%3A%2F%2Ftracker.leechers-paradise.org%3A6969%2Fannounce&tr=udp%3A%2F%2Ftracker.coppersurfer.tk%3A6969%2Fannounce&tr=udp%3A%2F%2Ftracker.pirateparty.gr%3A6969%2Fannounce&tr=udp%3A%2F%2Ftracker.cyberia.is%3A6969%2Fannounce",
        "seeder": "151",
        "leecher": "12"
    },
    {
        "rank": "95",
        "title": "BlackedRaw - Nala Brooks - Come Here Daddy",
        "link": "magnet:?xt=urn:btih:2C6E25DA6922E2C9269378498DA9F33CF6016BF1&dn=BlackedRaw+-+Nala+Brooks+-+Come+Here+Daddy&tr=udp%3A%2F%2Ftracker.coppersurfer.tk%3A6969%2Fannounce&tr=udp%3A%2F%2F9.rarbg.to%3A2920%2Fannounce&tr=udp%3A%2F%2Ftracker.opentrackr.org%3A1337&tr=udp%3A%2F%2Ftracker.internetwarriors.net%3A1337%2Fannounce&tr=udp%3A%2F%2Ftracker.leechers-paradise.org%3A6969%2Fannounce&tr=udp%3A%2F%2Ftracker.coppersurfer.tk%3A6969%2Fannounce&tr=udp%3A%2F%2Ftracker.pirateparty.gr%3A6969%2Fannounce&tr=udp%3A%2F%2Ftracker.cyberia.is%3A6969%2Fannounce",
        "seeder": "148",
        "leecher": "41"
    },
    {
        "rank": "96",
        "title": "ExxxtraSmall 21 04 01 Lana Roy Tiny Prankster Gets What She Des",
        "link": "magnet:?xt=urn:btih:083D164F63EC128AA536E7010F799F3ACEC83DDC&dn=ExxxtraSmall+21+04+01+Lana+Roy+Tiny+Prankster+Gets+What+She+Des&tr=udp%3A%2F%2Ftracker.coppersurfer.tk%3A6969%2Fannounce&tr=udp%3A%2F%2F9.rarbg.to%3A2920%2Fannounce&tr=udp%3A%2F%2Ftracker.opentrackr.org%3A1337&tr=udp%3A%2F%2Ftracker.internetwarriors.net%3A1337%2Fannounce&tr=udp%3A%2F%2Ftracker.leechers-paradise.org%3A6969%2Fannounce&tr=udp%3A%2F%2Ftracker.coppersurfer.tk%3A6969%2Fannounce&tr=udp%3A%2F%2Ftracker.pirateparty.gr%3A6969%2Fannounce&tr=udp%3A%2F%2Ftracker.cyberia.is%3A6969%2Fannounce",
        "seeder": "148",
        "leecher": "8"
    },
    {
        "rank": "97",
        "title": "BrazzersExxtra 21 03 19 Kira Queen And Liya Silver Watch Me Ins",
        "link": "magnet:?xt=urn:btih:B5CFAC7442A043AFAA4345D030BFF8714C2B0AF8&dn=BrazzersExxtra+21+03+19+Kira+Queen+And+Liya+Silver+Watch+Me+Ins&tr=udp%3A%2F%2Ftracker.coppersurfer.tk%3A6969%2Fannounce&tr=udp%3A%2F%2F9.rarbg.to%3A2920%2Fannounce&tr=udp%3A%2F%2Ftracker.opentrackr.org%3A1337&tr=udp%3A%2F%2Ftracker.internetwarriors.net%3A1337%2Fannounce&tr=udp%3A%2F%2Ftracker.leechers-paradise.org%3A6969%2Fannounce&tr=udp%3A%2F%2Ftracker.coppersurfer.tk%3A6969%2Fannounce&tr=udp%3A%2F%2Ftracker.pirateparty.gr%3A6969%2Fannounce&tr=udp%3A%2F%2Ftracker.cyberia.is%3A6969%2Fannounce",
        "seeder": "147",
        "leecher": "10"
    },
    {
        "rank": "98",
        "title": "MomIsHorny 21 04 02 Ally Cooper  480p mp4",
        "link": "magnet:?xt=urn:btih:D9C4FF7F79A81417CAC71B8F1C195D36FBD83EE8&dn=MomIsHorny+21+04+02+Ally+Cooper++480p+mp4&tr=udp%3A%2F%2Ftracker.coppersurfer.tk%3A6969%2Fannounce&tr=udp%3A%2F%2F9.rarbg.to%3A2920%2Fannounce&tr=udp%3A%2F%2Ftracker.opentrackr.org%3A1337&tr=udp%3A%2F%2Ftracker.internetwarriors.net%3A1337%2Fannounce&tr=udp%3A%2F%2Ftracker.leechers-paradise.org%3A6969%2Fannounce&tr=udp%3A%2F%2Ftracker.coppersurfer.tk%3A6969%2Fannounce&tr=udp%3A%2F%2Ftracker.pirateparty.gr%3A6969%2Fannounce&tr=udp%3A%2F%2Ftracker.cyberia.is%3A6969%2Fannounce",
        "seeder": "146",
        "leecher": "24"
    },
    {
        "rank": "99",
        "title": "LegalPorno - Silvia Soprano Vs 3 BBC with Squirt, Balls Deep Ana",
        "link": "magnet:?xt=urn:btih:DC10E20AC3C3FA1A5FA6755C83F6F7767DBF0259&dn=LegalPorno+-+Silvia+Soprano+Vs+3+BBC+with+Squirt%2C+Balls+Deep+Ana&tr=udp%3A%2F%2Ftracker.coppersurfer.tk%3A6969%2Fannounce&tr=udp%3A%2F%2F9.rarbg.to%3A2920%2Fannounce&tr=udp%3A%2F%2Ftracker.opentrackr.org%3A1337&tr=udp%3A%2F%2Ftracker.internetwarriors.net%3A1337%2Fannounce&tr=udp%3A%2F%2Ftracker.leechers-paradise.org%3A6969%2Fannounce&tr=udp%3A%2F%2Ftracker.coppersurfer.tk%3A6969%2Fannounce&tr=udp%3A%2F%2Ftracker.pirateparty.gr%3A6969%2Fannounce&tr=udp%3A%2F%2Ftracker.cyberia.is%3A6969%2Fannounce",
        "seeder": "145",
        "leecher": "59"
    },
    {
        "rank": "100",
        "title": "PublicAgent 21 04 05 Alexis Crystal And Lexi Dona  480p mp4",
        "link": "magnet:?xt=urn:btih:E39FD06C20AC28F7AC88885C286375B53C55BBCC&dn=PublicAgent+21+04+05+Alexis+Crystal+And+Lexi+Dona++480p+mp4&tr=udp%3A%2F%2Ftracker.coppersurfer.tk%3A6969%2Fannounce&tr=udp%3A%2F%2F9.rarbg.to%3A2920%2Fannounce&tr=udp%3A%2F%2Ftracker.opentrackr.org%3A1337&tr=udp%3A%2F%2Ftracker.internetwarriors.net%3A1337%2Fannounce&tr=udp%3A%2F%2Ftracker.leechers-paradise.org%3A6969%2Fannounce&tr=udp%3A%2F%2Ftracker.coppersurfer.tk%3A6969%2Fannounce&tr=udp%3A%2F%2Ftracker.pirateparty.gr%3A6969%2Fannounce&tr=udp%3A%2F%2Ftracker.cyberia.is%3A6969%2Fannounce",
        "seeder": "145",
        "leecher": "21"
    }
]
