[
    {
        "rank": "1",
        "title": "Billboar 500 Songs of the 80s (Mp3 320kbps) [PMEDIA] \u2b50\ufe0f",
        "link": "magnet:?xt=urn:btih:2CBBD50B9DB1C6E51E9B8702E0BA246CEFAFA00F&dn=Billboar+500+Songs+of+the+80s+%28Mp3+320kbps%29+%5BPMEDIA%5D+%E2%AD%90%EF%B8%8F&tr=udp%3A%2F%2Ftracker.coppersurfer.tk%3A6969%2Fannounce&tr=udp%3A%2F%2F9.rarbg.to%3A2920%2Fannounce&tr=udp%3A%2F%2Ftracker.opentrackr.org%3A1337&tr=udp%3A%2F%2Ftracker.internetwarriors.net%3A1337%2Fannounce&tr=udp%3A%2F%2Ftracker.leechers-paradise.org%3A6969%2Fannounce&tr=udp%3A%2F%2Ftracker.coppersurfer.tk%3A6969%2Fannounce&tr=udp%3A%2F%2Ftracker.pirateparty.gr%3A6969%2Fannounce&tr=udp%3A%2F%2Ftracker.cyberia.is%3A6969%2Fannounce",
        "seeder": "320",
        "leecher": "82"
    },
    {
        "rank": "2",
        "title": "VA - The Best 80s Car Songs Album In The World Ever (3CD) (2021)",
        "link": "magnet:?xt=urn:btih:A7DE8E0FE4490B384D11B07382B62D7F7CE01222&dn=VA+-+The+Best+80s+Car+Songs+Album+In+The+World+Ever+%283CD%29+%282021%29&tr=udp%3A%2F%2Ftracker.coppersurfer.tk%3A6969%2Fannounce&tr=udp%3A%2F%2F9.rarbg.to%3A2920%2Fannounce&tr=udp%3A%2F%2Ftracker.opentrackr.org%3A1337&tr=udp%3A%2F%2Ftracker.internetwarriors.net%3A1337%2Fannounce&tr=udp%3A%2F%2Ftracker.leechers-paradise.org%3A6969%2Fannounce&tr=udp%3A%2F%2Ftracker.coppersurfer.tk%3A6969%2Fannounce&tr=udp%3A%2F%2Ftracker.pirateparty.gr%3A6969%2Fannounce&tr=udp%3A%2F%2Ftracker.cyberia.is%3A6969%2Fannounce",
        "seeder": "317",
        "leecher": "17"
    },
    {
        "rank": "3",
        "title": "Evanescence - The Bitter Truth (2021) Mp3 320kbps CD-Rip",
        "link": "magnet:?xt=urn:btih:0558D61FE707FC7B2BBDB4E0DDA2C84C662007B7&dn=Evanescence+-+The+Bitter+Truth+%282021%29+Mp3+320kbps+CD-Rip&tr=udp%3A%2F%2Ftracker.coppersurfer.tk%3A6969%2Fannounce&tr=udp%3A%2F%2F9.rarbg.to%3A2920%2Fannounce&tr=udp%3A%2F%2Ftracker.opentrackr.org%3A1337&tr=udp%3A%2F%2Ftracker.internetwarriors.net%3A1337%2Fannounce&tr=udp%3A%2F%2Ftracker.leechers-paradise.org%3A6969%2Fannounce&tr=udp%3A%2F%2Ftracker.coppersurfer.tk%3A6969%2Fannounce&tr=udp%3A%2F%2Ftracker.pirateparty.gr%3A6969%2Fannounce&tr=udp%3A%2F%2Ftracker.cyberia.is%3A6969%2Fannounce",
        "seeder": "257",
        "leecher": "6"
    },
    {
        "rank": "4",
        "title": "VA - 100 Greatest Songs from the Movies (2021) Mp3 320kbps",
        "link": "magnet:?xt=urn:btih:ABC10F8B10924F01C67861CD058773F6E0079F7F&dn=VA+-+100+Greatest+Songs+from+the+Movies+%282021%29+Mp3+320kbps&tr=udp%3A%2F%2Ftracker.coppersurfer.tk%3A6969%2Fannounce&tr=udp%3A%2F%2F9.rarbg.to%3A2920%2Fannounce&tr=udp%3A%2F%2Ftracker.opentrackr.org%3A1337&tr=udp%3A%2F%2Ftracker.internetwarriors.net%3A1337%2Fannounce&tr=udp%3A%2F%2Ftracker.leechers-paradise.org%3A6969%2Fannounce&tr=udp%3A%2F%2Ftracker.coppersurfer.tk%3A6969%2Fannounce&tr=udp%3A%2F%2Ftracker.pirateparty.gr%3A6969%2Fannounce&tr=udp%3A%2F%2Ftracker.cyberia.is%3A6969%2Fannounce",
        "seeder": "238",
        "leecher": "18"
    },
    {
        "rank": "5",
        "title": "Lana Del Rey - Chemtrails Over The Country Club (2021)",
        "link": "magnet:?xt=urn:btih:6E9C96A1C1407CE568436DF8BFBB88B11531B2DA&dn=Lana+Del+Rey+-+Chemtrails+Over+The+Country+Club+%282021%29&tr=udp%3A%2F%2Ftracker.coppersurfer.tk%3A6969%2Fannounce&tr=udp%3A%2F%2F9.rarbg.to%3A2920%2Fannounce&tr=udp%3A%2F%2Ftracker.opentrackr.org%3A1337&tr=udp%3A%2F%2Ftracker.internetwarriors.net%3A1337%2Fannounce&tr=udp%3A%2F%2Ftracker.leechers-paradise.org%3A6969%2Fannounce&tr=udp%3A%2F%2Ftracker.coppersurfer.tk%3A6969%2Fannounce&tr=udp%3A%2F%2Ftracker.pirateparty.gr%3A6969%2Fannounce&tr=udp%3A%2F%2Ftracker.cyberia.is%3A6969%2Fannounce",
        "seeder": "223",
        "leecher": "5"
    },
    {
        "rank": "6",
        "title": "VA - Russian radio - TOP 100 rotations of January (2021) MP3",
        "link": "magnet:?xt=urn:btih:7B7B368CE70FF8D9060A3BFE8ADB676CB965555D&dn=VA+-+Russian+radio+-+TOP+100+rotations+of+January+%282021%29+MP3&tr=udp%3A%2F%2Ftracker.coppersurfer.tk%3A6969%2Fannounce&tr=udp%3A%2F%2F9.rarbg.to%3A2920%2Fannounce&tr=udp%3A%2F%2Ftracker.opentrackr.org%3A1337&tr=udp%3A%2F%2Ftracker.internetwarriors.net%3A1337%2Fannounce&tr=udp%3A%2F%2Ftracker.leechers-paradise.org%3A6969%2Fannounce&tr=udp%3A%2F%2Ftracker.coppersurfer.tk%3A6969%2Fannounce&tr=udp%3A%2F%2Ftracker.pirateparty.gr%3A6969%2Fannounce&tr=udp%3A%2F%2Ftracker.cyberia.is%3A6969%2Fannounce",
        "seeder": "211",
        "leecher": "2"
    },
    {
        "rank": "7",
        "title": "Foo Fighters - Medicine At Midnight (2021) Mp3 320kbps",
        "link": "magnet:?xt=urn:btih:7A39AC4E1F12BAFE2A3EAE643D62B451B5BC77CA&dn=Foo+Fighters+-+Medicine+At+Midnight+%282021%29+Mp3+320kbps&tr=udp%3A%2F%2Ftracker.coppersurfer.tk%3A6969%2Fannounce&tr=udp%3A%2F%2F9.rarbg.to%3A2920%2Fannounce&tr=udp%3A%2F%2Ftracker.opentrackr.org%3A1337&tr=udp%3A%2F%2Ftracker.internetwarriors.net%3A1337%2Fannounce&tr=udp%3A%2F%2Ftracker.leechers-paradise.org%3A6969%2Fannounce&tr=udp%3A%2F%2Ftracker.coppersurfer.tk%3A6969%2Fannounce&tr=udp%3A%2F%2Ftracker.pirateparty.gr%3A6969%2Fannounce&tr=udp%3A%2F%2Ftracker.cyberia.is%3A6969%2Fannounce",
        "seeder": "191",
        "leecher": "6"
    },
    {
        "rank": "8",
        "title": "VA - Apple Music The 100 Best Songs of 2020 (Mp3 320kbps)",
        "link": "magnet:?xt=urn:btih:22AE1539A65367660BC4790FDED5F21CE241A493&dn=VA+-+Apple+Music+The+100+Best+Songs+of+2020+%28Mp3+320kbps%29&tr=udp%3A%2F%2Ftracker.coppersurfer.tk%3A6969%2Fannounce&tr=udp%3A%2F%2F9.rarbg.to%3A2920%2Fannounce&tr=udp%3A%2F%2Ftracker.opentrackr.org%3A1337&tr=udp%3A%2F%2Ftracker.internetwarriors.net%3A1337%2Fannounce&tr=udp%3A%2F%2Ftracker.leechers-paradise.org%3A6969%2Fannounce&tr=udp%3A%2F%2Ftracker.coppersurfer.tk%3A6969%2Fannounce&tr=udp%3A%2F%2Ftracker.pirateparty.gr%3A6969%2Fannounce&tr=udp%3A%2F%2Ftracker.cyberia.is%3A6969%2Fannounce",
        "seeder": "188",
        "leecher": "10"
    },
    {
        "rank": "9",
        "title": "The Official UK Top 100 Singles Chart (02-April-2021) Mp3 320kbp",
        "link": "magnet:?xt=urn:btih:64DE6B5FD8FBCF4EF6F7008A2858E5968CF77EB4&dn=The+Official+UK+Top+100+Singles+Chart+%2802-April-2021%29+Mp3+320kbp&tr=udp%3A%2F%2Ftracker.coppersurfer.tk%3A6969%2Fannounce&tr=udp%3A%2F%2F9.rarbg.to%3A2920%2Fannounce&tr=udp%3A%2F%2Ftracker.opentrackr.org%3A1337&tr=udp%3A%2F%2Ftracker.internetwarriors.net%3A1337%2Fannounce&tr=udp%3A%2F%2Ftracker.leechers-paradise.org%3A6969%2Fannounce&tr=udp%3A%2F%2Ftracker.coppersurfer.tk%3A6969%2Fannounce&tr=udp%3A%2F%2Ftracker.pirateparty.gr%3A6969%2Fannounce&tr=udp%3A%2F%2Ftracker.cyberia.is%3A6969%2Fannounce",
        "seeder": "180",
        "leecher": "22"
    },
    {
        "rank": "10",
        "title": "Justin Bieber - Justice (2021) Mp3 (320kbps) [Hunter]",
        "link": "magnet:?xt=urn:btih:4D01E42B1344EF597B11836763C53187EBBC15F5&dn=Justin+Bieber+-+Justice+%282021%29+Mp3+%28320kbps%29+%5BHunter%5D&tr=udp%3A%2F%2Ftracker.coppersurfer.tk%3A6969%2Fannounce&tr=udp%3A%2F%2F9.rarbg.to%3A2920%2Fannounce&tr=udp%3A%2F%2Ftracker.opentrackr.org%3A1337&tr=udp%3A%2F%2Ftracker.internetwarriors.net%3A1337%2Fannounce&tr=udp%3A%2F%2Ftracker.leechers-paradise.org%3A6969%2Fannounce&tr=udp%3A%2F%2Ftracker.coppersurfer.tk%3A6969%2Fannounce&tr=udp%3A%2F%2Ftracker.pirateparty.gr%3A6969%2Fannounce&tr=udp%3A%2F%2Ftracker.cyberia.is%3A6969%2Fannounce",
        "seeder": "180",
        "leecher": "7"
    },
    {
        "rank": "11",
        "title": "Billboard Hot 100 Singles Chart (27-March-2021) Mp3 320kbps",
        "link": "magnet:?xt=urn:btih:BC8D99B564285210B26241A068910F732D6CBA70&dn=Billboard+Hot+100+Singles+Chart+%2827-March-2021%29+Mp3+320kbps&tr=udp%3A%2F%2Ftracker.coppersurfer.tk%3A6969%2Fannounce&tr=udp%3A%2F%2F9.rarbg.to%3A2920%2Fannounce&tr=udp%3A%2F%2Ftracker.opentrackr.org%3A1337&tr=udp%3A%2F%2Ftracker.internetwarriors.net%3A1337%2Fannounce&tr=udp%3A%2F%2Ftracker.leechers-paradise.org%3A6969%2Fannounce&tr=udp%3A%2F%2Ftracker.coppersurfer.tk%3A6969%2Fannounce&tr=udp%3A%2F%2Ftracker.pirateparty.gr%3A6969%2Fannounce&tr=udp%3A%2F%2Ftracker.cyberia.is%3A6969%2Fannounce",
        "seeder": "178",
        "leecher": "14"
    },
    {
        "rank": "12",
        "title": "Eminem - Music To Be Murdered By - Side B (Deluxe Edition)(2020)",
        "link": "magnet:?xt=urn:btih:349F3A3DB737A7A923C86F02A95048470A475A8B&dn=Eminem+-+Music+To+Be+Murdered+By+-+Side+B+%28Deluxe+Edition%29%282020%29&tr=udp%3A%2F%2Ftracker.coppersurfer.tk%3A6969%2Fannounce&tr=udp%3A%2F%2F9.rarbg.to%3A2920%2Fannounce&tr=udp%3A%2F%2Ftracker.opentrackr.org%3A1337&tr=udp%3A%2F%2Ftracker.internetwarriors.net%3A1337%2Fannounce&tr=udp%3A%2F%2Ftracker.leechers-paradise.org%3A6969%2Fannounce&tr=udp%3A%2F%2Ftracker.coppersurfer.tk%3A6969%2Fannounce&tr=udp%3A%2F%2Ftracker.pirateparty.gr%3A6969%2Fannounce&tr=udp%3A%2F%2Ftracker.cyberia.is%3A6969%2Fannounce",
        "seeder": "171",
        "leecher": "8"
    },
    {
        "rank": "13",
        "title": "VA - NOW 100 Hits Dance (2020) Mp3 (320kbps) [Hunter]",
        "link": "magnet:?xt=urn:btih:95F5346E245E16C0B32B0E1FF09352BB8099648E&dn=VA+-+NOW+100+Hits+Dance+%282020%29+Mp3+%28320kbps%29+%5BHunter%5D&tr=udp%3A%2F%2Ftracker.coppersurfer.tk%3A6969%2Fannounce&tr=udp%3A%2F%2F9.rarbg.to%3A2920%2Fannounce&tr=udp%3A%2F%2Ftracker.opentrackr.org%3A1337&tr=udp%3A%2F%2Ftracker.internetwarriors.net%3A1337%2Fannounce&tr=udp%3A%2F%2Ftracker.leechers-paradise.org%3A6969%2Fannounce&tr=udp%3A%2F%2Ftracker.coppersurfer.tk%3A6969%2Fannounce&tr=udp%3A%2F%2Ftracker.pirateparty.gr%3A6969%2Fannounce&tr=udp%3A%2F%2Ftracker.cyberia.is%3A6969%2Fannounce",
        "seeder": "171",
        "leecher": "10"
    },
    {
        "rank": "14",
        "title": "Now That's What I Call Music 108 (2021) Mp3 320kbps [PMEDIA] \u2b50\ufe0f",
        "link": "magnet:?xt=urn:btih:695483764BE686FB898FA088F621BC0EBB9E1E89&dn=Now+That%27s+What+I+Call+Music+108+%282021%29+Mp3+320kbps+%5BPMEDIA%5D+%E2%AD%90%EF%B8%8F&tr=udp%3A%2F%2Ftracker.coppersurfer.tk%3A6969%2Fannounce&tr=udp%3A%2F%2F9.rarbg.to%3A2920%2Fannounce&tr=udp%3A%2F%2Ftracker.opentrackr.org%3A1337&tr=udp%3A%2F%2Ftracker.internetwarriors.net%3A1337%2Fannounce&tr=udp%3A%2F%2Ftracker.leechers-paradise.org%3A6969%2Fannounce&tr=udp%3A%2F%2Ftracker.coppersurfer.tk%3A6969%2Fannounce&tr=udp%3A%2F%2Ftracker.pirateparty.gr%3A6969%2Fannounce&tr=udp%3A%2F%2Ftracker.cyberia.is%3A6969%2Fannounce",
        "seeder": "167",
        "leecher": "14"
    },
    {
        "rank": "15",
        "title": "Taylor Swift - folklore (2020) Mp3 (320kbps) [Hunter]",
        "link": "magnet:?xt=urn:btih:DF1D443FB45E674C0480596F12B501C41F551DC7&dn=Taylor+Swift+-+folklore+%282020%29+Mp3+%28320kbps%29+%5BHunter%5D&tr=udp%3A%2F%2Ftracker.coppersurfer.tk%3A6969%2Fannounce&tr=udp%3A%2F%2F9.rarbg.to%3A2920%2Fannounce&tr=udp%3A%2F%2Ftracker.opentrackr.org%3A1337&tr=udp%3A%2F%2Ftracker.internetwarriors.net%3A1337%2Fannounce&tr=udp%3A%2F%2Ftracker.leechers-paradise.org%3A6969%2Fannounce&tr=udp%3A%2F%2Ftracker.coppersurfer.tk%3A6969%2Fannounce&tr=udp%3A%2F%2Ftracker.pirateparty.gr%3A6969%2Fannounce&tr=udp%3A%2F%2Ftracker.cyberia.is%3A6969%2Fannounce",
        "seeder": "163",
        "leecher": "3"
    },
    {
        "rank": "16",
        "title": "AC_DC - POWER UP (2020) Original Mp3 320kbps [PMEDIA] \u2b50\ufe0f",
        "link": "magnet:?xt=urn:btih:2B9A974BF0618DFED7FAC39E2DB2C609DB59BBDE&dn=AC_DC+-+POWER+UP+%282020%29+Original+Mp3+320kbps+%5BPMEDIA%5D+%E2%AD%90%EF%B8%8F&tr=udp%3A%2F%2Ftracker.coppersurfer.tk%3A6969%2Fannounce&tr=udp%3A%2F%2F9.rarbg.to%3A2920%2Fannounce&tr=udp%3A%2F%2Ftracker.opentrackr.org%3A1337&tr=udp%3A%2F%2Ftracker.internetwarriors.net%3A1337%2Fannounce&tr=udp%3A%2F%2Ftracker.leechers-paradise.org%3A6969%2Fannounce&tr=udp%3A%2F%2Ftracker.coppersurfer.tk%3A6969%2Fannounce&tr=udp%3A%2F%2Ftracker.pirateparty.gr%3A6969%2Fannounce&tr=udp%3A%2F%2Ftracker.cyberia.is%3A6969%2Fannounce",
        "seeder": "158",
        "leecher": "0"
    },
    {
        "rank": "17",
        "title": "VA - Swinging 50s (10 CD) (2021) Mp3 320kbps [PMEDIA] \u2b50\ufe0f",
        "link": "magnet:?xt=urn:btih:57F24D6C127F28740D65201FD6B1B52FA359A244&dn=VA+-+Swinging+50s+%2810+CD%29+%282021%29+Mp3+320kbps+%5BPMEDIA%5D+%E2%AD%90%EF%B8%8F&tr=udp%3A%2F%2Ftracker.coppersurfer.tk%3A6969%2Fannounce&tr=udp%3A%2F%2F9.rarbg.to%3A2920%2Fannounce&tr=udp%3A%2F%2Ftracker.opentrackr.org%3A1337&tr=udp%3A%2F%2Ftracker.internetwarriors.net%3A1337%2Fannounce&tr=udp%3A%2F%2Ftracker.leechers-paradise.org%3A6969%2Fannounce&tr=udp%3A%2F%2Ftracker.coppersurfer.tk%3A6969%2Fannounce&tr=udp%3A%2F%2Ftracker.pirateparty.gr%3A6969%2Fannounce&tr=udp%3A%2F%2Ftracker.cyberia.is%3A6969%2Fannounce",
        "seeder": "154",
        "leecher": "29"
    },
    {
        "rank": "18",
        "title": "Billboard Hot 100 Singles Chart 10-April-2021 Mp3 320kbps",
        "link": "magnet:?xt=urn:btih:D38A74CE2690436B8A87F65882169C2400D2BB70&dn=Billboard+Hot+100+Singles+Chart+10-April-2021+Mp3+320kbps&tr=udp%3A%2F%2Ftracker.coppersurfer.tk%3A6969%2Fannounce&tr=udp%3A%2F%2F9.rarbg.to%3A2920%2Fannounce&tr=udp%3A%2F%2Ftracker.opentrackr.org%3A1337&tr=udp%3A%2F%2Ftracker.internetwarriors.net%3A1337%2Fannounce&tr=udp%3A%2F%2Ftracker.leechers-paradise.org%3A6969%2Fannounce&tr=udp%3A%2F%2Ftracker.coppersurfer.tk%3A6969%2Fannounce&tr=udp%3A%2F%2Ftracker.pirateparty.gr%3A6969%2Fannounce&tr=udp%3A%2F%2Ftracker.cyberia.is%3A6969%2Fannounce",
        "seeder": "153",
        "leecher": "72"
    },
    {
        "rank": "19",
        "title": "Drake - Dark Lane Demo Tapes (2020) Mp3 (320kbps) [Hunter]",
        "link": "magnet:?xt=urn:btih:2BDCEA097422D43491A353242827C72A9E7DE177&dn=Drake+-+Dark+Lane+Demo+Tapes+%282020%29+Mp3+%28320kbps%29+%5BHunter%5D&tr=udp%3A%2F%2Ftracker.coppersurfer.tk%3A6969%2Fannounce&tr=udp%3A%2F%2F9.rarbg.to%3A2920%2Fannounce&tr=udp%3A%2F%2Ftracker.opentrackr.org%3A1337&tr=udp%3A%2F%2Ftracker.internetwarriors.net%3A1337%2Fannounce&tr=udp%3A%2F%2Ftracker.leechers-paradise.org%3A6969%2Fannounce&tr=udp%3A%2F%2Ftracker.coppersurfer.tk%3A6969%2Fannounce&tr=udp%3A%2F%2Ftracker.pirateparty.gr%3A6969%2Fannounce&tr=udp%3A%2F%2Ftracker.cyberia.is%3A6969%2Fannounce",
        "seeder": "151",
        "leecher": "5"
    },
    {
        "rank": "20",
        "title": "Greatest Ever Decade The Seventies (4CD) (2021) Mp3 320kbps",
        "link": "magnet:?xt=urn:btih:581FD9BC804D3EAFAA46DFA4E143AF5B984823C4&dn=Greatest+Ever+Decade+The+Seventies+%284CD%29+%282021%29+Mp3+320kbps&tr=udp%3A%2F%2Ftracker.coppersurfer.tk%3A6969%2Fannounce&tr=udp%3A%2F%2F9.rarbg.to%3A2920%2Fannounce&tr=udp%3A%2F%2Ftracker.opentrackr.org%3A1337&tr=udp%3A%2F%2Ftracker.internetwarriors.net%3A1337%2Fannounce&tr=udp%3A%2F%2Ftracker.leechers-paradise.org%3A6969%2Fannounce&tr=udp%3A%2F%2Ftracker.coppersurfer.tk%3A6969%2Fannounce&tr=udp%3A%2F%2Ftracker.pirateparty.gr%3A6969%2Fannounce&tr=udp%3A%2F%2Ftracker.cyberia.is%3A6969%2Fannounce",
        "seeder": "149",
        "leecher": "17"
    },
    {
        "rank": "21",
        "title": "Bruce Springsteen - Letter To You (2020) Mp3 320kbps [PMEDIA] \u2b50\ufe0f",
        "link": "magnet:?xt=urn:btih:26AF5325B23175645F098B49F947E64FAD741B1F&dn=Bruce+Springsteen+-+Letter+To+You+%282020%29+Mp3+320kbps+%5BPMEDIA%5D+%E2%AD%90%EF%B8%8F&tr=udp%3A%2F%2Ftracker.coppersurfer.tk%3A6969%2Fannounce&tr=udp%3A%2F%2F9.rarbg.to%3A2920%2Fannounce&tr=udp%3A%2F%2Ftracker.opentrackr.org%3A1337&tr=udp%3A%2F%2Ftracker.internetwarriors.net%3A1337%2Fannounce&tr=udp%3A%2F%2Ftracker.leechers-paradise.org%3A6969%2Fannounce&tr=udp%3A%2F%2Ftracker.coppersurfer.tk%3A6969%2Fannounce&tr=udp%3A%2F%2Ftracker.pirateparty.gr%3A6969%2Fannounce&tr=udp%3A%2F%2Ftracker.cyberia.is%3A6969%2Fannounce",
        "seeder": "142",
        "leecher": "3"
    },
    {
        "rank": "22",
        "title": "NOW That's What I Call 12\u201d 80s (4CD) (2021) Mp3 320kbps",
        "link": "magnet:?xt=urn:btih:AD462798AD32B8793F0719B74D5F8B494C46D4EC&dn=NOW+That%27s+What+I+Call+12%26rdquo%3B+80s+%284CD%29+%282021%29+Mp3+320kbps&tr=udp%3A%2F%2Ftracker.coppersurfer.tk%3A6969%2Fannounce&tr=udp%3A%2F%2F9.rarbg.to%3A2920%2Fannounce&tr=udp%3A%2F%2Ftracker.opentrackr.org%3A1337&tr=udp%3A%2F%2Ftracker.internetwarriors.net%3A1337%2Fannounce&tr=udp%3A%2F%2Ftracker.leechers-paradise.org%3A6969%2Fannounce&tr=udp%3A%2F%2Ftracker.coppersurfer.tk%3A6969%2Fannounce&tr=udp%3A%2F%2Ftracker.pirateparty.gr%3A6969%2Fannounce&tr=udp%3A%2F%2Ftracker.cyberia.is%3A6969%2Fannounce",
        "seeder": "137",
        "leecher": "10"
    },
    {
        "rank": "23",
        "title": "Billboard Hot 100 Singles Chart (06-February-2021) Mp3 320kbps",
        "link": "magnet:?xt=urn:btih:0B28A9AE8E3E84803E5A55C402A89E8C822DC80B&dn=Billboard+Hot+100+Singles+Chart+%2806-February-2021%29+Mp3+320kbps&tr=udp%3A%2F%2Ftracker.coppersurfer.tk%3A6969%2Fannounce&tr=udp%3A%2F%2F9.rarbg.to%3A2920%2Fannounce&tr=udp%3A%2F%2Ftracker.opentrackr.org%3A1337&tr=udp%3A%2F%2Ftracker.internetwarriors.net%3A1337%2Fannounce&tr=udp%3A%2F%2Ftracker.leechers-paradise.org%3A6969%2Fannounce&tr=udp%3A%2F%2Ftracker.coppersurfer.tk%3A6969%2Fannounce&tr=udp%3A%2F%2Ftracker.pirateparty.gr%3A6969%2Fannounce&tr=udp%3A%2F%2Ftracker.cyberia.is%3A6969%2Fannounce",
        "seeder": "134",
        "leecher": "7"
    },
    {
        "rank": "24",
        "title": "VA - Top 100 Running Songs (2019) Mp3 (320kbps) [Hunter]",
        "link": "magnet:?xt=urn:btih:1C44EB4A1EC00D6C35D89F43BCA6F8FD115A4197&dn=VA+-+Top+100+Running+Songs+%282019%29+Mp3+%28320kbps%29+%5BHunter%5D&tr=udp%3A%2F%2Ftracker.coppersurfer.tk%3A6969%2Fannounce&tr=udp%3A%2F%2F9.rarbg.to%3A2920%2Fannounce&tr=udp%3A%2F%2Ftracker.opentrackr.org%3A1337&tr=udp%3A%2F%2Ftracker.internetwarriors.net%3A1337%2Fannounce&tr=udp%3A%2F%2Ftracker.leechers-paradise.org%3A6969%2Fannounce&tr=udp%3A%2F%2Ftracker.coppersurfer.tk%3A6969%2Fannounce&tr=udp%3A%2F%2Ftracker.pirateparty.gr%3A6969%2Fannounce&tr=udp%3A%2F%2Ftracker.cyberia.is%3A6969%2Fannounce",
        "seeder": "131",
        "leecher": "2"
    },
    {
        "rank": "25",
        "title": "Billboard Hot 100 Singles Chart (03-April-2021) Mp3 320kbps",
        "link": "magnet:?xt=urn:btih:C4B1E817C0F55DB5D761F49A2E4495BA77C70504&dn=Billboard+Hot+100+Singles+Chart+%2803-April-2021%29+Mp3+320kbps&tr=udp%3A%2F%2Ftracker.coppersurfer.tk%3A6969%2Fannounce&tr=udp%3A%2F%2F9.rarbg.to%3A2920%2Fannounce&tr=udp%3A%2F%2Ftracker.opentrackr.org%3A1337&tr=udp%3A%2F%2Ftracker.internetwarriors.net%3A1337%2Fannounce&tr=udp%3A%2F%2Ftracker.leechers-paradise.org%3A6969%2Fannounce&tr=udp%3A%2F%2Ftracker.coppersurfer.tk%3A6969%2Fannounce&tr=udp%3A%2F%2Ftracker.pirateparty.gr%3A6969%2Fannounce&tr=udp%3A%2F%2Ftracker.cyberia.is%3A6969%2Fannounce",
        "seeder": "128",
        "leecher": "14"
    },
    {
        "rank": "26",
        "title": "The Weeknd - House Of Balloons (Original) (2021) Mp3 320kbps",
        "link": "magnet:?xt=urn:btih:B502CA85868AE0BFBC1E4C0716055A9E839D7E4B&dn=The+Weeknd+-+House+Of+Balloons+%28Original%29+%282021%29+Mp3+320kbps&tr=udp%3A%2F%2Ftracker.coppersurfer.tk%3A6969%2Fannounce&tr=udp%3A%2F%2F9.rarbg.to%3A2920%2Fannounce&tr=udp%3A%2F%2Ftracker.opentrackr.org%3A1337&tr=udp%3A%2F%2Ftracker.internetwarriors.net%3A1337%2Fannounce&tr=udp%3A%2F%2Ftracker.leechers-paradise.org%3A6969%2Fannounce&tr=udp%3A%2F%2Ftracker.coppersurfer.tk%3A6969%2Fannounce&tr=udp%3A%2F%2Ftracker.pirateparty.gr%3A6969%2Fannounce&tr=udp%3A%2F%2Ftracker.cyberia.is%3A6969%2Fannounce",
        "seeder": "118",
        "leecher": "5"
    },
    {
        "rank": "27",
        "title": "The Beatles - Greatest Hits [Remastered/2009/MP3][Bubanee]",
        "link": "magnet:?xt=urn:btih:0898A4B562C1098EB69B9B801C61A51D788DF0F5&dn=The+Beatles+-+Greatest+Hits+%5BRemastered%2F2009%2FMP3%5D%5BBubanee%5D&tr=udp%3A%2F%2Ftracker.coppersurfer.tk%3A6969%2Fannounce&tr=udp%3A%2F%2F9.rarbg.to%3A2920%2Fannounce&tr=udp%3A%2F%2Ftracker.opentrackr.org%3A1337&tr=udp%3A%2F%2Ftracker.internetwarriors.net%3A1337%2Fannounce&tr=udp%3A%2F%2Ftracker.leechers-paradise.org%3A6969%2Fannounce&tr=udp%3A%2F%2Ftracker.coppersurfer.tk%3A6969%2Fannounce&tr=udp%3A%2F%2Ftracker.pirateparty.gr%3A6969%2Fannounce&tr=udp%3A%2F%2Ftracker.cyberia.is%3A6969%2Fannounce",
        "seeder": "118",
        "leecher": "6"
    },
    {
        "rank": "28",
        "title": "The Best R&B Album In The World...Ever! (2021) Mp3 320kbps",
        "link": "magnet:?xt=urn:btih:D948E3CC307A2AD205B2D5667541312333F2D79E&dn=The+Best+R%26amp%3BB+Album+In+The+World...Ever%21+%282021%29+Mp3+320kbps&tr=udp%3A%2F%2Ftracker.coppersurfer.tk%3A6969%2Fannounce&tr=udp%3A%2F%2F9.rarbg.to%3A2920%2Fannounce&tr=udp%3A%2F%2Ftracker.opentrackr.org%3A1337&tr=udp%3A%2F%2Ftracker.internetwarriors.net%3A1337%2Fannounce&tr=udp%3A%2F%2Ftracker.leechers-paradise.org%3A6969%2Fannounce&tr=udp%3A%2F%2Ftracker.coppersurfer.tk%3A6969%2Fannounce&tr=udp%3A%2F%2Ftracker.pirateparty.gr%3A6969%2Fannounce&tr=udp%3A%2F%2Ftracker.cyberia.is%3A6969%2Fannounce",
        "seeder": "115",
        "leecher": "5"
    },
    {
        "rank": "29",
        "title": "The Official UK Top 100 Singles Chart (26-March-2021) Mp3 320kbp",
        "link": "magnet:?xt=urn:btih:9B211344C5F98EA403102765160317FB1EE4FC77&dn=The+Official+UK+Top+100+Singles+Chart+%2826-March-2021%29+Mp3+320kbp&tr=udp%3A%2F%2Ftracker.coppersurfer.tk%3A6969%2Fannounce&tr=udp%3A%2F%2F9.rarbg.to%3A2920%2Fannounce&tr=udp%3A%2F%2Ftracker.opentrackr.org%3A1337&tr=udp%3A%2F%2Ftracker.internetwarriors.net%3A1337%2Fannounce&tr=udp%3A%2F%2Ftracker.leechers-paradise.org%3A6969%2Fannounce&tr=udp%3A%2F%2Ftracker.coppersurfer.tk%3A6969%2Fannounce&tr=udp%3A%2F%2Ftracker.pirateparty.gr%3A6969%2Fannounce&tr=udp%3A%2F%2Ftracker.cyberia.is%3A6969%2Fannounce",
        "seeder": "115",
        "leecher": "9"
    },
    {
        "rank": "30",
        "title": "Drake - Scorpion (2018) Mp3 (320kbps) [Hunter]",
        "link": "magnet:?xt=urn:btih:03DFEAEC1BF8FFA1B82522E9264C5288225B2CD0&dn=Drake+-+Scorpion+%282018%29+Mp3+%28320kbps%29+%5BHunter%5D&tr=udp%3A%2F%2Ftracker.coppersurfer.tk%3A6969%2Fannounce&tr=udp%3A%2F%2F9.rarbg.to%3A2920%2Fannounce&tr=udp%3A%2F%2Ftracker.opentrackr.org%3A1337&tr=udp%3A%2F%2Ftracker.internetwarriors.net%3A1337%2Fannounce&tr=udp%3A%2F%2Ftracker.leechers-paradise.org%3A6969%2Fannounce&tr=udp%3A%2F%2Ftracker.coppersurfer.tk%3A6969%2Fannounce&tr=udp%3A%2F%2Ftracker.pirateparty.gr%3A6969%2Fannounce&tr=udp%3A%2F%2Ftracker.cyberia.is%3A6969%2Fannounce",
        "seeder": "115",
        "leecher": "9"
    },
    {
        "rank": "31",
        "title": "Billboard Hot Country Songs 10-April-2021 Mp3 320kbps",
        "link": "magnet:?xt=urn:btih:07E46CC14F6F65ADE93C19519768D3D3DBC232BB&dn=Billboard+Hot+Country+Songs+10-April-2021+Mp3+320kbps&tr=udp%3A%2F%2Ftracker.coppersurfer.tk%3A6969%2Fannounce&tr=udp%3A%2F%2F9.rarbg.to%3A2920%2Fannounce&tr=udp%3A%2F%2Ftracker.opentrackr.org%3A1337&tr=udp%3A%2F%2Ftracker.internetwarriors.net%3A1337%2Fannounce&tr=udp%3A%2F%2Ftracker.leechers-paradise.org%3A6969%2Fannounce&tr=udp%3A%2F%2Ftracker.coppersurfer.tk%3A6969%2Fannounce&tr=udp%3A%2F%2Ftracker.pirateparty.gr%3A6969%2Fannounce&tr=udp%3A%2F%2Ftracker.cyberia.is%3A6969%2Fannounce",
        "seeder": "110",
        "leecher": "31"
    },
    {
        "rank": "32",
        "title": "The Beatles Discography [14 Remastered Stereo Albums / 320kbps]",
        "link": "magnet:?xt=urn:btih:4F967B7263221576D8F8A7E6DA2F87BE7536CC55&dn=The+Beatles+Discography+%5B14+Remastered+Stereo+Albums+%2F+320kbps%5D&tr=udp%3A%2F%2Ftracker.coppersurfer.tk%3A6969%2Fannounce&tr=udp%3A%2F%2F9.rarbg.to%3A2920%2Fannounce&tr=udp%3A%2F%2Ftracker.opentrackr.org%3A1337&tr=udp%3A%2F%2Ftracker.internetwarriors.net%3A1337%2Fannounce&tr=udp%3A%2F%2Ftracker.leechers-paradise.org%3A6969%2Fannounce&tr=udp%3A%2F%2Ftracker.coppersurfer.tk%3A6969%2Fannounce&tr=udp%3A%2F%2Ftracker.pirateparty.gr%3A6969%2Fannounce&tr=udp%3A%2F%2Ftracker.cyberia.is%3A6969%2Fannounce",
        "seeder": "110",
        "leecher": "11"
    },
    {
        "rank": "33",
        "title": "Billboard Hot 100 Singles Chart (20-March-2021) Mp3 320kbps",
        "link": "magnet:?xt=urn:btih:F34CD10B9AD2464B457096450524C0A264EFEE2C&dn=Billboard+Hot+100+Singles+Chart+%2820-March-2021%29+Mp3+320kbps&tr=udp%3A%2F%2Ftracker.coppersurfer.tk%3A6969%2Fannounce&tr=udp%3A%2F%2F9.rarbg.to%3A2920%2Fannounce&tr=udp%3A%2F%2Ftracker.opentrackr.org%3A1337&tr=udp%3A%2F%2Ftracker.internetwarriors.net%3A1337%2Fannounce&tr=udp%3A%2F%2Ftracker.leechers-paradise.org%3A6969%2Fannounce&tr=udp%3A%2F%2Ftracker.coppersurfer.tk%3A6969%2Fannounce&tr=udp%3A%2F%2Ftracker.pirateparty.gr%3A6969%2Fannounce&tr=udp%3A%2F%2Ftracker.cyberia.is%3A6969%2Fannounce",
        "seeder": "108",
        "leecher": "5"
    },
    {
        "rank": "34",
        "title": "Ariana Grande - positions (2020) Mp3 320kbps [PMEDIA] \u2b50\ufe0f",
        "link": "magnet:?xt=urn:btih:B2AD9087485C3754757FB166013B01C71C862208&dn=Ariana+Grande+-+positions+%282020%29+Mp3+320kbps+%5BPMEDIA%5D+%E2%AD%90%EF%B8%8F&tr=udp%3A%2F%2Ftracker.coppersurfer.tk%3A6969%2Fannounce&tr=udp%3A%2F%2F9.rarbg.to%3A2920%2Fannounce&tr=udp%3A%2F%2Ftracker.opentrackr.org%3A1337&tr=udp%3A%2F%2Ftracker.internetwarriors.net%3A1337%2Fannounce&tr=udp%3A%2F%2Ftracker.leechers-paradise.org%3A6969%2Fannounce&tr=udp%3A%2F%2Ftracker.coppersurfer.tk%3A6969%2Fannounce&tr=udp%3A%2F%2Ftracker.pirateparty.gr%3A6969%2Fannounce&tr=udp%3A%2F%2Ftracker.cyberia.is%3A6969%2Fannounce",
        "seeder": "103",
        "leecher": "6"
    },
    {
        "rank": "35",
        "title": "Billboard Hot Dance / Electronic Songs 10-April-2021 Mp3 320kbps",
        "link": "magnet:?xt=urn:btih:4893F86810318034F450DCFBEF3E8F23469D465D&dn=Billboard+Hot+Dance+%2F+Electronic+Songs+10-April-2021+Mp3+320kbps&tr=udp%3A%2F%2Ftracker.coppersurfer.tk%3A6969%2Fannounce&tr=udp%3A%2F%2F9.rarbg.to%3A2920%2Fannounce&tr=udp%3A%2F%2Ftracker.opentrackr.org%3A1337&tr=udp%3A%2F%2Ftracker.internetwarriors.net%3A1337%2Fannounce&tr=udp%3A%2F%2Ftracker.leechers-paradise.org%3A6969%2Fannounce&tr=udp%3A%2F%2Ftracker.coppersurfer.tk%3A6969%2Fannounce&tr=udp%3A%2F%2Ftracker.pirateparty.gr%3A6969%2Fannounce&tr=udp%3A%2F%2Ftracker.cyberia.is%3A6969%2Fannounce",
        "seeder": "102",
        "leecher": "21"
    },
    {
        "rank": "36",
        "title": "Dua Lipa - Dua Lipa (Complete Edition) (2018) Mp3 (320kbps)",
        "link": "magnet:?xt=urn:btih:E9B773ACFA0C4CE28031C28A092927741D974832&dn=Dua+Lipa+-+Dua+Lipa+%28Complete+Edition%29+%282018%29+Mp3+%28320kbps%29&tr=udp%3A%2F%2Ftracker.coppersurfer.tk%3A6969%2Fannounce&tr=udp%3A%2F%2F9.rarbg.to%3A2920%2Fannounce&tr=udp%3A%2F%2Ftracker.opentrackr.org%3A1337&tr=udp%3A%2F%2Ftracker.internetwarriors.net%3A1337%2Fannounce&tr=udp%3A%2F%2Ftracker.leechers-paradise.org%3A6969%2Fannounce&tr=udp%3A%2F%2Ftracker.coppersurfer.tk%3A6969%2Fannounce&tr=udp%3A%2F%2Ftracker.pirateparty.gr%3A6969%2Fannounce&tr=udp%3A%2F%2Ftracker.cyberia.is%3A6969%2Fannounce",
        "seeder": "101",
        "leecher": "1"
    },
    {
        "rank": "37",
        "title": "Queen - The Ultimate Best Of Queen (2011) [mp3]",
        "link": "magnet:?xt=urn:btih:1DD2F41189131D71120434E9C454C868707ADA3A&dn=Queen+-+The+Ultimate+Best+Of+Queen+%282011%29+%5Bmp3%5D&tr=udp%3A%2F%2Ftracker.coppersurfer.tk%3A6969%2Fannounce&tr=udp%3A%2F%2F9.rarbg.to%3A2920%2Fannounce&tr=udp%3A%2F%2Ftracker.opentrackr.org%3A1337&tr=udp%3A%2F%2Ftracker.internetwarriors.net%3A1337%2Fannounce&tr=udp%3A%2F%2Ftracker.leechers-paradise.org%3A6969%2Fannounce&tr=udp%3A%2F%2Ftracker.coppersurfer.tk%3A6969%2Fannounce&tr=udp%3A%2F%2Ftracker.pirateparty.gr%3A6969%2Fannounce&tr=udp%3A%2F%2Ftracker.cyberia.is%3A6969%2Fannounce",
        "seeder": "100",
        "leecher": "6"
    },
    {
        "rank": "38",
        "title": "Demi Lovato- Dancing With The Devil The Art of Starting Over MP3",
        "link": "magnet:?xt=urn:btih:3702B482CF82126A352DD393F93B9B699691FA99&dn=Demi+Lovato-+Dancing+With+The+Devil+The+Art+of+Starting+Over+MP3&tr=udp%3A%2F%2Ftracker.coppersurfer.tk%3A6969%2Fannounce&tr=udp%3A%2F%2F9.rarbg.to%3A2920%2Fannounce&tr=udp%3A%2F%2Ftracker.opentrackr.org%3A1337&tr=udp%3A%2F%2Ftracker.internetwarriors.net%3A1337%2Fannounce&tr=udp%3A%2F%2Ftracker.leechers-paradise.org%3A6969%2Fannounce&tr=udp%3A%2F%2Ftracker.coppersurfer.tk%3A6969%2Fannounce&tr=udp%3A%2F%2Ftracker.pirateparty.gr%3A6969%2Fannounce&tr=udp%3A%2F%2Ftracker.cyberia.is%3A6969%2Fannounce",
        "seeder": "99",
        "leecher": "8"
    },
    {
        "rank": "39",
        "title": "Eminem - Kamikaze (2018) Mp3 (320kbps) [Hunter]",
        "link": "magnet:?xt=urn:btih:55C3737267AC920ED18ECA2FB1A94DDF18A12397&dn=Eminem+-+Kamikaze+%282018%29+Mp3+%28320kbps%29+%5BHunter%5D&tr=udp%3A%2F%2Ftracker.coppersurfer.tk%3A6969%2Fannounce&tr=udp%3A%2F%2F9.rarbg.to%3A2920%2Fannounce&tr=udp%3A%2F%2Ftracker.opentrackr.org%3A1337&tr=udp%3A%2F%2Ftracker.internetwarriors.net%3A1337%2Fannounce&tr=udp%3A%2F%2Ftracker.leechers-paradise.org%3A6969%2Fannounce&tr=udp%3A%2F%2Ftracker.coppersurfer.tk%3A6969%2Fannounce&tr=udp%3A%2F%2Ftracker.pirateparty.gr%3A6969%2Fannounce&tr=udp%3A%2F%2Ftracker.cyberia.is%3A6969%2Fannounce",
        "seeder": "99",
        "leecher": "9"
    },
    {
        "rank": "40",
        "title": "MICHAEL JACKSON GREATEST HITS [R.I.P.][Bubanee]",
        "link": "magnet:?xt=urn:btih:ABDAC3706DC99134DEFEBF3ACA1659403B1DD517&dn=MICHAEL+JACKSON+GREATEST+HITS+%5BR.I.P.%5D%5BBubanee%5D&tr=udp%3A%2F%2Ftracker.coppersurfer.tk%3A6969%2Fannounce&tr=udp%3A%2F%2F9.rarbg.to%3A2920%2Fannounce&tr=udp%3A%2F%2Ftracker.opentrackr.org%3A1337&tr=udp%3A%2F%2Ftracker.internetwarriors.net%3A1337%2Fannounce&tr=udp%3A%2F%2Ftracker.leechers-paradise.org%3A6969%2Fannounce&tr=udp%3A%2F%2Ftracker.coppersurfer.tk%3A6969%2Fannounce&tr=udp%3A%2F%2Ftracker.pirateparty.gr%3A6969%2Fannounce&tr=udp%3A%2F%2Ftracker.cyberia.is%3A6969%2Fannounce",
        "seeder": "98",
        "leecher": "4"
    },
    {
        "rank": "41",
        "title": "VA - New Music Releases Week 13 of 2021 (Mp3 320kbps Songs)",
        "link": "magnet:?xt=urn:btih:FAEBD44BE9D2CFD2D97BFD645D918AE83D9CBCA9&dn=VA+-+New+Music+Releases+Week+13+of+2021+%28Mp3+320kbps+Songs%29&tr=udp%3A%2F%2Ftracker.coppersurfer.tk%3A6969%2Fannounce&tr=udp%3A%2F%2F9.rarbg.to%3A2920%2Fannounce&tr=udp%3A%2F%2Ftracker.opentrackr.org%3A1337&tr=udp%3A%2F%2Ftracker.internetwarriors.net%3A1337%2Fannounce&tr=udp%3A%2F%2Ftracker.leechers-paradise.org%3A6969%2Fannounce&tr=udp%3A%2F%2Ftracker.coppersurfer.tk%3A6969%2Fannounce&tr=udp%3A%2F%2Ftracker.pirateparty.gr%3A6969%2Fannounce&tr=udp%3A%2F%2Ftracker.cyberia.is%3A6969%2Fannounce",
        "seeder": "97",
        "leecher": "23"
    },
    {
        "rank": "42",
        "title": "Lady Gaga - Chromatica (2020) Mp3 (320kbps) [Hunter]",
        "link": "magnet:?xt=urn:btih:FC8BC83DAEA6D95DE1C33F366734A0952780D682&dn=Lady+Gaga+-+Chromatica+%282020%29+Mp3+%28320kbps%29+%5BHunter%5D&tr=udp%3A%2F%2Ftracker.coppersurfer.tk%3A6969%2Fannounce&tr=udp%3A%2F%2F9.rarbg.to%3A2920%2Fannounce&tr=udp%3A%2F%2Ftracker.opentrackr.org%3A1337&tr=udp%3A%2F%2Ftracker.internetwarriors.net%3A1337%2Fannounce&tr=udp%3A%2F%2Ftracker.leechers-paradise.org%3A6969%2Fannounce&tr=udp%3A%2F%2Ftracker.coppersurfer.tk%3A6969%2Fannounce&tr=udp%3A%2F%2Ftracker.pirateparty.gr%3A6969%2Fannounce&tr=udp%3A%2F%2Ftracker.cyberia.is%3A6969%2Fannounce",
        "seeder": "97",
        "leecher": "2"
    },
    {
        "rank": "43",
        "title": "Metallica - Discography 1983-2008 (19 Albums, 23 CDs)",
        "link": "magnet:?xt=urn:btih:24147293EBCCA6C1A76C7FA23E89A0B55DB312D8&dn=Metallica+-+Discography+1983-2008+%2819+Albums%2C+23+CDs%29&tr=udp%3A%2F%2Ftracker.coppersurfer.tk%3A6969%2Fannounce&tr=udp%3A%2F%2F9.rarbg.to%3A2920%2Fannounce&tr=udp%3A%2F%2Ftracker.opentrackr.org%3A1337&tr=udp%3A%2F%2Ftracker.internetwarriors.net%3A1337%2Fannounce&tr=udp%3A%2F%2Ftracker.leechers-paradise.org%3A6969%2Fannounce&tr=udp%3A%2F%2Ftracker.coppersurfer.tk%3A6969%2Fannounce&tr=udp%3A%2F%2Ftracker.pirateparty.gr%3A6969%2Fannounce&tr=udp%3A%2F%2Ftracker.cyberia.is%3A6969%2Fannounce",
        "seeder": "97",
        "leecher": "18"
    },
    {
        "rank": "44",
        "title": "IRON MAIDEN - DISCOGRAPHY (1980-15) [CHANNEL NEO]",
        "link": "magnet:?xt=urn:btih:1C49A133D8104190D2063D5F1F3DC98BFC106213&dn=IRON+MAIDEN+-+DISCOGRAPHY+%281980-15%29+%5BCHANNEL+NEO%5D&tr=udp%3A%2F%2Ftracker.coppersurfer.tk%3A6969%2Fannounce&tr=udp%3A%2F%2F9.rarbg.to%3A2920%2Fannounce&tr=udp%3A%2F%2Ftracker.opentrackr.org%3A1337&tr=udp%3A%2F%2Ftracker.internetwarriors.net%3A1337%2Fannounce&tr=udp%3A%2F%2Ftracker.leechers-paradise.org%3A6969%2Fannounce&tr=udp%3A%2F%2Ftracker.coppersurfer.tk%3A6969%2Fannounce&tr=udp%3A%2F%2Ftracker.pirateparty.gr%3A6969%2Fannounce&tr=udp%3A%2F%2Ftracker.cyberia.is%3A6969%2Fannounce",
        "seeder": "95",
        "leecher": "24"
    },
    {
        "rank": "45",
        "title": "Queen Discography @ 320Kbps",
        "link": "magnet:?xt=urn:btih:1A8F9F4C7BD395CDA3DEAEF5AF8D22E31F6379BA&dn=Queen+Discography+%40+320Kbps&tr=udp%3A%2F%2Ftracker.coppersurfer.tk%3A6969%2Fannounce&tr=udp%3A%2F%2F9.rarbg.to%3A2920%2Fannounce&tr=udp%3A%2F%2Ftracker.opentrackr.org%3A1337&tr=udp%3A%2F%2Ftracker.internetwarriors.net%3A1337%2Fannounce&tr=udp%3A%2F%2Ftracker.leechers-paradise.org%3A6969%2Fannounce&tr=udp%3A%2F%2Ftracker.coppersurfer.tk%3A6969%2Fannounce&tr=udp%3A%2F%2Ftracker.pirateparty.gr%3A6969%2Fannounce&tr=udp%3A%2F%2Ftracker.cyberia.is%3A6969%2Fannounce",
        "seeder": "95",
        "leecher": "20"
    },
    {
        "rank": "46",
        "title": "Nas - King's Disease (2020) Mp3 (320kbps) [Hunter]",
        "link": "magnet:?xt=urn:btih:01E85D3D689F875CC6FF22393E5513FA86D76B7B&dn=Nas+-+King%27s+Disease+%282020%29+Mp3+%28320kbps%29+%5BHunter%5D&tr=udp%3A%2F%2Ftracker.coppersurfer.tk%3A6969%2Fannounce&tr=udp%3A%2F%2F9.rarbg.to%3A2920%2Fannounce&tr=udp%3A%2F%2Ftracker.opentrackr.org%3A1337&tr=udp%3A%2F%2Ftracker.internetwarriors.net%3A1337%2Fannounce&tr=udp%3A%2F%2Ftracker.leechers-paradise.org%3A6969%2Fannounce&tr=udp%3A%2F%2Ftracker.coppersurfer.tk%3A6969%2Fannounce&tr=udp%3A%2F%2Ftracker.pirateparty.gr%3A6969%2Fannounce&tr=udp%3A%2F%2Ftracker.cyberia.is%3A6969%2Fannounce",
        "seeder": "94",
        "leecher": "3"
    },
    {
        "rank": "47",
        "title": "VA - Platinum Rock (3CD) (2020) Mp3 320kbps",
        "link": "magnet:?xt=urn:btih:F8EE527D586B9925170506FC9149E34683F16930&dn=VA+-+Platinum+Rock+%283CD%29+%282020%29+Mp3+320kbps&tr=udp%3A%2F%2Ftracker.coppersurfer.tk%3A6969%2Fannounce&tr=udp%3A%2F%2F9.rarbg.to%3A2920%2Fannounce&tr=udp%3A%2F%2Ftracker.opentrackr.org%3A1337&tr=udp%3A%2F%2Ftracker.internetwarriors.net%3A1337%2Fannounce&tr=udp%3A%2F%2Ftracker.leechers-paradise.org%3A6969%2Fannounce&tr=udp%3A%2F%2Ftracker.coppersurfer.tk%3A6969%2Fannounce&tr=udp%3A%2F%2Ftracker.pirateparty.gr%3A6969%2Fannounce&tr=udp%3A%2F%2Ftracker.cyberia.is%3A6969%2Fannounce",
        "seeder": "93",
        "leecher": "2"
    },
    {
        "rank": "48",
        "title": "Big Sean - Detroit 2 (2020) Mp3 (320kbps) [Hunter]",
        "link": "magnet:?xt=urn:btih:A17B0E5745AAE32EBC6D3DA4A3D66F70D4A542FE&dn=Big+Sean+-+Detroit+2+%282020%29+Mp3+%28320kbps%29+%5BHunter%5D&tr=udp%3A%2F%2Ftracker.coppersurfer.tk%3A6969%2Fannounce&tr=udp%3A%2F%2F9.rarbg.to%3A2920%2Fannounce&tr=udp%3A%2F%2Ftracker.opentrackr.org%3A1337&tr=udp%3A%2F%2Ftracker.internetwarriors.net%3A1337%2Fannounce&tr=udp%3A%2F%2Ftracker.leechers-paradise.org%3A6969%2Fannounce&tr=udp%3A%2F%2Ftracker.coppersurfer.tk%3A6969%2Fannounce&tr=udp%3A%2F%2Ftracker.pirateparty.gr%3A6969%2Fannounce&tr=udp%3A%2F%2Ftracker.cyberia.is%3A6969%2Fannounce",
        "seeder": "93",
        "leecher": "9"
    },
    {
        "rank": "49",
        "title": "Post Malone - Hollywood's Bleeding (2019) Mp3 (320kbps) [Hunter]",
        "link": "magnet:?xt=urn:btih:0A10EDB6EB88FAC8A6933A2DEA53D8104CA81DCA&dn=Post+Malone+-+Hollywood%27s+Bleeding+%282019%29+Mp3+%28320kbps%29+%5BHunter%5D&tr=udp%3A%2F%2Ftracker.coppersurfer.tk%3A6969%2Fannounce&tr=udp%3A%2F%2F9.rarbg.to%3A2920%2Fannounce&tr=udp%3A%2F%2Ftracker.opentrackr.org%3A1337&tr=udp%3A%2F%2Ftracker.internetwarriors.net%3A1337%2Fannounce&tr=udp%3A%2F%2Ftracker.leechers-paradise.org%3A6969%2Fannounce&tr=udp%3A%2F%2Ftracker.coppersurfer.tk%3A6969%2Fannounce&tr=udp%3A%2F%2Ftracker.pirateparty.gr%3A6969%2Fannounce&tr=udp%3A%2F%2Ftracker.cyberia.is%3A6969%2Fannounce",
        "seeder": "93",
        "leecher": "4"
    },
    {
        "rank": "50",
        "title": "VA - The Best Love Songs Album In The World Ever (2021) Mp3 320k",
        "link": "magnet:?xt=urn:btih:F52EE6EA7A52963D01DA4E67527B83DC0B392205&dn=VA+-+The+Best+Love+Songs+Album+In+The+World+Ever+%282021%29+Mp3+320k&tr=udp%3A%2F%2Ftracker.coppersurfer.tk%3A6969%2Fannounce&tr=udp%3A%2F%2F9.rarbg.to%3A2920%2Fannounce&tr=udp%3A%2F%2Ftracker.opentrackr.org%3A1337&tr=udp%3A%2F%2Ftracker.internetwarriors.net%3A1337%2Fannounce&tr=udp%3A%2F%2Ftracker.leechers-paradise.org%3A6969%2Fannounce&tr=udp%3A%2F%2Ftracker.coppersurfer.tk%3A6969%2Fannounce&tr=udp%3A%2F%2Ftracker.pirateparty.gr%3A6969%2Fannounce&tr=udp%3A%2F%2Ftracker.cyberia.is%3A6969%2Fannounce",
        "seeder": "92",
        "leecher": "4"
    },
    {
        "rank": "51",
        "title": "TOOL - Fear Inoculum (Deluxe) (2019) Mp3 (320kbps) [Hunter]",
        "link": "magnet:?xt=urn:btih:3D18AA83A63A2571F602E929C8387F1D58F75A8E&dn=TOOL+-+Fear+Inoculum+%28Deluxe%29+%282019%29+Mp3+%28320kbps%29+%5BHunter%5D&tr=udp%3A%2F%2Ftracker.coppersurfer.tk%3A6969%2Fannounce&tr=udp%3A%2F%2F9.rarbg.to%3A2920%2Fannounce&tr=udp%3A%2F%2Ftracker.opentrackr.org%3A1337&tr=udp%3A%2F%2Ftracker.internetwarriors.net%3A1337%2Fannounce&tr=udp%3A%2F%2Ftracker.leechers-paradise.org%3A6969%2Fannounce&tr=udp%3A%2F%2Ftracker.coppersurfer.tk%3A6969%2Fannounce&tr=udp%3A%2F%2Ftracker.pirateparty.gr%3A6969%2Fannounce&tr=udp%3A%2F%2Ftracker.cyberia.is%3A6969%2Fannounce",
        "seeder": "90",
        "leecher": "0"
    },
    {
        "rank": "52",
        "title": "Travis Scott - ASTROWORLD (2018) Mp3 (320kbps) [Hunter]",
        "link": "magnet:?xt=urn:btih:89A925E3B8CE2CEBF76747ED0A8AF82DC2EBF54D&dn=Travis+Scott+-+ASTROWORLD+%282018%29+Mp3+%28320kbps%29+%5BHunter%5D&tr=udp%3A%2F%2Ftracker.coppersurfer.tk%3A6969%2Fannounce&tr=udp%3A%2F%2F9.rarbg.to%3A2920%2Fannounce&tr=udp%3A%2F%2Ftracker.opentrackr.org%3A1337&tr=udp%3A%2F%2Ftracker.internetwarriors.net%3A1337%2Fannounce&tr=udp%3A%2F%2Ftracker.leechers-paradise.org%3A6969%2Fannounce&tr=udp%3A%2F%2Ftracker.coppersurfer.tk%3A6969%2Fannounce&tr=udp%3A%2F%2Ftracker.pirateparty.gr%3A6969%2Fannounce&tr=udp%3A%2F%2Ftracker.cyberia.is%3A6969%2Fannounce",
        "seeder": "90",
        "leecher": "2"
    },
    {
        "rank": "53",
        "title": "Billboard Greatest Of All Time Pop Songs Mp3",
        "link": "magnet:?xt=urn:btih:B7D676EDDC912F84BA55D6114945BF18379C3274&dn=Billboard+Greatest+Of+All+Time+Pop+Songs+Mp3&tr=udp%3A%2F%2Ftracker.coppersurfer.tk%3A6969%2Fannounce&tr=udp%3A%2F%2F9.rarbg.to%3A2920%2Fannounce&tr=udp%3A%2F%2Ftracker.opentrackr.org%3A1337&tr=udp%3A%2F%2Ftracker.internetwarriors.net%3A1337%2Fannounce&tr=udp%3A%2F%2Ftracker.leechers-paradise.org%3A6969%2Fannounce&tr=udp%3A%2F%2Ftracker.coppersurfer.tk%3A6969%2Fannounce&tr=udp%3A%2F%2Ftracker.pirateparty.gr%3A6969%2Fannounce&tr=udp%3A%2F%2Ftracker.cyberia.is%3A6969%2Fannounce",
        "seeder": "89",
        "leecher": "4"
    },
    {
        "rank": "54",
        "title": "Bob Marley - Greatest Hits [Mp3]",
        "link": "magnet:?xt=urn:btih:C60E036301583A28C88FEFE5252C4DE897D0BE7D&dn=Bob+Marley+-+Greatest+Hits+%5BMp3%5D&tr=udp%3A%2F%2Ftracker.coppersurfer.tk%3A6969%2Fannounce&tr=udp%3A%2F%2F9.rarbg.to%3A2920%2Fannounce&tr=udp%3A%2F%2Ftracker.opentrackr.org%3A1337&tr=udp%3A%2F%2Ftracker.internetwarriors.net%3A1337%2Fannounce&tr=udp%3A%2F%2Ftracker.leechers-paradise.org%3A6969%2Fannounce&tr=udp%3A%2F%2Ftracker.coppersurfer.tk%3A6969%2Fannounce&tr=udp%3A%2F%2Ftracker.pirateparty.gr%3A6969%2Fannounce&tr=udp%3A%2F%2Ftracker.cyberia.is%3A6969%2Fannounce",
        "seeder": "89",
        "leecher": "5"
    },
    {
        "rank": "55",
        "title": "Kendrick Lamar - DAMN (2017) [Mp3~320kbps]",
        "link": "magnet:?xt=urn:btih:7C8AAB34A6ABA7B9D95FFA5B6D67EE42F2963890&dn=Kendrick+Lamar+-+DAMN+%282017%29+%5BMp3%7E320kbps%5D&tr=udp%3A%2F%2Ftracker.coppersurfer.tk%3A6969%2Fannounce&tr=udp%3A%2F%2F9.rarbg.to%3A2920%2Fannounce&tr=udp%3A%2F%2Ftracker.opentrackr.org%3A1337&tr=udp%3A%2F%2Ftracker.internetwarriors.net%3A1337%2Fannounce&tr=udp%3A%2F%2Ftracker.leechers-paradise.org%3A6969%2Fannounce&tr=udp%3A%2F%2Ftracker.coppersurfer.tk%3A6969%2Fannounce&tr=udp%3A%2F%2Ftracker.pirateparty.gr%3A6969%2Fannounce&tr=udp%3A%2F%2Ftracker.cyberia.is%3A6969%2Fannounce",
        "seeder": "87",
        "leecher": "4"
    },
    {
        "rank": "56",
        "title": "The Pretty Reckless - Death By Rock And Roll (2021) Mp3 320kbps",
        "link": "magnet:?xt=urn:btih:9269E10EF0FB3D4F0D5029DBEB646441F1F38FF0&dn=The+Pretty+Reckless+-+Death+By+Rock+And+Roll+%282021%29+Mp3+320kbps&tr=udp%3A%2F%2Ftracker.coppersurfer.tk%3A6969%2Fannounce&tr=udp%3A%2F%2F9.rarbg.to%3A2920%2Fannounce&tr=udp%3A%2F%2Ftracker.opentrackr.org%3A1337&tr=udp%3A%2F%2Ftracker.internetwarriors.net%3A1337%2Fannounce&tr=udp%3A%2F%2Ftracker.leechers-paradise.org%3A6969%2Fannounce&tr=udp%3A%2F%2Ftracker.coppersurfer.tk%3A6969%2Fannounce&tr=udp%3A%2F%2Ftracker.pirateparty.gr%3A6969%2Fannounce&tr=udp%3A%2F%2Ftracker.cyberia.is%3A6969%2Fannounce",
        "seeder": "86",
        "leecher": "0"
    },
    {
        "rank": "57",
        "title": "The Killers - Imploding The Mirage (2020) Mp3 320kbps",
        "link": "magnet:?xt=urn:btih:25045DA43827C0F7A10F41E939976F27B9C99F24&dn=The+Killers+-+Imploding+The+Mirage+%282020%29+Mp3+320kbps&tr=udp%3A%2F%2Ftracker.coppersurfer.tk%3A6969%2Fannounce&tr=udp%3A%2F%2F9.rarbg.to%3A2920%2Fannounce&tr=udp%3A%2F%2Ftracker.opentrackr.org%3A1337&tr=udp%3A%2F%2Ftracker.internetwarriors.net%3A1337%2Fannounce&tr=udp%3A%2F%2Ftracker.leechers-paradise.org%3A6969%2Fannounce&tr=udp%3A%2F%2Ftracker.coppersurfer.tk%3A6969%2Fannounce&tr=udp%3A%2F%2Ftracker.pirateparty.gr%3A6969%2Fannounce&tr=udp%3A%2F%2Ftracker.cyberia.is%3A6969%2Fannounce",
        "seeder": "86",
        "leecher": "1"
    },
    {
        "rank": "58",
        "title": "New Music Releases Week 12 of 2021 (Mp3 320kbps Songs)",
        "link": "magnet:?xt=urn:btih:081BE01F4ECA0A481A493BBB411FE988C78B7599&dn=New+Music+Releases+Week+12+of+2021+%28Mp3+320kbps+Songs%29&tr=udp%3A%2F%2Ftracker.coppersurfer.tk%3A6969%2Fannounce&tr=udp%3A%2F%2F9.rarbg.to%3A2920%2Fannounce&tr=udp%3A%2F%2Ftracker.opentrackr.org%3A1337&tr=udp%3A%2F%2Ftracker.internetwarriors.net%3A1337%2Fannounce&tr=udp%3A%2F%2Ftracker.leechers-paradise.org%3A6969%2Fannounce&tr=udp%3A%2F%2Ftracker.coppersurfer.tk%3A6969%2Fannounce&tr=udp%3A%2F%2Ftracker.pirateparty.gr%3A6969%2Fannounce&tr=udp%3A%2F%2Ftracker.cyberia.is%3A6969%2Fannounce",
        "seeder": "84",
        "leecher": "16"
    },
    {
        "rank": "59",
        "title": "Best of Pop 2020 (Mp3 320kbps) [PMEDIA] \u2b50\ufe0f",
        "link": "magnet:?xt=urn:btih:5999DE0BD05A7F34DA371ED29B0283D1EABB1BD8&dn=Best+of+Pop+2020+%28Mp3+320kbps%29+%5BPMEDIA%5D+%E2%AD%90%EF%B8%8F&tr=udp%3A%2F%2Ftracker.coppersurfer.tk%3A6969%2Fannounce&tr=udp%3A%2F%2F9.rarbg.to%3A2920%2Fannounce&tr=udp%3A%2F%2Ftracker.opentrackr.org%3A1337&tr=udp%3A%2F%2Ftracker.internetwarriors.net%3A1337%2Fannounce&tr=udp%3A%2F%2Ftracker.leechers-paradise.org%3A6969%2Fannounce&tr=udp%3A%2F%2Ftracker.coppersurfer.tk%3A6969%2Fannounce&tr=udp%3A%2F%2Ftracker.pirateparty.gr%3A6969%2Fannounce&tr=udp%3A%2F%2Ftracker.cyberia.is%3A6969%2Fannounce",
        "seeder": "83",
        "leecher": "3"
    },
    {
        "rank": "60",
        "title": "The Weeknd - After Hours (2020) Mp3 320kbps [PMEDIA] \u2b50\ufe0f",
        "link": "magnet:?xt=urn:btih:9131781D82AEDB5594AF6F92EB5175814B2A4DE3&dn=The+Weeknd+-+After+Hours+%282020%29+Mp3+320kbps+%5BPMEDIA%5D+%E2%AD%90%EF%B8%8F&tr=udp%3A%2F%2Ftracker.coppersurfer.tk%3A6969%2Fannounce&tr=udp%3A%2F%2F9.rarbg.to%3A2920%2Fannounce&tr=udp%3A%2F%2Ftracker.opentrackr.org%3A1337&tr=udp%3A%2F%2Ftracker.internetwarriors.net%3A1337%2Fannounce&tr=udp%3A%2F%2Ftracker.leechers-paradise.org%3A6969%2Fannounce&tr=udp%3A%2F%2Ftracker.coppersurfer.tk%3A6969%2Fannounce&tr=udp%3A%2F%2Ftracker.pirateparty.gr%3A6969%2Fannounce&tr=udp%3A%2F%2Ftracker.cyberia.is%3A6969%2Fannounce",
        "seeder": "82",
        "leecher": "6"
    },
    {
        "rank": "61",
        "title": "Tame Impala - The Slow Rush (2020) Mp3 (320kbps) [Hunter]",
        "link": "magnet:?xt=urn:btih:148765DAAB16DBB4CF719CB37A65741D1F95577D&dn=Tame+Impala+-+The+Slow+Rush+%282020%29+Mp3+%28320kbps%29+%5BHunter%5D&tr=udp%3A%2F%2Ftracker.coppersurfer.tk%3A6969%2Fannounce&tr=udp%3A%2F%2F9.rarbg.to%3A2920%2Fannounce&tr=udp%3A%2F%2Ftracker.opentrackr.org%3A1337&tr=udp%3A%2F%2Ftracker.internetwarriors.net%3A1337%2Fannounce&tr=udp%3A%2F%2Ftracker.leechers-paradise.org%3A6969%2Fannounce&tr=udp%3A%2F%2Ftracker.coppersurfer.tk%3A6969%2Fannounce&tr=udp%3A%2F%2Ftracker.pirateparty.gr%3A6969%2Fannounce&tr=udp%3A%2F%2Ftracker.cyberia.is%3A6969%2Fannounce",
        "seeder": "82",
        "leecher": "3"
    },
    {
        "rank": "62",
        "title": "Classic Soul - The Absolutely Essential Collection (3CD) (2021)",
        "link": "magnet:?xt=urn:btih:D51FD5007C80D90F17A1DECE89D91F5382D8C641&dn=Classic+Soul+-+The+Absolutely+Essential+Collection+%283CD%29+%282021%29&tr=udp%3A%2F%2Ftracker.coppersurfer.tk%3A6969%2Fannounce&tr=udp%3A%2F%2F9.rarbg.to%3A2920%2Fannounce&tr=udp%3A%2F%2Ftracker.opentrackr.org%3A1337&tr=udp%3A%2F%2Ftracker.internetwarriors.net%3A1337%2Fannounce&tr=udp%3A%2F%2Ftracker.leechers-paradise.org%3A6969%2Fannounce&tr=udp%3A%2F%2Ftracker.coppersurfer.tk%3A6969%2Fannounce&tr=udp%3A%2F%2Ftracker.pirateparty.gr%3A6969%2Fannounce&tr=udp%3A%2F%2Ftracker.cyberia.is%3A6969%2Fannounce",
        "seeder": "81",
        "leecher": "3"
    },
    {
        "rank": "63",
        "title": "Justin Bieber - Changes (2020) Mp3 (320kbps) [Hunter]",
        "link": "magnet:?xt=urn:btih:807DA31772FE9A4C56FCA74704520273218C61E2&dn=Justin+Bieber+-+Changes+%282020%29+Mp3+%28320kbps%29+%5BHunter%5D&tr=udp%3A%2F%2Ftracker.coppersurfer.tk%3A6969%2Fannounce&tr=udp%3A%2F%2F9.rarbg.to%3A2920%2Fannounce&tr=udp%3A%2F%2Ftracker.opentrackr.org%3A1337&tr=udp%3A%2F%2Ftracker.internetwarriors.net%3A1337%2Fannounce&tr=udp%3A%2F%2Ftracker.leechers-paradise.org%3A6969%2Fannounce&tr=udp%3A%2F%2Ftracker.coppersurfer.tk%3A6969%2Fannounce&tr=udp%3A%2F%2Ftracker.pirateparty.gr%3A6969%2Fannounce&tr=udp%3A%2F%2Ftracker.cyberia.is%3A6969%2Fannounce",
        "seeder": "80",
        "leecher": "0"
    },
    {
        "rank": "64",
        "title": "Miley Cyrus - Plastic Hearts (2020) Mp3 320kbps Album",
        "link": "magnet:?xt=urn:btih:90FCBC7AF7E137CB7F429ABDD5964870B4718C2D&dn=Miley+Cyrus+-+Plastic+Hearts+%282020%29+Mp3+320kbps+Album&tr=udp%3A%2F%2Ftracker.coppersurfer.tk%3A6969%2Fannounce&tr=udp%3A%2F%2F9.rarbg.to%3A2920%2Fannounce&tr=udp%3A%2F%2Ftracker.opentrackr.org%3A1337&tr=udp%3A%2F%2Ftracker.internetwarriors.net%3A1337%2Fannounce&tr=udp%3A%2F%2Ftracker.leechers-paradise.org%3A6969%2Fannounce&tr=udp%3A%2F%2Ftracker.coppersurfer.tk%3A6969%2Fannounce&tr=udp%3A%2F%2Ftracker.pirateparty.gr%3A6969%2Fannounce&tr=udp%3A%2F%2Ftracker.cyberia.is%3A6969%2Fannounce",
        "seeder": "79",
        "leecher": "6"
    },
    {
        "rank": "65",
        "title": "Bruno Mars - Greatest Songs (2018) Mp3 (320kbps) [Hunter]",
        "link": "magnet:?xt=urn:btih:2ECEE537DC1966E5C6CC8AE14BC0E16B931998C3&dn=Bruno+Mars+-+Greatest+Songs+%282018%29+Mp3+%28320kbps%29+%5BHunter%5D&tr=udp%3A%2F%2Ftracker.coppersurfer.tk%3A6969%2Fannounce&tr=udp%3A%2F%2F9.rarbg.to%3A2920%2Fannounce&tr=udp%3A%2F%2Ftracker.opentrackr.org%3A1337&tr=udp%3A%2F%2Ftracker.internetwarriors.net%3A1337%2Fannounce&tr=udp%3A%2F%2Ftracker.leechers-paradise.org%3A6969%2Fannounce&tr=udp%3A%2F%2Ftracker.coppersurfer.tk%3A6969%2Fannounce&tr=udp%3A%2F%2Ftracker.pirateparty.gr%3A6969%2Fannounce&tr=udp%3A%2F%2Ftracker.cyberia.is%3A6969%2Fannounce",
        "seeder": "79",
        "leecher": "7"
    },
    {
        "rank": "66",
        "title": "Billboard Hot Rock & Alternative Songs 10-April-2021 Mp3 320",
        "link": "magnet:?xt=urn:btih:C999030AB37ED39DB91C88922EF4945F71FC3E36&dn=Billboard+Hot+Rock+%26amp%3B+Alternative+Songs+10-April-2021+Mp3+320&tr=udp%3A%2F%2Ftracker.coppersurfer.tk%3A6969%2Fannounce&tr=udp%3A%2F%2F9.rarbg.to%3A2920%2Fannounce&tr=udp%3A%2F%2Ftracker.opentrackr.org%3A1337&tr=udp%3A%2F%2Ftracker.internetwarriors.net%3A1337%2Fannounce&tr=udp%3A%2F%2Ftracker.leechers-paradise.org%3A6969%2Fannounce&tr=udp%3A%2F%2Ftracker.coppersurfer.tk%3A6969%2Fannounce&tr=udp%3A%2F%2Ftracker.pirateparty.gr%3A6969%2Fannounce&tr=udp%3A%2F%2Ftracker.cyberia.is%3A6969%2Fannounce",
        "seeder": "77",
        "leecher": "18"
    },
    {
        "rank": "67",
        "title": "VA - Jukebox Hits Of Gold (3CD) (2021) Mp3 320kbps [PMEDIA] \u2b50\ufe0f",
        "link": "magnet:?xt=urn:btih:5217B0F7D6118585171B79D59726A422D97CE99A&dn=VA+-+Jukebox+Hits+Of+Gold+%283CD%29+%282021%29+Mp3+320kbps+%5BPMEDIA%5D+%E2%AD%90%EF%B8%8F&tr=udp%3A%2F%2Ftracker.coppersurfer.tk%3A6969%2Fannounce&tr=udp%3A%2F%2F9.rarbg.to%3A2920%2Fannounce&tr=udp%3A%2F%2Ftracker.opentrackr.org%3A1337&tr=udp%3A%2F%2Ftracker.internetwarriors.net%3A1337%2Fannounce&tr=udp%3A%2F%2Ftracker.leechers-paradise.org%3A6969%2Fannounce&tr=udp%3A%2F%2Ftracker.coppersurfer.tk%3A6969%2Fannounce&tr=udp%3A%2F%2Ftracker.pirateparty.gr%3A6969%2Fannounce&tr=udp%3A%2F%2Ftracker.cyberia.is%3A6969%2Fannounce",
        "seeder": "77",
        "leecher": "4"
    },
    {
        "rank": "68",
        "title": "The Official UK Top 100 Singles Chart (19.03.2021) Mp3 320kbps",
        "link": "magnet:?xt=urn:btih:AC3E76CAC7024616540414032A34CF5C69F492FB&dn=The+Official+UK+Top+100+Singles+Chart+%2819.03.2021%29+Mp3+320kbps&tr=udp%3A%2F%2Ftracker.coppersurfer.tk%3A6969%2Fannounce&tr=udp%3A%2F%2F9.rarbg.to%3A2920%2Fannounce&tr=udp%3A%2F%2Ftracker.opentrackr.org%3A1337&tr=udp%3A%2F%2Ftracker.internetwarriors.net%3A1337%2Fannounce&tr=udp%3A%2F%2Ftracker.leechers-paradise.org%3A6969%2Fannounce&tr=udp%3A%2F%2Ftracker.coppersurfer.tk%3A6969%2Fannounce&tr=udp%3A%2F%2Ftracker.pirateparty.gr%3A6969%2Fannounce&tr=udp%3A%2F%2Ftracker.cyberia.is%3A6969%2Fannounce",
        "seeder": "77",
        "leecher": "6"
    },
    {
        "rank": "69",
        "title": "Elton John - Elton_ Jewel Box {8CD Super Deluxe Edition} (2020)",
        "link": "magnet:?xt=urn:btih:468B151BBFEA3C2F4E8D759FAC7776E448E37533&dn=Elton+John+-+Elton_+Jewel+Box+%7B8CD+Super+Deluxe+Edition%7D+%282020%29&tr=udp%3A%2F%2Ftracker.coppersurfer.tk%3A6969%2Fannounce&tr=udp%3A%2F%2F9.rarbg.to%3A2920%2Fannounce&tr=udp%3A%2F%2Ftracker.opentrackr.org%3A1337&tr=udp%3A%2F%2Ftracker.internetwarriors.net%3A1337%2Fannounce&tr=udp%3A%2F%2Ftracker.leechers-paradise.org%3A6969%2Fannounce&tr=udp%3A%2F%2Ftracker.coppersurfer.tk%3A6969%2Fannounce&tr=udp%3A%2F%2Ftracker.pirateparty.gr%3A6969%2Fannounce&tr=udp%3A%2F%2Ftracker.cyberia.is%3A6969%2Fannounce",
        "seeder": "77",
        "leecher": "2"
    },
    {
        "rank": "70",
        "title": "Abba - Greatest Songs (2018) Mp3 (320kbps) [Hunter]",
        "link": "magnet:?xt=urn:btih:421AF392532E263950FF09234997AC1ED1A0FBBF&dn=Abba+-+Greatest+Songs+%282018%29+Mp3+%28320kbps%29+%5BHunter%5D&tr=udp%3A%2F%2Ftracker.coppersurfer.tk%3A6969%2Fannounce&tr=udp%3A%2F%2F9.rarbg.to%3A2920%2Fannounce&tr=udp%3A%2F%2Ftracker.opentrackr.org%3A1337&tr=udp%3A%2F%2Ftracker.internetwarriors.net%3A1337%2Fannounce&tr=udp%3A%2F%2Ftracker.leechers-paradise.org%3A6969%2Fannounce&tr=udp%3A%2F%2Ftracker.coppersurfer.tk%3A6969%2Fannounce&tr=udp%3A%2F%2Ftracker.pirateparty.gr%3A6969%2Fannounce&tr=udp%3A%2F%2Ftracker.cyberia.is%3A6969%2Fannounce",
        "seeder": "77",
        "leecher": "6"
    },
    {
        "rank": "71",
        "title": "Lil Baby - My Turn (Deluxe) (2020) Mp3 (320kbps) [Hunter]",
        "link": "magnet:?xt=urn:btih:EECFE1A33AE373CF91E9B6264B474F8A31569D21&dn=Lil+Baby+-+My+Turn+%28Deluxe%29+%282020%29+Mp3+%28320kbps%29+%5BHunter%5D&tr=udp%3A%2F%2Ftracker.coppersurfer.tk%3A6969%2Fannounce&tr=udp%3A%2F%2F9.rarbg.to%3A2920%2Fannounce&tr=udp%3A%2F%2Ftracker.opentrackr.org%3A1337&tr=udp%3A%2F%2Ftracker.internetwarriors.net%3A1337%2Fannounce&tr=udp%3A%2F%2Ftracker.leechers-paradise.org%3A6969%2Fannounce&tr=udp%3A%2F%2Ftracker.coppersurfer.tk%3A6969%2Fannounce&tr=udp%3A%2F%2Ftracker.pirateparty.gr%3A6969%2Fannounce&tr=udp%3A%2F%2Ftracker.cyberia.is%3A6969%2Fannounce",
        "seeder": "76",
        "leecher": "2"
    },
    {
        "rank": "72",
        "title": "VA - Love Songs Best 100 (2020) Mp3 320kbps [PMEDIA] \u2b50\ufe0f",
        "link": "magnet:?xt=urn:btih:C740D29AFF62B1DEAEE4B1A87BBCE42950B36CB1&dn=VA+-+Love+Songs+Best+100+%282020%29+Mp3+320kbps+%5BPMEDIA%5D+%E2%AD%90%EF%B8%8F&tr=udp%3A%2F%2Ftracker.coppersurfer.tk%3A6969%2Fannounce&tr=udp%3A%2F%2F9.rarbg.to%3A2920%2Fannounce&tr=udp%3A%2F%2Ftracker.opentrackr.org%3A1337&tr=udp%3A%2F%2Ftracker.internetwarriors.net%3A1337%2Fannounce&tr=udp%3A%2F%2Ftracker.leechers-paradise.org%3A6969%2Fannounce&tr=udp%3A%2F%2Ftracker.coppersurfer.tk%3A6969%2Fannounce&tr=udp%3A%2F%2Ftracker.pirateparty.gr%3A6969%2Fannounce&tr=udp%3A%2F%2Ftracker.cyberia.is%3A6969%2Fannounce",
        "seeder": "75",
        "leecher": "3"
    },
    {
        "rank": "73",
        "title": "Pop Smoke - Shoot For The Stars Aim For The Moon (Deluxe) (2020)",
        "link": "magnet:?xt=urn:btih:BC72A24AD40EF560607C363DFB669FCB8ECE68F4&dn=Pop+Smoke+-+Shoot+For+The+Stars+Aim+For+The+Moon+%28Deluxe%29+%282020%29&tr=udp%3A%2F%2Ftracker.coppersurfer.tk%3A6969%2Fannounce&tr=udp%3A%2F%2F9.rarbg.to%3A2920%2Fannounce&tr=udp%3A%2F%2Ftracker.opentrackr.org%3A1337&tr=udp%3A%2F%2Ftracker.internetwarriors.net%3A1337%2Fannounce&tr=udp%3A%2F%2Ftracker.leechers-paradise.org%3A6969%2Fannounce&tr=udp%3A%2F%2Ftracker.coppersurfer.tk%3A6969%2Fannounce&tr=udp%3A%2F%2Ftracker.pirateparty.gr%3A6969%2Fannounce&tr=udp%3A%2F%2Ftracker.cyberia.is%3A6969%2Fannounce",
        "seeder": "75",
        "leecher": "7"
    },
    {
        "rank": "74",
        "title": "VA - Baker Street - 100 Classics from the 70s (2021) Mp3 320kbps",
        "link": "magnet:?xt=urn:btih:1DDAEC485C337F017E29F5B1484AE68EF7432B24&dn=VA+-+Baker+Street+-+100+Classics+from+the+70s+%282021%29+Mp3+320kbps&tr=udp%3A%2F%2Ftracker.coppersurfer.tk%3A6969%2Fannounce&tr=udp%3A%2F%2F9.rarbg.to%3A2920%2Fannounce&tr=udp%3A%2F%2Ftracker.opentrackr.org%3A1337&tr=udp%3A%2F%2Ftracker.internetwarriors.net%3A1337%2Fannounce&tr=udp%3A%2F%2Ftracker.leechers-paradise.org%3A6969%2Fannounce&tr=udp%3A%2F%2Ftracker.coppersurfer.tk%3A6969%2Fannounce&tr=udp%3A%2F%2Ftracker.pirateparty.gr%3A6969%2Fannounce&tr=udp%3A%2F%2Ftracker.cyberia.is%3A6969%2Fannounce",
        "seeder": "74",
        "leecher": "2"
    },
    {
        "rank": "75",
        "title": "Billboard Hot 100 Singles Chart (06-March-2021) Mp3 320kbps",
        "link": "magnet:?xt=urn:btih:EDE17E3F1F631FB83958BECCEC31C4E78D0EE282&dn=Billboard+Hot+100+Singles+Chart+%2806-March-2021%29+Mp3+320kbps&tr=udp%3A%2F%2Ftracker.coppersurfer.tk%3A6969%2Fannounce&tr=udp%3A%2F%2F9.rarbg.to%3A2920%2Fannounce&tr=udp%3A%2F%2Ftracker.opentrackr.org%3A1337&tr=udp%3A%2F%2Ftracker.internetwarriors.net%3A1337%2Fannounce&tr=udp%3A%2F%2Ftracker.leechers-paradise.org%3A6969%2Fannounce&tr=udp%3A%2F%2Ftracker.coppersurfer.tk%3A6969%2Fannounce&tr=udp%3A%2F%2Ftracker.pirateparty.gr%3A6969%2Fannounce&tr=udp%3A%2F%2Ftracker.cyberia.is%3A6969%2Fannounce",
        "seeder": "73",
        "leecher": "7"
    },
    {
        "rank": "76",
        "title": "NOW That's What I Call Music 107 (2020) Mp3 320kbps",
        "link": "magnet:?xt=urn:btih:C9C8279A4EFF7626AA93C341B9DBC4EC3846CF7F&dn=NOW+That%27s+What+I+Call+Music+107+%282020%29+Mp3+320kbps&tr=udp%3A%2F%2Ftracker.coppersurfer.tk%3A6969%2Fannounce&tr=udp%3A%2F%2F9.rarbg.to%3A2920%2Fannounce&tr=udp%3A%2F%2Ftracker.opentrackr.org%3A1337&tr=udp%3A%2F%2Ftracker.internetwarriors.net%3A1337%2Fannounce&tr=udp%3A%2F%2Ftracker.leechers-paradise.org%3A6969%2Fannounce&tr=udp%3A%2F%2Ftracker.coppersurfer.tk%3A6969%2Fannounce&tr=udp%3A%2F%2Ftracker.pirateparty.gr%3A6969%2Fannounce&tr=udp%3A%2F%2Ftracker.cyberia.is%3A6969%2Fannounce",
        "seeder": "72",
        "leecher": "5"
    },
    {
        "rank": "77",
        "title": "DISCO HITS - The BEST late 70s early 80s disco/dance/funk",
        "link": "magnet:?xt=urn:btih:16B4B840F9D7DC712F06A7C0F41FCBC7755F5377&dn=DISCO+HITS+-+The+BEST+late+70s+early+80s+disco%2Fdance%2Ffunk&tr=udp%3A%2F%2Ftracker.coppersurfer.tk%3A6969%2Fannounce&tr=udp%3A%2F%2F9.rarbg.to%3A2920%2Fannounce&tr=udp%3A%2F%2Ftracker.opentrackr.org%3A1337&tr=udp%3A%2F%2Ftracker.internetwarriors.net%3A1337%2Fannounce&tr=udp%3A%2F%2Ftracker.leechers-paradise.org%3A6969%2Fannounce&tr=udp%3A%2F%2Ftracker.coppersurfer.tk%3A6969%2Fannounce&tr=udp%3A%2F%2Ftracker.pirateparty.gr%3A6969%2Fannounce&tr=udp%3A%2F%2Ftracker.cyberia.is%3A6969%2Fannounce",
        "seeder": "72",
        "leecher": "1"
    },
    {
        "rank": "78",
        "title": "Juice WRLD - Legends Never Die (2020) Mp3 (320kbps) [Hunter]",
        "link": "magnet:?xt=urn:btih:570BA0BF1321E8F7C3CE1E3FB9049A2BD062B6A3&dn=Juice+WRLD+-+Legends+Never+Die+%282020%29+Mp3+%28320kbps%29+%5BHunter%5D&tr=udp%3A%2F%2Ftracker.coppersurfer.tk%3A6969%2Fannounce&tr=udp%3A%2F%2F9.rarbg.to%3A2920%2Fannounce&tr=udp%3A%2F%2Ftracker.opentrackr.org%3A1337&tr=udp%3A%2F%2Ftracker.internetwarriors.net%3A1337%2Fannounce&tr=udp%3A%2F%2Ftracker.leechers-paradise.org%3A6969%2Fannounce&tr=udp%3A%2F%2Ftracker.coppersurfer.tk%3A6969%2Fannounce&tr=udp%3A%2F%2Ftracker.pirateparty.gr%3A6969%2Fannounce&tr=udp%3A%2F%2Ftracker.cyberia.is%3A6969%2Fannounce",
        "seeder": "71",
        "leecher": "1"
    },
    {
        "rank": "79",
        "title": "Taylor Swift - evermore (2020) FLAC Album [PMEDIA] \u2b50\ufe0f",
        "link": "magnet:?xt=urn:btih:22EFA5105F7E8550C6BB1935BD602E6A991934CE&dn=Taylor+Swift+-+evermore+%282020%29+FLAC+Album+%5BPMEDIA%5D+%E2%AD%90%EF%B8%8F&tr=udp%3A%2F%2Ftracker.coppersurfer.tk%3A6969%2Fannounce&tr=udp%3A%2F%2F9.rarbg.to%3A2920%2Fannounce&tr=udp%3A%2F%2Ftracker.opentrackr.org%3A1337&tr=udp%3A%2F%2Ftracker.internetwarriors.net%3A1337%2Fannounce&tr=udp%3A%2F%2Ftracker.leechers-paradise.org%3A6969%2Fannounce&tr=udp%3A%2F%2Ftracker.coppersurfer.tk%3A6969%2Fannounce&tr=udp%3A%2F%2Ftracker.pirateparty.gr%3A6969%2Fannounce&tr=udp%3A%2F%2Ftracker.cyberia.is%3A6969%2Fannounce",
        "seeder": "70",
        "leecher": "2"
    },
    {
        "rank": "80",
        "title": "Drake - Scary Hours 2 (2021) Mp3 320kbps [PMEDIA] \u2b50\ufe0f",
        "link": "magnet:?xt=urn:btih:1FA68F72F770EB2FF436AE9F31FCFE7239E3FBE0&dn=Drake+-+Scary+Hours+2+%282021%29+Mp3+320kbps+%5BPMEDIA%5D+%E2%AD%90%EF%B8%8F&tr=udp%3A%2F%2Ftracker.coppersurfer.tk%3A6969%2Fannounce&tr=udp%3A%2F%2F9.rarbg.to%3A2920%2Fannounce&tr=udp%3A%2F%2Ftracker.opentrackr.org%3A1337&tr=udp%3A%2F%2Ftracker.internetwarriors.net%3A1337%2Fannounce&tr=udp%3A%2F%2Ftracker.leechers-paradise.org%3A6969%2Fannounce&tr=udp%3A%2F%2Ftracker.coppersurfer.tk%3A6969%2Fannounce&tr=udp%3A%2F%2Ftracker.pirateparty.gr%3A6969%2Fannounce&tr=udp%3A%2F%2Ftracker.cyberia.is%3A6969%2Fannounce",
        "seeder": "69",
        "leecher": "15"
    },
    {
        "rank": "81",
        "title": "Alicia Keys - ALICIA (2020) Mp3 320kbps [PMEDIA] \u2b50\ufe0f",
        "link": "magnet:?xt=urn:btih:C3DC1E634A23EDD4C0D06F4F0564B26D6A87FACF&dn=Alicia+Keys+-+ALICIA+%282020%29+Mp3+320kbps+%5BPMEDIA%5D+%E2%AD%90%EF%B8%8F&tr=udp%3A%2F%2Ftracker.coppersurfer.tk%3A6969%2Fannounce&tr=udp%3A%2F%2F9.rarbg.to%3A2920%2Fannounce&tr=udp%3A%2F%2Ftracker.opentrackr.org%3A1337&tr=udp%3A%2F%2Ftracker.internetwarriors.net%3A1337%2Fannounce&tr=udp%3A%2F%2Ftracker.leechers-paradise.org%3A6969%2Fannounce&tr=udp%3A%2F%2Ftracker.coppersurfer.tk%3A6969%2Fannounce&tr=udp%3A%2F%2Ftracker.pirateparty.gr%3A6969%2Fannounce&tr=udp%3A%2F%2Ftracker.cyberia.is%3A6969%2Fannounce",
        "seeder": "69",
        "leecher": "0"
    },
    {
        "rank": "82",
        "title": "David Bowie - Best of Bowie",
        "link": "magnet:?xt=urn:btih:301BC765F0C4A4E16C8FBBC92F36D36BEEDC3C69&dn=David+Bowie+-+Best+of+Bowie&tr=udp%3A%2F%2Ftracker.coppersurfer.tk%3A6969%2Fannounce&tr=udp%3A%2F%2F9.rarbg.to%3A2920%2Fannounce&tr=udp%3A%2F%2Ftracker.opentrackr.org%3A1337&tr=udp%3A%2F%2Ftracker.internetwarriors.net%3A1337%2Fannounce&tr=udp%3A%2F%2Ftracker.leechers-paradise.org%3A6969%2Fannounce&tr=udp%3A%2F%2Ftracker.coppersurfer.tk%3A6969%2Fannounce&tr=udp%3A%2F%2Ftracker.pirateparty.gr%3A6969%2Fannounce&tr=udp%3A%2F%2Ftracker.cyberia.is%3A6969%2Fannounce",
        "seeder": "69",
        "leecher": "5"
    },
    {
        "rank": "83",
        "title": "Billboard Hot Christian Songs -> 10-April-2021",
        "link": "magnet:?xt=urn:btih:8DDDEFB7F2355AE53F95031B6195D83D3F5D9FD2&dn=Billboard+Hot+Christian+Songs+-%26gt%3B+10-April-2021&tr=udp%3A%2F%2Ftracker.coppersurfer.tk%3A6969%2Fannounce&tr=udp%3A%2F%2F9.rarbg.to%3A2920%2Fannounce&tr=udp%3A%2F%2Ftracker.opentrackr.org%3A1337&tr=udp%3A%2F%2Ftracker.internetwarriors.net%3A1337%2Fannounce&tr=udp%3A%2F%2Ftracker.leechers-paradise.org%3A6969%2Fannounce&tr=udp%3A%2F%2Ftracker.coppersurfer.tk%3A6969%2Fannounce&tr=udp%3A%2F%2Ftracker.pirateparty.gr%3A6969%2Fannounce&tr=udp%3A%2F%2Ftracker.cyberia.is%3A6969%2Fannounce",
        "seeder": "68",
        "leecher": "20"
    },
    {
        "rank": "84",
        "title": "Billboard Hot 100 Singles Chart (09-January-2021) Mp3 320kbps",
        "link": "magnet:?xt=urn:btih:442671C594093715081DABE179B3F64A1A059AA6&dn=Billboard+Hot+100+Singles+Chart+%2809-January-2021%29+Mp3+320kbps&tr=udp%3A%2F%2Ftracker.coppersurfer.tk%3A6969%2Fannounce&tr=udp%3A%2F%2F9.rarbg.to%3A2920%2Fannounce&tr=udp%3A%2F%2Ftracker.opentrackr.org%3A1337&tr=udp%3A%2F%2Ftracker.internetwarriors.net%3A1337%2Fannounce&tr=udp%3A%2F%2Ftracker.leechers-paradise.org%3A6969%2Fannounce&tr=udp%3A%2F%2Ftracker.coppersurfer.tk%3A6969%2Fannounce&tr=udp%3A%2F%2Ftracker.pirateparty.gr%3A6969%2Fannounce&tr=udp%3A%2F%2Ftracker.cyberia.is%3A6969%2Fannounce",
        "seeder": "68",
        "leecher": "3"
    },
    {
        "rank": "85",
        "title": "Bob Marley - Complete Discography [Mp3 - 256Kbps]",
        "link": "magnet:?xt=urn:btih:D12EE232DD9058351861A29310FE782B7DC3F9E4&dn=Bob+Marley+-+Complete+Discography+%5BMp3+-+256Kbps%5D&tr=udp%3A%2F%2Ftracker.coppersurfer.tk%3A6969%2Fannounce&tr=udp%3A%2F%2F9.rarbg.to%3A2920%2Fannounce&tr=udp%3A%2F%2Ftracker.opentrackr.org%3A1337&tr=udp%3A%2F%2Ftracker.internetwarriors.net%3A1337%2Fannounce&tr=udp%3A%2F%2Ftracker.leechers-paradise.org%3A6969%2Fannounce&tr=udp%3A%2F%2Ftracker.coppersurfer.tk%3A6969%2Fannounce&tr=udp%3A%2F%2Ftracker.pirateparty.gr%3A6969%2Fannounce&tr=udp%3A%2F%2Ftracker.cyberia.is%3A6969%2Fannounce",
        "seeder": "68",
        "leecher": "12"
    },
    {
        "rank": "86",
        "title": "The Official UK Top 100 Singles Chart (12.03.2021) Mp3",
        "link": "magnet:?xt=urn:btih:76CF79FDDBB511CBBB2F36E53F5B90E509CCC30A&dn=The+Official+UK+Top+100+Singles+Chart+%2812.03.2021%29+Mp3&tr=udp%3A%2F%2Ftracker.coppersurfer.tk%3A6969%2Fannounce&tr=udp%3A%2F%2F9.rarbg.to%3A2920%2Fannounce&tr=udp%3A%2F%2Ftracker.opentrackr.org%3A1337&tr=udp%3A%2F%2Ftracker.internetwarriors.net%3A1337%2Fannounce&tr=udp%3A%2F%2Ftracker.leechers-paradise.org%3A6969%2Fannounce&tr=udp%3A%2F%2Ftracker.coppersurfer.tk%3A6969%2Fannounce&tr=udp%3A%2F%2Ftracker.pirateparty.gr%3A6969%2Fannounce&tr=udp%3A%2F%2Ftracker.cyberia.is%3A6969%2Fannounce",
        "seeder": "67",
        "leecher": "4"
    },
    {
        "rank": "87",
        "title": "Tory Lanez - PLAYBOY (2021) Mp3 320kbps [PMEDIA] \u2b50\ufe0f",
        "link": "magnet:?xt=urn:btih:4509E7C21EA6D57DF498D1CB82B9F566108377AE&dn=Tory+Lanez+-+PLAYBOY+%282021%29+Mp3+320kbps+%5BPMEDIA%5D+%E2%AD%90%EF%B8%8F&tr=udp%3A%2F%2Ftracker.coppersurfer.tk%3A6969%2Fannounce&tr=udp%3A%2F%2F9.rarbg.to%3A2920%2Fannounce&tr=udp%3A%2F%2Ftracker.opentrackr.org%3A1337&tr=udp%3A%2F%2Ftracker.internetwarriors.net%3A1337%2Fannounce&tr=udp%3A%2F%2Ftracker.leechers-paradise.org%3A6969%2Fannounce&tr=udp%3A%2F%2Ftracker.coppersurfer.tk%3A6969%2Fannounce&tr=udp%3A%2F%2Ftracker.pirateparty.gr%3A6969%2Fannounce&tr=udp%3A%2F%2Ftracker.cyberia.is%3A6969%2Fannounce",
        "seeder": "67",
        "leecher": "1"
    },
    {
        "rank": "88",
        "title": "Paul McCartney - McCartney III (2020) Mp3 320kbps [PMEDIA] \u2b50\ufe0f",
        "link": "magnet:?xt=urn:btih:7D6A74CAF62153CAB7B9D52B7646115151F83821&dn=Paul+McCartney+-+McCartney+III+%282020%29+Mp3+320kbps+%5BPMEDIA%5D+%E2%AD%90%EF%B8%8F&tr=udp%3A%2F%2Ftracker.coppersurfer.tk%3A6969%2Fannounce&tr=udp%3A%2F%2F9.rarbg.to%3A2920%2Fannounce&tr=udp%3A%2F%2Ftracker.opentrackr.org%3A1337&tr=udp%3A%2F%2Ftracker.internetwarriors.net%3A1337%2Fannounce&tr=udp%3A%2F%2Ftracker.leechers-paradise.org%3A6969%2Fannounce&tr=udp%3A%2F%2Ftracker.coppersurfer.tk%3A6969%2Fannounce&tr=udp%3A%2F%2Ftracker.pirateparty.gr%3A6969%2Fannounce&tr=udp%3A%2F%2Ftracker.cyberia.is%3A6969%2Fannounce",
        "seeder": "67",
        "leecher": "1"
    },
    {
        "rank": "89",
        "title": "[Classical Music] The Best Of (Vivaldi, Bethovenn, Mozart, Strau",
        "link": "magnet:?xt=urn:btih:5CC8FE91E68D13D104C19336482353B1FAECE9AC&dn=%5BClassical+Music%5D+The+Best+Of+%28Vivaldi%2C+Bethovenn%2C+Mozart%2C+Strau&tr=udp%3A%2F%2Ftracker.coppersurfer.tk%3A6969%2Fannounce&tr=udp%3A%2F%2F9.rarbg.to%3A2920%2Fannounce&tr=udp%3A%2F%2Ftracker.opentrackr.org%3A1337&tr=udp%3A%2F%2Ftracker.internetwarriors.net%3A1337%2Fannounce&tr=udp%3A%2F%2Ftracker.leechers-paradise.org%3A6969%2Fannounce&tr=udp%3A%2F%2Ftracker.coppersurfer.tk%3A6969%2Fannounce&tr=udp%3A%2F%2Ftracker.pirateparty.gr%3A6969%2Fannounce&tr=udp%3A%2F%2Ftracker.cyberia.is%3A6969%2Fannounce",
        "seeder": "67",
        "leecher": "3"
    },
    {
        "rank": "90",
        "title": "Alice Cooper - Detroit Stories (2021)",
        "link": "magnet:?xt=urn:btih:6D6405A7D496479E3600EBFE83494920E508B26E&dn=Alice+Cooper+-+Detroit+Stories+%282021%29&tr=udp%3A%2F%2Ftracker.coppersurfer.tk%3A6969%2Fannounce&tr=udp%3A%2F%2F9.rarbg.to%3A2920%2Fannounce&tr=udp%3A%2F%2Ftracker.opentrackr.org%3A1337&tr=udp%3A%2F%2Ftracker.internetwarriors.net%3A1337%2Fannounce&tr=udp%3A%2F%2Ftracker.leechers-paradise.org%3A6969%2Fannounce&tr=udp%3A%2F%2Ftracker.coppersurfer.tk%3A6969%2Fannounce&tr=udp%3A%2F%2Ftracker.pirateparty.gr%3A6969%2Fannounce&tr=udp%3A%2F%2Ftracker.cyberia.is%3A6969%2Fannounce",
        "seeder": "66",
        "leecher": "3"
    },
    {
        "rank": "91",
        "title": "Burna Boy - Twice As Tall (2020) Mp3 320kbps [PMEDIA] \u2b50\ufe0f",
        "link": "magnet:?xt=urn:btih:6112DA6AAFD2797881E2FF3C838D58B7D7A1FBC3&dn=Burna+Boy+-+Twice+As+Tall+%282020%29+Mp3+320kbps+%5BPMEDIA%5D+%E2%AD%90%EF%B8%8F&tr=udp%3A%2F%2Ftracker.coppersurfer.tk%3A6969%2Fannounce&tr=udp%3A%2F%2F9.rarbg.to%3A2920%2Fannounce&tr=udp%3A%2F%2Ftracker.opentrackr.org%3A1337&tr=udp%3A%2F%2Ftracker.internetwarriors.net%3A1337%2Fannounce&tr=udp%3A%2F%2Ftracker.leechers-paradise.org%3A6969%2Fannounce&tr=udp%3A%2F%2Ftracker.coppersurfer.tk%3A6969%2Fannounce&tr=udp%3A%2F%2Ftracker.pirateparty.gr%3A6969%2Fannounce&tr=udp%3A%2F%2Ftracker.cyberia.is%3A6969%2Fannounce",
        "seeder": "65",
        "leecher": "3"
    },
    {
        "rank": "92",
        "title": "Imagine Dragons - Evolve (Deluxe) (2017) Mp3 320kbps [WR Music]",
        "link": "magnet:?xt=urn:btih:54057710B043CC0359724C42579C2B07AC8DD73A&dn=Imagine+Dragons+-+Evolve+%28Deluxe%29+%282017%29+Mp3+320kbps+%5BWR+Music%5D&tr=udp%3A%2F%2Ftracker.coppersurfer.tk%3A6969%2Fannounce&tr=udp%3A%2F%2F9.rarbg.to%3A2920%2Fannounce&tr=udp%3A%2F%2Ftracker.opentrackr.org%3A1337&tr=udp%3A%2F%2Ftracker.internetwarriors.net%3A1337%2Fannounce&tr=udp%3A%2F%2Ftracker.leechers-paradise.org%3A6969%2Fannounce&tr=udp%3A%2F%2Ftracker.coppersurfer.tk%3A6969%2Fannounce&tr=udp%3A%2F%2Ftracker.pirateparty.gr%3A6969%2Fannounce&tr=udp%3A%2F%2Ftracker.cyberia.is%3A6969%2Fannounce",
        "seeder": "64",
        "leecher": "3"
    },
    {
        "rank": "93",
        "title": "Weezer \u2013 OK Human (2021) Mp3 320kbps [PMEDIA] \u2b50\ufe0f",
        "link": "magnet:?xt=urn:btih:0E63316126C706981BF285E38B8E264586AB08F4&dn=Weezer+%26ndash%3B+OK+Human+%282021%29+Mp3+320kbps+%5BPMEDIA%5D+%E2%AD%90%EF%B8%8F&tr=udp%3A%2F%2Ftracker.coppersurfer.tk%3A6969%2Fannounce&tr=udp%3A%2F%2F9.rarbg.to%3A2920%2Fannounce&tr=udp%3A%2F%2Ftracker.opentrackr.org%3A1337&tr=udp%3A%2F%2Ftracker.internetwarriors.net%3A1337%2Fannounce&tr=udp%3A%2F%2Ftracker.leechers-paradise.org%3A6969%2Fannounce&tr=udp%3A%2F%2Ftracker.coppersurfer.tk%3A6969%2Fannounce&tr=udp%3A%2F%2Ftracker.pirateparty.gr%3A6969%2Fannounce&tr=udp%3A%2F%2Ftracker.cyberia.is%3A6969%2Fannounce",
        "seeder": "63",
        "leecher": "1"
    },
    {
        "rank": "94",
        "title": "The Best Christmas Album In The World...Ever (2020) Mp3 320kbps",
        "link": "magnet:?xt=urn:btih:32D250CDC41837999F0A4CCE51BA19662F87A5A2&dn=The+Best+Christmas+Album+In+The+World...Ever+%282020%29+Mp3+320kbps&tr=udp%3A%2F%2Ftracker.coppersurfer.tk%3A6969%2Fannounce&tr=udp%3A%2F%2F9.rarbg.to%3A2920%2Fannounce&tr=udp%3A%2F%2Ftracker.opentrackr.org%3A1337&tr=udp%3A%2F%2Ftracker.internetwarriors.net%3A1337%2Fannounce&tr=udp%3A%2F%2Ftracker.leechers-paradise.org%3A6969%2Fannounce&tr=udp%3A%2F%2Ftracker.coppersurfer.tk%3A6969%2Fannounce&tr=udp%3A%2F%2Ftracker.pirateparty.gr%3A6969%2Fannounce&tr=udp%3A%2F%2Ftracker.cyberia.is%3A6969%2Fannounce",
        "seeder": "63",
        "leecher": "1"
    },
    {
        "rank": "95",
        "title": "NOW That's What I Call A Workout (2020) Mp3 320kbps [PMEDIA] \u2b50\ufe0f",
        "link": "magnet:?xt=urn:btih:F0DB85BFBA59C5C61A1F3394E4C51BDB82E567D6&dn=NOW+That%27s+What+I+Call+A+Workout+%282020%29+Mp3+320kbps+%5BPMEDIA%5D+%E2%AD%90%EF%B8%8F&tr=udp%3A%2F%2Ftracker.coppersurfer.tk%3A6969%2Fannounce&tr=udp%3A%2F%2F9.rarbg.to%3A2920%2Fannounce&tr=udp%3A%2F%2Ftracker.opentrackr.org%3A1337&tr=udp%3A%2F%2Ftracker.internetwarriors.net%3A1337%2Fannounce&tr=udp%3A%2F%2Ftracker.leechers-paradise.org%3A6969%2Fannounce&tr=udp%3A%2F%2Ftracker.coppersurfer.tk%3A6969%2Fannounce&tr=udp%3A%2F%2Ftracker.pirateparty.gr%3A6969%2Fannounce&tr=udp%3A%2F%2Ftracker.cyberia.is%3A6969%2Fannounce",
        "seeder": "63",
        "leecher": "2"
    },
    {
        "rank": "96",
        "title": "The Strokes The New Abnormal [2020] 320",
        "link": "magnet:?xt=urn:btih:C16B71C156C83B8C9A1BE2719C4979729981FFBB&dn=The+Strokes+The+New+Abnormal+%5B2020%5D+320&tr=udp%3A%2F%2Ftracker.coppersurfer.tk%3A6969%2Fannounce&tr=udp%3A%2F%2F9.rarbg.to%3A2920%2Fannounce&tr=udp%3A%2F%2Ftracker.opentrackr.org%3A1337&tr=udp%3A%2F%2Ftracker.internetwarriors.net%3A1337%2Fannounce&tr=udp%3A%2F%2Ftracker.leechers-paradise.org%3A6969%2Fannounce&tr=udp%3A%2F%2Ftracker.coppersurfer.tk%3A6969%2Fannounce&tr=udp%3A%2F%2Ftracker.pirateparty.gr%3A6969%2Fannounce&tr=udp%3A%2F%2Ftracker.cyberia.is%3A6969%2Fannounce",
        "seeder": "63",
        "leecher": "3"
    },
    {
        "rank": "97",
        "title": "Elton John - 1970-2002 Greatest Hits 2CD [bubanee]",
        "link": "magnet:?xt=urn:btih:DA42CBA2F7D04B9CB00B5756841AC78423B9C9AA&dn=Elton+John+-+1970-2002+Greatest+Hits+2CD+%5Bbubanee%5D&tr=udp%3A%2F%2Ftracker.coppersurfer.tk%3A6969%2Fannounce&tr=udp%3A%2F%2F9.rarbg.to%3A2920%2Fannounce&tr=udp%3A%2F%2Ftracker.opentrackr.org%3A1337&tr=udp%3A%2F%2Ftracker.internetwarriors.net%3A1337%2Fannounce&tr=udp%3A%2F%2Ftracker.leechers-paradise.org%3A6969%2Fannounce&tr=udp%3A%2F%2Ftracker.coppersurfer.tk%3A6969%2Fannounce&tr=udp%3A%2F%2Ftracker.pirateparty.gr%3A6969%2Fannounce&tr=udp%3A%2F%2Ftracker.cyberia.is%3A6969%2Fannounce",
        "seeder": "63",
        "leecher": "4"
    },
    {
        "rank": "98",
        "title": "The Rolling Stones - Greatest Hits (2008) 320 vtwin88cube",
        "link": "magnet:?xt=urn:btih:33AE84F6546AEF1579434D1D0F06CD1BE7AB410E&dn=The+Rolling+Stones+-+Greatest+Hits+%282008%29+320+vtwin88cube&tr=udp%3A%2F%2Ftracker.coppersurfer.tk%3A6969%2Fannounce&tr=udp%3A%2F%2F9.rarbg.to%3A2920%2Fannounce&tr=udp%3A%2F%2Ftracker.opentrackr.org%3A1337&tr=udp%3A%2F%2Ftracker.internetwarriors.net%3A1337%2Fannounce&tr=udp%3A%2F%2Ftracker.leechers-paradise.org%3A6969%2Fannounce&tr=udp%3A%2F%2Ftracker.coppersurfer.tk%3A6969%2Fannounce&tr=udp%3A%2F%2Ftracker.pirateparty.gr%3A6969%2Fannounce&tr=udp%3A%2F%2Ftracker.cyberia.is%3A6969%2Fannounce",
        "seeder": "63",
        "leecher": "5"
    },
    {
        "rank": "99",
        "title": "Foo Fighters - Medicine At Midnight [FLAC CD-Rip] (2021)",
        "link": "magnet:?xt=urn:btih:59EDBD501634B1CBEC341BEDCC2B0DD474D224B2&dn=Foo+Fighters+-+Medicine+At+Midnight+%5BFLAC+CD-Rip%5D+%282021%29&tr=udp%3A%2F%2Ftracker.coppersurfer.tk%3A6969%2Fannounce&tr=udp%3A%2F%2F9.rarbg.to%3A2920%2Fannounce&tr=udp%3A%2F%2Ftracker.opentrackr.org%3A1337&tr=udp%3A%2F%2Ftracker.internetwarriors.net%3A1337%2Fannounce&tr=udp%3A%2F%2Ftracker.leechers-paradise.org%3A6969%2Fannounce&tr=udp%3A%2F%2Ftracker.coppersurfer.tk%3A6969%2Fannounce&tr=udp%3A%2F%2Ftracker.pirateparty.gr%3A6969%2Fannounce&tr=udp%3A%2F%2Ftracker.cyberia.is%3A6969%2Fannounce",
        "seeder": "62",
        "leecher": "0"
    },
    {
        "rank": "100",
        "title": "VA - NOW Glam Pop 70s (4CD) (2021) Mp3 320kbps [PMEDIA] \u2b50\ufe0f",
        "link": "magnet:?xt=urn:btih:913AAFD0DAFF021DF8AE1EDE3B7BC67DAF56B701&dn=VA+-+NOW+Glam+Pop+70s+%284CD%29+%282021%29+Mp3+320kbps+%5BPMEDIA%5D+%E2%AD%90%EF%B8%8F&tr=udp%3A%2F%2Ftracker.coppersurfer.tk%3A6969%2Fannounce&tr=udp%3A%2F%2F9.rarbg.to%3A2920%2Fannounce&tr=udp%3A%2F%2Ftracker.opentrackr.org%3A1337&tr=udp%3A%2F%2Ftracker.internetwarriors.net%3A1337%2Fannounce&tr=udp%3A%2F%2Ftracker.leechers-paradise.org%3A6969%2Fannounce&tr=udp%3A%2F%2Ftracker.coppersurfer.tk%3A6969%2Fannounce&tr=udp%3A%2F%2Ftracker.pirateparty.gr%3A6969%2Fannounce&tr=udp%3A%2F%2Ftracker.cyberia.is%3A6969%2Fannounce",
        "seeder": "62",
        "leecher": "0"
    }
]
