[
    {
        "rank": "1",
        "title": "Gran Turismo 4 [PS2]",
        "link": "magnet:?xt=urn:btih:1E29A8809ADB6811B83982EC6E4754FA0630DC6D&dn=Gran+Turismo+4+%5BPS2%5D&tr=udp%3A%2F%2Ftracker.coppersurfer.tk%3A6969%2Fannounce&tr=udp%3A%2F%2F9.rarbg.to%3A2920%2Fannounce&tr=udp%3A%2F%2Ftracker.opentrackr.org%3A1337&tr=udp%3A%2F%2Ftracker.internetwarriors.net%3A1337%2Fannounce&tr=udp%3A%2F%2Ftracker.leechers-paradise.org%3A6969%2Fannounce&tr=udp%3A%2F%2Ftracker.coppersurfer.tk%3A6969%2Fannounce&tr=udp%3A%2F%2Ftracker.pirateparty.gr%3A6969%2Fannounce&tr=udp%3A%2F%2Ftracker.cyberia.is%3A6969%2Fannounce",
        "seeder": "23",
        "leecher": "0"
    },
    {
        "rank": "2",
        "title": "Snes, Sega Genesis, Master System, Nintendo, Atari Emulators PS2",
        "link": "magnet:?xt=urn:btih:EB636E04C581E602C0AF2D9DE2C4162975608B6C&dn=Snes%2C+Sega+Genesis%2C+Master+System%2C+Nintendo%2C+Atari+Emulators+PS2&tr=udp%3A%2F%2Ftracker.coppersurfer.tk%3A6969%2Fannounce&tr=udp%3A%2F%2F9.rarbg.to%3A2920%2Fannounce&tr=udp%3A%2F%2Ftracker.opentrackr.org%3A1337&tr=udp%3A%2F%2Ftracker.internetwarriors.net%3A1337%2Fannounce&tr=udp%3A%2F%2Ftracker.leechers-paradise.org%3A6969%2Fannounce&tr=udp%3A%2F%2Ftracker.coppersurfer.tk%3A6969%2Fannounce&tr=udp%3A%2F%2Ftracker.pirateparty.gr%3A6969%2Fannounce&tr=udp%3A%2F%2Ftracker.cyberia.is%3A6969%2Fannounce",
        "seeder": "21",
        "leecher": "0"
    },
    {
        "rank": "3",
        "title": "Demons Souls (2010) [Ps3][EUR][MULTi5]",
        "link": "magnet:?xt=urn:btih:5CE9720502BBF6CC52461DEBBDFEE7A6107E78BB&dn=Demons+Souls+%282010%29+%5BPs3%5D%5BEUR%5D%5BMULTi5%5D&tr=udp%3A%2F%2Ftracker.coppersurfer.tk%3A6969%2Fannounce&tr=udp%3A%2F%2F9.rarbg.to%3A2920%2Fannounce&tr=udp%3A%2F%2Ftracker.opentrackr.org%3A1337&tr=udp%3A%2F%2Ftracker.internetwarriors.net%3A1337%2Fannounce&tr=udp%3A%2F%2Ftracker.leechers-paradise.org%3A6969%2Fannounce&tr=udp%3A%2F%2Ftracker.coppersurfer.tk%3A6969%2Fannounce&tr=udp%3A%2F%2Ftracker.pirateparty.gr%3A6969%2Fannounce&tr=udp%3A%2F%2Ftracker.cyberia.is%3A6969%2Fannounce",
        "seeder": "18",
        "leecher": "0"
    },
    {
        "rank": "4",
        "title": "Gran Turismo 6 PS3-DUPLEX",
        "link": "magnet:?xt=urn:btih:E8D2191ABD84ABF99E99407E715BF432EFD426A9&dn=Gran+Turismo+6+PS3-DUPLEX&tr=udp%3A%2F%2Ftracker.coppersurfer.tk%3A6969%2Fannounce&tr=udp%3A%2F%2F9.rarbg.to%3A2920%2Fannounce&tr=udp%3A%2F%2Ftracker.opentrackr.org%3A1337&tr=udp%3A%2F%2Ftracker.internetwarriors.net%3A1337%2Fannounce&tr=udp%3A%2F%2Ftracker.leechers-paradise.org%3A6969%2Fannounce&tr=udp%3A%2F%2Ftracker.coppersurfer.tk%3A6969%2Fannounce&tr=udp%3A%2F%2Ftracker.pirateparty.gr%3A6969%2Fannounce&tr=udp%3A%2F%2Ftracker.cyberia.is%3A6969%2Fannounce",
        "seeder": "14",
        "leecher": "1"
    },
    {
        "rank": "5",
        "title": "GTA Grand Theft Auto V (PS3)",
        "link": "magnet:?xt=urn:btih:D97E5C5C451E25F25A25D09DA87C670FDD6352EB&dn=GTA+Grand+Theft+Auto+V+%28PS3%29&tr=udp%3A%2F%2Ftracker.coppersurfer.tk%3A6969%2Fannounce&tr=udp%3A%2F%2F9.rarbg.to%3A2920%2Fannounce&tr=udp%3A%2F%2Ftracker.opentrackr.org%3A1337&tr=udp%3A%2F%2Ftracker.internetwarriors.net%3A1337%2Fannounce&tr=udp%3A%2F%2Ftracker.leechers-paradise.org%3A6969%2Fannounce&tr=udp%3A%2F%2Ftracker.coppersurfer.tk%3A6969%2Fannounce&tr=udp%3A%2F%2Ftracker.pirateparty.gr%3A6969%2Fannounce&tr=udp%3A%2F%2Ftracker.cyberia.is%3A6969%2Fannounce",
        "seeder": "12",
        "leecher": "2"
    },
    {
        "rank": "6",
        "title": "WWE.SmackDown.vs.RAW.2011.PAL.PS2",
        "link": "magnet:?xt=urn:btih:9ED6FCAA396FD60FE772102D8B0222058401AF83&dn=WWE.SmackDown.vs.RAW.2011.PAL.PS2&tr=udp%3A%2F%2Ftracker.coppersurfer.tk%3A6969%2Fannounce&tr=udp%3A%2F%2F9.rarbg.to%3A2920%2Fannounce&tr=udp%3A%2F%2Ftracker.opentrackr.org%3A1337&tr=udp%3A%2F%2Ftracker.internetwarriors.net%3A1337%2Fannounce&tr=udp%3A%2F%2Ftracker.leechers-paradise.org%3A6969%2Fannounce&tr=udp%3A%2F%2Ftracker.coppersurfer.tk%3A6969%2Fannounce&tr=udp%3A%2F%2Ftracker.pirateparty.gr%3A6969%2Fannounce&tr=udp%3A%2F%2Ftracker.cyberia.is%3A6969%2Fannounce",
        "seeder": "12",
        "leecher": "0"
    },
    {
        "rank": "7",
        "title": "Tekken 5 PS2 (NTSC)[gamerguuy]",
        "link": "magnet:?xt=urn:btih:9B5ED43F81F70ECA49228AEF0705092C560E63E1&dn=Tekken+5+PS2+%28NTSC%29%5Bgamerguuy%5D&tr=udp%3A%2F%2Ftracker.coppersurfer.tk%3A6969%2Fannounce&tr=udp%3A%2F%2F9.rarbg.to%3A2920%2Fannounce&tr=udp%3A%2F%2Ftracker.opentrackr.org%3A1337&tr=udp%3A%2F%2Ftracker.internetwarriors.net%3A1337%2Fannounce&tr=udp%3A%2F%2Ftracker.leechers-paradise.org%3A6969%2Fannounce&tr=udp%3A%2F%2Ftracker.coppersurfer.tk%3A6969%2Fannounce&tr=udp%3A%2F%2Ftracker.pirateparty.gr%3A6969%2Fannounce&tr=udp%3A%2F%2Ftracker.cyberia.is%3A6969%2Fannounce",
        "seeder": "12",
        "leecher": "0"
    },
    {
        "rank": "8",
        "title": "Far_Cry_3_READNFO_EUR_JB_PS3-ANTiDOTE",
        "link": "magnet:?xt=urn:btih:CA5CB54C38A5BA4D70837CAE30A12DD80BDE0DDA&dn=Far_Cry_3_READNFO_EUR_JB_PS3-ANTiDOTE&tr=udp%3A%2F%2Ftracker.coppersurfer.tk%3A6969%2Fannounce&tr=udp%3A%2F%2F9.rarbg.to%3A2920%2Fannounce&tr=udp%3A%2F%2Ftracker.opentrackr.org%3A1337&tr=udp%3A%2F%2Ftracker.internetwarriors.net%3A1337%2Fannounce&tr=udp%3A%2F%2Ftracker.leechers-paradise.org%3A6969%2Fannounce&tr=udp%3A%2F%2Ftracker.coppersurfer.tk%3A6969%2Fannounce&tr=udp%3A%2F%2Ftracker.pirateparty.gr%3A6969%2Fannounce&tr=udp%3A%2F%2Ftracker.cyberia.is%3A6969%2Fannounce",
        "seeder": "12",
        "leecher": "0"
    },
    {
        "rank": "9",
        "title": "Crash Bandicoot the wrath of cortex ps2 pal multi5",
        "link": "magnet:?xt=urn:btih:10986F13F107D9D087F81E8B445C80E84AD0CB6C&dn=Crash+Bandicoot+the+wrath+of+cortex+ps2+pal+multi5&tr=udp%3A%2F%2Ftracker.coppersurfer.tk%3A6969%2Fannounce&tr=udp%3A%2F%2F9.rarbg.to%3A2920%2Fannounce&tr=udp%3A%2F%2Ftracker.opentrackr.org%3A1337&tr=udp%3A%2F%2Ftracker.internetwarriors.net%3A1337%2Fannounce&tr=udp%3A%2F%2Ftracker.leechers-paradise.org%3A6969%2Fannounce&tr=udp%3A%2F%2Ftracker.coppersurfer.tk%3A6969%2Fannounce&tr=udp%3A%2F%2Ftracker.pirateparty.gr%3A6969%2Fannounce&tr=udp%3A%2F%2Ftracker.cyberia.is%3A6969%2Fannounce",
        "seeder": "12",
        "leecher": "0"
    },
    {
        "rank": "10",
        "title": "ratchet and clank up your arsenal (PS2)",
        "link": "magnet:?xt=urn:btih:8EBC4721EBF5C2F57C1A1875DE24B2F602C9EDCE&dn=ratchet+and+clank+up+your+arsenal+%28PS2%29&tr=udp%3A%2F%2Ftracker.coppersurfer.tk%3A6969%2Fannounce&tr=udp%3A%2F%2F9.rarbg.to%3A2920%2Fannounce&tr=udp%3A%2F%2Ftracker.opentrackr.org%3A1337&tr=udp%3A%2F%2Ftracker.internetwarriors.net%3A1337%2Fannounce&tr=udp%3A%2F%2Ftracker.leechers-paradise.org%3A6969%2Fannounce&tr=udp%3A%2F%2Ftracker.coppersurfer.tk%3A6969%2Fannounce&tr=udp%3A%2F%2Ftracker.pirateparty.gr%3A6969%2Fannounce&tr=udp%3A%2F%2Ftracker.cyberia.is%3A6969%2Fannounce",
        "seeder": "12",
        "leecher": "1"
    },
    {
        "rank": "11",
        "title": "Battlefield 4 PS3-iMARS",
        "link": "magnet:?xt=urn:btih:BF72CB0AA117D09AA3C109C7E694BB5BF7FA7085&dn=Battlefield+4+PS3-iMARS&tr=udp%3A%2F%2Ftracker.coppersurfer.tk%3A6969%2Fannounce&tr=udp%3A%2F%2F9.rarbg.to%3A2920%2Fannounce&tr=udp%3A%2F%2Ftracker.opentrackr.org%3A1337&tr=udp%3A%2F%2Ftracker.internetwarriors.net%3A1337%2Fannounce&tr=udp%3A%2F%2Ftracker.leechers-paradise.org%3A6969%2Fannounce&tr=udp%3A%2F%2Ftracker.coppersurfer.tk%3A6969%2Fannounce&tr=udp%3A%2F%2Ftracker.pirateparty.gr%3A6969%2Fannounce&tr=udp%3A%2F%2Ftracker.cyberia.is%3A6969%2Fannounce",
        "seeder": "12",
        "leecher": "3"
    },
    {
        "rank": "12",
        "title": "Metal Gear Solid 3 - Snake Eater [PS2][FULLDVD][Multi2] pcto",
        "link": "magnet:?xt=urn:btih:0669D80EA9AD96A3EB13C8926F44393CF39CB9EC&dn=Metal+Gear+Solid+3+-+Snake+Eater+%5BPS2%5D%5BFULLDVD%5D%5BMulti2%5D+pcto&tr=udp%3A%2F%2Ftracker.coppersurfer.tk%3A6969%2Fannounce&tr=udp%3A%2F%2F9.rarbg.to%3A2920%2Fannounce&tr=udp%3A%2F%2Ftracker.opentrackr.org%3A1337&tr=udp%3A%2F%2Ftracker.internetwarriors.net%3A1337%2Fannounce&tr=udp%3A%2F%2Ftracker.leechers-paradise.org%3A6969%2Fannounce&tr=udp%3A%2F%2Ftracker.coppersurfer.tk%3A6969%2Fannounce&tr=udp%3A%2F%2Ftracker.pirateparty.gr%3A6969%2Fannounce&tr=udp%3A%2F%2Ftracker.cyberia.is%3A6969%2Fannounce",
        "seeder": "12",
        "leecher": "1"
    },
    {
        "rank": "13",
        "title": "God of War Collection (2011) [Ps3][MULTi5][3.66]",
        "link": "magnet:?xt=urn:btih:1368B0CD200B0E134FD2DAF45383565C31B287B3&dn=God+of+War+Collection+%282011%29+%5BPs3%5D%5BMULTi5%5D%5B3.66%5D&tr=udp%3A%2F%2Ftracker.coppersurfer.tk%3A6969%2Fannounce&tr=udp%3A%2F%2F9.rarbg.to%3A2920%2Fannounce&tr=udp%3A%2F%2Ftracker.opentrackr.org%3A1337&tr=udp%3A%2F%2Ftracker.internetwarriors.net%3A1337%2Fannounce&tr=udp%3A%2F%2Ftracker.leechers-paradise.org%3A6969%2Fannounce&tr=udp%3A%2F%2Ftracker.coppersurfer.tk%3A6969%2Fannounce&tr=udp%3A%2F%2Ftracker.pirateparty.gr%3A6969%2Fannounce&tr=udp%3A%2F%2Ftracker.cyberia.is%3A6969%2Fannounce",
        "seeder": "11",
        "leecher": "1"
    },
    {
        "rank": "14",
        "title": "[PS3] PSX/PS1 Collection [ENG] [Repack]",
        "link": "magnet:?xt=urn:btih:850F154AD80BC23ADAA7071AEABCEE598C3258FE&dn=%5BPS3%5D+PSX%2FPS1+Collection+%5BENG%5D+%5BRepack%5D&tr=udp%3A%2F%2Ftracker.coppersurfer.tk%3A6969%2Fannounce&tr=udp%3A%2F%2F9.rarbg.to%3A2920%2Fannounce&tr=udp%3A%2F%2Ftracker.opentrackr.org%3A1337&tr=udp%3A%2F%2Ftracker.internetwarriors.net%3A1337%2Fannounce&tr=udp%3A%2F%2Ftracker.leechers-paradise.org%3A6969%2Fannounce&tr=udp%3A%2F%2Ftracker.coppersurfer.tk%3A6969%2Fannounce&tr=udp%3A%2F%2Ftracker.pirateparty.gr%3A6969%2Fannounce&tr=udp%3A%2F%2Ftracker.cyberia.is%3A6969%2Fannounce",
        "seeder": "11",
        "leecher": "4"
    },
    {
        "rank": "15",
        "title": "Metal Gear Solid 4 Guns of the Patriots (2008) [Ps3][PAL][MULTi6",
        "link": "magnet:?xt=urn:btih:F4429A86DA301FD7736C8015280F32C6D62A8C54&dn=Metal+Gear+Solid+4+Guns+of+the+Patriots+%282008%29+%5BPs3%5D%5BPAL%5D%5BMULTi6&tr=udp%3A%2F%2Ftracker.coppersurfer.tk%3A6969%2Fannounce&tr=udp%3A%2F%2F9.rarbg.to%3A2920%2Fannounce&tr=udp%3A%2F%2Ftracker.opentrackr.org%3A1337&tr=udp%3A%2F%2Ftracker.internetwarriors.net%3A1337%2Fannounce&tr=udp%3A%2F%2Ftracker.leechers-paradise.org%3A6969%2Fannounce&tr=udp%3A%2F%2Ftracker.coppersurfer.tk%3A6969%2Fannounce&tr=udp%3A%2F%2Ftracker.pirateparty.gr%3A6969%2Fannounce&tr=udp%3A%2F%2Ftracker.cyberia.is%3A6969%2Fannounce",
        "seeder": "11",
        "leecher": "3"
    },
    {
        "rank": "16",
        "title": "Resident Evil 4 (NTSC - PS2)[gamerguuy]",
        "link": "magnet:?xt=urn:btih:E60F50B1FFA7FCEDEB2BF84C887369DFEB6377C9&dn=Resident+Evil+4+%28NTSC+-+PS2%29%5Bgamerguuy%5D&tr=udp%3A%2F%2Ftracker.coppersurfer.tk%3A6969%2Fannounce&tr=udp%3A%2F%2F9.rarbg.to%3A2920%2Fannounce&tr=udp%3A%2F%2Ftracker.opentrackr.org%3A1337&tr=udp%3A%2F%2Ftracker.internetwarriors.net%3A1337%2Fannounce&tr=udp%3A%2F%2Ftracker.leechers-paradise.org%3A6969%2Fannounce&tr=udp%3A%2F%2Ftracker.coppersurfer.tk%3A6969%2Fannounce&tr=udp%3A%2F%2Ftracker.pirateparty.gr%3A6969%2Fannounce&tr=udp%3A%2F%2Ftracker.cyberia.is%3A6969%2Fannounce",
        "seeder": "10",
        "leecher": "0"
    },
    {
        "rank": "17",
        "title": "Mortal Kombat Vs DC Universe [PS3] [PSJ]",
        "link": "magnet:?xt=urn:btih:EC224D98EA51B1B17132455AB0F4D7523676E97A&dn=Mortal+Kombat+Vs+DC+Universe+%5BPS3%5D+%5BPSJ%5D&tr=udp%3A%2F%2Ftracker.coppersurfer.tk%3A6969%2Fannounce&tr=udp%3A%2F%2F9.rarbg.to%3A2920%2Fannounce&tr=udp%3A%2F%2Ftracker.opentrackr.org%3A1337&tr=udp%3A%2F%2Ftracker.internetwarriors.net%3A1337%2Fannounce&tr=udp%3A%2F%2Ftracker.leechers-paradise.org%3A6969%2Fannounce&tr=udp%3A%2F%2Ftracker.coppersurfer.tk%3A6969%2Fannounce&tr=udp%3A%2F%2Ftracker.pirateparty.gr%3A6969%2Fannounce&tr=udp%3A%2F%2Ftracker.cyberia.is%3A6969%2Fannounce",
        "seeder": "10",
        "leecher": "0"
    },
    {
        "rank": "18",
        "title": "God of War II PS2 DVD5 NTSC-U",
        "link": "magnet:?xt=urn:btih:053D974816161BF3B54B618C138C56A76B88579A&dn=God+of+War+II+PS2+DVD5+NTSC-U&tr=udp%3A%2F%2Ftracker.coppersurfer.tk%3A6969%2Fannounce&tr=udp%3A%2F%2F9.rarbg.to%3A2920%2Fannounce&tr=udp%3A%2F%2Ftracker.opentrackr.org%3A1337&tr=udp%3A%2F%2Ftracker.internetwarriors.net%3A1337%2Fannounce&tr=udp%3A%2F%2Ftracker.leechers-paradise.org%3A6969%2Fannounce&tr=udp%3A%2F%2Ftracker.coppersurfer.tk%3A6969%2Fannounce&tr=udp%3A%2F%2Ftracker.pirateparty.gr%3A6969%2Fannounce&tr=udp%3A%2F%2Ftracker.cyberia.is%3A6969%2Fannounce",
        "seeder": "10",
        "leecher": "0"
    },
    {
        "rank": "19",
        "title": "PS2 - GTA San Andreas [1 DVD - PAL - MultiLanguage 5] [TNT Villa",
        "link": "magnet:?xt=urn:btih:16DE72E8994743110FECF71DD564E9C806B5CD21&dn=PS2+-+GTA+San+Andreas+%5B1+DVD+-+PAL+-+MultiLanguage+5%5D+%5BTNT+Villa&tr=udp%3A%2F%2Ftracker.coppersurfer.tk%3A6969%2Fannounce&tr=udp%3A%2F%2F9.rarbg.to%3A2920%2Fannounce&tr=udp%3A%2F%2Ftracker.opentrackr.org%3A1337&tr=udp%3A%2F%2Ftracker.internetwarriors.net%3A1337%2Fannounce&tr=udp%3A%2F%2Ftracker.leechers-paradise.org%3A6969%2Fannounce&tr=udp%3A%2F%2Ftracker.coppersurfer.tk%3A6969%2Fannounce&tr=udp%3A%2F%2Ftracker.pirateparty.gr%3A6969%2Fannounce&tr=udp%3A%2F%2Ftracker.cyberia.is%3A6969%2Fannounce",
        "seeder": "9",
        "leecher": "1"
    },
    {
        "rank": "20",
        "title": "Ico & Shadow of The Colossus (2011) [Ps3][MULTi5][3.41 &",
        "link": "magnet:?xt=urn:btih:B7FEB7FDAF867215F4D6EB693CEA7294836AD35B&dn=Ico+%26amp%3B+Shadow+of+The+Colossus+%282011%29+%5BPs3%5D%5BMULTi5%5D%5B3.41+%26amp%3B&tr=udp%3A%2F%2Ftracker.coppersurfer.tk%3A6969%2Fannounce&tr=udp%3A%2F%2F9.rarbg.to%3A2920%2Fannounce&tr=udp%3A%2F%2Ftracker.opentrackr.org%3A1337&tr=udp%3A%2F%2Ftracker.internetwarriors.net%3A1337%2Fannounce&tr=udp%3A%2F%2Ftracker.leechers-paradise.org%3A6969%2Fannounce&tr=udp%3A%2F%2Ftracker.coppersurfer.tk%3A6969%2Fannounce&tr=udp%3A%2F%2Ftracker.pirateparty.gr%3A6969%2Fannounce&tr=udp%3A%2F%2Ftracker.cyberia.is%3A6969%2Fannounce",
        "seeder": "9",
        "leecher": "0"
    },
    {
        "rank": "21",
        "title": "God Of War: Collection [PS3] [PSJ]",
        "link": "magnet:?xt=urn:btih:40F8AB4B6F6B4895065737272584AB388D385272&dn=God+Of+War%3A+Collection+%5BPS3%5D+%5BPSJ%5D&tr=udp%3A%2F%2Ftracker.coppersurfer.tk%3A6969%2Fannounce&tr=udp%3A%2F%2F9.rarbg.to%3A2920%2Fannounce&tr=udp%3A%2F%2Ftracker.opentrackr.org%3A1337&tr=udp%3A%2F%2Ftracker.internetwarriors.net%3A1337%2Fannounce&tr=udp%3A%2F%2Ftracker.leechers-paradise.org%3A6969%2Fannounce&tr=udp%3A%2F%2Ftracker.coppersurfer.tk%3A6969%2Fannounce&tr=udp%3A%2F%2Ftracker.pirateparty.gr%3A6969%2Fannounce&tr=udp%3A%2F%2Ftracker.cyberia.is%3A6969%2Fannounce",
        "seeder": "9",
        "leecher": "3"
    },
    {
        "rank": "22",
        "title": "Call of Duty : Black Ops III (PS3)",
        "link": "magnet:?xt=urn:btih:7BA0543DB870F927791CFABAB921E67918EC86C2&dn=Call+of+Duty+%3A+Black+Ops+III+%28PS3%29&tr=udp%3A%2F%2Ftracker.coppersurfer.tk%3A6969%2Fannounce&tr=udp%3A%2F%2F9.rarbg.to%3A2920%2Fannounce&tr=udp%3A%2F%2Ftracker.opentrackr.org%3A1337&tr=udp%3A%2F%2Ftracker.internetwarriors.net%3A1337%2Fannounce&tr=udp%3A%2F%2Ftracker.leechers-paradise.org%3A6969%2Fannounce&tr=udp%3A%2F%2Ftracker.coppersurfer.tk%3A6969%2Fannounce&tr=udp%3A%2F%2Ftracker.pirateparty.gr%3A6969%2Fannounce&tr=udp%3A%2F%2Ftracker.cyberia.is%3A6969%2Fannounce",
        "seeder": "9",
        "leecher": "0"
    },
    {
        "rank": "23",
        "title": "Blur [PS3] [PSJ]",
        "link": "magnet:?xt=urn:btih:2C2C2964A8AE91F8366D24238AA4332B5BDE988F&dn=Blur+%5BPS3%5D+%5BPSJ%5D&tr=udp%3A%2F%2Ftracker.coppersurfer.tk%3A6969%2Fannounce&tr=udp%3A%2F%2F9.rarbg.to%3A2920%2Fannounce&tr=udp%3A%2F%2Ftracker.opentrackr.org%3A1337&tr=udp%3A%2F%2Ftracker.internetwarriors.net%3A1337%2Fannounce&tr=udp%3A%2F%2Ftracker.leechers-paradise.org%3A6969%2Fannounce&tr=udp%3A%2F%2Ftracker.coppersurfer.tk%3A6969%2Fannounce&tr=udp%3A%2F%2Ftracker.pirateparty.gr%3A6969%2Fannounce&tr=udp%3A%2F%2Ftracker.cyberia.is%3A6969%2Fannounce",
        "seeder": "8",
        "leecher": "1"
    },
    {
        "rank": "24",
        "title": "Shin Megami Tensei Persona 3 FES [USA - English - PS2DVD]",
        "link": "magnet:?xt=urn:btih:CA92BC7C23288E459C42EAC691318E7CDEE930EB&dn=Shin+Megami+Tensei+Persona+3+FES+%5BUSA+-+English+-+PS2DVD%5D&tr=udp%3A%2F%2Ftracker.coppersurfer.tk%3A6969%2Fannounce&tr=udp%3A%2F%2F9.rarbg.to%3A2920%2Fannounce&tr=udp%3A%2F%2Ftracker.opentrackr.org%3A1337&tr=udp%3A%2F%2Ftracker.internetwarriors.net%3A1337%2Fannounce&tr=udp%3A%2F%2Ftracker.leechers-paradise.org%3A6969%2Fannounce&tr=udp%3A%2F%2Ftracker.coppersurfer.tk%3A6969%2Fannounce&tr=udp%3A%2F%2Ftracker.pirateparty.gr%3A6969%2Fannounce&tr=udp%3A%2F%2Ftracker.cyberia.is%3A6969%2Fannounce",
        "seeder": "8",
        "leecher": "0"
    },
    {
        "rank": "25",
        "title": "Rayman.Legends.PS3-STRiKE",
        "link": "magnet:?xt=urn:btih:3CE0A87B1F4CB68E6702F58662257D8F30EAF150&dn=Rayman.Legends.PS3-STRiKE&tr=udp%3A%2F%2Ftracker.coppersurfer.tk%3A6969%2Fannounce&tr=udp%3A%2F%2F9.rarbg.to%3A2920%2Fannounce&tr=udp%3A%2F%2Ftracker.opentrackr.org%3A1337&tr=udp%3A%2F%2Ftracker.internetwarriors.net%3A1337%2Fannounce&tr=udp%3A%2F%2Ftracker.leechers-paradise.org%3A6969%2Fannounce&tr=udp%3A%2F%2Ftracker.coppersurfer.tk%3A6969%2Fannounce&tr=udp%3A%2F%2Ftracker.pirateparty.gr%3A6969%2Fannounce&tr=udp%3A%2F%2Ftracker.cyberia.is%3A6969%2Fannounce",
        "seeder": "8",
        "leecher": "0"
    },
    {
        "rank": "26",
        "title": "PS2 - Burnout 3 Takedown [1 DVD5 - Multi5 PAL] TNT Village",
        "link": "magnet:?xt=urn:btih:BDB6EBEC9E0322C012B93E4B3EF3C4DA5FE85F0A&dn=PS2+-+Burnout+3+Takedown+%5B1+DVD5+-+Multi5+PAL%5D+TNT+Village&tr=udp%3A%2F%2Ftracker.coppersurfer.tk%3A6969%2Fannounce&tr=udp%3A%2F%2F9.rarbg.to%3A2920%2Fannounce&tr=udp%3A%2F%2Ftracker.opentrackr.org%3A1337&tr=udp%3A%2F%2Ftracker.internetwarriors.net%3A1337%2Fannounce&tr=udp%3A%2F%2Ftracker.leechers-paradise.org%3A6969%2Fannounce&tr=udp%3A%2F%2Ftracker.coppersurfer.tk%3A6969%2Fannounce&tr=udp%3A%2F%2Ftracker.pirateparty.gr%3A6969%2Fannounce&tr=udp%3A%2F%2Ftracker.cyberia.is%3A6969%2Fannounce",
        "seeder": "8",
        "leecher": "0"
    },
    {
        "rank": "27",
        "title": "Grand Theft Auto (GTA): San Andreas (PS2)",
        "link": "magnet:?xt=urn:btih:F202E2C42EEA527B718F5BACFF5252BF1D0D4FE9&dn=Grand+Theft+Auto+%28GTA%29%3A+San+Andreas+%28PS2%29&tr=udp%3A%2F%2Ftracker.coppersurfer.tk%3A6969%2Fannounce&tr=udp%3A%2F%2F9.rarbg.to%3A2920%2Fannounce&tr=udp%3A%2F%2Ftracker.opentrackr.org%3A1337&tr=udp%3A%2F%2Ftracker.internetwarriors.net%3A1337%2Fannounce&tr=udp%3A%2F%2Ftracker.leechers-paradise.org%3A6969%2Fannounce&tr=udp%3A%2F%2Ftracker.coppersurfer.tk%3A6969%2Fannounce&tr=udp%3A%2F%2Ftracker.pirateparty.gr%3A6969%2Fannounce&tr=udp%3A%2F%2Ftracker.cyberia.is%3A6969%2Fannounce",
        "seeder": "8",
        "leecher": "0"
    },
    {
        "rank": "28",
        "title": "NCAA.Football.14.PS3-PROTON",
        "link": "magnet:?xt=urn:btih:098CF912550CDC72286248B6840979BB87C74641&dn=NCAA.Football.14.PS3-PROTON&tr=udp%3A%2F%2Ftracker.coppersurfer.tk%3A6969%2Fannounce&tr=udp%3A%2F%2F9.rarbg.to%3A2920%2Fannounce&tr=udp%3A%2F%2Ftracker.opentrackr.org%3A1337&tr=udp%3A%2F%2Ftracker.internetwarriors.net%3A1337%2Fannounce&tr=udp%3A%2F%2Ftracker.leechers-paradise.org%3A6969%2Fannounce&tr=udp%3A%2F%2Ftracker.coppersurfer.tk%3A6969%2Fannounce&tr=udp%3A%2F%2Ftracker.pirateparty.gr%3A6969%2Fannounce&tr=udp%3A%2F%2Ftracker.cyberia.is%3A6969%2Fannounce",
        "seeder": "8",
        "leecher": "0"
    },
    {
        "rank": "29",
        "title": "Crash Bandicoot 1 - 2 - 3 - Crash Team Racing - Crash Bash",
        "link": "magnet:?xt=urn:btih:AFB772BDA3933792887BED5F1F79E3CBECEA1A3B&dn=Crash+Bandicoot+1+-+2+-+3+-+Crash+Team+Racing+-+Crash+Bash&tr=udp%3A%2F%2Ftracker.coppersurfer.tk%3A6969%2Fannounce&tr=udp%3A%2F%2F9.rarbg.to%3A2920%2Fannounce&tr=udp%3A%2F%2Ftracker.opentrackr.org%3A1337&tr=udp%3A%2F%2Ftracker.internetwarriors.net%3A1337%2Fannounce&tr=udp%3A%2F%2Ftracker.leechers-paradise.org%3A6969%2Fannounce&tr=udp%3A%2F%2Ftracker.coppersurfer.tk%3A6969%2Fannounce&tr=udp%3A%2F%2Ftracker.pirateparty.gr%3A6969%2Fannounce&tr=udp%3A%2F%2Ftracker.cyberia.is%3A6969%2Fannounce",
        "seeder": "8",
        "leecher": "2"
    },
    {
        "rank": "30",
        "title": "UFC Undisputed 3 [PS3]",
        "link": "magnet:?xt=urn:btih:AEBF4AF881B2D0168CC8217C2703AACFDD99A9FF&dn=UFC+Undisputed+3+%5BPS3%5D&tr=udp%3A%2F%2Ftracker.coppersurfer.tk%3A6969%2Fannounce&tr=udp%3A%2F%2F9.rarbg.to%3A2920%2Fannounce&tr=udp%3A%2F%2Ftracker.opentrackr.org%3A1337&tr=udp%3A%2F%2Ftracker.internetwarriors.net%3A1337%2Fannounce&tr=udp%3A%2F%2Ftracker.leechers-paradise.org%3A6969%2Fannounce&tr=udp%3A%2F%2Ftracker.coppersurfer.tk%3A6969%2Fannounce&tr=udp%3A%2F%2Ftracker.pirateparty.gr%3A6969%2Fannounce&tr=udp%3A%2F%2Ftracker.cyberia.is%3A6969%2Fannounce",
        "seeder": "8",
        "leecher": "4"
    },
    {
        "rank": "31",
        "title": "Need For Speed Hot Pursuit (2010) [Ps3][EUR][MULTi6]",
        "link": "magnet:?xt=urn:btih:12CAE0EAECA68F57A8F1366CE70B81A931B83E80&dn=Need+For+Speed+Hot+Pursuit+%282010%29+%5BPs3%5D%5BEUR%5D%5BMULTi6%5D&tr=udp%3A%2F%2Ftracker.coppersurfer.tk%3A6969%2Fannounce&tr=udp%3A%2F%2F9.rarbg.to%3A2920%2Fannounce&tr=udp%3A%2F%2Ftracker.opentrackr.org%3A1337&tr=udp%3A%2F%2Ftracker.internetwarriors.net%3A1337%2Fannounce&tr=udp%3A%2F%2Ftracker.leechers-paradise.org%3A6969%2Fannounce&tr=udp%3A%2F%2Ftracker.coppersurfer.tk%3A6969%2Fannounce&tr=udp%3A%2F%2Ftracker.pirateparty.gr%3A6969%2Fannounce&tr=udp%3A%2F%2Ftracker.cyberia.is%3A6969%2Fannounce",
        "seeder": "7",
        "leecher": "1"
    },
    {
        "rank": "32",
        "title": "Playstation Rom Pack-zombiROMS",
        "link": "magnet:?xt=urn:btih:E26F89FC7B24C0DAA72C6CF8EBDA48B3EC434037&dn=Playstation+Rom+Pack-zombiROMS&tr=udp%3A%2F%2Ftracker.coppersurfer.tk%3A6969%2Fannounce&tr=udp%3A%2F%2F9.rarbg.to%3A2920%2Fannounce&tr=udp%3A%2F%2Ftracker.opentrackr.org%3A1337&tr=udp%3A%2F%2Ftracker.internetwarriors.net%3A1337%2Fannounce&tr=udp%3A%2F%2Ftracker.leechers-paradise.org%3A6969%2Fannounce&tr=udp%3A%2F%2Ftracker.coppersurfer.tk%3A6969%2Fannounce&tr=udp%3A%2F%2Ftracker.pirateparty.gr%3A6969%2Fannounce&tr=udp%3A%2F%2Ftracker.cyberia.is%3A6969%2Fannounce",
        "seeder": "7",
        "leecher": "0"
    },
    {
        "rank": "33",
        "title": "[PSX] Tekken 3 [1CD Eng] TNT Village",
        "link": "magnet:?xt=urn:btih:0576D55B7BC161EB23C7D6237AE751B4C7D620BB&dn=%5BPSX%5D+Tekken+3+%5B1CD+Eng%5D+TNT+Village&tr=udp%3A%2F%2Ftracker.coppersurfer.tk%3A6969%2Fannounce&tr=udp%3A%2F%2F9.rarbg.to%3A2920%2Fannounce&tr=udp%3A%2F%2Ftracker.opentrackr.org%3A1337&tr=udp%3A%2F%2Ftracker.internetwarriors.net%3A1337%2Fannounce&tr=udp%3A%2F%2Ftracker.leechers-paradise.org%3A6969%2Fannounce&tr=udp%3A%2F%2Ftracker.coppersurfer.tk%3A6969%2Fannounce&tr=udp%3A%2F%2Ftracker.pirateparty.gr%3A6969%2Fannounce&tr=udp%3A%2F%2Ftracker.cyberia.is%3A6969%2Fannounce",
        "seeder": "7",
        "leecher": "0"
    },
    {
        "rank": "34",
        "title": "PSX PS1 PSOne Tony Hawk's Pro Skater 2",
        "link": "magnet:?xt=urn:btih:943715D6B5895EDAC3395105C8303221F87BB301&dn=PSX+PS1+PSOne+Tony+Hawk%27s+Pro+Skater+2&tr=udp%3A%2F%2Ftracker.coppersurfer.tk%3A6969%2Fannounce&tr=udp%3A%2F%2F9.rarbg.to%3A2920%2Fannounce&tr=udp%3A%2F%2Ftracker.opentrackr.org%3A1337&tr=udp%3A%2F%2Ftracker.internetwarriors.net%3A1337%2Fannounce&tr=udp%3A%2F%2Ftracker.leechers-paradise.org%3A6969%2Fannounce&tr=udp%3A%2F%2Ftracker.coppersurfer.tk%3A6969%2Fannounce&tr=udp%3A%2F%2Ftracker.pirateparty.gr%3A6969%2Fannounce&tr=udp%3A%2F%2Ftracker.cyberia.is%3A6969%2Fannounce",
        "seeder": "7",
        "leecher": "0"
    },
    {
        "rank": "35",
        "title": "Naruto.Shippuden.Ultimate.Ninja.Storm.3.Full.Burst.PS3-DUPLEX",
        "link": "magnet:?xt=urn:btih:0DFBE3393ADA6C25FAE32C9FE57C59C0E65703FD&dn=Naruto.Shippuden.Ultimate.Ninja.Storm.3.Full.Burst.PS3-DUPLEX&tr=udp%3A%2F%2Ftracker.coppersurfer.tk%3A6969%2Fannounce&tr=udp%3A%2F%2F9.rarbg.to%3A2920%2Fannounce&tr=udp%3A%2F%2Ftracker.opentrackr.org%3A1337&tr=udp%3A%2F%2Ftracker.internetwarriors.net%3A1337%2Fannounce&tr=udp%3A%2F%2Ftracker.leechers-paradise.org%3A6969%2Fannounce&tr=udp%3A%2F%2Ftracker.coppersurfer.tk%3A6969%2Fannounce&tr=udp%3A%2F%2Ftracker.pirateparty.gr%3A6969%2Fannounce&tr=udp%3A%2F%2Ftracker.cyberia.is%3A6969%2Fannounce",
        "seeder": "7",
        "leecher": "1"
    },
    {
        "rank": "36",
        "title": "Crash Nitro Kart (ps2, pal, multi6)",
        "link": "magnet:?xt=urn:btih:49FFF0812AF5AD1DDE8A1CA85E091478D87A0B17&dn=Crash+Nitro+Kart+%28ps2%2C+pal%2C+multi6%29&tr=udp%3A%2F%2Ftracker.coppersurfer.tk%3A6969%2Fannounce&tr=udp%3A%2F%2F9.rarbg.to%3A2920%2Fannounce&tr=udp%3A%2F%2Ftracker.opentrackr.org%3A1337&tr=udp%3A%2F%2Ftracker.internetwarriors.net%3A1337%2Fannounce&tr=udp%3A%2F%2Ftracker.leechers-paradise.org%3A6969%2Fannounce&tr=udp%3A%2F%2Ftracker.coppersurfer.tk%3A6969%2Fannounce&tr=udp%3A%2F%2Ftracker.pirateparty.gr%3A6969%2Fannounce&tr=udp%3A%2F%2Ftracker.cyberia.is%3A6969%2Fannounce",
        "seeder": "7",
        "leecher": "0"
    },
    {
        "rank": "37",
        "title": "MotorStorm Apocalypse (2011) [Ps3][MULTi5][3.41-3.55]",
        "link": "magnet:?xt=urn:btih:ED27E63233C0318B599BB8F9CBF604F44C448434&dn=MotorStorm+Apocalypse+%282011%29+%5BPs3%5D%5BMULTi5%5D%5B3.41-3.55%5D&tr=udp%3A%2F%2Ftracker.coppersurfer.tk%3A6969%2Fannounce&tr=udp%3A%2F%2F9.rarbg.to%3A2920%2Fannounce&tr=udp%3A%2F%2Ftracker.opentrackr.org%3A1337&tr=udp%3A%2F%2Ftracker.internetwarriors.net%3A1337%2Fannounce&tr=udp%3A%2F%2Ftracker.leechers-paradise.org%3A6969%2Fannounce&tr=udp%3A%2F%2Ftracker.coppersurfer.tk%3A6969%2Fannounce&tr=udp%3A%2F%2Ftracker.pirateparty.gr%3A6969%2Fannounce&tr=udp%3A%2F%2Ftracker.cyberia.is%3A6969%2Fannounce",
        "seeder": "6",
        "leecher": "0"
    },
    {
        "rank": "38",
        "title": "GTA Liberty City Stories [PSP]",
        "link": "magnet:?xt=urn:btih:7A662DEBDC803DEA52503758D96C77AC1D15F9FD&dn=GTA+Liberty+City+Stories+%5BPSP%5D&tr=udp%3A%2F%2Ftracker.coppersurfer.tk%3A6969%2Fannounce&tr=udp%3A%2F%2F9.rarbg.to%3A2920%2Fannounce&tr=udp%3A%2F%2Ftracker.opentrackr.org%3A1337&tr=udp%3A%2F%2Ftracker.internetwarriors.net%3A1337%2Fannounce&tr=udp%3A%2F%2Ftracker.leechers-paradise.org%3A6969%2Fannounce&tr=udp%3A%2F%2Ftracker.coppersurfer.tk%3A6969%2Fannounce&tr=udp%3A%2F%2Ftracker.pirateparty.gr%3A6969%2Fannounce&tr=udp%3A%2F%2Ftracker.cyberia.is%3A6969%2Fannounce",
        "seeder": "6",
        "leecher": "0"
    },
    {
        "rank": "39",
        "title": "Gran Turismo 3 A-spec [PS2] [NTSC]",
        "link": "magnet:?xt=urn:btih:41C19CFEB095B93F0EC5C1318A44DDF871DF381A&dn=Gran+Turismo+3+A-spec+%5BPS2%5D+%5BNTSC%5D&tr=udp%3A%2F%2Ftracker.coppersurfer.tk%3A6969%2Fannounce&tr=udp%3A%2F%2F9.rarbg.to%3A2920%2Fannounce&tr=udp%3A%2F%2Ftracker.opentrackr.org%3A1337&tr=udp%3A%2F%2Ftracker.internetwarriors.net%3A1337%2Fannounce&tr=udp%3A%2F%2Ftracker.leechers-paradise.org%3A6969%2Fannounce&tr=udp%3A%2F%2Ftracker.coppersurfer.tk%3A6969%2Fannounce&tr=udp%3A%2F%2Ftracker.pirateparty.gr%3A6969%2Fannounce&tr=udp%3A%2F%2Ftracker.cyberia.is%3A6969%2Fannounce",
        "seeder": "6",
        "leecher": "0"
    },
    {
        "rank": "40",
        "title": "Spider-Man 2 [PS2] [PAL] [MULTI2]",
        "link": "magnet:?xt=urn:btih:30E67A1F8C405973A889D996C0F347753ADFEB37&dn=Spider-Man+2+%5BPS2%5D+%5BPAL%5D+%5BMULTI2%5D&tr=udp%3A%2F%2Ftracker.coppersurfer.tk%3A6969%2Fannounce&tr=udp%3A%2F%2F9.rarbg.to%3A2920%2Fannounce&tr=udp%3A%2F%2Ftracker.opentrackr.org%3A1337&tr=udp%3A%2F%2Ftracker.internetwarriors.net%3A1337%2Fannounce&tr=udp%3A%2F%2Ftracker.leechers-paradise.org%3A6969%2Fannounce&tr=udp%3A%2F%2Ftracker.coppersurfer.tk%3A6969%2Fannounce&tr=udp%3A%2F%2Ftracker.pirateparty.gr%3A6969%2Fannounce&tr=udp%3A%2F%2Ftracker.cyberia.is%3A6969%2Fannounce",
        "seeder": "6",
        "leecher": "0"
    },
    {
        "rank": "41",
        "title": "NHL 13 [PS3]",
        "link": "magnet:?xt=urn:btih:6342BBDAAA1BE600AC7B786DB9009AD65FC22406&dn=NHL+13+%5BPS3%5D&tr=udp%3A%2F%2Ftracker.coppersurfer.tk%3A6969%2Fannounce&tr=udp%3A%2F%2F9.rarbg.to%3A2920%2Fannounce&tr=udp%3A%2F%2Ftracker.opentrackr.org%3A1337&tr=udp%3A%2F%2Ftracker.internetwarriors.net%3A1337%2Fannounce&tr=udp%3A%2F%2Ftracker.leechers-paradise.org%3A6969%2Fannounce&tr=udp%3A%2F%2Ftracker.coppersurfer.tk%3A6969%2Fannounce&tr=udp%3A%2F%2Ftracker.pirateparty.gr%3A6969%2Fannounce&tr=udp%3A%2F%2Ftracker.cyberia.is%3A6969%2Fannounce",
        "seeder": "6",
        "leecher": "0"
    },
    {
        "rank": "42",
        "title": "Need_for_Speed_Most_Wanted_PS3-ACCiDENT",
        "link": "magnet:?xt=urn:btih:BCEAE97D6B88F125FAE57C3FD6525BF7EB986B73&dn=Need_for_Speed_Most_Wanted_PS3-ACCiDENT&tr=udp%3A%2F%2Ftracker.coppersurfer.tk%3A6969%2Fannounce&tr=udp%3A%2F%2F9.rarbg.to%3A2920%2Fannounce&tr=udp%3A%2F%2Ftracker.opentrackr.org%3A1337&tr=udp%3A%2F%2Ftracker.internetwarriors.net%3A1337%2Fannounce&tr=udp%3A%2F%2Ftracker.leechers-paradise.org%3A6969%2Fannounce&tr=udp%3A%2F%2Ftracker.coppersurfer.tk%3A6969%2Fannounce&tr=udp%3A%2F%2Ftracker.pirateparty.gr%3A6969%2Fannounce&tr=udp%3A%2F%2Ftracker.cyberia.is%3A6969%2Fannounce",
        "seeder": "6",
        "leecher": "0"
    },
    {
        "rank": "43",
        "title": "Darkwatch [PS2] [NTSC]",
        "link": "magnet:?xt=urn:btih:A2C054DBA82C0A7FF001A6A926115F0C47F3E212&dn=Darkwatch+%5BPS2%5D+%5BNTSC%5D&tr=udp%3A%2F%2Ftracker.coppersurfer.tk%3A6969%2Fannounce&tr=udp%3A%2F%2F9.rarbg.to%3A2920%2Fannounce&tr=udp%3A%2F%2Ftracker.opentrackr.org%3A1337&tr=udp%3A%2F%2Ftracker.internetwarriors.net%3A1337%2Fannounce&tr=udp%3A%2F%2Ftracker.leechers-paradise.org%3A6969%2Fannounce&tr=udp%3A%2F%2Ftracker.coppersurfer.tk%3A6969%2Fannounce&tr=udp%3A%2F%2Ftracker.pirateparty.gr%3A6969%2Fannounce&tr=udp%3A%2F%2Ftracker.cyberia.is%3A6969%2Fannounce",
        "seeder": "6",
        "leecher": "0"
    },
    {
        "rank": "44",
        "title": "FIFA 17 (PS3)",
        "link": "magnet:?xt=urn:btih:C071673E1BF8A5D57EBBC8D96FA6B35122088810&dn=FIFA+17+%28PS3%29&tr=udp%3A%2F%2Ftracker.coppersurfer.tk%3A6969%2Fannounce&tr=udp%3A%2F%2F9.rarbg.to%3A2920%2Fannounce&tr=udp%3A%2F%2Ftracker.opentrackr.org%3A1337&tr=udp%3A%2F%2Ftracker.internetwarriors.net%3A1337%2Fannounce&tr=udp%3A%2F%2Ftracker.leechers-paradise.org%3A6969%2Fannounce&tr=udp%3A%2F%2Ftracker.coppersurfer.tk%3A6969%2Fannounce&tr=udp%3A%2F%2Ftracker.pirateparty.gr%3A6969%2Fannounce&tr=udp%3A%2F%2Ftracker.cyberia.is%3A6969%2Fannounce",
        "seeder": "6",
        "leecher": "0"
    },
    {
        "rank": "45",
        "title": "Lego Pirates of the Caribbean (2011) [Ps3][EUR][MULTi5]",
        "link": "magnet:?xt=urn:btih:F72826A17364FDBB22FA53E9114DE41350FD07CC&dn=Lego+Pirates+of+the+Caribbean+%282011%29+%5BPs3%5D%5BEUR%5D%5BMULTi5%5D&tr=udp%3A%2F%2Ftracker.coppersurfer.tk%3A6969%2Fannounce&tr=udp%3A%2F%2F9.rarbg.to%3A2920%2Fannounce&tr=udp%3A%2F%2Ftracker.opentrackr.org%3A1337&tr=udp%3A%2F%2Ftracker.internetwarriors.net%3A1337%2Fannounce&tr=udp%3A%2F%2Ftracker.leechers-paradise.org%3A6969%2Fannounce&tr=udp%3A%2F%2Ftracker.coppersurfer.tk%3A6969%2Fannounce&tr=udp%3A%2F%2Ftracker.pirateparty.gr%3A6969%2Fannounce&tr=udp%3A%2F%2Ftracker.cyberia.is%3A6969%2Fannounce",
        "seeder": "6",
        "leecher": "0"
    },
    {
        "rank": "46",
        "title": "Need for Speed Underground [PS2 DVD NTSC]",
        "link": "magnet:?xt=urn:btih:B2A09E846ABE5B0EF23D14A39772B580D93E7DB0&dn=Need+for+Speed+Underground+%5BPS2+DVD+NTSC%5D&tr=udp%3A%2F%2Ftracker.coppersurfer.tk%3A6969%2Fannounce&tr=udp%3A%2F%2F9.rarbg.to%3A2920%2Fannounce&tr=udp%3A%2F%2Ftracker.opentrackr.org%3A1337&tr=udp%3A%2F%2Ftracker.internetwarriors.net%3A1337%2Fannounce&tr=udp%3A%2F%2Ftracker.leechers-paradise.org%3A6969%2Fannounce&tr=udp%3A%2F%2Ftracker.coppersurfer.tk%3A6969%2Fannounce&tr=udp%3A%2F%2Ftracker.pirateparty.gr%3A6969%2Fannounce&tr=udp%3A%2F%2Ftracker.cyberia.is%3A6969%2Fannounce",
        "seeder": "6",
        "leecher": "0"
    },
    {
        "rank": "47",
        "title": "Gran Turismo 2 Arcade & Simulation [NTSC-U] [PSX]",
        "link": "magnet:?xt=urn:btih:3D80D227BAA889106361DC61252B2C8D224C0AC5&dn=Gran+Turismo+2+Arcade+%26+Simulation+%5BNTSC-U%5D+%5BPSX%5D&tr=udp%3A%2F%2Ftracker.coppersurfer.tk%3A6969%2Fannounce&tr=udp%3A%2F%2F9.rarbg.to%3A2920%2Fannounce&tr=udp%3A%2F%2Ftracker.opentrackr.org%3A1337&tr=udp%3A%2F%2Ftracker.internetwarriors.net%3A1337%2Fannounce&tr=udp%3A%2F%2Ftracker.leechers-paradise.org%3A6969%2Fannounce&tr=udp%3A%2F%2Ftracker.coppersurfer.tk%3A6969%2Fannounce&tr=udp%3A%2F%2Ftracker.pirateparty.gr%3A6969%2Fannounce&tr=udp%3A%2F%2Ftracker.cyberia.is%3A6969%2Fannounce",
        "seeder": "6",
        "leecher": "0"
    },
    {
        "rank": "48",
        "title": "Watch Dogs PS3-DUPLEX",
        "link": "magnet:?xt=urn:btih:3DA742650CE132252057213BD03E552C4A4B35EB&dn=Watch+Dogs+PS3-DUPLEX&tr=udp%3A%2F%2Ftracker.coppersurfer.tk%3A6969%2Fannounce&tr=udp%3A%2F%2F9.rarbg.to%3A2920%2Fannounce&tr=udp%3A%2F%2Ftracker.opentrackr.org%3A1337&tr=udp%3A%2F%2Ftracker.internetwarriors.net%3A1337%2Fannounce&tr=udp%3A%2F%2Ftracker.leechers-paradise.org%3A6969%2Fannounce&tr=udp%3A%2F%2Ftracker.coppersurfer.tk%3A6969%2Fannounce&tr=udp%3A%2F%2Ftracker.pirateparty.gr%3A6969%2Fannounce&tr=udp%3A%2F%2Ftracker.cyberia.is%3A6969%2Fannounce",
        "seeder": "6",
        "leecher": "0"
    },
    {
        "rank": "49",
        "title": "ratchet and clank going commando (PS2)",
        "link": "magnet:?xt=urn:btih:9A5AB2299A7FB74C6DF797105745064DD6124833&dn=ratchet+and+clank+going+commando+%28PS2%29&tr=udp%3A%2F%2Ftracker.coppersurfer.tk%3A6969%2Fannounce&tr=udp%3A%2F%2F9.rarbg.to%3A2920%2Fannounce&tr=udp%3A%2F%2Ftracker.opentrackr.org%3A1337&tr=udp%3A%2F%2Ftracker.internetwarriors.net%3A1337%2Fannounce&tr=udp%3A%2F%2Ftracker.leechers-paradise.org%3A6969%2Fannounce&tr=udp%3A%2F%2Ftracker.coppersurfer.tk%3A6969%2Fannounce&tr=udp%3A%2F%2Ftracker.pirateparty.gr%3A6969%2Fannounce&tr=udp%3A%2F%2Ftracker.cyberia.is%3A6969%2Fannounce",
        "seeder": "6",
        "leecher": "0"
    },
    {
        "rank": "50",
        "title": "Final Fantasy X [Ntsc] Ps2",
        "link": "magnet:?xt=urn:btih:FDA46282415C7149CF6BC5B76060701CBE895EF1&dn=Final+Fantasy+X+%5BNtsc%5D+Ps2&tr=udp%3A%2F%2Ftracker.coppersurfer.tk%3A6969%2Fannounce&tr=udp%3A%2F%2F9.rarbg.to%3A2920%2Fannounce&tr=udp%3A%2F%2Ftracker.opentrackr.org%3A1337&tr=udp%3A%2F%2Ftracker.internetwarriors.net%3A1337%2Fannounce&tr=udp%3A%2F%2Ftracker.leechers-paradise.org%3A6969%2Fannounce&tr=udp%3A%2F%2Ftracker.coppersurfer.tk%3A6969%2Fannounce&tr=udp%3A%2F%2Ftracker.pirateparty.gr%3A6969%2Fannounce&tr=udp%3A%2F%2Ftracker.cyberia.is%3A6969%2Fannounce",
        "seeder": "5",
        "leecher": "0"
    },
    {
        "rank": "51",
        "title": "Harry Potter And The Sorcerers Stone [PS2] [PAL] [MULTI5]",
        "link": "magnet:?xt=urn:btih:25998342582D71ABFA3CB124BEC7832D9435F5AB&dn=Harry+Potter+And+The+Sorcerers+Stone+%5BPS2%5D+%5BPAL%5D+%5BMULTI5%5D&tr=udp%3A%2F%2Ftracker.coppersurfer.tk%3A6969%2Fannounce&tr=udp%3A%2F%2F9.rarbg.to%3A2920%2Fannounce&tr=udp%3A%2F%2Ftracker.opentrackr.org%3A1337&tr=udp%3A%2F%2Ftracker.internetwarriors.net%3A1337%2Fannounce&tr=udp%3A%2F%2Ftracker.leechers-paradise.org%3A6969%2Fannounce&tr=udp%3A%2F%2Ftracker.coppersurfer.tk%3A6969%2Fannounce&tr=udp%3A%2F%2Ftracker.pirateparty.gr%3A6969%2Fannounce&tr=udp%3A%2F%2Ftracker.cyberia.is%3A6969%2Fannounce",
        "seeder": "5",
        "leecher": "0"
    },
    {
        "rank": "52",
        "title": "DANTE'S INFERNO - PS3",
        "link": "magnet:?xt=urn:btih:506CE5F4AB3A81C035EB73E53DE13FEF051934B0&dn=DANTE%27S+INFERNO+-+PS3&tr=udp%3A%2F%2Ftracker.coppersurfer.tk%3A6969%2Fannounce&tr=udp%3A%2F%2F9.rarbg.to%3A2920%2Fannounce&tr=udp%3A%2F%2Ftracker.opentrackr.org%3A1337&tr=udp%3A%2F%2Ftracker.internetwarriors.net%3A1337%2Fannounce&tr=udp%3A%2F%2Ftracker.leechers-paradise.org%3A6969%2Fannounce&tr=udp%3A%2F%2Ftracker.coppersurfer.tk%3A6969%2Fannounce&tr=udp%3A%2F%2Ftracker.pirateparty.gr%3A6969%2Fannounce&tr=udp%3A%2F%2Ftracker.cyberia.is%3A6969%2Fannounce",
        "seeder": "5",
        "leecher": "1"
    },
    {
        "rank": "53",
        "title": "Fight Night Champion (2011) [Ps3][USA][MULTi5]",
        "link": "magnet:?xt=urn:btih:D7F9726B3CCB310E223A3F5421DE78FC45AA6B7E&dn=Fight+Night+Champion+%282011%29+%5BPs3%5D%5BUSA%5D%5BMULTi5%5D&tr=udp%3A%2F%2Ftracker.coppersurfer.tk%3A6969%2Fannounce&tr=udp%3A%2F%2F9.rarbg.to%3A2920%2Fannounce&tr=udp%3A%2F%2Ftracker.opentrackr.org%3A1337&tr=udp%3A%2F%2Ftracker.internetwarriors.net%3A1337%2Fannounce&tr=udp%3A%2F%2Ftracker.leechers-paradise.org%3A6969%2Fannounce&tr=udp%3A%2F%2Ftracker.coppersurfer.tk%3A6969%2Fannounce&tr=udp%3A%2F%2Ftracker.pirateparty.gr%3A6969%2Fannounce&tr=udp%3A%2F%2Ftracker.cyberia.is%3A6969%2Fannounce",
        "seeder": "5",
        "leecher": "0"
    },
    {
        "rank": "54",
        "title": "Need.for.Speed.Rivals.PS3-DUPLEX",
        "link": "magnet:?xt=urn:btih:9CECA29681F500EBDD605004664C7DC17011A86E&dn=Need.for.Speed.Rivals.PS3-DUPLEX&tr=udp%3A%2F%2Ftracker.coppersurfer.tk%3A6969%2Fannounce&tr=udp%3A%2F%2F9.rarbg.to%3A2920%2Fannounce&tr=udp%3A%2F%2Ftracker.opentrackr.org%3A1337&tr=udp%3A%2F%2Ftracker.internetwarriors.net%3A1337%2Fannounce&tr=udp%3A%2F%2Ftracker.leechers-paradise.org%3A6969%2Fannounce&tr=udp%3A%2F%2Ftracker.coppersurfer.tk%3A6969%2Fannounce&tr=udp%3A%2F%2Ftracker.pirateparty.gr%3A6969%2Fannounce&tr=udp%3A%2F%2Ftracker.cyberia.is%3A6969%2Fannounce",
        "seeder": "5",
        "leecher": "1"
    },
    {
        "rank": "55",
        "title": "[PS1] Gran Turismo 2 [Multi5] TNT Village",
        "link": "magnet:?xt=urn:btih:08828583D715A80D52B474D663F2775A3457F20F&dn=%5BPS1%5D+Gran+Turismo+2+%5BMulti5%5D+TNT+Village&tr=udp%3A%2F%2Ftracker.coppersurfer.tk%3A6969%2Fannounce&tr=udp%3A%2F%2F9.rarbg.to%3A2920%2Fannounce&tr=udp%3A%2F%2Ftracker.opentrackr.org%3A1337&tr=udp%3A%2F%2Ftracker.internetwarriors.net%3A1337%2Fannounce&tr=udp%3A%2F%2Ftracker.leechers-paradise.org%3A6969%2Fannounce&tr=udp%3A%2F%2Ftracker.coppersurfer.tk%3A6969%2Fannounce&tr=udp%3A%2F%2Ftracker.pirateparty.gr%3A6969%2Fannounce&tr=udp%3A%2F%2Ftracker.cyberia.is%3A6969%2Fannounce",
        "seeder": "5",
        "leecher": "0"
    },
    {
        "rank": "56",
        "title": "Persona 4 [PAL] [PS2] [www.PorTorrent.com]",
        "link": "magnet:?xt=urn:btih:058664C4CC123FA92FEFEFCF8F54088EA0C90DD9&dn=Persona+4+%5BPAL%5D+%5BPS2%5D+%5Bwww.PorTorrent.com%5D&tr=udp%3A%2F%2Ftracker.coppersurfer.tk%3A6969%2Fannounce&tr=udp%3A%2F%2F9.rarbg.to%3A2920%2Fannounce&tr=udp%3A%2F%2Ftracker.opentrackr.org%3A1337&tr=udp%3A%2F%2Ftracker.internetwarriors.net%3A1337%2Fannounce&tr=udp%3A%2F%2Ftracker.leechers-paradise.org%3A6969%2Fannounce&tr=udp%3A%2F%2Ftracker.coppersurfer.tk%3A6969%2Fannounce&tr=udp%3A%2F%2Ftracker.pirateparty.gr%3A6969%2Fannounce&tr=udp%3A%2F%2Ftracker.cyberia.is%3A6969%2Fannounce",
        "seeder": "5",
        "leecher": "0"
    },
    {
        "rank": "57",
        "title": "Far.Cry.3.PS3-DUPLEX",
        "link": "magnet:?xt=urn:btih:7611737E6786013DC2FF2AF9E3C2C6B54E474A68&dn=Far.Cry.3.PS3-DUPLEX&tr=udp%3A%2F%2Ftracker.coppersurfer.tk%3A6969%2Fannounce&tr=udp%3A%2F%2F9.rarbg.to%3A2920%2Fannounce&tr=udp%3A%2F%2Ftracker.opentrackr.org%3A1337&tr=udp%3A%2F%2Ftracker.internetwarriors.net%3A1337%2Fannounce&tr=udp%3A%2F%2Ftracker.leechers-paradise.org%3A6969%2Fannounce&tr=udp%3A%2F%2Ftracker.coppersurfer.tk%3A6969%2Fannounce&tr=udp%3A%2F%2Ftracker.pirateparty.gr%3A6969%2Fannounce&tr=udp%3A%2F%2Ftracker.cyberia.is%3A6969%2Fannounce",
        "seeder": "5",
        "leecher": "0"
    },
    {
        "rank": "58",
        "title": "FIFA 14 PS2 PAL [MULTI 4] .ISO",
        "link": "magnet:?xt=urn:btih:C789E60EB75C3578C80C558074B11FC1930BBD59&dn=FIFA+14+PS2+PAL+%5BMULTI+4%5D+.ISO&tr=udp%3A%2F%2Ftracker.coppersurfer.tk%3A6969%2Fannounce&tr=udp%3A%2F%2F9.rarbg.to%3A2920%2Fannounce&tr=udp%3A%2F%2Ftracker.opentrackr.org%3A1337&tr=udp%3A%2F%2Ftracker.internetwarriors.net%3A1337%2Fannounce&tr=udp%3A%2F%2Ftracker.leechers-paradise.org%3A6969%2Fannounce&tr=udp%3A%2F%2Ftracker.coppersurfer.tk%3A6969%2Fannounce&tr=udp%3A%2F%2Ftracker.pirateparty.gr%3A6969%2Fannounce&tr=udp%3A%2F%2Ftracker.cyberia.is%3A6969%2Fannounce",
        "seeder": "5",
        "leecher": "0"
    },
    {
        "rank": "59",
        "title": "God of War III (2010) [Ps3[EUR][MULTi11]",
        "link": "magnet:?xt=urn:btih:DA01A25E3BDCF0207AD27FBB2744463651A7C433&dn=God+of+War+III+%282010%29+%5BPs3%5BEUR%5D%5BMULTi11%5D&tr=udp%3A%2F%2Ftracker.coppersurfer.tk%3A6969%2Fannounce&tr=udp%3A%2F%2F9.rarbg.to%3A2920%2Fannounce&tr=udp%3A%2F%2Ftracker.opentrackr.org%3A1337&tr=udp%3A%2F%2Ftracker.internetwarriors.net%3A1337%2Fannounce&tr=udp%3A%2F%2Ftracker.leechers-paradise.org%3A6969%2Fannounce&tr=udp%3A%2F%2Ftracker.coppersurfer.tk%3A6969%2Fannounce&tr=udp%3A%2F%2Ftracker.pirateparty.gr%3A6969%2Fannounce&tr=udp%3A%2F%2Ftracker.cyberia.is%3A6969%2Fannounce",
        "seeder": "5",
        "leecher": "2"
    },
    {
        "rank": "60",
        "title": "Prince of Persia - The Sands of Time [Ntsc], Ps2",
        "link": "magnet:?xt=urn:btih:587A1CDA3B558D6C15C7DFAAE5D6A4CAFC862344&dn=Prince+of+Persia+-+The+Sands+of+Time+%5BNtsc%5D%2C+Ps2&tr=udp%3A%2F%2Ftracker.coppersurfer.tk%3A6969%2Fannounce&tr=udp%3A%2F%2F9.rarbg.to%3A2920%2Fannounce&tr=udp%3A%2F%2Ftracker.opentrackr.org%3A1337&tr=udp%3A%2F%2Ftracker.internetwarriors.net%3A1337%2Fannounce&tr=udp%3A%2F%2Ftracker.leechers-paradise.org%3A6969%2Fannounce&tr=udp%3A%2F%2Ftracker.coppersurfer.tk%3A6969%2Fannounce&tr=udp%3A%2F%2Ftracker.pirateparty.gr%3A6969%2Fannounce&tr=udp%3A%2F%2Ftracker.cyberia.is%3A6969%2Fannounce",
        "seeder": "5",
        "leecher": "0"
    },
    {
        "rank": "61",
        "title": "Little Big Planet [PAL] [PS3]",
        "link": "magnet:?xt=urn:btih:B5392A20964134EADE96E8F1968A8B7D8417E9FA&dn=Little+Big+Planet+%5BPAL%5D+%5BPS3%5D&tr=udp%3A%2F%2Ftracker.coppersurfer.tk%3A6969%2Fannounce&tr=udp%3A%2F%2F9.rarbg.to%3A2920%2Fannounce&tr=udp%3A%2F%2Ftracker.opentrackr.org%3A1337&tr=udp%3A%2F%2Ftracker.internetwarriors.net%3A1337%2Fannounce&tr=udp%3A%2F%2Ftracker.leechers-paradise.org%3A6969%2Fannounce&tr=udp%3A%2F%2Ftracker.coppersurfer.tk%3A6969%2Fannounce&tr=udp%3A%2F%2Ftracker.pirateparty.gr%3A6969%2Fannounce&tr=udp%3A%2F%2Ftracker.cyberia.is%3A6969%2Fannounce",
        "seeder": "5",
        "leecher": "1"
    },
    {
        "rank": "62",
        "title": "Infamous.2.PS3-CHARGED-[tracker.BTARENA.org]",
        "link": "magnet:?xt=urn:btih:908C292510B830D89099026CC42A7BFB1591887D&dn=Infamous.2.PS3-CHARGED-%5Btracker.BTARENA.org%5D&tr=udp%3A%2F%2Ftracker.coppersurfer.tk%3A6969%2Fannounce&tr=udp%3A%2F%2F9.rarbg.to%3A2920%2Fannounce&tr=udp%3A%2F%2Ftracker.opentrackr.org%3A1337&tr=udp%3A%2F%2Ftracker.internetwarriors.net%3A1337%2Fannounce&tr=udp%3A%2F%2Ftracker.leechers-paradise.org%3A6969%2Fannounce&tr=udp%3A%2F%2Ftracker.coppersurfer.tk%3A6969%2Fannounce&tr=udp%3A%2F%2Ftracker.pirateparty.gr%3A6969%2Fannounce&tr=udp%3A%2F%2Ftracker.cyberia.is%3A6969%2Fannounce",
        "seeder": "5",
        "leecher": "0"
    },
    {
        "rank": "63",
        "title": "Metro Last Light [PS3-DUPLEX-NNM]",
        "link": "magnet:?xt=urn:btih:17E0FFE4646E4B672A9BFE02E0711F5F614EE048&dn=Metro+Last+Light+%5BPS3-DUPLEX-NNM%5D&tr=udp%3A%2F%2Ftracker.coppersurfer.tk%3A6969%2Fannounce&tr=udp%3A%2F%2F9.rarbg.to%3A2920%2Fannounce&tr=udp%3A%2F%2Ftracker.opentrackr.org%3A1337&tr=udp%3A%2F%2Ftracker.internetwarriors.net%3A1337%2Fannounce&tr=udp%3A%2F%2Ftracker.leechers-paradise.org%3A6969%2Fannounce&tr=udp%3A%2F%2Ftracker.coppersurfer.tk%3A6969%2Fannounce&tr=udp%3A%2F%2Ftracker.pirateparty.gr%3A6969%2Fannounce&tr=udp%3A%2F%2Ftracker.cyberia.is%3A6969%2Fannounce",
        "seeder": "5",
        "leecher": "0"
    },
    {
        "rank": "64",
        "title": "Need For Speed: Shift [PS3] [PSJ]",
        "link": "magnet:?xt=urn:btih:61EFDE2B3D4F786C7B465CF451CD24792648C678&dn=Need+For+Speed%3A+Shift+%5BPS3%5D+%5BPSJ%5D&tr=udp%3A%2F%2Ftracker.coppersurfer.tk%3A6969%2Fannounce&tr=udp%3A%2F%2F9.rarbg.to%3A2920%2Fannounce&tr=udp%3A%2F%2Ftracker.opentrackr.org%3A1337&tr=udp%3A%2F%2Ftracker.internetwarriors.net%3A1337%2Fannounce&tr=udp%3A%2F%2Ftracker.leechers-paradise.org%3A6969%2Fannounce&tr=udp%3A%2F%2Ftracker.coppersurfer.tk%3A6969%2Fannounce&tr=udp%3A%2F%2Ftracker.pirateparty.gr%3A6969%2Fannounce&tr=udp%3A%2F%2Ftracker.cyberia.is%3A6969%2Fannounce",
        "seeder": "5",
        "leecher": "0"
    },
    {
        "rank": "65",
        "title": "Half-Life [PS2]",
        "link": "magnet:?xt=urn:btih:ACAE358A1E3C1F15E4E3AAEB3A8E6A09E46E3C26&dn=Half-Life+%5BPS2%5D&tr=udp%3A%2F%2Ftracker.coppersurfer.tk%3A6969%2Fannounce&tr=udp%3A%2F%2F9.rarbg.to%3A2920%2Fannounce&tr=udp%3A%2F%2Ftracker.opentrackr.org%3A1337&tr=udp%3A%2F%2Ftracker.internetwarriors.net%3A1337%2Fannounce&tr=udp%3A%2F%2Ftracker.leechers-paradise.org%3A6969%2Fannounce&tr=udp%3A%2F%2Ftracker.coppersurfer.tk%3A6969%2Fannounce&tr=udp%3A%2F%2Ftracker.pirateparty.gr%3A6969%2Fannounce&tr=udp%3A%2F%2Ftracker.cyberia.is%3A6969%2Fannounce",
        "seeder": "5",
        "leecher": "1"
    },
    {
        "rank": "66",
        "title": "Grand.Theft.Auto.V.PS3-DUPLEX",
        "link": "magnet:?xt=urn:btih:6E56400EA8614F540476F8E7C9C96AAEB6F10BC6&dn=Grand.Theft.Auto.V.PS3-DUPLEX&tr=udp%3A%2F%2Ftracker.coppersurfer.tk%3A6969%2Fannounce&tr=udp%3A%2F%2F9.rarbg.to%3A2920%2Fannounce&tr=udp%3A%2F%2Ftracker.opentrackr.org%3A1337&tr=udp%3A%2F%2Ftracker.internetwarriors.net%3A1337%2Fannounce&tr=udp%3A%2F%2Ftracker.leechers-paradise.org%3A6969%2Fannounce&tr=udp%3A%2F%2Ftracker.coppersurfer.tk%3A6969%2Fannounce&tr=udp%3A%2F%2Ftracker.pirateparty.gr%3A6969%2Fannounce&tr=udp%3A%2F%2Ftracker.cyberia.is%3A6969%2Fannounce",
        "seeder": "5",
        "leecher": "2"
    },
    {
        "rank": "67",
        "title": "Harry Potter And The Chamber Of Secrets [PS2] [NTSC]",
        "link": "magnet:?xt=urn:btih:D475BEAB50951AEDBA8840C098A2B1CC5A24AA8E&dn=Harry+Potter+And+The+Chamber+Of+Secrets+%5BPS2%5D+%5BNTSC%5D&tr=udp%3A%2F%2Ftracker.coppersurfer.tk%3A6969%2Fannounce&tr=udp%3A%2F%2F9.rarbg.to%3A2920%2Fannounce&tr=udp%3A%2F%2Ftracker.opentrackr.org%3A1337&tr=udp%3A%2F%2Ftracker.internetwarriors.net%3A1337%2Fannounce&tr=udp%3A%2F%2Ftracker.leechers-paradise.org%3A6969%2Fannounce&tr=udp%3A%2F%2Ftracker.coppersurfer.tk%3A6969%2Fannounce&tr=udp%3A%2F%2Ftracker.pirateparty.gr%3A6969%2Fannounce&tr=udp%3A%2F%2Ftracker.cyberia.is%3A6969%2Fannounce",
        "seeder": "4",
        "leecher": "1"
    },
    {
        "rank": "68",
        "title": "Jackie Chan Adventures [PS2] [PAL] [MULTI7]",
        "link": "magnet:?xt=urn:btih:126EB5C6BCCD2B72111C076BB7A985F06F15140E&dn=Jackie+Chan+Adventures+%5BPS2%5D+%5BPAL%5D+%5BMULTI7%5D&tr=udp%3A%2F%2Ftracker.coppersurfer.tk%3A6969%2Fannounce&tr=udp%3A%2F%2F9.rarbg.to%3A2920%2Fannounce&tr=udp%3A%2F%2Ftracker.opentrackr.org%3A1337&tr=udp%3A%2F%2Ftracker.internetwarriors.net%3A1337%2Fannounce&tr=udp%3A%2F%2Ftracker.leechers-paradise.org%3A6969%2Fannounce&tr=udp%3A%2F%2Ftracker.coppersurfer.tk%3A6969%2Fannounce&tr=udp%3A%2F%2Ftracker.pirateparty.gr%3A6969%2Fannounce&tr=udp%3A%2F%2Ftracker.cyberia.is%3A6969%2Fannounce",
        "seeder": "4",
        "leecher": "0"
    },
    {
        "rank": "69",
        "title": "Splinter.Cell.Blacklist.PS3-DUPLEX",
        "link": "magnet:?xt=urn:btih:4C6F81CB612312FCA66D48B97928FF363EC7E680&dn=Splinter.Cell.Blacklist.PS3-DUPLEX&tr=udp%3A%2F%2Ftracker.coppersurfer.tk%3A6969%2Fannounce&tr=udp%3A%2F%2F9.rarbg.to%3A2920%2Fannounce&tr=udp%3A%2F%2Ftracker.opentrackr.org%3A1337&tr=udp%3A%2F%2Ftracker.internetwarriors.net%3A1337%2Fannounce&tr=udp%3A%2F%2Ftracker.leechers-paradise.org%3A6969%2Fannounce&tr=udp%3A%2F%2Ftracker.coppersurfer.tk%3A6969%2Fannounce&tr=udp%3A%2F%2Ftracker.pirateparty.gr%3A6969%2Fannounce&tr=udp%3A%2F%2Ftracker.cyberia.is%3A6969%2Fannounce",
        "seeder": "4",
        "leecher": "0"
    },
    {
        "rank": "70",
        "title": "PS2 - Metal Gear Solid 2 Sons Of Liberty [PAL Multi5] TNT Villag",
        "link": "magnet:?xt=urn:btih:6F1DE4086E1C9BC8E5F06CC6E13BD260D8385908&dn=PS2+-+Metal+Gear+Solid+2+Sons+Of+Liberty+%5BPAL+Multi5%5D+TNT+Villag&tr=udp%3A%2F%2Ftracker.coppersurfer.tk%3A6969%2Fannounce&tr=udp%3A%2F%2F9.rarbg.to%3A2920%2Fannounce&tr=udp%3A%2F%2Ftracker.opentrackr.org%3A1337&tr=udp%3A%2F%2Ftracker.internetwarriors.net%3A1337%2Fannounce&tr=udp%3A%2F%2Ftracker.leechers-paradise.org%3A6969%2Fannounce&tr=udp%3A%2F%2Ftracker.coppersurfer.tk%3A6969%2Fannounce&tr=udp%3A%2F%2Ftracker.pirateparty.gr%3A6969%2Fannounce&tr=udp%3A%2F%2Ftracker.cyberia.is%3A6969%2Fannounce",
        "seeder": "4",
        "leecher": "0"
    },
    {
        "rank": "71",
        "title": "LEGO Marvel Super Heroes PS3-DUPLEX",
        "link": "magnet:?xt=urn:btih:94E94DC8B043756190EB78B907A1A35C0BF1CC89&dn=LEGO+Marvel+Super+Heroes+PS3-DUPLEX&tr=udp%3A%2F%2Ftracker.coppersurfer.tk%3A6969%2Fannounce&tr=udp%3A%2F%2F9.rarbg.to%3A2920%2Fannounce&tr=udp%3A%2F%2Ftracker.opentrackr.org%3A1337&tr=udp%3A%2F%2Ftracker.internetwarriors.net%3A1337%2Fannounce&tr=udp%3A%2F%2Ftracker.leechers-paradise.org%3A6969%2Fannounce&tr=udp%3A%2F%2Ftracker.coppersurfer.tk%3A6969%2Fannounce&tr=udp%3A%2F%2Ftracker.pirateparty.gr%3A6969%2Fannounce&tr=udp%3A%2F%2Ftracker.cyberia.is%3A6969%2Fannounce",
        "seeder": "4",
        "leecher": "1"
    },
    {
        "rank": "72",
        "title": "Baldur's Gate Dark Alliance [PS2 MULTI5 ~ Sub Multi5]",
        "link": "magnet:?xt=urn:btih:705C61F6B87460C3E7C6BBC50625A356EB296D79&dn=Baldur%27s+Gate+Dark+Alliance+%5BPS2+MULTI5+%7E+Sub+Multi5%5D&tr=udp%3A%2F%2Ftracker.coppersurfer.tk%3A6969%2Fannounce&tr=udp%3A%2F%2F9.rarbg.to%3A2920%2Fannounce&tr=udp%3A%2F%2Ftracker.opentrackr.org%3A1337&tr=udp%3A%2F%2Ftracker.internetwarriors.net%3A1337%2Fannounce&tr=udp%3A%2F%2Ftracker.leechers-paradise.org%3A6969%2Fannounce&tr=udp%3A%2F%2Ftracker.coppersurfer.tk%3A6969%2Fannounce&tr=udp%3A%2F%2Ftracker.pirateparty.gr%3A6969%2Fannounce&tr=udp%3A%2F%2Ftracker.cyberia.is%3A6969%2Fannounce",
        "seeder": "4",
        "leecher": "1"
    },
    {
        "rank": "73",
        "title": "Mortal Kombat PS3-CHARGED-[tracker.BTARENA.org]",
        "link": "magnet:?xt=urn:btih:BF0D058D99B2F33E48B6C66FF68B1971998CDE18&dn=Mortal+Kombat+PS3-CHARGED-%5Btracker.BTARENA.org%5D&tr=udp%3A%2F%2Ftracker.coppersurfer.tk%3A6969%2Fannounce&tr=udp%3A%2F%2F9.rarbg.to%3A2920%2Fannounce&tr=udp%3A%2F%2Ftracker.opentrackr.org%3A1337&tr=udp%3A%2F%2Ftracker.internetwarriors.net%3A1337%2Fannounce&tr=udp%3A%2F%2Ftracker.leechers-paradise.org%3A6969%2Fannounce&tr=udp%3A%2F%2Ftracker.coppersurfer.tk%3A6969%2Fannounce&tr=udp%3A%2F%2Ftracker.pirateparty.gr%3A6969%2Fannounce&tr=udp%3A%2F%2Ftracker.cyberia.is%3A6969%2Fannounce",
        "seeder": "4",
        "leecher": "1"
    },
    {
        "rank": "74",
        "title": "Mafia II (2010) [Ps3][Multi5][RegionFree]",
        "link": "magnet:?xt=urn:btih:52847BEA07372A4944EC44C8860729E69A149436&dn=Mafia+II+%282010%29+%5BPs3%5D%5BMulti5%5D%5BRegionFree%5D&tr=udp%3A%2F%2Ftracker.coppersurfer.tk%3A6969%2Fannounce&tr=udp%3A%2F%2F9.rarbg.to%3A2920%2Fannounce&tr=udp%3A%2F%2Ftracker.opentrackr.org%3A1337&tr=udp%3A%2F%2Ftracker.internetwarriors.net%3A1337%2Fannounce&tr=udp%3A%2F%2Ftracker.leechers-paradise.org%3A6969%2Fannounce&tr=udp%3A%2F%2Ftracker.coppersurfer.tk%3A6969%2Fannounce&tr=udp%3A%2F%2Ftracker.pirateparty.gr%3A6969%2Fannounce&tr=udp%3A%2F%2Ftracker.cyberia.is%3A6969%2Fannounce",
        "seeder": "4",
        "leecher": "1"
    },
    {
        "rank": "75",
        "title": "PSX PS1 PSOne Mortal Kombat Trilogy",
        "link": "magnet:?xt=urn:btih:23C71503A8E87EDC191FE650683D7F071249C073&dn=PSX+PS1+PSOne+Mortal+Kombat+Trilogy&tr=udp%3A%2F%2Ftracker.coppersurfer.tk%3A6969%2Fannounce&tr=udp%3A%2F%2F9.rarbg.to%3A2920%2Fannounce&tr=udp%3A%2F%2Ftracker.opentrackr.org%3A1337&tr=udp%3A%2F%2Ftracker.internetwarriors.net%3A1337%2Fannounce&tr=udp%3A%2F%2Ftracker.leechers-paradise.org%3A6969%2Fannounce&tr=udp%3A%2F%2Ftracker.coppersurfer.tk%3A6969%2Fannounce&tr=udp%3A%2F%2Ftracker.pirateparty.gr%3A6969%2Fannounce&tr=udp%3A%2F%2Ftracker.cyberia.is%3A6969%2Fannounce",
        "seeder": "4",
        "leecher": "0"
    },
    {
        "rank": "76",
        "title": "The Lord Of The Rings: The Two Towers [PS2] [NTSC]",
        "link": "magnet:?xt=urn:btih:A07DB9C5B020DE8B47FE52F371EDC437BF687B18&dn=The+Lord+Of+The+Rings%3A+The+Two+Towers+%5BPS2%5D+%5BNTSC%5D&tr=udp%3A%2F%2Ftracker.coppersurfer.tk%3A6969%2Fannounce&tr=udp%3A%2F%2F9.rarbg.to%3A2920%2Fannounce&tr=udp%3A%2F%2Ftracker.opentrackr.org%3A1337&tr=udp%3A%2F%2Ftracker.internetwarriors.net%3A1337%2Fannounce&tr=udp%3A%2F%2Ftracker.leechers-paradise.org%3A6969%2Fannounce&tr=udp%3A%2F%2Ftracker.coppersurfer.tk%3A6969%2Fannounce&tr=udp%3A%2F%2Ftracker.pirateparty.gr%3A6969%2Fannounce&tr=udp%3A%2F%2Ftracker.cyberia.is%3A6969%2Fannounce",
        "seeder": "4",
        "leecher": "1"
    },
    {
        "rank": "77",
        "title": "Tekken 5 PS2",
        "link": "magnet:?xt=urn:btih:2A66CAA7CDA4DA6BCE731D96FD30D634FDC5CBB2&dn=Tekken+5+PS2&tr=udp%3A%2F%2Ftracker.coppersurfer.tk%3A6969%2Fannounce&tr=udp%3A%2F%2F9.rarbg.to%3A2920%2Fannounce&tr=udp%3A%2F%2Ftracker.opentrackr.org%3A1337&tr=udp%3A%2F%2Ftracker.internetwarriors.net%3A1337%2Fannounce&tr=udp%3A%2F%2Ftracker.leechers-paradise.org%3A6969%2Fannounce&tr=udp%3A%2F%2Ftracker.coppersurfer.tk%3A6969%2Fannounce&tr=udp%3A%2F%2Ftracker.pirateparty.gr%3A6969%2Fannounce&tr=udp%3A%2F%2Ftracker.cyberia.is%3A6969%2Fannounce",
        "seeder": "4",
        "leecher": "0"
    },
    {
        "rank": "78",
        "title": "God.of.War.Ascension.PS3-DUPLEX",
        "link": "magnet:?xt=urn:btih:11030E9BFC5AD3B5E0E383D29ACD837545C27FEA&dn=God.of.War.Ascension.PS3-DUPLEX&tr=udp%3A%2F%2Ftracker.coppersurfer.tk%3A6969%2Fannounce&tr=udp%3A%2F%2F9.rarbg.to%3A2920%2Fannounce&tr=udp%3A%2F%2Ftracker.opentrackr.org%3A1337&tr=udp%3A%2F%2Ftracker.internetwarriors.net%3A1337%2Fannounce&tr=udp%3A%2F%2Ftracker.leechers-paradise.org%3A6969%2Fannounce&tr=udp%3A%2F%2Ftracker.coppersurfer.tk%3A6969%2Fannounce&tr=udp%3A%2F%2Ftracker.pirateparty.gr%3A6969%2Fannounce&tr=udp%3A%2F%2Ftracker.cyberia.is%3A6969%2Fannounce",
        "seeder": "4",
        "leecher": "2"
    },
    {
        "rank": "79",
        "title": "Mortal Kombat: Deception PS2 NTSC .ISO",
        "link": "magnet:?xt=urn:btih:5901FE41F6E18EEED9533A15C20ECB66BF36BD7C&dn=Mortal+Kombat%3A+Deception+PS2+NTSC+.ISO&tr=udp%3A%2F%2Ftracker.coppersurfer.tk%3A6969%2Fannounce&tr=udp%3A%2F%2F9.rarbg.to%3A2920%2Fannounce&tr=udp%3A%2F%2Ftracker.opentrackr.org%3A1337&tr=udp%3A%2F%2Ftracker.internetwarriors.net%3A1337%2Fannounce&tr=udp%3A%2F%2Ftracker.leechers-paradise.org%3A6969%2Fannounce&tr=udp%3A%2F%2Ftracker.coppersurfer.tk%3A6969%2Fannounce&tr=udp%3A%2F%2Ftracker.pirateparty.gr%3A6969%2Fannounce&tr=udp%3A%2F%2Ftracker.cyberia.is%3A6969%2Fannounce",
        "seeder": "4",
        "leecher": "0"
    },
    {
        "rank": "80",
        "title": "Tekken Collection [PS1/PSX & PS2] [NTSC]",
        "link": "magnet:?xt=urn:btih:0705268C60C601AD708451192D2D1A48834EF594&dn=Tekken+Collection+%5BPS1%2FPSX+%26+PS2%5D+%5BNTSC%5D&tr=udp%3A%2F%2Ftracker.coppersurfer.tk%3A6969%2Fannounce&tr=udp%3A%2F%2F9.rarbg.to%3A2920%2Fannounce&tr=udp%3A%2F%2Ftracker.opentrackr.org%3A1337&tr=udp%3A%2F%2Ftracker.internetwarriors.net%3A1337%2Fannounce&tr=udp%3A%2F%2Ftracker.leechers-paradise.org%3A6969%2Fannounce&tr=udp%3A%2F%2Ftracker.coppersurfer.tk%3A6969%2Fannounce&tr=udp%3A%2F%2Ftracker.pirateparty.gr%3A6969%2Fannounce&tr=udp%3A%2F%2Ftracker.cyberia.is%3A6969%2Fannounce",
        "seeder": "4",
        "leecher": "1"
    },
    {
        "rank": "81",
        "title": "True Crime - New York City (NTSC) PS2",
        "link": "magnet:?xt=urn:btih:44910EE55B810DF8BCD860B6979F0DA18F6E9690&dn=True+Crime+-+New+York+City+%28NTSC%29+PS2&tr=udp%3A%2F%2Ftracker.coppersurfer.tk%3A6969%2Fannounce&tr=udp%3A%2F%2F9.rarbg.to%3A2920%2Fannounce&tr=udp%3A%2F%2Ftracker.opentrackr.org%3A1337&tr=udp%3A%2F%2Ftracker.internetwarriors.net%3A1337%2Fannounce&tr=udp%3A%2F%2Ftracker.leechers-paradise.org%3A6969%2Fannounce&tr=udp%3A%2F%2Ftracker.coppersurfer.tk%3A6969%2Fannounce&tr=udp%3A%2F%2Ftracker.pirateparty.gr%3A6969%2Fannounce&tr=udp%3A%2F%2Ftracker.cyberia.is%3A6969%2Fannounce",
        "seeder": "4",
        "leecher": "0"
    },
    {
        "rank": "82",
        "title": "Dragon Quest VIII : Journey of the Cursed King [PS2] [NTSC]",
        "link": "magnet:?xt=urn:btih:BF7FAC48EB3A6AD198A1903A1D4018ABDED8CD47&dn=Dragon+Quest+VIII+%3A+Journey+of+the+Cursed+King+%5BPS2%5D+%5BNTSC%5D&tr=udp%3A%2F%2Ftracker.coppersurfer.tk%3A6969%2Fannounce&tr=udp%3A%2F%2F9.rarbg.to%3A2920%2Fannounce&tr=udp%3A%2F%2Ftracker.opentrackr.org%3A1337&tr=udp%3A%2F%2Ftracker.internetwarriors.net%3A1337%2Fannounce&tr=udp%3A%2F%2Ftracker.leechers-paradise.org%3A6969%2Fannounce&tr=udp%3A%2F%2Ftracker.coppersurfer.tk%3A6969%2Fannounce&tr=udp%3A%2F%2Ftracker.pirateparty.gr%3A6969%2Fannounce&tr=udp%3A%2F%2Ftracker.cyberia.is%3A6969%2Fannounce",
        "seeder": "4",
        "leecher": "1"
    },
    {
        "rank": "83",
        "title": "Tomb.Raider.PS3-DUPLEX",
        "link": "magnet:?xt=urn:btih:599D65908202306E3D8CFADDA089DA98EA528CCA&dn=Tomb.Raider.PS3-DUPLEX&tr=udp%3A%2F%2Ftracker.coppersurfer.tk%3A6969%2Fannounce&tr=udp%3A%2F%2F9.rarbg.to%3A2920%2Fannounce&tr=udp%3A%2F%2Ftracker.opentrackr.org%3A1337&tr=udp%3A%2F%2Ftracker.internetwarriors.net%3A1337%2Fannounce&tr=udp%3A%2F%2Ftracker.leechers-paradise.org%3A6969%2Fannounce&tr=udp%3A%2F%2Ftracker.coppersurfer.tk%3A6969%2Fannounce&tr=udp%3A%2F%2Ftracker.pirateparty.gr%3A6969%2Fannounce&tr=udp%3A%2F%2Ftracker.cyberia.is%3A6969%2Fannounce",
        "seeder": "4",
        "leecher": "0"
    },
    {
        "rank": "84",
        "title": "The.Amazing.Spider-Man.2.PS3-DUPLEX",
        "link": "magnet:?xt=urn:btih:1024A7C8F2D1C02E03C02EE958E2B5A5EACD2BF7&dn=The.Amazing.Spider-Man.2.PS3-DUPLEX&tr=udp%3A%2F%2Ftracker.coppersurfer.tk%3A6969%2Fannounce&tr=udp%3A%2F%2F9.rarbg.to%3A2920%2Fannounce&tr=udp%3A%2F%2Ftracker.opentrackr.org%3A1337&tr=udp%3A%2F%2Ftracker.internetwarriors.net%3A1337%2Fannounce&tr=udp%3A%2F%2Ftracker.leechers-paradise.org%3A6969%2Fannounce&tr=udp%3A%2F%2Ftracker.coppersurfer.tk%3A6969%2Fannounce&tr=udp%3A%2F%2Ftracker.pirateparty.gr%3A6969%2Fannounce&tr=udp%3A%2F%2Ftracker.cyberia.is%3A6969%2Fannounce",
        "seeder": "4",
        "leecher": "2"
    },
    {
        "rank": "85",
        "title": "DEF JAM FIGHT FOR NY PS2 ISO",
        "link": "magnet:?xt=urn:btih:0AEBCB00D43F30FC87F5E0631E0D48D43B8937D3&dn=DEF+JAM+FIGHT+FOR+NY+PS2+ISO&tr=udp%3A%2F%2Ftracker.coppersurfer.tk%3A6969%2Fannounce&tr=udp%3A%2F%2F9.rarbg.to%3A2920%2Fannounce&tr=udp%3A%2F%2Ftracker.opentrackr.org%3A1337&tr=udp%3A%2F%2Ftracker.internetwarriors.net%3A1337%2Fannounce&tr=udp%3A%2F%2Ftracker.leechers-paradise.org%3A6969%2Fannounce&tr=udp%3A%2F%2Ftracker.coppersurfer.tk%3A6969%2Fannounce&tr=udp%3A%2F%2Ftracker.pirateparty.gr%3A6969%2Fannounce&tr=udp%3A%2F%2Ftracker.cyberia.is%3A6969%2Fannounce",
        "seeder": "4",
        "leecher": "0"
    },
    {
        "rank": "86",
        "title": "Champions Of Norrath: Realms Of EverQuest [PS2] [NTSC] [2xDVD5]",
        "link": "magnet:?xt=urn:btih:435458CE0F94D0A3DBC5D4119C70BF4C878C4E61&dn=Champions+Of+Norrath%3A+Realms+Of+EverQuest+%5BPS2%5D+%5BNTSC%5D+%5B2xDVD5%5D&tr=udp%3A%2F%2Ftracker.coppersurfer.tk%3A6969%2Fannounce&tr=udp%3A%2F%2F9.rarbg.to%3A2920%2Fannounce&tr=udp%3A%2F%2Ftracker.opentrackr.org%3A1337&tr=udp%3A%2F%2Ftracker.internetwarriors.net%3A1337%2Fannounce&tr=udp%3A%2F%2Ftracker.leechers-paradise.org%3A6969%2Fannounce&tr=udp%3A%2F%2Ftracker.coppersurfer.tk%3A6969%2Fannounce&tr=udp%3A%2F%2Ftracker.pirateparty.gr%3A6969%2Fannounce&tr=udp%3A%2F%2Ftracker.cyberia.is%3A6969%2Fannounce",
        "seeder": "4",
        "leecher": "0"
    },
    {
        "rank": "87",
        "title": "Yakuza.Dead.Souls.PS3-DUPLEX",
        "link": "magnet:?xt=urn:btih:4E81F2A1153969E8AD7629ACC60838B191E070C1&dn=Yakuza.Dead.Souls.PS3-DUPLEX&tr=udp%3A%2F%2Ftracker.coppersurfer.tk%3A6969%2Fannounce&tr=udp%3A%2F%2F9.rarbg.to%3A2920%2Fannounce&tr=udp%3A%2F%2Ftracker.opentrackr.org%3A1337&tr=udp%3A%2F%2Ftracker.internetwarriors.net%3A1337%2Fannounce&tr=udp%3A%2F%2Ftracker.leechers-paradise.org%3A6969%2Fannounce&tr=udp%3A%2F%2Ftracker.coppersurfer.tk%3A6969%2Fannounce&tr=udp%3A%2F%2Ftracker.pirateparty.gr%3A6969%2Fannounce&tr=udp%3A%2F%2Ftracker.cyberia.is%3A6969%2Fannounce",
        "seeder": "4",
        "leecher": "0"
    },
    {
        "rank": "88",
        "title": "Marvel.Vs.Capcom.3.PS3.DUPLEX",
        "link": "magnet:?xt=urn:btih:450C637B8246CC18DEBCDDE4B2AE1258888DF38A&dn=Marvel.Vs.Capcom.3.PS3.DUPLEX&tr=udp%3A%2F%2Ftracker.coppersurfer.tk%3A6969%2Fannounce&tr=udp%3A%2F%2F9.rarbg.to%3A2920%2Fannounce&tr=udp%3A%2F%2Ftracker.opentrackr.org%3A1337&tr=udp%3A%2F%2Ftracker.internetwarriors.net%3A1337%2Fannounce&tr=udp%3A%2F%2Ftracker.leechers-paradise.org%3A6969%2Fannounce&tr=udp%3A%2F%2Ftracker.coppersurfer.tk%3A6969%2Fannounce&tr=udp%3A%2F%2Ftracker.pirateparty.gr%3A6969%2Fannounce&tr=udp%3A%2F%2Ftracker.cyberia.is%3A6969%2Fannounce",
        "seeder": "4",
        "leecher": "1"
    },
    {
        "rank": "89",
        "title": "PlayStation.All-Stars.Battle.Royale.PS3-DUPLEX",
        "link": "magnet:?xt=urn:btih:B63195DBD67A7877FCCB0672465EECF175F107DB&dn=PlayStation.All-Stars.Battle.Royale.PS3-DUPLEX&tr=udp%3A%2F%2Ftracker.coppersurfer.tk%3A6969%2Fannounce&tr=udp%3A%2F%2F9.rarbg.to%3A2920%2Fannounce&tr=udp%3A%2F%2Ftracker.opentrackr.org%3A1337&tr=udp%3A%2F%2Ftracker.internetwarriors.net%3A1337%2Fannounce&tr=udp%3A%2F%2Ftracker.leechers-paradise.org%3A6969%2Fannounce&tr=udp%3A%2F%2Ftracker.coppersurfer.tk%3A6969%2Fannounce&tr=udp%3A%2F%2Ftracker.pirateparty.gr%3A6969%2Fannounce&tr=udp%3A%2F%2Ftracker.cyberia.is%3A6969%2Fannounce",
        "seeder": "4",
        "leecher": "0"
    },
    {
        "rank": "90",
        "title": "Resident Evil Outbreak [PS2] [PAL]",
        "link": "magnet:?xt=urn:btih:FCA9D781934C3B5EFB28DD18CE64577301F89F35&dn=Resident+Evil+Outbreak+%5BPS2%5D+%5BPAL%5D&tr=udp%3A%2F%2Ftracker.coppersurfer.tk%3A6969%2Fannounce&tr=udp%3A%2F%2F9.rarbg.to%3A2920%2Fannounce&tr=udp%3A%2F%2Ftracker.opentrackr.org%3A1337&tr=udp%3A%2F%2Ftracker.internetwarriors.net%3A1337%2Fannounce&tr=udp%3A%2F%2Ftracker.leechers-paradise.org%3A6969%2Fannounce&tr=udp%3A%2F%2Ftracker.coppersurfer.tk%3A6969%2Fannounce&tr=udp%3A%2F%2Ftracker.pirateparty.gr%3A6969%2Fannounce&tr=udp%3A%2F%2Ftracker.cyberia.is%3A6969%2Fannounce",
        "seeder": "4",
        "leecher": "0"
    },
    {
        "rank": "91",
        "title": "NHL.14.PS3-DUPLEX",
        "link": "magnet:?xt=urn:btih:4E6785C718A3C0317CA4F0E7D149E5EE6AA053E0&dn=NHL.14.PS3-DUPLEX&tr=udp%3A%2F%2Ftracker.coppersurfer.tk%3A6969%2Fannounce&tr=udp%3A%2F%2F9.rarbg.to%3A2920%2Fannounce&tr=udp%3A%2F%2Ftracker.opentrackr.org%3A1337&tr=udp%3A%2F%2Ftracker.internetwarriors.net%3A1337%2Fannounce&tr=udp%3A%2F%2Ftracker.leechers-paradise.org%3A6969%2Fannounce&tr=udp%3A%2F%2Ftracker.coppersurfer.tk%3A6969%2Fannounce&tr=udp%3A%2F%2Ftracker.pirateparty.gr%3A6969%2Fannounce&tr=udp%3A%2F%2Ftracker.cyberia.is%3A6969%2Fannounce",
        "seeder": "4",
        "leecher": "0"
    },
    {
        "rank": "92",
        "title": "Twisted Metal: Black [PS2] [NTSC] [MULTI2]",
        "link": "magnet:?xt=urn:btih:072080CB84239D6E283746A416753602C5EFAD34&dn=Twisted+Metal%3A+Black+%5BPS2%5D+%5BNTSC%5D+%5BMULTI2%5D&tr=udp%3A%2F%2Ftracker.coppersurfer.tk%3A6969%2Fannounce&tr=udp%3A%2F%2F9.rarbg.to%3A2920%2Fannounce&tr=udp%3A%2F%2Ftracker.opentrackr.org%3A1337&tr=udp%3A%2F%2Ftracker.internetwarriors.net%3A1337%2Fannounce&tr=udp%3A%2F%2Ftracker.leechers-paradise.org%3A6969%2Fannounce&tr=udp%3A%2F%2Ftracker.coppersurfer.tk%3A6969%2Fannounce&tr=udp%3A%2F%2Ftracker.pirateparty.gr%3A6969%2Fannounce&tr=udp%3A%2F%2Ftracker.cyberia.is%3A6969%2Fannounce",
        "seeder": "4",
        "leecher": "0"
    },
    {
        "rank": "93",
        "title": "Little Big Planet 3 [PS3] [ODE iso]",
        "link": "magnet:?xt=urn:btih:9C189CBEC207D7D6BBD9FFD924961FEB47A5F467&dn=Little+Big+Planet+3+%5BPS3%5D+%5BODE+iso%5D&tr=udp%3A%2F%2Ftracker.coppersurfer.tk%3A6969%2Fannounce&tr=udp%3A%2F%2F9.rarbg.to%3A2920%2Fannounce&tr=udp%3A%2F%2Ftracker.opentrackr.org%3A1337&tr=udp%3A%2F%2Ftracker.internetwarriors.net%3A1337%2Fannounce&tr=udp%3A%2F%2Ftracker.leechers-paradise.org%3A6969%2Fannounce&tr=udp%3A%2F%2Ftracker.coppersurfer.tk%3A6969%2Fannounce&tr=udp%3A%2F%2Ftracker.pirateparty.gr%3A6969%2Fannounce&tr=udp%3A%2F%2Ftracker.cyberia.is%3A6969%2Fannounce",
        "seeder": "4",
        "leecher": "0"
    },
    {
        "rank": "94",
        "title": "Gran Turismo 5 (2010) [Ps3][USA][MULTi5][PSJ-PSG]",
        "link": "magnet:?xt=urn:btih:BAA121D1AA831B30B266B73DAA7A17918072CFA7&dn=Gran+Turismo+5+%282010%29+%5BPs3%5D%5BUSA%5D%5BMULTi5%5D%5BPSJ-PSG%5D&tr=udp%3A%2F%2Ftracker.coppersurfer.tk%3A6969%2Fannounce&tr=udp%3A%2F%2F9.rarbg.to%3A2920%2Fannounce&tr=udp%3A%2F%2Ftracker.opentrackr.org%3A1337&tr=udp%3A%2F%2Ftracker.internetwarriors.net%3A1337%2Fannounce&tr=udp%3A%2F%2Ftracker.leechers-paradise.org%3A6969%2Fannounce&tr=udp%3A%2F%2Ftracker.coppersurfer.tk%3A6969%2Fannounce&tr=udp%3A%2F%2Ftracker.pirateparty.gr%3A6969%2Fannounce&tr=udp%3A%2F%2Ftracker.cyberia.is%3A6969%2Fannounce",
        "seeder": "4",
        "leecher": "4"
    },
    {
        "rank": "95",
        "title": "Sonic Heroes [PS2 NTSC MULTI 6]",
        "link": "magnet:?xt=urn:btih:AACDF0F25D46663465A74CF6878CB376D721F516&dn=Sonic+Heroes+%5BPS2+NTSC+MULTI+6%5D&tr=udp%3A%2F%2Ftracker.coppersurfer.tk%3A6969%2Fannounce&tr=udp%3A%2F%2F9.rarbg.to%3A2920%2Fannounce&tr=udp%3A%2F%2Ftracker.opentrackr.org%3A1337&tr=udp%3A%2F%2Ftracker.internetwarriors.net%3A1337%2Fannounce&tr=udp%3A%2F%2Ftracker.leechers-paradise.org%3A6969%2Fannounce&tr=udp%3A%2F%2Ftracker.coppersurfer.tk%3A6969%2Fannounce&tr=udp%3A%2F%2Ftracker.pirateparty.gr%3A6969%2Fannounce&tr=udp%3A%2F%2Ftracker.cyberia.is%3A6969%2Fannounce",
        "seeder": "4",
        "leecher": "0"
    },
    {
        "rank": "96",
        "title": "Dirt 3 PS3-DUPLEX",
        "link": "magnet:?xt=urn:btih:CD17CE17795B13395692E1076954E03F27EACFA9&dn=Dirt+3+PS3-DUPLEX&tr=udp%3A%2F%2Ftracker.coppersurfer.tk%3A6969%2Fannounce&tr=udp%3A%2F%2F9.rarbg.to%3A2920%2Fannounce&tr=udp%3A%2F%2Ftracker.opentrackr.org%3A1337&tr=udp%3A%2F%2Ftracker.internetwarriors.net%3A1337%2Fannounce&tr=udp%3A%2F%2Ftracker.leechers-paradise.org%3A6969%2Fannounce&tr=udp%3A%2F%2Ftracker.coppersurfer.tk%3A6969%2Fannounce&tr=udp%3A%2F%2Ftracker.pirateparty.gr%3A6969%2Fannounce&tr=udp%3A%2F%2Ftracker.cyberia.is%3A6969%2Fannounce",
        "seeder": "4",
        "leecher": "2"
    },
    {
        "rank": "97",
        "title": "Metal.Gear.Solid.V.The.Phantom.Pain.PS3-DUPLEX",
        "link": "magnet:?xt=urn:btih:CA4839D7041E61F5AD2E81FC70E3890A1D35AFA5&dn=Metal.Gear.Solid.V.The.Phantom.Pain.PS3-DUPLEX&tr=udp%3A%2F%2Ftracker.coppersurfer.tk%3A6969%2Fannounce&tr=udp%3A%2F%2F9.rarbg.to%3A2920%2Fannounce&tr=udp%3A%2F%2Ftracker.opentrackr.org%3A1337&tr=udp%3A%2F%2Ftracker.internetwarriors.net%3A1337%2Fannounce&tr=udp%3A%2F%2Ftracker.leechers-paradise.org%3A6969%2Fannounce&tr=udp%3A%2F%2Ftracker.coppersurfer.tk%3A6969%2Fannounce&tr=udp%3A%2F%2Ftracker.pirateparty.gr%3A6969%2Fannounce&tr=udp%3A%2F%2Ftracker.cyberia.is%3A6969%2Fannounce",
        "seeder": "4",
        "leecher": "4"
    },
    {
        "rank": "98",
        "title": "Resident Evil Outbreak File #2 PS2 DVD NTSC",
        "link": "magnet:?xt=urn:btih:DD5C27F68EE2D042EA84F7DD1D2BD12FDAB1D42D&dn=Resident+Evil+Outbreak+File+%232+PS2+DVD+NTSC&tr=udp%3A%2F%2Ftracker.coppersurfer.tk%3A6969%2Fannounce&tr=udp%3A%2F%2F9.rarbg.to%3A2920%2Fannounce&tr=udp%3A%2F%2Ftracker.opentrackr.org%3A1337&tr=udp%3A%2F%2Ftracker.internetwarriors.net%3A1337%2Fannounce&tr=udp%3A%2F%2Ftracker.leechers-paradise.org%3A6969%2Fannounce&tr=udp%3A%2F%2Ftracker.coppersurfer.tk%3A6969%2Fannounce&tr=udp%3A%2F%2Ftracker.pirateparty.gr%3A6969%2Fannounce&tr=udp%3A%2F%2Ftracker.cyberia.is%3A6969%2Fannounce",
        "seeder": "4",
        "leecher": "0"
    },
    {
        "rank": "99",
        "title": "Ratchet and Clank Into the Nexus PS3-DUPLEX",
        "link": "magnet:?xt=urn:btih:7951B53B38FAA9583F09720D5434BE5F847B01FB&dn=Ratchet+and+Clank+Into+the+Nexus+PS3-DUPLEX&tr=udp%3A%2F%2Ftracker.coppersurfer.tk%3A6969%2Fannounce&tr=udp%3A%2F%2F9.rarbg.to%3A2920%2Fannounce&tr=udp%3A%2F%2Ftracker.opentrackr.org%3A1337&tr=udp%3A%2F%2Ftracker.internetwarriors.net%3A1337%2Fannounce&tr=udp%3A%2F%2Ftracker.leechers-paradise.org%3A6969%2Fannounce&tr=udp%3A%2F%2Ftracker.coppersurfer.tk%3A6969%2Fannounce&tr=udp%3A%2F%2Ftracker.pirateparty.gr%3A6969%2Fannounce&tr=udp%3A%2F%2Ftracker.cyberia.is%3A6969%2Fannounce",
        "seeder": "4",
        "leecher": "0"
    },
    {
        "rank": "100",
        "title": "Plants.vs.Zombies.Garden.Warfare.PS3-iMARS",
        "link": "magnet:?xt=urn:btih:CD985227C369737479D2B26E25A02EFBCDE9F486&dn=Plants.vs.Zombies.Garden.Warfare.PS3-iMARS&tr=udp%3A%2F%2Ftracker.coppersurfer.tk%3A6969%2Fannounce&tr=udp%3A%2F%2F9.rarbg.to%3A2920%2Fannounce&tr=udp%3A%2F%2Ftracker.opentrackr.org%3A1337&tr=udp%3A%2F%2Ftracker.internetwarriors.net%3A1337%2Fannounce&tr=udp%3A%2F%2Ftracker.leechers-paradise.org%3A6969%2Fannounce&tr=udp%3A%2F%2Ftracker.coppersurfer.tk%3A6969%2Fannounce&tr=udp%3A%2F%2Ftracker.pirateparty.gr%3A6969%2Fannounce&tr=udp%3A%2F%2Ftracker.cyberia.is%3A6969%2Fannounce",
        "seeder": "3",
        "leecher": "0"
    }
]
