[
    {
        "rank": "1",
        "title": "PSP MEGA-PACK (184 ISO-CSO + 73 [Minis]) {5.00m33-6}",
        "link": "magnet:?xt=urn:btih:4196E5F131E9AF7DC29C41ABD705991355AF55EA&dn=PSP+MEGA-PACK+%28184+ISO-CSO+%2B+73+%5BMinis%5D%29+%7B5.00m33-6%7D&tr=udp%3A%2F%2Ftracker.coppersurfer.tk%3A6969%2Fannounce&tr=udp%3A%2F%2F9.rarbg.to%3A2920%2Fannounce&tr=udp%3A%2F%2Ftracker.opentrackr.org%3A1337&tr=udp%3A%2F%2Ftracker.internetwarriors.net%3A1337%2Fannounce&tr=udp%3A%2F%2Ftracker.leechers-paradise.org%3A6969%2Fannounce&tr=udp%3A%2F%2Ftracker.coppersurfer.tk%3A6969%2Fannounce&tr=udp%3A%2F%2Ftracker.pirateparty.gr%3A6969%2Fannounce&tr=udp%3A%2F%2Ftracker.cyberia.is%3A6969%2Fannounce",
        "seeder": "12",
        "leecher": "12"
    },
    {
        "rank": "2",
        "title": "GBA ROMs 0001 - 2437",
        "link": "magnet:?xt=urn:btih:2628EDF319BBDA24DBE129BE0898EDB1E645C2B8&dn=GBA+ROMs+0001+-+2437&tr=udp%3A%2F%2Ftracker.coppersurfer.tk%3A6969%2Fannounce&tr=udp%3A%2F%2F9.rarbg.to%3A2920%2Fannounce&tr=udp%3A%2F%2Ftracker.opentrackr.org%3A1337&tr=udp%3A%2F%2Ftracker.internetwarriors.net%3A1337%2Fannounce&tr=udp%3A%2F%2Ftracker.leechers-paradise.org%3A6969%2Fannounce&tr=udp%3A%2F%2Ftracker.coppersurfer.tk%3A6969%2Fannounce&tr=udp%3A%2F%2Ftracker.pirateparty.gr%3A6969%2Fannounce&tr=udp%3A%2F%2Ftracker.cyberia.is%3A6969%2Fannounce",
        "seeder": "10",
        "leecher": "6"
    },
    {
        "rank": "3",
        "title": "Tekken 6 Usa-Fix.iso [PSP]",
        "link": "magnet:?xt=urn:btih:A259C162126C35B2A987F582294BA08FA8F17140&dn=Tekken+6+Usa-Fix.iso+%5BPSP%5D&tr=udp%3A%2F%2Ftracker.coppersurfer.tk%3A6969%2Fannounce&tr=udp%3A%2F%2F9.rarbg.to%3A2920%2Fannounce&tr=udp%3A%2F%2Ftracker.opentrackr.org%3A1337&tr=udp%3A%2F%2Ftracker.internetwarriors.net%3A1337%2Fannounce&tr=udp%3A%2F%2Ftracker.leechers-paradise.org%3A6969%2Fannounce&tr=udp%3A%2F%2Ftracker.coppersurfer.tk%3A6969%2Fannounce&tr=udp%3A%2F%2Ftracker.pirateparty.gr%3A6969%2Fannounce&tr=udp%3A%2F%2Ftracker.cyberia.is%3A6969%2Fannounce",
        "seeder": "9",
        "leecher": "0"
    },
    {
        "rank": "4",
        "title": "Pokemon.Y.3DS-CONTRAST",
        "link": "magnet:?xt=urn:btih:303C91F777D66257887A4B2503C22E359BA2AE50&dn=Pokemon.Y.3DS-CONTRAST&tr=udp%3A%2F%2Ftracker.coppersurfer.tk%3A6969%2Fannounce&tr=udp%3A%2F%2F9.rarbg.to%3A2920%2Fannounce&tr=udp%3A%2F%2Ftracker.opentrackr.org%3A1337&tr=udp%3A%2F%2Ftracker.internetwarriors.net%3A1337%2Fannounce&tr=udp%3A%2F%2Ftracker.leechers-paradise.org%3A6969%2Fannounce&tr=udp%3A%2F%2Ftracker.coppersurfer.tk%3A6969%2Fannounce&tr=udp%3A%2F%2Ftracker.pirateparty.gr%3A6969%2Fannounce&tr=udp%3A%2F%2Ftracker.cyberia.is%3A6969%2Fannounce",
        "seeder": "8",
        "leecher": "1"
    },
    {
        "rank": "5",
        "title": "Final Fantasy Tactics The War Of The Lions [English][PSP]",
        "link": "magnet:?xt=urn:btih:68587042EB383BDB59A44608186E1A982FC15E3C&dn=Final+Fantasy+Tactics+The+War+Of+The+Lions+%5BEnglish%5D%5BPSP%5D&tr=udp%3A%2F%2Ftracker.coppersurfer.tk%3A6969%2Fannounce&tr=udp%3A%2F%2F9.rarbg.to%3A2920%2Fannounce&tr=udp%3A%2F%2Ftracker.opentrackr.org%3A1337&tr=udp%3A%2F%2Ftracker.internetwarriors.net%3A1337%2Fannounce&tr=udp%3A%2F%2Ftracker.leechers-paradise.org%3A6969%2Fannounce&tr=udp%3A%2F%2Ftracker.coppersurfer.tk%3A6969%2Fannounce&tr=udp%3A%2F%2Ftracker.pirateparty.gr%3A6969%2Fannounce&tr=udp%3A%2F%2Ftracker.cyberia.is%3A6969%2Fannounce",
        "seeder": "7",
        "leecher": "0"
    },
    {
        "rank": "6",
        "title": "(PSP) Gameboy & Gameboy Color Emulator with 621 Roms for PSP [Re",
        "link": "magnet:?xt=urn:btih:1E8A28944C108EC3F24C425FCCB667239F8A12FF&dn=%28PSP%29+Gameboy+%26+Gameboy+Color+Emulator+with+621+Roms+for+PSP+%5BRe&tr=udp%3A%2F%2Ftracker.coppersurfer.tk%3A6969%2Fannounce&tr=udp%3A%2F%2F9.rarbg.to%3A2920%2Fannounce&tr=udp%3A%2F%2Ftracker.opentrackr.org%3A1337&tr=udp%3A%2F%2Ftracker.internetwarriors.net%3A1337%2Fannounce&tr=udp%3A%2F%2Ftracker.leechers-paradise.org%3A6969%2Fannounce&tr=udp%3A%2F%2Ftracker.coppersurfer.tk%3A6969%2Fannounce&tr=udp%3A%2F%2Ftracker.pirateparty.gr%3A6969%2Fannounce&tr=udp%3A%2F%2Ftracker.cyberia.is%3A6969%2Fannounce",
        "seeder": "6",
        "leecher": "0"
    },
    {
        "rank": "7",
        "title": "FIFA 14 [PSP] [English]",
        "link": "magnet:?xt=urn:btih:DE0EE1638841B985EB47B38A9DDC7C737F772C3B&dn=FIFA+14+%5BPSP%5D+%5BEnglish%5D&tr=udp%3A%2F%2Ftracker.coppersurfer.tk%3A6969%2Fannounce&tr=udp%3A%2F%2F9.rarbg.to%3A2920%2Fannounce&tr=udp%3A%2F%2Ftracker.opentrackr.org%3A1337&tr=udp%3A%2F%2Ftracker.internetwarriors.net%3A1337%2Fannounce&tr=udp%3A%2F%2Ftracker.leechers-paradise.org%3A6969%2Fannounce&tr=udp%3A%2F%2Ftracker.coppersurfer.tk%3A6969%2Fannounce&tr=udp%3A%2F%2Ftracker.pirateparty.gr%3A6969%2Fannounce&tr=udp%3A%2F%2Ftracker.cyberia.is%3A6969%2Fannounce",
        "seeder": "6",
        "leecher": "0"
    },
    {
        "rank": "8",
        "title": "Yu-Gi-Oh GX Tag Force 2 [English][PSP]",
        "link": "magnet:?xt=urn:btih:E4C8ACEF5BCA24FCE4E5CBCC39462188A9E33B5A&dn=Yu-Gi-Oh+GX+Tag+Force+2+%5BEnglish%5D%5BPSP%5D&tr=udp%3A%2F%2Ftracker.coppersurfer.tk%3A6969%2Fannounce&tr=udp%3A%2F%2F9.rarbg.to%3A2920%2Fannounce&tr=udp%3A%2F%2Ftracker.opentrackr.org%3A1337&tr=udp%3A%2F%2Ftracker.internetwarriors.net%3A1337%2Fannounce&tr=udp%3A%2F%2Ftracker.leechers-paradise.org%3A6969%2Fannounce&tr=udp%3A%2F%2Ftracker.coppersurfer.tk%3A6969%2Fannounce&tr=udp%3A%2F%2Ftracker.pirateparty.gr%3A6969%2Fannounce&tr=udp%3A%2F%2Ftracker.cyberia.is%3A6969%2Fannounce",
        "seeder": "5",
        "leecher": "0"
    },
    {
        "rank": "9",
        "title": "The Legend of Zelda - Ocarina of Time 3D (2011) [3dsGM]",
        "link": "magnet:?xt=urn:btih:F7AA7609935987E156AC181D42D68609AA3B53E3&dn=The+Legend+of+Zelda+-+Ocarina+of+Time+3D+%282011%29+%5B3dsGM%5D&tr=udp%3A%2F%2Ftracker.coppersurfer.tk%3A6969%2Fannounce&tr=udp%3A%2F%2F9.rarbg.to%3A2920%2Fannounce&tr=udp%3A%2F%2Ftracker.opentrackr.org%3A1337&tr=udp%3A%2F%2Ftracker.internetwarriors.net%3A1337%2Fannounce&tr=udp%3A%2F%2Ftracker.leechers-paradise.org%3A6969%2Fannounce&tr=udp%3A%2F%2Ftracker.coppersurfer.tk%3A6969%2Fannounce&tr=udp%3A%2F%2Ftracker.pirateparty.gr%3A6969%2Fannounce&tr=udp%3A%2F%2Ftracker.cyberia.is%3A6969%2Fannounce",
        "seeder": "5",
        "leecher": "0"
    },
    {
        "rank": "10",
        "title": "(PSX-PSP) Tomb Raider 1,2,3 converted properly (Kingdom-games by",
        "link": "magnet:?xt=urn:btih:64CD1FC03FE0A7B3567018D285E1C7FCFA128DEC&dn=%28PSX-PSP%29+Tomb+Raider+1%2C2%2C3+converted+properly+%28Kingdom-games+by&tr=udp%3A%2F%2Ftracker.coppersurfer.tk%3A6969%2Fannounce&tr=udp%3A%2F%2F9.rarbg.to%3A2920%2Fannounce&tr=udp%3A%2F%2Ftracker.opentrackr.org%3A1337&tr=udp%3A%2F%2Ftracker.internetwarriors.net%3A1337%2Fannounce&tr=udp%3A%2F%2Ftracker.leechers-paradise.org%3A6969%2Fannounce&tr=udp%3A%2F%2Ftracker.coppersurfer.tk%3A6969%2Fannounce&tr=udp%3A%2F%2Ftracker.pirateparty.gr%3A6969%2Fannounce&tr=udp%3A%2F%2Ftracker.cyberia.is%3A6969%2Fannounce",
        "seeder": "5",
        "leecher": "1"
    },
    {
        "rank": "11",
        "title": "Nintendo DS Roms 0001 - 4851 + Some Unnumbered Roms [NDS] [Colle",
        "link": "magnet:?xt=urn:btih:3772F6578DACB15C02DC090168DF9CFA2610094A&dn=Nintendo+DS+Roms+0001+-+4851+%2B+Some+Unnumbered+Roms+%5BNDS%5D+%5BColle&tr=udp%3A%2F%2Ftracker.coppersurfer.tk%3A6969%2Fannounce&tr=udp%3A%2F%2F9.rarbg.to%3A2920%2Fannounce&tr=udp%3A%2F%2Ftracker.opentrackr.org%3A1337&tr=udp%3A%2F%2Ftracker.internetwarriors.net%3A1337%2Fannounce&tr=udp%3A%2F%2Ftracker.leechers-paradise.org%3A6969%2Fannounce&tr=udp%3A%2F%2Ftracker.coppersurfer.tk%3A6969%2Fannounce&tr=udp%3A%2F%2Ftracker.pirateparty.gr%3A6969%2Fannounce&tr=udp%3A%2F%2Ftracker.cyberia.is%3A6969%2Fannounce",
        "seeder": "4",
        "leecher": "7"
    },
    {
        "rank": "12",
        "title": "Roms.Nintendo.Gameboy.",
        "link": "magnet:?xt=urn:btih:EEDA79C7222942E452A97567EC3E656E49C34E42&dn=Roms.Nintendo.Gameboy.&tr=udp%3A%2F%2Ftracker.coppersurfer.tk%3A6969%2Fannounce&tr=udp%3A%2F%2F9.rarbg.to%3A2920%2Fannounce&tr=udp%3A%2F%2Ftracker.opentrackr.org%3A1337&tr=udp%3A%2F%2Ftracker.internetwarriors.net%3A1337%2Fannounce&tr=udp%3A%2F%2Ftracker.leechers-paradise.org%3A6969%2Fannounce&tr=udp%3A%2F%2Ftracker.coppersurfer.tk%3A6969%2Fannounce&tr=udp%3A%2F%2Ftracker.pirateparty.gr%3A6969%2Fannounce&tr=udp%3A%2F%2Ftracker.cyberia.is%3A6969%2Fannounce",
        "seeder": "4",
        "leecher": "1"
    },
    {
        "rank": "13",
        "title": "Over 5 GBs of NDS roms (NDS rom pack)",
        "link": "magnet:?xt=urn:btih:8EE8E3DF77D0497E227F8257BAB2636C462ED558&dn=Over+5+GBs+of+NDS+roms+%28NDS+rom+pack%29&tr=udp%3A%2F%2Ftracker.coppersurfer.tk%3A6969%2Fannounce&tr=udp%3A%2F%2F9.rarbg.to%3A2920%2Fannounce&tr=udp%3A%2F%2Ftracker.opentrackr.org%3A1337&tr=udp%3A%2F%2Ftracker.internetwarriors.net%3A1337%2Fannounce&tr=udp%3A%2F%2Ftracker.leechers-paradise.org%3A6969%2Fannounce&tr=udp%3A%2F%2Ftracker.coppersurfer.tk%3A6969%2Fannounce&tr=udp%3A%2F%2Ftracker.pirateparty.gr%3A6969%2Fannounce&tr=udp%3A%2F%2Ftracker.cyberia.is%3A6969%2Fannounce",
        "seeder": "4",
        "leecher": "1"
    },
    {
        "rank": "14",
        "title": "(PSX-PSP) Road Rash Collection converted properly (Kingdom-games",
        "link": "magnet:?xt=urn:btih:1E0719B249FCB0DE0E1D11CA30AAFEC2A2EFD9BF&dn=%28PSX-PSP%29+Road+Rash+Collection+converted+properly+%28Kingdom-games&tr=udp%3A%2F%2Ftracker.coppersurfer.tk%3A6969%2Fannounce&tr=udp%3A%2F%2F9.rarbg.to%3A2920%2Fannounce&tr=udp%3A%2F%2Ftracker.opentrackr.org%3A1337&tr=udp%3A%2F%2Ftracker.internetwarriors.net%3A1337%2Fannounce&tr=udp%3A%2F%2Ftracker.leechers-paradise.org%3A6969%2Fannounce&tr=udp%3A%2F%2Ftracker.coppersurfer.tk%3A6969%2Fannounce&tr=udp%3A%2F%2Ftracker.pirateparty.gr%3A6969%2Fannounce&tr=udp%3A%2F%2Ftracker.cyberia.is%3A6969%2Fannounce",
        "seeder": "3",
        "leecher": "0"
    },
    {
        "rank": "15",
        "title": "Grand Theft Auto - Liberty City Stories PSP - roflcopter2110 [TK",
        "link": "magnet:?xt=urn:btih:6D964D8CD12D107C8E0607BD100DCD17E952CA94&dn=Grand+Theft+Auto+-+Liberty+City+Stories+PSP+-+roflcopter2110+%5BTK&tr=udp%3A%2F%2Ftracker.coppersurfer.tk%3A6969%2Fannounce&tr=udp%3A%2F%2F9.rarbg.to%3A2920%2Fannounce&tr=udp%3A%2F%2Ftracker.opentrackr.org%3A1337&tr=udp%3A%2F%2Ftracker.internetwarriors.net%3A1337%2Fannounce&tr=udp%3A%2F%2Ftracker.leechers-paradise.org%3A6969%2Fannounce&tr=udp%3A%2F%2Ftracker.coppersurfer.tk%3A6969%2Fannounce&tr=udp%3A%2F%2Ftracker.pirateparty.gr%3A6969%2Fannounce&tr=udp%3A%2F%2Ftracker.cyberia.is%3A6969%2Fannounce",
        "seeder": "3",
        "leecher": "1"
    },
    {
        "rank": "16",
        "title": "PSP - Sega MegaDrive Collection [EUR Multi5] TNT Village",
        "link": "magnet:?xt=urn:btih:B3D8E25C706764CD83CBF2523089C1926A762766&dn=PSP+-+Sega+MegaDrive+Collection+%5BEUR+Multi5%5D+TNT+Village&tr=udp%3A%2F%2Ftracker.coppersurfer.tk%3A6969%2Fannounce&tr=udp%3A%2F%2F9.rarbg.to%3A2920%2Fannounce&tr=udp%3A%2F%2Ftracker.opentrackr.org%3A1337&tr=udp%3A%2F%2Ftracker.internetwarriors.net%3A1337%2Fannounce&tr=udp%3A%2F%2Ftracker.leechers-paradise.org%3A6969%2Fannounce&tr=udp%3A%2F%2Ftracker.coppersurfer.tk%3A6969%2Fannounce&tr=udp%3A%2F%2Ftracker.pirateparty.gr%3A6969%2Fannounce&tr=udp%3A%2F%2Ftracker.cyberia.is%3A6969%2Fannounce",
        "seeder": "3",
        "leecher": "0"
    },
    {
        "rank": "17",
        "title": "Tinkerbell And The Great Fairy Rescue[NDS](simmyboy80)",
        "link": "magnet:?xt=urn:btih:133941C56C457237C2EDCF61D60ED09CAD62172C&dn=Tinkerbell+And+The+Great+Fairy+Rescue%5BNDS%5D%28simmyboy80%29&tr=udp%3A%2F%2Ftracker.coppersurfer.tk%3A6969%2Fannounce&tr=udp%3A%2F%2F9.rarbg.to%3A2920%2Fannounce&tr=udp%3A%2F%2Ftracker.opentrackr.org%3A1337&tr=udp%3A%2F%2Ftracker.internetwarriors.net%3A1337%2Fannounce&tr=udp%3A%2F%2Ftracker.leechers-paradise.org%3A6969%2Fannounce&tr=udp%3A%2F%2Ftracker.coppersurfer.tk%3A6969%2Fannounce&tr=udp%3A%2F%2Ftracker.pirateparty.gr%3A6969%2Fannounce&tr=udp%3A%2F%2Ftracker.cyberia.is%3A6969%2Fannounce",
        "seeder": "3",
        "leecher": "1"
    },
    {
        "rank": "18",
        "title": "Real Football 2009 HD For The Pocket PC (QVGA Only)",
        "link": "magnet:?xt=urn:btih:87F4D36AFE9B25062187CF60B42E0C8CEEC85DAF&dn=Real+Football+2009+HD+For+The+Pocket+PC+%28QVGA+Only%29&tr=udp%3A%2F%2Ftracker.coppersurfer.tk%3A6969%2Fannounce&tr=udp%3A%2F%2F9.rarbg.to%3A2920%2Fannounce&tr=udp%3A%2F%2Ftracker.opentrackr.org%3A1337&tr=udp%3A%2F%2Ftracker.internetwarriors.net%3A1337%2Fannounce&tr=udp%3A%2F%2Ftracker.leechers-paradise.org%3A6969%2Fannounce&tr=udp%3A%2F%2Ftracker.coppersurfer.tk%3A6969%2Fannounce&tr=udp%3A%2F%2Ftracker.pirateparty.gr%3A6969%2Fannounce&tr=udp%3A%2F%2Ftracker.cyberia.is%3A6969%2Fannounce",
        "seeder": "2",
        "leecher": "0"
    },
    {
        "rank": "19",
        "title": "[NDS] - Sonic.Rush.(E)",
        "link": "magnet:?xt=urn:btih:1539AE60499830832D83B4DC3F8AA988B8E17C3C&dn=%5BNDS%5D+-+Sonic.Rush.%28E%29&tr=udp%3A%2F%2Ftracker.coppersurfer.tk%3A6969%2Fannounce&tr=udp%3A%2F%2F9.rarbg.to%3A2920%2Fannounce&tr=udp%3A%2F%2Ftracker.opentrackr.org%3A1337&tr=udp%3A%2F%2Ftracker.internetwarriors.net%3A1337%2Fannounce&tr=udp%3A%2F%2Ftracker.leechers-paradise.org%3A6969%2Fannounce&tr=udp%3A%2F%2Ftracker.coppersurfer.tk%3A6969%2Fannounce&tr=udp%3A%2F%2Ftracker.pirateparty.gr%3A6969%2Fannounce&tr=udp%3A%2F%2Ftracker.cyberia.is%3A6969%2Fannounce",
        "seeder": "2",
        "leecher": "0"
    },
    {
        "rank": "20",
        "title": "[NDS-GER] Wendy_-_Mein_Pferdehospital-iND[SUPERFILES.ORG]",
        "link": "magnet:?xt=urn:btih:BE9E8E8B023ABAC201E5A1E35FA5FB8232AB67A1&dn=%5BNDS-GER%5D+Wendy_-_Mein_Pferdehospital-iND%5BSUPERFILES.ORG%5D&tr=udp%3A%2F%2Ftracker.coppersurfer.tk%3A6969%2Fannounce&tr=udp%3A%2F%2F9.rarbg.to%3A2920%2Fannounce&tr=udp%3A%2F%2Ftracker.opentrackr.org%3A1337&tr=udp%3A%2F%2Ftracker.internetwarriors.net%3A1337%2Fannounce&tr=udp%3A%2F%2Ftracker.leechers-paradise.org%3A6969%2Fannounce&tr=udp%3A%2F%2Ftracker.coppersurfer.tk%3A6969%2Fannounce&tr=udp%3A%2F%2Ftracker.pirateparty.gr%3A6969%2Fannounce&tr=udp%3A%2F%2Ftracker.cyberia.is%3A6969%2Fannounce",
        "seeder": "2",
        "leecher": "0"
    },
    {
        "rank": "21",
        "title": "Busy Scissors[NDS](simmyboy80)",
        "link": "magnet:?xt=urn:btih:26AA0C3DB20E93EA462AD3959B5A31E41DEBF880&dn=Busy+Scissors%5BNDS%5D%28simmyboy80%29&tr=udp%3A%2F%2Ftracker.coppersurfer.tk%3A6969%2Fannounce&tr=udp%3A%2F%2F9.rarbg.to%3A2920%2Fannounce&tr=udp%3A%2F%2Ftracker.opentrackr.org%3A1337&tr=udp%3A%2F%2Ftracker.internetwarriors.net%3A1337%2Fannounce&tr=udp%3A%2F%2Ftracker.leechers-paradise.org%3A6969%2Fannounce&tr=udp%3A%2F%2Ftracker.coppersurfer.tk%3A6969%2Fannounce&tr=udp%3A%2F%2Ftracker.pirateparty.gr%3A6969%2Fannounce&tr=udp%3A%2F%2Ftracker.cyberia.is%3A6969%2Fannounce",
        "seeder": "2",
        "leecher": "0"
    },
    {
        "rank": "22",
        "title": "Puss in Boots (2011) EU NLT-Release",
        "link": "magnet:?xt=urn:btih:6F40071EE99B9DFF8AA323E5CF41E1E7BB1DFAAA&dn=Puss+in+Boots+%282011%29+EU+NLT-Release&tr=udp%3A%2F%2Ftracker.coppersurfer.tk%3A6969%2Fannounce&tr=udp%3A%2F%2F9.rarbg.to%3A2920%2Fannounce&tr=udp%3A%2F%2Ftracker.opentrackr.org%3A1337&tr=udp%3A%2F%2Ftracker.internetwarriors.net%3A1337%2Fannounce&tr=udp%3A%2F%2Ftracker.leechers-paradise.org%3A6969%2Fannounce&tr=udp%3A%2F%2Ftracker.coppersurfer.tk%3A6969%2Fannounce&tr=udp%3A%2F%2Ftracker.pirateparty.gr%3A6969%2Fannounce&tr=udp%3A%2F%2Ftracker.cyberia.is%3A6969%2Fannounce",
        "seeder": "2",
        "leecher": "0"
    },
    {
        "rank": "23",
        "title": "Mario Kart DS (E) NDS ROM Stumpie1971",
        "link": "magnet:?xt=urn:btih:5026C4AF49DBD454E013033519DFC9ABA4EA0227&dn=Mario+Kart+DS+%28E%29+NDS+ROM+Stumpie1971&tr=udp%3A%2F%2Ftracker.coppersurfer.tk%3A6969%2Fannounce&tr=udp%3A%2F%2F9.rarbg.to%3A2920%2Fannounce&tr=udp%3A%2F%2Ftracker.opentrackr.org%3A1337&tr=udp%3A%2F%2Ftracker.internetwarriors.net%3A1337%2Fannounce&tr=udp%3A%2F%2Ftracker.leechers-paradise.org%3A6969%2Fannounce&tr=udp%3A%2F%2Ftracker.coppersurfer.tk%3A6969%2Fannounce&tr=udp%3A%2F%2Ftracker.pirateparty.gr%3A6969%2Fannounce&tr=udp%3A%2F%2Ftracker.cyberia.is%3A6969%2Fannounce",
        "seeder": "2",
        "leecher": "0"
    },
    {
        "rank": "24",
        "title": "hamtarohamham",
        "link": "magnet:?xt=urn:btih:6C4F1490C86EC8B0D3B281F7E595D0D8346AA16E&dn=hamtarohamham&tr=udp%3A%2F%2Ftracker.coppersurfer.tk%3A6969%2Fannounce&tr=udp%3A%2F%2F9.rarbg.to%3A2920%2Fannounce&tr=udp%3A%2F%2Ftracker.opentrackr.org%3A1337&tr=udp%3A%2F%2Ftracker.internetwarriors.net%3A1337%2Fannounce&tr=udp%3A%2F%2Ftracker.leechers-paradise.org%3A6969%2Fannounce&tr=udp%3A%2F%2Ftracker.coppersurfer.tk%3A6969%2Fannounce&tr=udp%3A%2F%2Ftracker.pirateparty.gr%3A6969%2Fannounce&tr=udp%3A%2F%2Ftracker.cyberia.is%3A6969%2Fannounce",
        "seeder": "2",
        "leecher": "0"
    },
    {
        "rank": "25",
        "title": "MiniSquadron Version. 1.11 For Android",
        "link": "magnet:?xt=urn:btih:B8E98DD556943214E560FB2704F6F34FBB183488&dn=MiniSquadron+Version.+1.11+For+Android&tr=udp%3A%2F%2Ftracker.coppersurfer.tk%3A6969%2Fannounce&tr=udp%3A%2F%2F9.rarbg.to%3A2920%2Fannounce&tr=udp%3A%2F%2Ftracker.opentrackr.org%3A1337&tr=udp%3A%2F%2Ftracker.internetwarriors.net%3A1337%2Fannounce&tr=udp%3A%2F%2Ftracker.leechers-paradise.org%3A6969%2Fannounce&tr=udp%3A%2F%2Ftracker.coppersurfer.tk%3A6969%2Fannounce&tr=udp%3A%2F%2Ftracker.pirateparty.gr%3A6969%2Fannounce&tr=udp%3A%2F%2Ftracker.cyberia.is%3A6969%2Fannounce",
        "seeder": "2",
        "leecher": "0"
    },
    {
        "rank": "26",
        "title": "Time Crisis Razing Storm (2010) [Ps3][MULTi2][RegionFree]",
        "link": "magnet:?xt=urn:btih:4FD0704BB425E108A2DC8D556C925DA9B7CE817F&dn=Time+Crisis+Razing+Storm+%282010%29+%5BPs3%5D%5BMULTi2%5D%5BRegionFree%5D&tr=udp%3A%2F%2Ftracker.coppersurfer.tk%3A6969%2Fannounce&tr=udp%3A%2F%2F9.rarbg.to%3A2920%2Fannounce&tr=udp%3A%2F%2Ftracker.opentrackr.org%3A1337&tr=udp%3A%2F%2Ftracker.internetwarriors.net%3A1337%2Fannounce&tr=udp%3A%2F%2Ftracker.leechers-paradise.org%3A6969%2Fannounce&tr=udp%3A%2F%2Ftracker.coppersurfer.tk%3A6969%2Fannounce&tr=udp%3A%2F%2Ftracker.pirateparty.gr%3A6969%2Fannounce&tr=udp%3A%2F%2Ftracker.cyberia.is%3A6969%2Fannounce",
        "seeder": "2",
        "leecher": "0"
    },
    {
        "rank": "27",
        "title": "[PSP-Multi5] Monster Hunter Freedom Unite [EUR]",
        "link": "magnet:?xt=urn:btih:DD94D8087186D0036CF03FF60E0B65C5970C1324&dn=%5BPSP-Multi5%5D+Monster+Hunter+Freedom+Unite+%5BEUR%5D&tr=udp%3A%2F%2Ftracker.coppersurfer.tk%3A6969%2Fannounce&tr=udp%3A%2F%2F9.rarbg.to%3A2920%2Fannounce&tr=udp%3A%2F%2Ftracker.opentrackr.org%3A1337&tr=udp%3A%2F%2Ftracker.internetwarriors.net%3A1337%2Fannounce&tr=udp%3A%2F%2Ftracker.leechers-paradise.org%3A6969%2Fannounce&tr=udp%3A%2F%2Ftracker.coppersurfer.tk%3A6969%2Fannounce&tr=udp%3A%2F%2Ftracker.pirateparty.gr%3A6969%2Fannounce&tr=udp%3A%2F%2Ftracker.cyberia.is%3A6969%2Fannounce",
        "seeder": "2",
        "leecher": "0"
    },
    {
        "rank": "28",
        "title": "Grand Theft Auto - Vice City Stories PSP - roflcopter2110 [TKRG]",
        "link": "magnet:?xt=urn:btih:5304B0A07F3DEC25B6BDFE579C56DAC77A3A579B&dn=Grand+Theft+Auto+-+Vice+City+Stories+PSP+-+roflcopter2110+%5BTKRG%5D&tr=udp%3A%2F%2Ftracker.coppersurfer.tk%3A6969%2Fannounce&tr=udp%3A%2F%2F9.rarbg.to%3A2920%2Fannounce&tr=udp%3A%2F%2Ftracker.opentrackr.org%3A1337&tr=udp%3A%2F%2Ftracker.internetwarriors.net%3A1337%2Fannounce&tr=udp%3A%2F%2Ftracker.leechers-paradise.org%3A6969%2Fannounce&tr=udp%3A%2F%2Ftracker.coppersurfer.tk%3A6969%2Fannounce&tr=udp%3A%2F%2Ftracker.pirateparty.gr%3A6969%2Fannounce&tr=udp%3A%2F%2Ftracker.cyberia.is%3A6969%2Fannounce",
        "seeder": "2",
        "leecher": "1"
    },
    {
        "rank": "29",
        "title": "God Of War Ghost Of Sparta [MULTI5][PATCH-FIX][gamerguuy]",
        "link": "magnet:?xt=urn:btih:3A9DD6ABAEB16D3A73B5C16295C624D990BE5BB7&dn=God+Of+War+Ghost+Of+Sparta+%5BMULTI5%5D%5BPATCH-FIX%5D%5Bgamerguuy%5D&tr=udp%3A%2F%2Ftracker.coppersurfer.tk%3A6969%2Fannounce&tr=udp%3A%2F%2F9.rarbg.to%3A2920%2Fannounce&tr=udp%3A%2F%2Ftracker.opentrackr.org%3A1337&tr=udp%3A%2F%2Ftracker.internetwarriors.net%3A1337%2Fannounce&tr=udp%3A%2F%2Ftracker.leechers-paradise.org%3A6969%2Fannounce&tr=udp%3A%2F%2Ftracker.coppersurfer.tk%3A6969%2Fannounce&tr=udp%3A%2F%2Ftracker.pirateparty.gr%3A6969%2Fannounce&tr=udp%3A%2F%2Ftracker.cyberia.is%3A6969%2Fannounce",
        "seeder": "2",
        "leecher": "0"
    },
    {
        "rank": "30",
        "title": "[NDS-Multi6]_Harry_Potter_and_the_Half_Blood_Prince_EUR-BAHAMUT",
        "link": "magnet:?xt=urn:btih:50C63165BE51CDF558E199C231E10FF06F4195D4&dn=%5BNDS-Multi6%5D_Harry_Potter_and_the_Half_Blood_Prince_EUR-BAHAMUT&tr=udp%3A%2F%2Ftracker.coppersurfer.tk%3A6969%2Fannounce&tr=udp%3A%2F%2F9.rarbg.to%3A2920%2Fannounce&tr=udp%3A%2F%2Ftracker.opentrackr.org%3A1337&tr=udp%3A%2F%2Ftracker.internetwarriors.net%3A1337%2Fannounce&tr=udp%3A%2F%2Ftracker.leechers-paradise.org%3A6969%2Fannounce&tr=udp%3A%2F%2Ftracker.coppersurfer.tk%3A6969%2Fannounce&tr=udp%3A%2F%2Ftracker.pirateparty.gr%3A6969%2Fannounce&tr=udp%3A%2F%2Ftracker.cyberia.is%3A6969%2Fannounce",
        "seeder": "2",
        "leecher": "0"
    },
    {
        "rank": "31",
        "title": "(PSX-PSP) Suikoden 1 & 2 converted properly (Kingdom-games by Kl",
        "link": "magnet:?xt=urn:btih:42A0BA8924B87063D0325FF603107FE3CB4195FB&dn=%28PSX-PSP%29+Suikoden+1+%26+2+converted+properly+%28Kingdom-games+by+Kl&tr=udp%3A%2F%2Ftracker.coppersurfer.tk%3A6969%2Fannounce&tr=udp%3A%2F%2F9.rarbg.to%3A2920%2Fannounce&tr=udp%3A%2F%2Ftracker.opentrackr.org%3A1337&tr=udp%3A%2F%2Ftracker.internetwarriors.net%3A1337%2Fannounce&tr=udp%3A%2F%2Ftracker.leechers-paradise.org%3A6969%2Fannounce&tr=udp%3A%2F%2Ftracker.coppersurfer.tk%3A6969%2Fannounce&tr=udp%3A%2F%2Ftracker.pirateparty.gr%3A6969%2Fannounce&tr=udp%3A%2F%2Ftracker.cyberia.is%3A6969%2Fannounce",
        "seeder": "2",
        "leecher": "0"
    },
    {
        "rank": "32",
        "title": "(PSX-PSP) Marvel Super Heroes vs. Street Fighter converted prope",
        "link": "magnet:?xt=urn:btih:95A41B66A0AD55D28CE0E70921D49D8634705573&dn=%28PSX-PSP%29+Marvel+Super+Heroes+vs.+Street+Fighter+converted+prope&tr=udp%3A%2F%2Ftracker.coppersurfer.tk%3A6969%2Fannounce&tr=udp%3A%2F%2F9.rarbg.to%3A2920%2Fannounce&tr=udp%3A%2F%2Ftracker.opentrackr.org%3A1337&tr=udp%3A%2F%2Ftracker.internetwarriors.net%3A1337%2Fannounce&tr=udp%3A%2F%2Ftracker.leechers-paradise.org%3A6969%2Fannounce&tr=udp%3A%2F%2Ftracker.coppersurfer.tk%3A6969%2Fannounce&tr=udp%3A%2F%2Ftracker.pirateparty.gr%3A6969%2Fannounce&tr=udp%3A%2F%2Ftracker.cyberia.is%3A6969%2Fannounce",
        "seeder": "2",
        "leecher": "0"
    },
    {
        "rank": "33",
        "title": "Need For Speed Shift [MULTI3][PSP][USA][gamerguuy]",
        "link": "magnet:?xt=urn:btih:284A948D2B42387B3D0B0F1D640F4D94142D4DEE&dn=Need+For+Speed+Shift+%5BMULTI3%5D%5BPSP%5D%5BUSA%5D%5Bgamerguuy%5D&tr=udp%3A%2F%2Ftracker.coppersurfer.tk%3A6969%2Fannounce&tr=udp%3A%2F%2F9.rarbg.to%3A2920%2Fannounce&tr=udp%3A%2F%2Ftracker.opentrackr.org%3A1337&tr=udp%3A%2F%2Ftracker.internetwarriors.net%3A1337%2Fannounce&tr=udp%3A%2F%2Ftracker.leechers-paradise.org%3A6969%2Fannounce&tr=udp%3A%2F%2Ftracker.coppersurfer.tk%3A6969%2Fannounce&tr=udp%3A%2F%2Ftracker.pirateparty.gr%3A6969%2Fannounce&tr=udp%3A%2F%2Ftracker.cyberia.is%3A6969%2Fannounce",
        "seeder": "2",
        "leecher": "0"
    },
    {
        "rank": "34",
        "title": "My_Dress_Up_USA_NDS-BAHAMUT(www.LimiteNDS.com).rar",
        "link": "magnet:?xt=urn:btih:03AB64284D599BC33CE484AC4919977D06A6643D&dn=My_Dress_Up_USA_NDS-BAHAMUT%28www.LimiteNDS.com%29.rar&tr=udp%3A%2F%2Ftracker.coppersurfer.tk%3A6969%2Fannounce&tr=udp%3A%2F%2F9.rarbg.to%3A2920%2Fannounce&tr=udp%3A%2F%2Ftracker.opentrackr.org%3A1337&tr=udp%3A%2F%2Ftracker.internetwarriors.net%3A1337%2Fannounce&tr=udp%3A%2F%2Ftracker.leechers-paradise.org%3A6969%2Fannounce&tr=udp%3A%2F%2Ftracker.coppersurfer.tk%3A6969%2Fannounce&tr=udp%3A%2F%2Ftracker.pirateparty.gr%3A6969%2Fannounce&tr=udp%3A%2F%2Ftracker.cyberia.is%3A6969%2Fannounce",
        "seeder": "1",
        "leecher": "0"
    },
    {
        "rank": "35",
        "title": "Final Fantasy Tactics The War Of The Lions [English][PSP].",
        "link": "magnet:?xt=urn:btih:8DBE8F6CC60F116559B3CF0D1207C37AB8004B54&dn=Final+Fantasy+Tactics+The+War+Of+The+Lions+%5BEnglish%5D%5BPSP%5D.&tr=udp%3A%2F%2Ftracker.coppersurfer.tk%3A6969%2Fannounce&tr=udp%3A%2F%2F9.rarbg.to%3A2920%2Fannounce&tr=udp%3A%2F%2Ftracker.opentrackr.org%3A1337&tr=udp%3A%2F%2Ftracker.internetwarriors.net%3A1337%2Fannounce&tr=udp%3A%2F%2Ftracker.leechers-paradise.org%3A6969%2Fannounce&tr=udp%3A%2F%2Ftracker.coppersurfer.tk%3A6969%2Fannounce&tr=udp%3A%2F%2Ftracker.pirateparty.gr%3A6969%2Fannounce&tr=udp%3A%2F%2Ftracker.cyberia.is%3A6969%2Fannounce",
        "seeder": "1",
        "leecher": "0"
    },
    {
        "rank": "36",
        "title": "11 Eyes CrossOver [JAP][PSP][gamerguuy]",
        "link": "magnet:?xt=urn:btih:AA9708CD7B515C9CC7AE6FFAD0A048F748BA1078&dn=11+Eyes+CrossOver+%5BJAP%5D%5BPSP%5D%5Bgamerguuy%5D&tr=udp%3A%2F%2Ftracker.coppersurfer.tk%3A6969%2Fannounce&tr=udp%3A%2F%2F9.rarbg.to%3A2920%2Fannounce&tr=udp%3A%2F%2Ftracker.opentrackr.org%3A1337&tr=udp%3A%2F%2Ftracker.internetwarriors.net%3A1337%2Fannounce&tr=udp%3A%2F%2Ftracker.leechers-paradise.org%3A6969%2Fannounce&tr=udp%3A%2F%2Ftracker.coppersurfer.tk%3A6969%2Fannounce&tr=udp%3A%2F%2Ftracker.pirateparty.gr%3A6969%2Fannounce&tr=udp%3A%2F%2Ftracker.cyberia.is%3A6969%2Fannounce",
        "seeder": "1",
        "leecher": "0"
    },
    {
        "rank": "37",
        "title": "Smiley World Island Challenge[NDS](simmyboy80)",
        "link": "magnet:?xt=urn:btih:0965C1AE48BADC3727028E4244F685A1BE67D81F&dn=Smiley+World+Island+Challenge%5BNDS%5D%28simmyboy80%29&tr=udp%3A%2F%2Ftracker.coppersurfer.tk%3A6969%2Fannounce&tr=udp%3A%2F%2F9.rarbg.to%3A2920%2Fannounce&tr=udp%3A%2F%2Ftracker.opentrackr.org%3A1337&tr=udp%3A%2F%2Ftracker.internetwarriors.net%3A1337%2Fannounce&tr=udp%3A%2F%2Ftracker.leechers-paradise.org%3A6969%2Fannounce&tr=udp%3A%2F%2Ftracker.coppersurfer.tk%3A6969%2Fannounce&tr=udp%3A%2F%2Ftracker.pirateparty.gr%3A6969%2Fannounce&tr=udp%3A%2F%2Ftracker.cyberia.is%3A6969%2Fannounce",
        "seeder": "1",
        "leecher": "0"
    },
    {
        "rank": "38",
        "title": "Tales_of_Hearts_-_Anime_Movie_Edition_JPN_NDS-iND",
        "link": "magnet:?xt=urn:btih:CCF75F2D7D415A3274C73E2DC9EFF3F1DC898BCD&dn=Tales_of_Hearts_-_Anime_Movie_Edition_JPN_NDS-iND&tr=udp%3A%2F%2Ftracker.coppersurfer.tk%3A6969%2Fannounce&tr=udp%3A%2F%2F9.rarbg.to%3A2920%2Fannounce&tr=udp%3A%2F%2Ftracker.opentrackr.org%3A1337&tr=udp%3A%2F%2Ftracker.internetwarriors.net%3A1337%2Fannounce&tr=udp%3A%2F%2Ftracker.leechers-paradise.org%3A6969%2Fannounce&tr=udp%3A%2F%2Ftracker.coppersurfer.tk%3A6969%2Fannounce&tr=udp%3A%2F%2Ftracker.pirateparty.gr%3A6969%2Fannounce&tr=udp%3A%2F%2Ftracker.cyberia.is%3A6969%2Fannounce",
        "seeder": "1",
        "leecher": "0"
    },
    {
        "rank": "39",
        "title": "[NDS-JAP]_Really_Really_DS-2CH",
        "link": "magnet:?xt=urn:btih:D5D1B849C64B24E2E634780F5ECE4D7C27CDA243&dn=%5BNDS-JAP%5D_Really_Really_DS-2CH&tr=udp%3A%2F%2Ftracker.coppersurfer.tk%3A6969%2Fannounce&tr=udp%3A%2F%2F9.rarbg.to%3A2920%2Fannounce&tr=udp%3A%2F%2Ftracker.opentrackr.org%3A1337&tr=udp%3A%2F%2Ftracker.internetwarriors.net%3A1337%2Fannounce&tr=udp%3A%2F%2Ftracker.leechers-paradise.org%3A6969%2Fannounce&tr=udp%3A%2F%2Ftracker.coppersurfer.tk%3A6969%2Fannounce&tr=udp%3A%2F%2Ftracker.pirateparty.gr%3A6969%2Fannounce&tr=udp%3A%2F%2Ftracker.cyberia.is%3A6969%2Fannounce",
        "seeder": "1",
        "leecher": "0"
    },
    {
        "rank": "40",
        "title": "Judie_no_Atelier_Toraware_no_Moribito_JPN_PSP-Caravan",
        "link": "magnet:?xt=urn:btih:35DEFD826DCD6401A2694E152B6CCF637601D90C&dn=Judie_no_Atelier_Toraware_no_Moribito_JPN_PSP-Caravan&tr=udp%3A%2F%2Ftracker.coppersurfer.tk%3A6969%2Fannounce&tr=udp%3A%2F%2F9.rarbg.to%3A2920%2Fannounce&tr=udp%3A%2F%2Ftracker.opentrackr.org%3A1337&tr=udp%3A%2F%2Ftracker.internetwarriors.net%3A1337%2Fannounce&tr=udp%3A%2F%2Ftracker.leechers-paradise.org%3A6969%2Fannounce&tr=udp%3A%2F%2Ftracker.coppersurfer.tk%3A6969%2Fannounce&tr=udp%3A%2F%2Ftracker.pirateparty.gr%3A6969%2Fannounce&tr=udp%3A%2F%2Ftracker.cyberia.is%3A6969%2Fannounce",
        "seeder": "1",
        "leecher": "0"
    },
    {
        "rank": "41",
        "title": "R-Type Command [USA - English - PSP][UMDFULL]",
        "link": "magnet:?xt=urn:btih:D8D253A30F54363C312F95D800C24BACC11DABE3&dn=R-Type+Command+%5BUSA+-+English+-+PSP%5D%5BUMDFULL%5D&tr=udp%3A%2F%2Ftracker.coppersurfer.tk%3A6969%2Fannounce&tr=udp%3A%2F%2F9.rarbg.to%3A2920%2Fannounce&tr=udp%3A%2F%2Ftracker.opentrackr.org%3A1337&tr=udp%3A%2F%2Ftracker.internetwarriors.net%3A1337%2Fannounce&tr=udp%3A%2F%2Ftracker.leechers-paradise.org%3A6969%2Fannounce&tr=udp%3A%2F%2Ftracker.coppersurfer.tk%3A6969%2Fannounce&tr=udp%3A%2F%2Ftracker.pirateparty.gr%3A6969%2Fannounce&tr=udp%3A%2F%2Ftracker.cyberia.is%3A6969%2Fannounce",
        "seeder": "1",
        "leecher": "0"
    },
    {
        "rank": "42",
        "title": "[NDS-JAP]_Kanken_DS_2_Plus_Jouyou_Kanji_Jiten_v1.1-BAHAMUT",
        "link": "magnet:?xt=urn:btih:237709FB0D4C453292250D086EE6C185389B54E3&dn=%5BNDS-JAP%5D_Kanken_DS_2_Plus_Jouyou_Kanji_Jiten_v1.1-BAHAMUT&tr=udp%3A%2F%2Ftracker.coppersurfer.tk%3A6969%2Fannounce&tr=udp%3A%2F%2F9.rarbg.to%3A2920%2Fannounce&tr=udp%3A%2F%2Ftracker.opentrackr.org%3A1337&tr=udp%3A%2F%2Ftracker.internetwarriors.net%3A1337%2Fannounce&tr=udp%3A%2F%2Ftracker.leechers-paradise.org%3A6969%2Fannounce&tr=udp%3A%2F%2Ftracker.coppersurfer.tk%3A6969%2Fannounce&tr=udp%3A%2F%2Ftracker.pirateparty.gr%3A6969%2Fannounce&tr=udp%3A%2F%2Ftracker.cyberia.is%3A6969%2Fannounce",
        "seeder": "1",
        "leecher": "0"
    },
    {
        "rank": "43",
        "title": "Syphon Filter Logans Shadow [English][PSP]",
        "link": "magnet:?xt=urn:btih:AA63FB18DFE23BA36EE804FA3165E0975BD8C8FD&dn=Syphon+Filter+Logans+Shadow+%5BEnglish%5D%5BPSP%5D&tr=udp%3A%2F%2Ftracker.coppersurfer.tk%3A6969%2Fannounce&tr=udp%3A%2F%2F9.rarbg.to%3A2920%2Fannounce&tr=udp%3A%2F%2Ftracker.opentrackr.org%3A1337&tr=udp%3A%2F%2Ftracker.internetwarriors.net%3A1337%2Fannounce&tr=udp%3A%2F%2Ftracker.leechers-paradise.org%3A6969%2Fannounce&tr=udp%3A%2F%2Ftracker.coppersurfer.tk%3A6969%2Fannounce&tr=udp%3A%2F%2Ftracker.pirateparty.gr%3A6969%2Fannounce&tr=udp%3A%2F%2Ftracker.cyberia.is%3A6969%2Fannounce",
        "seeder": "1",
        "leecher": "0"
    },
    {
        "rank": "44",
        "title": "Starfront Collision HD For Android",
        "link": "magnet:?xt=urn:btih:60BF66D86B76F33BE11BD4847AC72C1B7DE3DA6D&dn=Starfront+Collision+HD+For+Android&tr=udp%3A%2F%2Ftracker.coppersurfer.tk%3A6969%2Fannounce&tr=udp%3A%2F%2F9.rarbg.to%3A2920%2Fannounce&tr=udp%3A%2F%2Ftracker.opentrackr.org%3A1337&tr=udp%3A%2F%2Ftracker.internetwarriors.net%3A1337%2Fannounce&tr=udp%3A%2F%2Ftracker.leechers-paradise.org%3A6969%2Fannounce&tr=udp%3A%2F%2Ftracker.coppersurfer.tk%3A6969%2Fannounce&tr=udp%3A%2F%2Ftracker.pirateparty.gr%3A6969%2Fannounce&tr=udp%3A%2F%2Ftracker.cyberia.is%3A6969%2Fannounce",
        "seeder": "1",
        "leecher": "0"
    },
    {
        "rank": "45",
        "title": "Shorts_USA_NDS-BAHAMUT(www.LimiteNDS.com).rar",
        "link": "magnet:?xt=urn:btih:E7777F54C20DA3C26BEDD45C4E363FABF6AA5B57&dn=Shorts_USA_NDS-BAHAMUT%28www.LimiteNDS.com%29.rar&tr=udp%3A%2F%2Ftracker.coppersurfer.tk%3A6969%2Fannounce&tr=udp%3A%2F%2F9.rarbg.to%3A2920%2Fannounce&tr=udp%3A%2F%2Ftracker.opentrackr.org%3A1337&tr=udp%3A%2F%2Ftracker.internetwarriors.net%3A1337%2Fannounce&tr=udp%3A%2F%2Ftracker.leechers-paradise.org%3A6969%2Fannounce&tr=udp%3A%2F%2Ftracker.coppersurfer.tk%3A6969%2Fannounce&tr=udp%3A%2F%2Ftracker.pirateparty.gr%3A6969%2Fannounce&tr=udp%3A%2F%2Ftracker.cyberia.is%3A6969%2Fannounce",
        "seeder": "1",
        "leecher": "0"
    },
    {
        "rank": "46",
        "title": "Tangram Mania [EUR] [NDS]",
        "link": "magnet:?xt=urn:btih:7794055E4E10E22B6694EC562A8C44292CBF9A7A&dn=Tangram+Mania+%5BEUR%5D+%5BNDS%5D&tr=udp%3A%2F%2Ftracker.coppersurfer.tk%3A6969%2Fannounce&tr=udp%3A%2F%2F9.rarbg.to%3A2920%2Fannounce&tr=udp%3A%2F%2Ftracker.opentrackr.org%3A1337&tr=udp%3A%2F%2Ftracker.internetwarriors.net%3A1337%2Fannounce&tr=udp%3A%2F%2Ftracker.leechers-paradise.org%3A6969%2Fannounce&tr=udp%3A%2F%2Ftracker.coppersurfer.tk%3A6969%2Fannounce&tr=udp%3A%2F%2Ftracker.pirateparty.gr%3A6969%2Fannounce&tr=udp%3A%2F%2Ftracker.cyberia.is%3A6969%2Fannounce",
        "seeder": "1",
        "leecher": "0"
    },
    {
        "rank": "47",
        "title": "Sillybandz[NDS](simmyboy80)",
        "link": "magnet:?xt=urn:btih:E73DBAA07A0FA6BEFAB52B39AA0C818CF89B3BA2&dn=Sillybandz%5BNDS%5D%28simmyboy80%29&tr=udp%3A%2F%2Ftracker.coppersurfer.tk%3A6969%2Fannounce&tr=udp%3A%2F%2F9.rarbg.to%3A2920%2Fannounce&tr=udp%3A%2F%2Ftracker.opentrackr.org%3A1337&tr=udp%3A%2F%2Ftracker.internetwarriors.net%3A1337%2Fannounce&tr=udp%3A%2F%2Ftracker.leechers-paradise.org%3A6969%2Fannounce&tr=udp%3A%2F%2Ftracker.coppersurfer.tk%3A6969%2Fannounce&tr=udp%3A%2F%2Ftracker.pirateparty.gr%3A6969%2Fannounce&tr=udp%3A%2F%2Ftracker.cyberia.is%3A6969%2Fannounce",
        "seeder": "1",
        "leecher": "0"
    },
    {
        "rank": "48",
        "title": "Abduction! 2 Version. 1.0 For Android",
        "link": "magnet:?xt=urn:btih:511ABCF4F4FDFC62EC614526CE6F91B9F8BA4F13&dn=Abduction%21+2+Version.+1.0+For+Android&tr=udp%3A%2F%2Ftracker.coppersurfer.tk%3A6969%2Fannounce&tr=udp%3A%2F%2F9.rarbg.to%3A2920%2Fannounce&tr=udp%3A%2F%2Ftracker.opentrackr.org%3A1337&tr=udp%3A%2F%2Ftracker.internetwarriors.net%3A1337%2Fannounce&tr=udp%3A%2F%2Ftracker.leechers-paradise.org%3A6969%2Fannounce&tr=udp%3A%2F%2Ftracker.coppersurfer.tk%3A6969%2Fannounce&tr=udp%3A%2F%2Ftracker.pirateparty.gr%3A6969%2Fannounce&tr=udp%3A%2F%2Ftracker.cyberia.is%3A6969%2Fannounce",
        "seeder": "1",
        "leecher": "0"
    },
    {
        "rank": "49",
        "title": "Ookamikakushi [JAP][PSP][gamerguuy]",
        "link": "magnet:?xt=urn:btih:740E3745BCFFECC9911146873A8D09F7F4AFC42A&dn=Ookamikakushi+%5BJAP%5D%5BPSP%5D%5Bgamerguuy%5D&tr=udp%3A%2F%2Ftracker.coppersurfer.tk%3A6969%2Fannounce&tr=udp%3A%2F%2F9.rarbg.to%3A2920%2Fannounce&tr=udp%3A%2F%2Ftracker.opentrackr.org%3A1337&tr=udp%3A%2F%2Ftracker.internetwarriors.net%3A1337%2Fannounce&tr=udp%3A%2F%2Ftracker.leechers-paradise.org%3A6969%2Fannounce&tr=udp%3A%2F%2Ftracker.coppersurfer.tk%3A6969%2Fannounce&tr=udp%3A%2F%2Ftracker.pirateparty.gr%3A6969%2Fannounce&tr=udp%3A%2F%2Ftracker.cyberia.is%3A6969%2Fannounce",
        "seeder": "1",
        "leecher": "0"
    },
    {
        "rank": "50",
        "title": "Games Around The World[NDS](simmyboy80)",
        "link": "magnet:?xt=urn:btih:CF78B4D062B63011EEB40DFC7B4C03D6E4EC3538&dn=Games+Around+The+World%5BNDS%5D%28simmyboy80%29&tr=udp%3A%2F%2Ftracker.coppersurfer.tk%3A6969%2Fannounce&tr=udp%3A%2F%2F9.rarbg.to%3A2920%2Fannounce&tr=udp%3A%2F%2Ftracker.opentrackr.org%3A1337&tr=udp%3A%2F%2Ftracker.internetwarriors.net%3A1337%2Fannounce&tr=udp%3A%2F%2Ftracker.leechers-paradise.org%3A6969%2Fannounce&tr=udp%3A%2F%2Ftracker.coppersurfer.tk%3A6969%2Fannounce&tr=udp%3A%2F%2Ftracker.pirateparty.gr%3A6969%2Fannounce&tr=udp%3A%2F%2Ftracker.cyberia.is%3A6969%2Fannounce",
        "seeder": "1",
        "leecher": "0"
    },
    {
        "rank": "51",
        "title": "(PSX-PSP) The Legend of Dragoon converted properly by KloWn",
        "link": "magnet:?xt=urn:btih:43226FA2CE52448A40DC893989D9525476BA2E61&dn=%28PSX-PSP%29+The+Legend+of+Dragoon+converted+properly+by+KloWn&tr=udp%3A%2F%2Ftracker.coppersurfer.tk%3A6969%2Fannounce&tr=udp%3A%2F%2F9.rarbg.to%3A2920%2Fannounce&tr=udp%3A%2F%2Ftracker.opentrackr.org%3A1337&tr=udp%3A%2F%2Ftracker.internetwarriors.net%3A1337%2Fannounce&tr=udp%3A%2F%2Ftracker.leechers-paradise.org%3A6969%2Fannounce&tr=udp%3A%2F%2Ftracker.coppersurfer.tk%3A6969%2Fannounce&tr=udp%3A%2F%2Ftracker.pirateparty.gr%3A6969%2Fannounce&tr=udp%3A%2F%2Ftracker.cyberia.is%3A6969%2Fannounce",
        "seeder": "1",
        "leecher": "0"
    },
    {
        "rank": "52",
        "title": "[ NDS Ita] Animal Crossing Wild World [volpebianca].rar",
        "link": "magnet:?xt=urn:btih:881BBDD643E7FAFF9B772126448606E6B5E1BBEA&dn=%5B+NDS+Ita%5D+Animal+Crossing+Wild+World+%5Bvolpebianca%5D.rar&tr=udp%3A%2F%2Ftracker.coppersurfer.tk%3A6969%2Fannounce&tr=udp%3A%2F%2F9.rarbg.to%3A2920%2Fannounce&tr=udp%3A%2F%2Ftracker.opentrackr.org%3A1337&tr=udp%3A%2F%2Ftracker.internetwarriors.net%3A1337%2Fannounce&tr=udp%3A%2F%2Ftracker.leechers-paradise.org%3A6969%2Fannounce&tr=udp%3A%2F%2Ftracker.coppersurfer.tk%3A6969%2Fannounce&tr=udp%3A%2F%2Ftracker.pirateparty.gr%3A6969%2Fannounce&tr=udp%3A%2F%2Ftracker.cyberia.is%3A6969%2Fannounce",
        "seeder": "1",
        "leecher": "0"
    },
    {
        "rank": "53",
        "title": "Nintendogs + Cats - Toy Poodle and New Friends (2011) [3dsGM]",
        "link": "magnet:?xt=urn:btih:7C67F878B38A7BBD43F142CCD73BEB0CA74AF5FC&dn=Nintendogs+%2B+Cats+-+Toy+Poodle+and+New+Friends+%282011%29+%5B3dsGM%5D&tr=udp%3A%2F%2Ftracker.coppersurfer.tk%3A6969%2Fannounce&tr=udp%3A%2F%2F9.rarbg.to%3A2920%2Fannounce&tr=udp%3A%2F%2Ftracker.opentrackr.org%3A1337&tr=udp%3A%2F%2Ftracker.internetwarriors.net%3A1337%2Fannounce&tr=udp%3A%2F%2Ftracker.leechers-paradise.org%3A6969%2Fannounce&tr=udp%3A%2F%2Ftracker.coppersurfer.tk%3A6969%2Fannounce&tr=udp%3A%2F%2Ftracker.pirateparty.gr%3A6969%2Fannounce&tr=udp%3A%2F%2Ftracker.cyberia.is%3A6969%2Fannounce",
        "seeder": "1",
        "leecher": "0"
    },
    {
        "rank": "54",
        "title": "Paint By DS Military Vehicles [EUR - MULTi 5 - NDS]",
        "link": "magnet:?xt=urn:btih:AF59A1AE6DC97A1211C39E503A08AD0AA8CAAC7D&dn=Paint+By+DS+Military+Vehicles+%5BEUR+-+MULTi+5+-+NDS%5D&tr=udp%3A%2F%2Ftracker.coppersurfer.tk%3A6969%2Fannounce&tr=udp%3A%2F%2F9.rarbg.to%3A2920%2Fannounce&tr=udp%3A%2F%2Ftracker.opentrackr.org%3A1337&tr=udp%3A%2F%2Ftracker.internetwarriors.net%3A1337%2Fannounce&tr=udp%3A%2F%2Ftracker.leechers-paradise.org%3A6969%2Fannounce&tr=udp%3A%2F%2Ftracker.coppersurfer.tk%3A6969%2Fannounce&tr=udp%3A%2F%2Ftracker.pirateparty.gr%3A6969%2Fannounce&tr=udp%3A%2F%2Ftracker.cyberia.is%3A6969%2Fannounce",
        "seeder": "1",
        "leecher": "0"
    },
    {
        "rank": "55",
        "title": "[NDS-Mluti5] My_Animal_Centre_in_Africa_EUR_iND",
        "link": "magnet:?xt=urn:btih:5B4E7B63BF79FEB13F653483B0574CD8019E6035&dn=%5BNDS-Mluti5%5D+My_Animal_Centre_in_Africa_EUR_iND&tr=udp%3A%2F%2Ftracker.coppersurfer.tk%3A6969%2Fannounce&tr=udp%3A%2F%2F9.rarbg.to%3A2920%2Fannounce&tr=udp%3A%2F%2Ftracker.opentrackr.org%3A1337&tr=udp%3A%2F%2Ftracker.internetwarriors.net%3A1337%2Fannounce&tr=udp%3A%2F%2Ftracker.leechers-paradise.org%3A6969%2Fannounce&tr=udp%3A%2F%2Ftracker.coppersurfer.tk%3A6969%2Fannounce&tr=udp%3A%2F%2Ftracker.pirateparty.gr%3A6969%2Fannounce&tr=udp%3A%2F%2Ftracker.cyberia.is%3A6969%2Fannounce",
        "seeder": "1",
        "leecher": "0"
    },
    {
        "rank": "56",
        "title": "[NDS-ENG]_Math_Blaster_in_the_Prime_Adventure_USA-OneUp",
        "link": "magnet:?xt=urn:btih:ADF19D5706895AC1ED77151BCC3233244D4B6A18&dn=%5BNDS-ENG%5D_Math_Blaster_in_the_Prime_Adventure_USA-OneUp&tr=udp%3A%2F%2Ftracker.coppersurfer.tk%3A6969%2Fannounce&tr=udp%3A%2F%2F9.rarbg.to%3A2920%2Fannounce&tr=udp%3A%2F%2Ftracker.opentrackr.org%3A1337&tr=udp%3A%2F%2Ftracker.internetwarriors.net%3A1337%2Fannounce&tr=udp%3A%2F%2Ftracker.leechers-paradise.org%3A6969%2Fannounce&tr=udp%3A%2F%2Ftracker.coppersurfer.tk%3A6969%2Fannounce&tr=udp%3A%2F%2Ftracker.pirateparty.gr%3A6969%2Fannounce&tr=udp%3A%2F%2Ftracker.cyberia.is%3A6969%2Fannounce",
        "seeder": "1",
        "leecher": "0"
    },
    {
        "rank": "57",
        "title": "PSP Minis Vol.4 [English][MINIS][gamerguuy]",
        "link": "magnet:?xt=urn:btih:BE9FC7D28181283BA6890587FE4EE2971F5EE007&dn=PSP+Minis+Vol.4+%5BEnglish%5D%5BMINIS%5D%5Bgamerguuy%5D&tr=udp%3A%2F%2Ftracker.coppersurfer.tk%3A6969%2Fannounce&tr=udp%3A%2F%2F9.rarbg.to%3A2920%2Fannounce&tr=udp%3A%2F%2Ftracker.opentrackr.org%3A1337&tr=udp%3A%2F%2Ftracker.internetwarriors.net%3A1337%2Fannounce&tr=udp%3A%2F%2Ftracker.leechers-paradise.org%3A6969%2Fannounce&tr=udp%3A%2F%2Ftracker.coppersurfer.tk%3A6969%2Fannounce&tr=udp%3A%2F%2Ftracker.pirateparty.gr%3A6969%2Fannounce&tr=udp%3A%2F%2Ftracker.cyberia.is%3A6969%2Fannounce",
        "seeder": "1",
        "leecher": "0"
    },
    {
        "rank": "58",
        "title": "MONOPOLY 1.1.14 - team p0wersurge",
        "link": "magnet:?xt=urn:btih:F66BB3D869B651B767AF9285B317BFB54642B08D&dn=MONOPOLY+1.1.14+-+team+p0wersurge&tr=udp%3A%2F%2Ftracker.coppersurfer.tk%3A6969%2Fannounce&tr=udp%3A%2F%2F9.rarbg.to%3A2920%2Fannounce&tr=udp%3A%2F%2Ftracker.opentrackr.org%3A1337&tr=udp%3A%2F%2Ftracker.internetwarriors.net%3A1337%2Fannounce&tr=udp%3A%2F%2Ftracker.leechers-paradise.org%3A6969%2Fannounce&tr=udp%3A%2F%2Ftracker.coppersurfer.tk%3A6969%2Fannounce&tr=udp%3A%2F%2Ftracker.pirateparty.gr%3A6969%2Fannounce&tr=udp%3A%2F%2Ftracker.cyberia.is%3A6969%2Fannounce",
        "seeder": "1",
        "leecher": "0"
    },
    {
        "rank": "59",
        "title": "Football Manager Handheld 2013 [MULTI5][PSP][RIP]",
        "link": "magnet:?xt=urn:btih:8AF7DE06E954C60670C8D03050DE06F855AE63B7&dn=Football+Manager+Handheld+2013+%5BMULTI5%5D%5BPSP%5D%5BRIP%5D&tr=udp%3A%2F%2Ftracker.coppersurfer.tk%3A6969%2Fannounce&tr=udp%3A%2F%2F9.rarbg.to%3A2920%2Fannounce&tr=udp%3A%2F%2Ftracker.opentrackr.org%3A1337&tr=udp%3A%2F%2Ftracker.internetwarriors.net%3A1337%2Fannounce&tr=udp%3A%2F%2Ftracker.leechers-paradise.org%3A6969%2Fannounce&tr=udp%3A%2F%2Ftracker.coppersurfer.tk%3A6969%2Fannounce&tr=udp%3A%2F%2Ftracker.pirateparty.gr%3A6969%2Fannounce&tr=udp%3A%2F%2Ftracker.cyberia.is%3A6969%2Fannounce",
        "seeder": "1",
        "leecher": "0"
    },
    {
        "rank": "60",
        "title": "[Nds-multi5-Act]Overlord2 Minions [survivalofmisa].zip",
        "link": "magnet:?xt=urn:btih:8828260505386168BC381A85BC39585699CAECFF&dn=%5BNds-multi5-Act%5DOverlord2+Minions+%5Bsurvivalofmisa%5D.zip&tr=udp%3A%2F%2Ftracker.coppersurfer.tk%3A6969%2Fannounce&tr=udp%3A%2F%2F9.rarbg.to%3A2920%2Fannounce&tr=udp%3A%2F%2Ftracker.opentrackr.org%3A1337&tr=udp%3A%2F%2Ftracker.internetwarriors.net%3A1337%2Fannounce&tr=udp%3A%2F%2Ftracker.leechers-paradise.org%3A6969%2Fannounce&tr=udp%3A%2F%2Ftracker.coppersurfer.tk%3A6969%2Fannounce&tr=udp%3A%2F%2Ftracker.pirateparty.gr%3A6969%2Fannounce&tr=udp%3A%2F%2Ftracker.cyberia.is%3A6969%2Fannounce",
        "seeder": "1",
        "leecher": "0"
    },
    {
        "rank": "61",
        "title": "F1 2009 [PSP]",
        "link": "magnet:?xt=urn:btih:C55D6651B38C66C310EABF76B909F61AEEEE3CDA&dn=F1+2009+%5BPSP%5D&tr=udp%3A%2F%2Ftracker.coppersurfer.tk%3A6969%2Fannounce&tr=udp%3A%2F%2F9.rarbg.to%3A2920%2Fannounce&tr=udp%3A%2F%2Ftracker.opentrackr.org%3A1337&tr=udp%3A%2F%2Ftracker.internetwarriors.net%3A1337%2Fannounce&tr=udp%3A%2F%2Ftracker.leechers-paradise.org%3A6969%2Fannounce&tr=udp%3A%2F%2Ftracker.coppersurfer.tk%3A6969%2Fannounce&tr=udp%3A%2F%2Ftracker.pirateparty.gr%3A6969%2Fannounce&tr=udp%3A%2F%2Ftracker.cyberia.is%3A6969%2Fannounce",
        "seeder": "1",
        "leecher": "0"
    },
    {
        "rank": "62",
        "title": "OK! Puzzle Stars [NDS](simmyboy80)",
        "link": "magnet:?xt=urn:btih:AD46D3408E775D83420EB417326F31ADA868DFA6&dn=OK%21+Puzzle+Stars+%5BNDS%5D%28simmyboy80%29&tr=udp%3A%2F%2Ftracker.coppersurfer.tk%3A6969%2Fannounce&tr=udp%3A%2F%2F9.rarbg.to%3A2920%2Fannounce&tr=udp%3A%2F%2Ftracker.opentrackr.org%3A1337&tr=udp%3A%2F%2Ftracker.internetwarriors.net%3A1337%2Fannounce&tr=udp%3A%2F%2Ftracker.leechers-paradise.org%3A6969%2Fannounce&tr=udp%3A%2F%2Ftracker.coppersurfer.tk%3A6969%2Fannounce&tr=udp%3A%2F%2Ftracker.pirateparty.gr%3A6969%2Fannounce&tr=udp%3A%2F%2Ftracker.cyberia.is%3A6969%2Fannounce",
        "seeder": "1",
        "leecher": "0"
    },
    {
        "rank": "63",
        "title": "[NDS-ITA] Ice_Age_3_Dawn_of_the_Dinosaurs_EUR-BAHAMUT[SUPERFILES",
        "link": "magnet:?xt=urn:btih:96528F78CF4C39B5CD2403983D6AFE1D992CA131&dn=%5BNDS-ITA%5D+Ice_Age_3_Dawn_of_the_Dinosaurs_EUR-BAHAMUT%5BSUPERFILES&tr=udp%3A%2F%2Ftracker.coppersurfer.tk%3A6969%2Fannounce&tr=udp%3A%2F%2F9.rarbg.to%3A2920%2Fannounce&tr=udp%3A%2F%2Ftracker.opentrackr.org%3A1337&tr=udp%3A%2F%2Ftracker.internetwarriors.net%3A1337%2Fannounce&tr=udp%3A%2F%2Ftracker.leechers-paradise.org%3A6969%2Fannounce&tr=udp%3A%2F%2Ftracker.coppersurfer.tk%3A6969%2Fannounce&tr=udp%3A%2F%2Ftracker.pirateparty.gr%3A6969%2Fannounce&tr=udp%3A%2F%2Ftracker.cyberia.is%3A6969%2Fannounce",
        "seeder": "1",
        "leecher": "0"
    },
    {
        "rank": "64",
        "title": "Mimana Iyar Chronicles [JAP][PSP][gamerguuy]",
        "link": "magnet:?xt=urn:btih:868B963847ECA152CF8F5489F3FB0CDD8C0F8241&dn=Mimana+Iyar+Chronicles+%5BJAP%5D%5BPSP%5D%5Bgamerguuy%5D&tr=udp%3A%2F%2Ftracker.coppersurfer.tk%3A6969%2Fannounce&tr=udp%3A%2F%2F9.rarbg.to%3A2920%2Fannounce&tr=udp%3A%2F%2Ftracker.opentrackr.org%3A1337&tr=udp%3A%2F%2Ftracker.internetwarriors.net%3A1337%2Fannounce&tr=udp%3A%2F%2Ftracker.leechers-paradise.org%3A6969%2Fannounce&tr=udp%3A%2F%2Ftracker.coppersurfer.tk%3A6969%2Fannounce&tr=udp%3A%2F%2Ftracker.pirateparty.gr%3A6969%2Fannounce&tr=udp%3A%2F%2Ftracker.cyberia.is%3A6969%2Fannounce",
        "seeder": "1",
        "leecher": "0"
    },
    {
        "rank": "65",
        "title": "[NDS-GER] Addy_Junior_Mein_Koerper-iND[SUPERFILES.ORG]",
        "link": "magnet:?xt=urn:btih:AC55E2392AC00F23FDA5530E1EC31BED65350D4C&dn=%5BNDS-GER%5D+Addy_Junior_Mein_Koerper-iND%5BSUPERFILES.ORG%5D&tr=udp%3A%2F%2Ftracker.coppersurfer.tk%3A6969%2Fannounce&tr=udp%3A%2F%2F9.rarbg.to%3A2920%2Fannounce&tr=udp%3A%2F%2Ftracker.opentrackr.org%3A1337&tr=udp%3A%2F%2Ftracker.internetwarriors.net%3A1337%2Fannounce&tr=udp%3A%2F%2Ftracker.leechers-paradise.org%3A6969%2Fannounce&tr=udp%3A%2F%2Ftracker.coppersurfer.tk%3A6969%2Fannounce&tr=udp%3A%2F%2Ftracker.pirateparty.gr%3A6969%2Fannounce&tr=udp%3A%2F%2Ftracker.cyberia.is%3A6969%2Fannounce",
        "seeder": "1",
        "leecher": "0"
    },
    {
        "rank": "66",
        "title": "Angry Birds 1.4.4 - team p0wersurge",
        "link": "magnet:?xt=urn:btih:B6B13CCABB42B8EEB54FB34419BED61952C671C3&dn=Angry+Birds+1.4.4+-+team+p0wersurge&tr=udp%3A%2F%2Ftracker.coppersurfer.tk%3A6969%2Fannounce&tr=udp%3A%2F%2F9.rarbg.to%3A2920%2Fannounce&tr=udp%3A%2F%2Ftracker.opentrackr.org%3A1337&tr=udp%3A%2F%2Ftracker.internetwarriors.net%3A1337%2Fannounce&tr=udp%3A%2F%2Ftracker.leechers-paradise.org%3A6969%2Fannounce&tr=udp%3A%2F%2Ftracker.coppersurfer.tk%3A6969%2Fannounce&tr=udp%3A%2F%2Ftracker.pirateparty.gr%3A6969%2Fannounce&tr=udp%3A%2F%2Ftracker.cyberia.is%3A6969%2Fannounce",
        "seeder": "1",
        "leecher": "0"
    },
    {
        "rank": "67",
        "title": "PSP - Blade Dancer [PAL Multi5] TNT Village",
        "link": "magnet:?xt=urn:btih:C65CD853FCE6780E48BFEE5A192ED4799E77892A&dn=PSP+-+Blade+Dancer+%5BPAL+Multi5%5D+TNT+Village&tr=udp%3A%2F%2Ftracker.coppersurfer.tk%3A6969%2Fannounce&tr=udp%3A%2F%2F9.rarbg.to%3A2920%2Fannounce&tr=udp%3A%2F%2Ftracker.opentrackr.org%3A1337&tr=udp%3A%2F%2Ftracker.internetwarriors.net%3A1337%2Fannounce&tr=udp%3A%2F%2Ftracker.leechers-paradise.org%3A6969%2Fannounce&tr=udp%3A%2F%2Ftracker.coppersurfer.tk%3A6969%2Fannounce&tr=udp%3A%2F%2Ftracker.pirateparty.gr%3A6969%2Fannounce&tr=udp%3A%2F%2Ftracker.cyberia.is%3A6969%2Fannounce",
        "seeder": "1",
        "leecher": "0"
    },
    {
        "rank": "68",
        "title": "FIFA 2011 [NDS](simmyboy80)",
        "link": "magnet:?xt=urn:btih:7478BE80FDB66AB6818D03EE9F2AFAE8BB16D622&dn=FIFA+2011+%5BNDS%5D%28simmyboy80%29&tr=udp%3A%2F%2Ftracker.coppersurfer.tk%3A6969%2Fannounce&tr=udp%3A%2F%2F9.rarbg.to%3A2920%2Fannounce&tr=udp%3A%2F%2Ftracker.opentrackr.org%3A1337&tr=udp%3A%2F%2Ftracker.internetwarriors.net%3A1337%2Fannounce&tr=udp%3A%2F%2Ftracker.leechers-paradise.org%3A6969%2Fannounce&tr=udp%3A%2F%2Ftracker.coppersurfer.tk%3A6969%2Fannounce&tr=udp%3A%2F%2Ftracker.pirateparty.gr%3A6969%2Fannounce&tr=udp%3A%2F%2Ftracker.cyberia.is%3A6969%2Fannounce",
        "seeder": "1",
        "leecher": "0"
    },
    {
        "rank": "69",
        "title": "Ore_no_Imouto_ga_Konnani_Kawaii_Wake_ga_Nai_Portable_2_JPN_PSP-B",
        "link": "magnet:?xt=urn:btih:24C9FB2B072187BCCC84453F201CCB4C4DF53210&dn=Ore_no_Imouto_ga_Konnani_Kawaii_Wake_ga_Nai_Portable_2_JPN_PSP-B&tr=udp%3A%2F%2Ftracker.coppersurfer.tk%3A6969%2Fannounce&tr=udp%3A%2F%2F9.rarbg.to%3A2920%2Fannounce&tr=udp%3A%2F%2Ftracker.opentrackr.org%3A1337&tr=udp%3A%2F%2Ftracker.internetwarriors.net%3A1337%2Fannounce&tr=udp%3A%2F%2Ftracker.leechers-paradise.org%3A6969%2Fannounce&tr=udp%3A%2F%2Ftracker.coppersurfer.tk%3A6969%2Fannounce&tr=udp%3A%2F%2Ftracker.pirateparty.gr%3A6969%2Fannounce&tr=udp%3A%2F%2Ftracker.cyberia.is%3A6969%2Fannounce",
        "seeder": "1",
        "leecher": "0"
    },
    {
        "rank": "70",
        "title": "(PSX-PSP) Gran Turismo 2 (Simulation & Arcade Discs) converted p",
        "link": "magnet:?xt=urn:btih:5A70DD9301373FD05335AC041BDA0FE396EAC251&dn=%28PSX-PSP%29+Gran+Turismo+2+%28Simulation+%26+Arcade+Discs%29+converted+p&tr=udp%3A%2F%2Ftracker.coppersurfer.tk%3A6969%2Fannounce&tr=udp%3A%2F%2F9.rarbg.to%3A2920%2Fannounce&tr=udp%3A%2F%2Ftracker.opentrackr.org%3A1337&tr=udp%3A%2F%2Ftracker.internetwarriors.net%3A1337%2Fannounce&tr=udp%3A%2F%2Ftracker.leechers-paradise.org%3A6969%2Fannounce&tr=udp%3A%2F%2Ftracker.coppersurfer.tk%3A6969%2Fannounce&tr=udp%3A%2F%2Ftracker.pirateparty.gr%3A6969%2Fannounce&tr=udp%3A%2F%2Ftracker.cyberia.is%3A6969%2Fannounce",
        "seeder": "1",
        "leecher": "0"
    },
    {
        "rank": "71",
        "title": "PSP - Bomberman Bakufuu Sentai (Blast Squadron) [JAP] TNT Villag",
        "link": "magnet:?xt=urn:btih:73CDC03F884E02D78A2E35EAACC91C09DB03AB14&dn=PSP+-+Bomberman+Bakufuu+Sentai+%28Blast+Squadron%29+%5BJAP%5D+TNT+Villag&tr=udp%3A%2F%2Ftracker.coppersurfer.tk%3A6969%2Fannounce&tr=udp%3A%2F%2F9.rarbg.to%3A2920%2Fannounce&tr=udp%3A%2F%2Ftracker.opentrackr.org%3A1337&tr=udp%3A%2F%2Ftracker.internetwarriors.net%3A1337%2Fannounce&tr=udp%3A%2F%2Ftracker.leechers-paradise.org%3A6969%2Fannounce&tr=udp%3A%2F%2Ftracker.coppersurfer.tk%3A6969%2Fannounce&tr=udp%3A%2F%2Ftracker.pirateparty.gr%3A6969%2Fannounce&tr=udp%3A%2F%2Ftracker.cyberia.is%3A6969%2Fannounce",
        "seeder": "1",
        "leecher": "0"
    },
    {
        "rank": "72",
        "title": "[NDS-ENG] Harvest_Moon_Frantic_Farming-VENOM[SUPERFILES.ORG]",
        "link": "magnet:?xt=urn:btih:2C900D51E55FDF5F890B8AD244EBC3BC6D1ABD2A&dn=%5BNDS-ENG%5D+Harvest_Moon_Frantic_Farming-VENOM%5BSUPERFILES.ORG%5D&tr=udp%3A%2F%2Ftracker.coppersurfer.tk%3A6969%2Fannounce&tr=udp%3A%2F%2F9.rarbg.to%3A2920%2Fannounce&tr=udp%3A%2F%2Ftracker.opentrackr.org%3A1337&tr=udp%3A%2F%2Ftracker.internetwarriors.net%3A1337%2Fannounce&tr=udp%3A%2F%2Ftracker.leechers-paradise.org%3A6969%2Fannounce&tr=udp%3A%2F%2Ftracker.coppersurfer.tk%3A6969%2Fannounce&tr=udp%3A%2F%2Ftracker.pirateparty.gr%3A6969%2Fannounce&tr=udp%3A%2F%2Ftracker.cyberia.is%3A6969%2Fannounce",
        "seeder": "1",
        "leecher": "0"
    },
    {
        "rank": "73",
        "title": "Frontier Gate Boost+ [PSP] [JAP]",
        "link": "magnet:?xt=urn:btih:595861FA4DECAF5D33037F505B7631A6EE64FCB1&dn=Frontier+Gate+Boost%2B+%5BPSP%5D+%5BJAP%5D&tr=udp%3A%2F%2Ftracker.coppersurfer.tk%3A6969%2Fannounce&tr=udp%3A%2F%2F9.rarbg.to%3A2920%2Fannounce&tr=udp%3A%2F%2Ftracker.opentrackr.org%3A1337&tr=udp%3A%2F%2Ftracker.internetwarriors.net%3A1337%2Fannounce&tr=udp%3A%2F%2Ftracker.leechers-paradise.org%3A6969%2Fannounce&tr=udp%3A%2F%2Ftracker.coppersurfer.tk%3A6969%2Fannounce&tr=udp%3A%2F%2Ftracker.pirateparty.gr%3A6969%2Fannounce&tr=udp%3A%2F%2Ftracker.cyberia.is%3A6969%2Fannounce",
        "seeder": "1",
        "leecher": "0"
    },
    {
        "rank": "74",
        "title": "My Hero : Doctor [NDS](simmyboy80)",
        "link": "magnet:?xt=urn:btih:7F8EB63A7370CF837500B8189FE9EA5816444306&dn=My+Hero+%3A+Doctor+%5BNDS%5D%28simmyboy80%29&tr=udp%3A%2F%2Ftracker.coppersurfer.tk%3A6969%2Fannounce&tr=udp%3A%2F%2F9.rarbg.to%3A2920%2Fannounce&tr=udp%3A%2F%2Ftracker.opentrackr.org%3A1337&tr=udp%3A%2F%2Ftracker.internetwarriors.net%3A1337%2Fannounce&tr=udp%3A%2F%2Ftracker.leechers-paradise.org%3A6969%2Fannounce&tr=udp%3A%2F%2Ftracker.coppersurfer.tk%3A6969%2Fannounce&tr=udp%3A%2F%2Ftracker.pirateparty.gr%3A6969%2Fannounce&tr=udp%3A%2F%2Ftracker.cyberia.is%3A6969%2Fannounce",
        "seeder": "1",
        "leecher": "0"
    },
    {
        "rank": "75",
        "title": "Tron Evolution [EUR] PSP-BAHAMUT",
        "link": "magnet:?xt=urn:btih:BC7AC60B2F9DDD94DA9E55EFA529C46924E06DD7&dn=Tron+Evolution+%5BEUR%5D+PSP-BAHAMUT&tr=udp%3A%2F%2Ftracker.coppersurfer.tk%3A6969%2Fannounce&tr=udp%3A%2F%2F9.rarbg.to%3A2920%2Fannounce&tr=udp%3A%2F%2Ftracker.opentrackr.org%3A1337&tr=udp%3A%2F%2Ftracker.internetwarriors.net%3A1337%2Fannounce&tr=udp%3A%2F%2Ftracker.leechers-paradise.org%3A6969%2Fannounce&tr=udp%3A%2F%2Ftracker.coppersurfer.tk%3A6969%2Fannounce&tr=udp%3A%2F%2Ftracker.pirateparty.gr%3A6969%2Fannounce&tr=udp%3A%2F%2Ftracker.cyberia.is%3A6969%2Fannounce",
        "seeder": "1",
        "leecher": "0"
    },
    {
        "rank": "76",
        "title": "(PSX-PSP) Vagrant Story converted properly (Kingdom-games by Klo",
        "link": "magnet:?xt=urn:btih:2A5E977927920A87EA543AEEADA90490DE3447C2&dn=%28PSX-PSP%29+Vagrant+Story+converted+properly+%28Kingdom-games+by+Klo&tr=udp%3A%2F%2Ftracker.coppersurfer.tk%3A6969%2Fannounce&tr=udp%3A%2F%2F9.rarbg.to%3A2920%2Fannounce&tr=udp%3A%2F%2Ftracker.opentrackr.org%3A1337&tr=udp%3A%2F%2Ftracker.internetwarriors.net%3A1337%2Fannounce&tr=udp%3A%2F%2Ftracker.leechers-paradise.org%3A6969%2Fannounce&tr=udp%3A%2F%2Ftracker.coppersurfer.tk%3A6969%2Fannounce&tr=udp%3A%2F%2Ftracker.pirateparty.gr%3A6969%2Fannounce&tr=udp%3A%2F%2Ftracker.cyberia.is%3A6969%2Fannounce",
        "seeder": "1",
        "leecher": "0"
    },
    {
        "rank": "77",
        "title": "Neo Geo Heroes Ultimate Shooting [PSP] [JAP]",
        "link": "magnet:?xt=urn:btih:7CD8E543B8AF010D666839836AB7BFEB7F15A80F&dn=Neo+Geo+Heroes+Ultimate+Shooting+%5BPSP%5D+%5BJAP%5D&tr=udp%3A%2F%2Ftracker.coppersurfer.tk%3A6969%2Fannounce&tr=udp%3A%2F%2F9.rarbg.to%3A2920%2Fannounce&tr=udp%3A%2F%2Ftracker.opentrackr.org%3A1337&tr=udp%3A%2F%2Ftracker.internetwarriors.net%3A1337%2Fannounce&tr=udp%3A%2F%2Ftracker.leechers-paradise.org%3A6969%2Fannounce&tr=udp%3A%2F%2Ftracker.coppersurfer.tk%3A6969%2Fannounce&tr=udp%3A%2F%2Ftracker.pirateparty.gr%3A6969%2Fannounce&tr=udp%3A%2F%2Ftracker.cyberia.is%3A6969%2Fannounce",
        "seeder": "1",
        "leecher": "0"
    },
    {
        "rank": "78",
        "title": "Dungeon Defenders: FW Deluxe Version. 5.13 For Android",
        "link": "magnet:?xt=urn:btih:92129CB9A4A0EDFA6A56CD2769D5103D2725E7A9&dn=Dungeon+Defenders%3A+FW+Deluxe+Version.+5.13+For+Android&tr=udp%3A%2F%2Ftracker.coppersurfer.tk%3A6969%2Fannounce&tr=udp%3A%2F%2F9.rarbg.to%3A2920%2Fannounce&tr=udp%3A%2F%2Ftracker.opentrackr.org%3A1337&tr=udp%3A%2F%2Ftracker.internetwarriors.net%3A1337%2Fannounce&tr=udp%3A%2F%2Ftracker.leechers-paradise.org%3A6969%2Fannounce&tr=udp%3A%2F%2Ftracker.coppersurfer.tk%3A6969%2Fannounce&tr=udp%3A%2F%2Ftracker.pirateparty.gr%3A6969%2Fannounce&tr=udp%3A%2F%2Ftracker.cyberia.is%3A6969%2Fannounce",
        "seeder": "1",
        "leecher": "0"
    },
    {
        "rank": "79",
        "title": "Doom 3d S60",
        "link": "magnet:?xt=urn:btih:24261A8A669979C45910767FDAC01FA9D290A6FE&dn=Doom+3d+S60&tr=udp%3A%2F%2Ftracker.coppersurfer.tk%3A6969%2Fannounce&tr=udp%3A%2F%2F9.rarbg.to%3A2920%2Fannounce&tr=udp%3A%2F%2Ftracker.opentrackr.org%3A1337&tr=udp%3A%2F%2Ftracker.internetwarriors.net%3A1337%2Fannounce&tr=udp%3A%2F%2Ftracker.leechers-paradise.org%3A6969%2Fannounce&tr=udp%3A%2F%2Ftracker.coppersurfer.tk%3A6969%2Fannounce&tr=udp%3A%2F%2Ftracker.pirateparty.gr%3A6969%2Fannounce&tr=udp%3A%2F%2Ftracker.cyberia.is%3A6969%2Fannounce",
        "seeder": "1",
        "leecher": "0"
    },
    {
        "rank": "80",
        "title": "(italytracker.net).NDS.Mario.e.Sonic.ai.giochi.olimpici.by.GigaC",
        "link": "magnet:?xt=urn:btih:EF7993C4BE4785EC17296E90403881F13364447A&dn=%28italytracker.net%29.NDS.Mario.e.Sonic.ai.giochi.olimpici.by.GigaC&tr=udp%3A%2F%2Ftracker.coppersurfer.tk%3A6969%2Fannounce&tr=udp%3A%2F%2F9.rarbg.to%3A2920%2Fannounce&tr=udp%3A%2F%2Ftracker.opentrackr.org%3A1337&tr=udp%3A%2F%2Ftracker.internetwarriors.net%3A1337%2Fannounce&tr=udp%3A%2F%2Ftracker.leechers-paradise.org%3A6969%2Fannounce&tr=udp%3A%2F%2Ftracker.coppersurfer.tk%3A6969%2Fannounce&tr=udp%3A%2F%2Ftracker.pirateparty.gr%3A6969%2Fannounce&tr=udp%3A%2F%2Ftracker.cyberia.is%3A6969%2Fannounce",
        "seeder": "1",
        "leecher": "0"
    },
    {
        "rank": "81",
        "title": "PSP - Exit 2 [Eng] TNT Village",
        "link": "magnet:?xt=urn:btih:661310D702E07E17E9F3E9EEF0C578E7680E94FC&dn=PSP+-+Exit+2+%5BEng%5D+TNT+Village&tr=udp%3A%2F%2Ftracker.coppersurfer.tk%3A6969%2Fannounce&tr=udp%3A%2F%2F9.rarbg.to%3A2920%2Fannounce&tr=udp%3A%2F%2Ftracker.opentrackr.org%3A1337&tr=udp%3A%2F%2Ftracker.internetwarriors.net%3A1337%2Fannounce&tr=udp%3A%2F%2Ftracker.leechers-paradise.org%3A6969%2Fannounce&tr=udp%3A%2F%2Ftracker.coppersurfer.tk%3A6969%2Fannounce&tr=udp%3A%2F%2Ftracker.pirateparty.gr%3A6969%2Fannounce&tr=udp%3A%2F%2Ftracker.cyberia.is%3A6969%2Fannounce",
        "seeder": "1",
        "leecher": "0"
    },
    {
        "rank": "82",
        "title": "Dengeki no Piroto Tenkuu no Kiduna [JAP][PSP][gamerguuy]",
        "link": "magnet:?xt=urn:btih:7EBDBA809DEA1EBA92947A075B9269BDB275E1D4&dn=Dengeki+no+Piroto+Tenkuu+no+Kiduna+%5BJAP%5D%5BPSP%5D%5Bgamerguuy%5D&tr=udp%3A%2F%2Ftracker.coppersurfer.tk%3A6969%2Fannounce&tr=udp%3A%2F%2F9.rarbg.to%3A2920%2Fannounce&tr=udp%3A%2F%2Ftracker.opentrackr.org%3A1337&tr=udp%3A%2F%2Ftracker.internetwarriors.net%3A1337%2Fannounce&tr=udp%3A%2F%2Ftracker.leechers-paradise.org%3A6969%2Fannounce&tr=udp%3A%2F%2Ftracker.coppersurfer.tk%3A6969%2Fannounce&tr=udp%3A%2F%2Ftracker.pirateparty.gr%3A6969%2Fannounce&tr=udp%3A%2F%2Ftracker.cyberia.is%3A6969%2Fannounce",
        "seeder": "1",
        "leecher": "0"
    },
    {
        "rank": "83",
        "title": "Shane Watsons Powerplay Cricket 2011[NDS](simmyboy80)",
        "link": "magnet:?xt=urn:btih:81940F593D45F71C70F50944AA0F0CE2AA5056FD&dn=Shane+Watsons+Powerplay+Cricket+2011%5BNDS%5D%28simmyboy80%29&tr=udp%3A%2F%2Ftracker.coppersurfer.tk%3A6969%2Fannounce&tr=udp%3A%2F%2F9.rarbg.to%3A2920%2Fannounce&tr=udp%3A%2F%2Ftracker.opentrackr.org%3A1337&tr=udp%3A%2F%2Ftracker.internetwarriors.net%3A1337%2Fannounce&tr=udp%3A%2F%2Ftracker.leechers-paradise.org%3A6969%2Fannounce&tr=udp%3A%2F%2Ftracker.coppersurfer.tk%3A6969%2Fannounce&tr=udp%3A%2F%2Ftracker.pirateparty.gr%3A6969%2Fannounce&tr=udp%3A%2F%2Ftracker.cyberia.is%3A6969%2Fannounce",
        "seeder": "1",
        "leecher": "0"
    },
    {
        "rank": "84",
        "title": "Freeruning (PSP)(Multi5)",
        "link": "magnet:?xt=urn:btih:BB734A9271C5FDEDA6B2E7B6AE8B1599294392A1&dn=Freeruning+%28PSP%29%28Multi5%29&tr=udp%3A%2F%2Ftracker.coppersurfer.tk%3A6969%2Fannounce&tr=udp%3A%2F%2F9.rarbg.to%3A2920%2Fannounce&tr=udp%3A%2F%2Ftracker.opentrackr.org%3A1337&tr=udp%3A%2F%2Ftracker.internetwarriors.net%3A1337%2Fannounce&tr=udp%3A%2F%2Ftracker.leechers-paradise.org%3A6969%2Fannounce&tr=udp%3A%2F%2Ftracker.coppersurfer.tk%3A6969%2Fannounce&tr=udp%3A%2F%2Ftracker.pirateparty.gr%3A6969%2Fannounce&tr=udp%3A%2F%2Ftracker.cyberia.is%3A6969%2Fannounce",
        "seeder": "1",
        "leecher": "0"
    },
    {
        "rank": "85",
        "title": "Getsuei_no_Kusari_Kyouran_Moratorium_JPN_PSP-MOEMOE",
        "link": "magnet:?xt=urn:btih:E67B732033BE9CF49F82E2331F93C526BBECD573&dn=Getsuei_no_Kusari_Kyouran_Moratorium_JPN_PSP-MOEMOE&tr=udp%3A%2F%2Ftracker.coppersurfer.tk%3A6969%2Fannounce&tr=udp%3A%2F%2F9.rarbg.to%3A2920%2Fannounce&tr=udp%3A%2F%2Ftracker.opentrackr.org%3A1337&tr=udp%3A%2F%2Ftracker.internetwarriors.net%3A1337%2Fannounce&tr=udp%3A%2F%2Ftracker.leechers-paradise.org%3A6969%2Fannounce&tr=udp%3A%2F%2Ftracker.coppersurfer.tk%3A6969%2Fannounce&tr=udp%3A%2F%2Ftracker.pirateparty.gr%3A6969%2Fannounce&tr=udp%3A%2F%2Ftracker.cyberia.is%3A6969%2Fannounce",
        "seeder": "1",
        "leecher": "0"
    },
    {
        "rank": "86",
        "title": "Games",
        "link": "magnet:?xt=urn:btih:22035BCDB0E04B018704E2A5CD44D0ABDAAD0870&dn=Games&tr=udp%3A%2F%2Ftracker.coppersurfer.tk%3A6969%2Fannounce&tr=udp%3A%2F%2F9.rarbg.to%3A2920%2Fannounce&tr=udp%3A%2F%2Ftracker.opentrackr.org%3A1337&tr=udp%3A%2F%2Ftracker.internetwarriors.net%3A1337%2Fannounce&tr=udp%3A%2F%2Ftracker.leechers-paradise.org%3A6969%2Fannounce&tr=udp%3A%2F%2Ftracker.coppersurfer.tk%3A6969%2Fannounce&tr=udp%3A%2F%2Ftracker.pirateparty.gr%3A6969%2Fannounce&tr=udp%3A%2F%2Ftracker.cyberia.is%3A6969%2Fannounce",
        "seeder": "1",
        "leecher": "0"
    },
    {
        "rank": "87",
        "title": "Medal_of_Honor_Heroes_2_USA_PSP-pSyPSP",
        "link": "magnet:?xt=urn:btih:6BC01FD7CA11C3D2877366FEE62CEE8B9E6CD74B&dn=Medal_of_Honor_Heroes_2_USA_PSP-pSyPSP&tr=udp%3A%2F%2Ftracker.coppersurfer.tk%3A6969%2Fannounce&tr=udp%3A%2F%2F9.rarbg.to%3A2920%2Fannounce&tr=udp%3A%2F%2Ftracker.opentrackr.org%3A1337&tr=udp%3A%2F%2Ftracker.internetwarriors.net%3A1337%2Fannounce&tr=udp%3A%2F%2Ftracker.leechers-paradise.org%3A6969%2Fannounce&tr=udp%3A%2F%2Ftracker.coppersurfer.tk%3A6969%2Fannounce&tr=udp%3A%2F%2Ftracker.pirateparty.gr%3A6969%2Fannounce&tr=udp%3A%2F%2Ftracker.cyberia.is%3A6969%2Fannounce",
        "seeder": "1",
        "leecher": "0"
    },
    {
        "rank": "88",
        "title": "[NDS-Multi5] Personal_Trainer_DS_for_Women_EUR-iND[SUPERFILES.OR",
        "link": "magnet:?xt=urn:btih:3452FEEE6FB34D00D2DF23580E8E887E35A6970F&dn=%5BNDS-Multi5%5D+Personal_Trainer_DS_for_Women_EUR-iND%5BSUPERFILES.OR&tr=udp%3A%2F%2Ftracker.coppersurfer.tk%3A6969%2Fannounce&tr=udp%3A%2F%2F9.rarbg.to%3A2920%2Fannounce&tr=udp%3A%2F%2Ftracker.opentrackr.org%3A1337&tr=udp%3A%2F%2Ftracker.internetwarriors.net%3A1337%2Fannounce&tr=udp%3A%2F%2Ftracker.leechers-paradise.org%3A6969%2Fannounce&tr=udp%3A%2F%2Ftracker.coppersurfer.tk%3A6969%2Fannounce&tr=udp%3A%2F%2Ftracker.pirateparty.gr%3A6969%2Fannounce&tr=udp%3A%2F%2Ftracker.cyberia.is%3A6969%2Fannounce",
        "seeder": "1",
        "leecher": "0"
    },
    {
        "rank": "89",
        "title": "Safari adventure Africa",
        "link": "magnet:?xt=urn:btih:B96134F858490AE10DD8C8C4FED37A3FB4D9702B&dn=Safari+adventure+Africa&tr=udp%3A%2F%2Ftracker.coppersurfer.tk%3A6969%2Fannounce&tr=udp%3A%2F%2F9.rarbg.to%3A2920%2Fannounce&tr=udp%3A%2F%2Ftracker.opentrackr.org%3A1337&tr=udp%3A%2F%2Ftracker.internetwarriors.net%3A1337%2Fannounce&tr=udp%3A%2F%2Ftracker.leechers-paradise.org%3A6969%2Fannounce&tr=udp%3A%2F%2Ftracker.coppersurfer.tk%3A6969%2Fannounce&tr=udp%3A%2F%2Ftracker.pirateparty.gr%3A6969%2Fannounce&tr=udp%3A%2F%2Ftracker.cyberia.is%3A6969%2Fannounce",
        "seeder": "1",
        "leecher": "0"
    },
    {
        "rank": "90",
        "title": "Tomb Raider Anniversary [MULTI5][PsP].rar",
        "link": "magnet:?xt=urn:btih:92F40233CEEAA75E68A2EF4402170858B808EDA9&dn=Tomb+Raider+Anniversary+%5BMULTI5%5D%5BPsP%5D.rar&tr=udp%3A%2F%2Ftracker.coppersurfer.tk%3A6969%2Fannounce&tr=udp%3A%2F%2F9.rarbg.to%3A2920%2Fannounce&tr=udp%3A%2F%2Ftracker.opentrackr.org%3A1337&tr=udp%3A%2F%2Ftracker.internetwarriors.net%3A1337%2Fannounce&tr=udp%3A%2F%2Ftracker.leechers-paradise.org%3A6969%2Fannounce&tr=udp%3A%2F%2Ftracker.coppersurfer.tk%3A6969%2Fannounce&tr=udp%3A%2F%2Ftracker.pirateparty.gr%3A6969%2Fannounce&tr=udp%3A%2F%2Ftracker.cyberia.is%3A6969%2Fannounce",
        "seeder": "1",
        "leecher": "0"
    },
    {
        "rank": "91",
        "title": "Rainbow Islands Evolution [USA] [UMDRIP 512] [PSP]",
        "link": "magnet:?xt=urn:btih:7A8D5CAB8E15AF437721BC9A20DF818C69B35CFF&dn=Rainbow+Islands+Evolution+%5BUSA%5D+%5BUMDRIP+512%5D+%5BPSP%5D&tr=udp%3A%2F%2Ftracker.coppersurfer.tk%3A6969%2Fannounce&tr=udp%3A%2F%2F9.rarbg.to%3A2920%2Fannounce&tr=udp%3A%2F%2Ftracker.opentrackr.org%3A1337&tr=udp%3A%2F%2Ftracker.internetwarriors.net%3A1337%2Fannounce&tr=udp%3A%2F%2Ftracker.leechers-paradise.org%3A6969%2Fannounce&tr=udp%3A%2F%2Ftracker.coppersurfer.tk%3A6969%2Fannounce&tr=udp%3A%2F%2Ftracker.pirateparty.gr%3A6969%2Fannounce&tr=udp%3A%2F%2Ftracker.cyberia.is%3A6969%2Fannounce",
        "seeder": "1",
        "leecher": "0"
    },
    {
        "rank": "92",
        "title": "Soul Calibur Broken Destiny [JAP][PSP][gamerguuy]",
        "link": "magnet:?xt=urn:btih:C41409975AFBDE3A8EDECDAC34F5EE347F6DC4E8&dn=Soul+Calibur+Broken+Destiny+%5BJAP%5D%5BPSP%5D%5Bgamerguuy%5D&tr=udp%3A%2F%2Ftracker.coppersurfer.tk%3A6969%2Fannounce&tr=udp%3A%2F%2F9.rarbg.to%3A2920%2Fannounce&tr=udp%3A%2F%2Ftracker.opentrackr.org%3A1337&tr=udp%3A%2F%2Ftracker.internetwarriors.net%3A1337%2Fannounce&tr=udp%3A%2F%2Ftracker.leechers-paradise.org%3A6969%2Fannounce&tr=udp%3A%2F%2Ftracker.coppersurfer.tk%3A6969%2Fannounce&tr=udp%3A%2F%2Ftracker.pirateparty.gr%3A6969%2Fannounce&tr=udp%3A%2F%2Ftracker.cyberia.is%3A6969%2Fannounce",
        "seeder": "1",
        "leecher": "0"
    },
    {
        "rank": "93",
        "title": "(PSX-PSP) Duke Nukem:Total Meltdown converted properly (Kingdom-",
        "link": "magnet:?xt=urn:btih:04CB88C7D8B1C31798F4F8096C8E503F4FFA96D5&dn=%28PSX-PSP%29+Duke+Nukem%3ATotal+Meltdown+converted+properly+%28Kingdom-&tr=udp%3A%2F%2Ftracker.coppersurfer.tk%3A6969%2Fannounce&tr=udp%3A%2F%2F9.rarbg.to%3A2920%2Fannounce&tr=udp%3A%2F%2Ftracker.opentrackr.org%3A1337&tr=udp%3A%2F%2Ftracker.internetwarriors.net%3A1337%2Fannounce&tr=udp%3A%2F%2Ftracker.leechers-paradise.org%3A6969%2Fannounce&tr=udp%3A%2F%2Ftracker.coppersurfer.tk%3A6969%2Fannounce&tr=udp%3A%2F%2Ftracker.pirateparty.gr%3A6969%2Fannounce&tr=udp%3A%2F%2Ftracker.cyberia.is%3A6969%2Fannounce",
        "seeder": "1",
        "leecher": "0"
    },
    {
        "rank": "94",
        "title": "Imagina ser profe",
        "link": "magnet:?xt=urn:btih:1A15C73039D1FC974EC9E54220D2282BB6C9CAD0&dn=Imagina+ser+profe&tr=udp%3A%2F%2Ftracker.coppersurfer.tk%3A6969%2Fannounce&tr=udp%3A%2F%2F9.rarbg.to%3A2920%2Fannounce&tr=udp%3A%2F%2Ftracker.opentrackr.org%3A1337&tr=udp%3A%2F%2Ftracker.internetwarriors.net%3A1337%2Fannounce&tr=udp%3A%2F%2Ftracker.leechers-paradise.org%3A6969%2Fannounce&tr=udp%3A%2F%2Ftracker.coppersurfer.tk%3A6969%2Fannounce&tr=udp%3A%2F%2Ftracker.pirateparty.gr%3A6969%2Fannounce&tr=udp%3A%2F%2Ftracker.cyberia.is%3A6969%2Fannounce",
        "seeder": "1",
        "leecher": "0"
    },
    {
        "rank": "95",
        "title": "Cars By ChattChitto",
        "link": "magnet:?xt=urn:btih:E68B09379B59233FFE0288FF6E148BD26C466999&dn=Cars+By+ChattChitto&tr=udp%3A%2F%2Ftracker.coppersurfer.tk%3A6969%2Fannounce&tr=udp%3A%2F%2F9.rarbg.to%3A2920%2Fannounce&tr=udp%3A%2F%2Ftracker.opentrackr.org%3A1337&tr=udp%3A%2F%2Ftracker.internetwarriors.net%3A1337%2Fannounce&tr=udp%3A%2F%2Ftracker.leechers-paradise.org%3A6969%2Fannounce&tr=udp%3A%2F%2Ftracker.coppersurfer.tk%3A6969%2Fannounce&tr=udp%3A%2F%2Ftracker.pirateparty.gr%3A6969%2Fannounce&tr=udp%3A%2F%2Ftracker.cyberia.is%3A6969%2Fannounce",
        "seeder": "1",
        "leecher": "0"
    },
    {
        "rank": "96",
        "title": "MLB_09_The_Game_USA_PSP-pSyPSP",
        "link": "magnet:?xt=urn:btih:3584D85A2370BB08B62089B3485A8E4DE40D0765&dn=MLB_09_The_Game_USA_PSP-pSyPSP&tr=udp%3A%2F%2Ftracker.coppersurfer.tk%3A6969%2Fannounce&tr=udp%3A%2F%2F9.rarbg.to%3A2920%2Fannounce&tr=udp%3A%2F%2Ftracker.opentrackr.org%3A1337&tr=udp%3A%2F%2Ftracker.internetwarriors.net%3A1337%2Fannounce&tr=udp%3A%2F%2Ftracker.leechers-paradise.org%3A6969%2Fannounce&tr=udp%3A%2F%2Ftracker.coppersurfer.tk%3A6969%2Fannounce&tr=udp%3A%2F%2Ftracker.pirateparty.gr%3A6969%2Fannounce&tr=udp%3A%2F%2Ftracker.cyberia.is%3A6969%2Fannounce",
        "seeder": "1",
        "leecher": "0"
    },
    {
        "rank": "97",
        "title": "Sengoku_Hime_2_Arashi_JPN_PSP-Caravan",
        "link": "magnet:?xt=urn:btih:B18BDBEF9ED85F593B78B28BD3328703569F40EC&dn=Sengoku_Hime_2_Arashi_JPN_PSP-Caravan&tr=udp%3A%2F%2Ftracker.coppersurfer.tk%3A6969%2Fannounce&tr=udp%3A%2F%2F9.rarbg.to%3A2920%2Fannounce&tr=udp%3A%2F%2Ftracker.opentrackr.org%3A1337&tr=udp%3A%2F%2Ftracker.internetwarriors.net%3A1337%2Fannounce&tr=udp%3A%2F%2Ftracker.leechers-paradise.org%3A6969%2Fannounce&tr=udp%3A%2F%2Ftracker.coppersurfer.tk%3A6969%2Fannounce&tr=udp%3A%2F%2Ftracker.pirateparty.gr%3A6969%2Fannounce&tr=udp%3A%2F%2Ftracker.cyberia.is%3A6969%2Fannounce",
        "seeder": "1",
        "leecher": "0"
    },
    {
        "rank": "98",
        "title": "Lock n Chase [USA] PSN PSP-NRP",
        "link": "magnet:?xt=urn:btih:5E4AD8905F3812FA650DF2E3048BBFC9AC862BD4&dn=Lock+n+Chase+%5BUSA%5D+PSN+PSP-NRP&tr=udp%3A%2F%2Ftracker.coppersurfer.tk%3A6969%2Fannounce&tr=udp%3A%2F%2F9.rarbg.to%3A2920%2Fannounce&tr=udp%3A%2F%2Ftracker.opentrackr.org%3A1337&tr=udp%3A%2F%2Ftracker.internetwarriors.net%3A1337%2Fannounce&tr=udp%3A%2F%2Ftracker.leechers-paradise.org%3A6969%2Fannounce&tr=udp%3A%2F%2Ftracker.coppersurfer.tk%3A6969%2Fannounce&tr=udp%3A%2F%2Ftracker.pirateparty.gr%3A6969%2Fannounce&tr=udp%3A%2F%2Ftracker.cyberia.is%3A6969%2Fannounce",
        "seeder": "1",
        "leecher": "0"
    },
    {
        "rank": "99",
        "title": "[NDS-Multi6] Bigfoot Collision Course (EUR)(BAHAMUT)",
        "link": "magnet:?xt=urn:btih:8E7E7F6F96E8CE7C5AC14FA9B4BCDE0702AD4C09&dn=%5BNDS-Multi6%5D+Bigfoot+Collision+Course+%28EUR%29%28BAHAMUT%29&tr=udp%3A%2F%2Ftracker.coppersurfer.tk%3A6969%2Fannounce&tr=udp%3A%2F%2F9.rarbg.to%3A2920%2Fannounce&tr=udp%3A%2F%2Ftracker.opentrackr.org%3A1337&tr=udp%3A%2F%2Ftracker.internetwarriors.net%3A1337%2Fannounce&tr=udp%3A%2F%2Ftracker.leechers-paradise.org%3A6969%2Fannounce&tr=udp%3A%2F%2Ftracker.coppersurfer.tk%3A6969%2Fannounce&tr=udp%3A%2F%2Ftracker.pirateparty.gr%3A6969%2Fannounce&tr=udp%3A%2F%2Ftracker.cyberia.is%3A6969%2Fannounce",
        "seeder": "1",
        "leecher": "0"
    },
    {
        "rank": "100",
        "title": "Tom Clancys EndWar [Spanish] [NDS]",
        "link": "magnet:?xt=urn:btih:A4C94EA1F9691EFEAEE3C7F3429256A4B3D67F05&dn=Tom+Clancys+EndWar+%5BSpanish%5D+%5BNDS%5D&tr=udp%3A%2F%2Ftracker.coppersurfer.tk%3A6969%2Fannounce&tr=udp%3A%2F%2F9.rarbg.to%3A2920%2Fannounce&tr=udp%3A%2F%2Ftracker.opentrackr.org%3A1337&tr=udp%3A%2F%2Ftracker.internetwarriors.net%3A1337%2Fannounce&tr=udp%3A%2F%2Ftracker.leechers-paradise.org%3A6969%2Fannounce&tr=udp%3A%2F%2Ftracker.coppersurfer.tk%3A6969%2Fannounce&tr=udp%3A%2F%2Ftracker.pirateparty.gr%3A6969%2Fannounce&tr=udp%3A%2F%2Ftracker.cyberia.is%3A6969%2Fannounce",
        "seeder": "1",
        "leecher": "0"
    }
]
