[
    {
        "rank": "1",
        "title": "GGG.Blondinen.An.Die.Spermafront.German.XXX.DVDRip.x264-CiCXXX",
        "link": "magnet:?xt=urn:btih:25CF48AC32F03FC1F318CFAC422B161E003CAD09&dn=GGG.Blondinen.An.Die.Spermafront.German.XXX.DVDRip.x264-CiCXXX&tr=udp%3A%2F%2Ftracker.coppersurfer.tk%3A6969%2Fannounce&tr=udp%3A%2F%2F9.rarbg.to%3A2920%2Fannounce&tr=udp%3A%2F%2Ftracker.opentrackr.org%3A1337&tr=udp%3A%2F%2Ftracker.internetwarriors.net%3A1337%2Fannounce&tr=udp%3A%2F%2Ftracker.leechers-paradise.org%3A6969%2Fannounce&tr=udp%3A%2F%2Ftracker.coppersurfer.tk%3A6969%2Fannounce&tr=udp%3A%2F%2Ftracker.pirateparty.gr%3A6969%2Fannounce&tr=udp%3A%2F%2Ftracker.cyberia.is%3A6969%2Fannounce",
        "seeder": "602",
        "leecher": "62"
    },
    {
        "rank": "2",
        "title": "Lust.Pur.Conny.Costa.Brava.German.XXX.DVDRip.x264-CiCXXX",
        "link": "magnet:?xt=urn:btih:BD45412035CA8967A96F9314F739AB354616983A&dn=Lust.Pur.Conny.Costa.Brava.German.XXX.DVDRip.x264-CiCXXX&tr=udp%3A%2F%2Ftracker.coppersurfer.tk%3A6969%2Fannounce&tr=udp%3A%2F%2F9.rarbg.to%3A2920%2Fannounce&tr=udp%3A%2F%2Ftracker.opentrackr.org%3A1337&tr=udp%3A%2F%2Ftracker.internetwarriors.net%3A1337%2Fannounce&tr=udp%3A%2F%2Ftracker.leechers-paradise.org%3A6969%2Fannounce&tr=udp%3A%2F%2Ftracker.coppersurfer.tk%3A6969%2Fannounce&tr=udp%3A%2F%2Ftracker.pirateparty.gr%3A6969%2Fannounce&tr=udp%3A%2F%2Ftracker.cyberia.is%3A6969%2Fannounce",
        "seeder": "576",
        "leecher": "63"
    },
    {
        "rank": "3",
        "title": "GGG.Fick.Und.Spritz.Mich.Voll.German.XXX.DVDRip.x264-CiCXXX",
        "link": "magnet:?xt=urn:btih:4761869970458DAD5511FB33F9A8F9A4D2DD6853&dn=GGG.Fick.Und.Spritz.Mich.Voll.German.XXX.DVDRip.x264-CiCXXX&tr=udp%3A%2F%2Ftracker.coppersurfer.tk%3A6969%2Fannounce&tr=udp%3A%2F%2F9.rarbg.to%3A2920%2Fannounce&tr=udp%3A%2F%2Ftracker.opentrackr.org%3A1337&tr=udp%3A%2F%2Ftracker.internetwarriors.net%3A1337%2Fannounce&tr=udp%3A%2F%2Ftracker.leechers-paradise.org%3A6969%2Fannounce&tr=udp%3A%2F%2Ftracker.coppersurfer.tk%3A6969%2Fannounce&tr=udp%3A%2F%2Ftracker.pirateparty.gr%3A6969%2Fannounce&tr=udp%3A%2F%2Ftracker.cyberia.is%3A6969%2Fannounce",
        "seeder": "560",
        "leecher": "68"
    },
    {
        "rank": "4",
        "title": "Deepr [Seven Sins 2021] XXX WEB-DL Split Scenes",
        "link": "magnet:?xt=urn:btih:EEE7F50537EB60E59861EB10546F19B2F555E771&dn=Deepr+%5BSeven+Sins+2021%5D+XXX+WEB-DL+Split+Scenes&tr=udp%3A%2F%2Ftracker.coppersurfer.tk%3A6969%2Fannounce&tr=udp%3A%2F%2F9.rarbg.to%3A2920%2Fannounce&tr=udp%3A%2F%2Ftracker.opentrackr.org%3A1337&tr=udp%3A%2F%2Ftracker.internetwarriors.net%3A1337%2Fannounce&tr=udp%3A%2F%2Ftracker.leechers-paradise.org%3A6969%2Fannounce&tr=udp%3A%2F%2Ftracker.coppersurfer.tk%3A6969%2Fannounce&tr=udp%3A%2F%2Ftracker.pirateparty.gr%3A6969%2Fannounce&tr=udp%3A%2F%2Ftracker.cyberia.is%3A6969%2Fannounce",
        "seeder": "519",
        "leecher": "287"
    },
    {
        "rank": "5",
        "title": "Blacked Raw V37 [Blacked Raw 2021] XXX WEB-DL Split Scenes",
        "link": "magnet:?xt=urn:btih:0C24DDAEBA4DF15617E142997692C323C3B8F97A&dn=Blacked+Raw+V37+%5BBlacked+Raw+2021%5D+XXX+WEB-DL+Split+Scenes&tr=udp%3A%2F%2Ftracker.coppersurfer.tk%3A6969%2Fannounce&tr=udp%3A%2F%2F9.rarbg.to%3A2920%2Fannounce&tr=udp%3A%2F%2Ftracker.opentrackr.org%3A1337&tr=udp%3A%2F%2Ftracker.internetwarriors.net%3A1337%2Fannounce&tr=udp%3A%2F%2Ftracker.leechers-paradise.org%3A6969%2Fannounce&tr=udp%3A%2F%2Ftracker.coppersurfer.tk%3A6969%2Fannounce&tr=udp%3A%2F%2Ftracker.pirateparty.gr%3A6969%2Fannounce&tr=udp%3A%2F%2Ftracker.cyberia.is%3A6969%2Fannounce",
        "seeder": "463",
        "leecher": "154"
    },
    {
        "rank": "6",
        "title": "Pulsions 3 [Marc Dorcel 2021] XXX WEB-DL mp4",
        "link": "magnet:?xt=urn:btih:4A93332FD48585EB2FDE01E3F46B867EA3885B49&dn=Pulsions+3+%5BMarc+Dorcel+2021%5D+XXX+WEB-DL+mp4&tr=udp%3A%2F%2Ftracker.coppersurfer.tk%3A6969%2Fannounce&tr=udp%3A%2F%2F9.rarbg.to%3A2920%2Fannounce&tr=udp%3A%2F%2Ftracker.opentrackr.org%3A1337&tr=udp%3A%2F%2Ftracker.internetwarriors.net%3A1337%2Fannounce&tr=udp%3A%2F%2Ftracker.leechers-paradise.org%3A6969%2Fannounce&tr=udp%3A%2F%2Ftracker.coppersurfer.tk%3A6969%2Fannounce&tr=udp%3A%2F%2Ftracker.pirateparty.gr%3A6969%2Fannounce&tr=udp%3A%2F%2Ftracker.cyberia.is%3A6969%2Fannounce",
        "seeder": "418",
        "leecher": "68"
    },
    {
        "rank": "7",
        "title": "Naughty Office Vol. 75 [Naughty America 2021] XXX WEB-DL Split S",
        "link": "magnet:?xt=urn:btih:40442BABC3B5B04D37D8F51BE6DA67AB272DC2C5&dn=Naughty+Office+Vol.+75+%5BNaughty+America+2021%5D+XXX+WEB-DL+Split+S&tr=udp%3A%2F%2Ftracker.coppersurfer.tk%3A6969%2Fannounce&tr=udp%3A%2F%2F9.rarbg.to%3A2920%2Fannounce&tr=udp%3A%2F%2Ftracker.opentrackr.org%3A1337&tr=udp%3A%2F%2Ftracker.internetwarriors.net%3A1337%2Fannounce&tr=udp%3A%2F%2Ftracker.leechers-paradise.org%3A6969%2Fannounce&tr=udp%3A%2F%2Ftracker.coppersurfer.tk%3A6969%2Fannounce&tr=udp%3A%2F%2Ftracker.pirateparty.gr%3A6969%2Fannounce&tr=udp%3A%2F%2Ftracker.cyberia.is%3A6969%2Fannounce",
        "seeder": "417",
        "leecher": "120"
    },
    {
        "rank": "8",
        "title": "Backdoor Beauties 8 [Babes 2021] XXX WEB-DL Split Scenes",
        "link": "magnet:?xt=urn:btih:9AB9A432AFEB926E49E4CB0397A2A9B75FE6C88D&dn=Backdoor+Beauties+8+%5BBabes+2021%5D+XXX+WEB-DL+Split+Scenes&tr=udp%3A%2F%2Ftracker.coppersurfer.tk%3A6969%2Fannounce&tr=udp%3A%2F%2F9.rarbg.to%3A2920%2Fannounce&tr=udp%3A%2F%2Ftracker.opentrackr.org%3A1337&tr=udp%3A%2F%2Ftracker.internetwarriors.net%3A1337%2Fannounce&tr=udp%3A%2F%2Ftracker.leechers-paradise.org%3A6969%2Fannounce&tr=udp%3A%2F%2Ftracker.coppersurfer.tk%3A6969%2Fannounce&tr=udp%3A%2F%2Ftracker.pirateparty.gr%3A6969%2Fannounce&tr=udp%3A%2F%2Ftracker.cyberia.is%3A6969%2Fannounce",
        "seeder": "383",
        "leecher": "104"
    },
    {
        "rank": "9",
        "title": "The.Most.Beautiful.Girls.In.Porn.4.DiSC1.XXX.DVDRip.x264-ROXXX",
        "link": "magnet:?xt=urn:btih:7937EC24786F8FF53B177CD6394C826BF3CF3C4F&dn=The.Most.Beautiful.Girls.In.Porn.4.DiSC1.XXX.DVDRip.x264-ROXXX&tr=udp%3A%2F%2Ftracker.coppersurfer.tk%3A6969%2Fannounce&tr=udp%3A%2F%2F9.rarbg.to%3A2920%2Fannounce&tr=udp%3A%2F%2Ftracker.opentrackr.org%3A1337&tr=udp%3A%2F%2Ftracker.internetwarriors.net%3A1337%2Fannounce&tr=udp%3A%2F%2Ftracker.leechers-paradise.org%3A6969%2Fannounce&tr=udp%3A%2F%2Ftracker.coppersurfer.tk%3A6969%2Fannounce&tr=udp%3A%2F%2Ftracker.pirateparty.gr%3A6969%2Fannounce&tr=udp%3A%2F%2Ftracker.cyberia.is%3A6969%2Fannounce",
        "seeder": "268",
        "leecher": "23"
    },
    {
        "rank": "10",
        "title": "My Friends Hot Girl Vol. 34 [Naughty America 2021] XXX WEB-DL Sp",
        "link": "magnet:?xt=urn:btih:7BC4F82C069C5F8DC5AF33F6E8AD963BCFAD6E6F&dn=My+Friends+Hot+Girl+Vol.+34+%5BNaughty+America+2021%5D+XXX+WEB-DL+Sp&tr=udp%3A%2F%2Ftracker.coppersurfer.tk%3A6969%2Fannounce&tr=udp%3A%2F%2F9.rarbg.to%3A2920%2Fannounce&tr=udp%3A%2F%2Ftracker.opentrackr.org%3A1337&tr=udp%3A%2F%2Ftracker.internetwarriors.net%3A1337%2Fannounce&tr=udp%3A%2F%2Ftracker.leechers-paradise.org%3A6969%2Fannounce&tr=udp%3A%2F%2Ftracker.coppersurfer.tk%3A6969%2Fannounce&tr=udp%3A%2F%2Ftracker.pirateparty.gr%3A6969%2Fannounce&tr=udp%3A%2F%2Ftracker.cyberia.is%3A6969%2Fannounce",
        "seeder": "237",
        "leecher": "65"
    },
    {
        "rank": "11",
        "title": "Mom Bush 2 [MYLF 2021] XXX WEB-DL Split Scenes",
        "link": "magnet:?xt=urn:btih:20DE64A132A3F33F33DFDEEC15475963E0016F72&dn=Mom+Bush+2+%5BMYLF+2021%5D+XXX+WEB-DL+Split+Scenes&tr=udp%3A%2F%2Ftracker.coppersurfer.tk%3A6969%2Fannounce&tr=udp%3A%2F%2F9.rarbg.to%3A2920%2Fannounce&tr=udp%3A%2F%2Ftracker.opentrackr.org%3A1337&tr=udp%3A%2F%2Ftracker.internetwarriors.net%3A1337%2Fannounce&tr=udp%3A%2F%2Ftracker.leechers-paradise.org%3A6969%2Fannounce&tr=udp%3A%2F%2Ftracker.coppersurfer.tk%3A6969%2Fannounce&tr=udp%3A%2F%2Ftracker.pirateparty.gr%3A6969%2Fannounce&tr=udp%3A%2F%2Ftracker.cyberia.is%3A6969%2Fannounce",
        "seeder": "210",
        "leecher": "49"
    },
    {
        "rank": "12",
        "title": "Old Enough For A Creampie [Porn Pros 2021] XXX WEB-DL Split Scen",
        "link": "magnet:?xt=urn:btih:74870FE0918491AEFE01B2D6AA82CA8030077814&dn=Old+Enough+For+A+Creampie+%5BPorn+Pros+2021%5D+XXX+WEB-DL+Split+Scen&tr=udp%3A%2F%2Ftracker.coppersurfer.tk%3A6969%2Fannounce&tr=udp%3A%2F%2F9.rarbg.to%3A2920%2Fannounce&tr=udp%3A%2F%2Ftracker.opentrackr.org%3A1337&tr=udp%3A%2F%2Ftracker.internetwarriors.net%3A1337%2Fannounce&tr=udp%3A%2F%2Ftracker.leechers-paradise.org%3A6969%2Fannounce&tr=udp%3A%2F%2Ftracker.coppersurfer.tk%3A6969%2Fannounce&tr=udp%3A%2F%2Ftracker.pirateparty.gr%3A6969%2Fannounce&tr=udp%3A%2F%2Ftracker.cyberia.is%3A6969%2Fannounce",
        "seeder": "203",
        "leecher": "50"
    },
    {
        "rank": "13",
        "title": "First Anal Vol. 11 [Tushy 2021] XXX WEB-DL Split Scenes",
        "link": "magnet:?xt=urn:btih:CA86C81501B4D22072A11990FDEE9845509A1F2B&dn=First+Anal+Vol.+11+%5BTushy+2021%5D+XXX+WEB-DL+Split+Scenes&tr=udp%3A%2F%2Ftracker.coppersurfer.tk%3A6969%2Fannounce&tr=udp%3A%2F%2F9.rarbg.to%3A2920%2Fannounce&tr=udp%3A%2F%2Ftracker.opentrackr.org%3A1337&tr=udp%3A%2F%2Ftracker.internetwarriors.net%3A1337%2Fannounce&tr=udp%3A%2F%2Ftracker.leechers-paradise.org%3A6969%2Fannounce&tr=udp%3A%2F%2Ftracker.coppersurfer.tk%3A6969%2Fannounce&tr=udp%3A%2F%2Ftracker.pirateparty.gr%3A6969%2Fannounce&tr=udp%3A%2F%2Ftracker.cyberia.is%3A6969%2Fannounce",
        "seeder": "198",
        "leecher": "45"
    },
    {
        "rank": "14",
        "title": "Family Swap [Nubiles 2021] XXX WEB-DL 540p Split Scenes",
        "link": "magnet:?xt=urn:btih:18BCD77B733069DE0B926DCA7735D59C32D056BE&dn=Family+Swap+%5BNubiles+2021%5D+XXX+WEB-DL+540p+Split+Scenes&tr=udp%3A%2F%2Ftracker.coppersurfer.tk%3A6969%2Fannounce&tr=udp%3A%2F%2F9.rarbg.to%3A2920%2Fannounce&tr=udp%3A%2F%2Ftracker.opentrackr.org%3A1337&tr=udp%3A%2F%2Ftracker.internetwarriors.net%3A1337%2Fannounce&tr=udp%3A%2F%2Ftracker.leechers-paradise.org%3A6969%2Fannounce&tr=udp%3A%2F%2Ftracker.coppersurfer.tk%3A6969%2Fannounce&tr=udp%3A%2F%2Ftracker.pirateparty.gr%3A6969%2Fannounce&tr=udp%3A%2F%2Ftracker.cyberia.is%3A6969%2Fannounce",
        "seeder": "192",
        "leecher": "23"
    },
    {
        "rank": "15",
        "title": "Natural.Beauties.14.XXX.DVDRiP.X264-LOVEXXX",
        "link": "magnet:?xt=urn:btih:7D3D24683EC4AB4958A8A1F61A7AD19B6DD7134C&dn=Natural.Beauties.14.XXX.DVDRiP.X264-LOVEXXX&tr=udp%3A%2F%2Ftracker.coppersurfer.tk%3A6969%2Fannounce&tr=udp%3A%2F%2F9.rarbg.to%3A2920%2Fannounce&tr=udp%3A%2F%2Ftracker.opentrackr.org%3A1337&tr=udp%3A%2F%2Ftracker.internetwarriors.net%3A1337%2Fannounce&tr=udp%3A%2F%2Ftracker.leechers-paradise.org%3A6969%2Fannounce&tr=udp%3A%2F%2Ftracker.coppersurfer.tk%3A6969%2Fannounce&tr=udp%3A%2F%2Ftracker.pirateparty.gr%3A6969%2Fannounce&tr=udp%3A%2F%2Ftracker.cyberia.is%3A6969%2Fannounce",
        "seeder": "179",
        "leecher": "27"
    },
    {
        "rank": "16",
        "title": "Watch Your Wife [Naughty America 2021] XXX WEB-DL Split Scenes",
        "link": "magnet:?xt=urn:btih:AB648FA30ACFE47A1FBC404A76E9F57AFD9D9B5A&dn=Watch+Your+Wife+%5BNaughty+America+2021%5D+XXX+WEB-DL+Split+Scenes&tr=udp%3A%2F%2Ftracker.coppersurfer.tk%3A6969%2Fannounce&tr=udp%3A%2F%2F9.rarbg.to%3A2920%2Fannounce&tr=udp%3A%2F%2Ftracker.opentrackr.org%3A1337&tr=udp%3A%2F%2Ftracker.internetwarriors.net%3A1337%2Fannounce&tr=udp%3A%2F%2Ftracker.leechers-paradise.org%3A6969%2Fannounce&tr=udp%3A%2F%2Ftracker.coppersurfer.tk%3A6969%2Fannounce&tr=udp%3A%2F%2Ftracker.pirateparty.gr%3A6969%2Fannounce&tr=udp%3A%2F%2Ftracker.cyberia.is%3A6969%2Fannounce",
        "seeder": "178",
        "leecher": "51"
    },
    {
        "rank": "17",
        "title": "Filthy Moms 6 [Brazzers 2021] XXX WEB-DL Split Scenes",
        "link": "magnet:?xt=urn:btih:A3E141F8877DF0C045E0256DB194A01B24BCA6E5&dn=Filthy+Moms+6+%5BBrazzers+2021%5D+XXX+WEB-DL+Split+Scenes&tr=udp%3A%2F%2Ftracker.coppersurfer.tk%3A6969%2Fannounce&tr=udp%3A%2F%2F9.rarbg.to%3A2920%2Fannounce&tr=udp%3A%2F%2Ftracker.opentrackr.org%3A1337&tr=udp%3A%2F%2Ftracker.internetwarriors.net%3A1337%2Fannounce&tr=udp%3A%2F%2Ftracker.leechers-paradise.org%3A6969%2Fannounce&tr=udp%3A%2F%2Ftracker.coppersurfer.tk%3A6969%2Fannounce&tr=udp%3A%2F%2Ftracker.pirateparty.gr%3A6969%2Fannounce&tr=udp%3A%2F%2Ftracker.cyberia.is%3A6969%2Fannounce",
        "seeder": "166",
        "leecher": "38"
    },
    {
        "rank": "18",
        "title": "My Friends Hot Mom Vol. 89 [Naughty America 2021] XXX WEB-DL Spl",
        "link": "magnet:?xt=urn:btih:61972600B197DFCBBDF43CE2357D61853A15CA8E&dn=My+Friends+Hot+Mom+Vol.+89+%5BNaughty+America+2021%5D+XXX+WEB-DL+Spl&tr=udp%3A%2F%2Ftracker.coppersurfer.tk%3A6969%2Fannounce&tr=udp%3A%2F%2F9.rarbg.to%3A2920%2Fannounce&tr=udp%3A%2F%2Ftracker.opentrackr.org%3A1337&tr=udp%3A%2F%2Ftracker.internetwarriors.net%3A1337%2Fannounce&tr=udp%3A%2F%2Ftracker.leechers-paradise.org%3A6969%2Fannounce&tr=udp%3A%2F%2Ftracker.coppersurfer.tk%3A6969%2Fannounce&tr=udp%3A%2F%2Ftracker.pirateparty.gr%3A6969%2Fannounce&tr=udp%3A%2F%2Ftracker.cyberia.is%3A6969%2Fannounce",
        "seeder": "163",
        "leecher": "32"
    },
    {
        "rank": "19",
        "title": "Anal.UNCUT.XXX.DVDRiP.X264-LOVEXXX",
        "link": "magnet:?xt=urn:btih:F960F38D545D0D95A18BD34B4833F64663E3FED1&dn=Anal.UNCUT.XXX.DVDRiP.X264-LOVEXXX&tr=udp%3A%2F%2Ftracker.coppersurfer.tk%3A6969%2Fannounce&tr=udp%3A%2F%2F9.rarbg.to%3A2920%2Fannounce&tr=udp%3A%2F%2Ftracker.opentrackr.org%3A1337&tr=udp%3A%2F%2Ftracker.internetwarriors.net%3A1337%2Fannounce&tr=udp%3A%2F%2Ftracker.leechers-paradise.org%3A6969%2Fannounce&tr=udp%3A%2F%2Ftracker.coppersurfer.tk%3A6969%2Fannounce&tr=udp%3A%2F%2Ftracker.pirateparty.gr%3A6969%2Fannounce&tr=udp%3A%2F%2Ftracker.cyberia.is%3A6969%2Fannounce",
        "seeder": "156",
        "leecher": "28"
    },
    {
        "rank": "20",
        "title": "One Exception [PornFidelity 2021] XXX WEB-DL Split Scenes",
        "link": "magnet:?xt=urn:btih:8630698895C43C529127BBBF2C0BABD20C2D9623&dn=One+Exception+%5BPornFidelity+2021%5D+XXX+WEB-DL+Split+Scenes&tr=udp%3A%2F%2Ftracker.coppersurfer.tk%3A6969%2Fannounce&tr=udp%3A%2F%2F9.rarbg.to%3A2920%2Fannounce&tr=udp%3A%2F%2Ftracker.opentrackr.org%3A1337&tr=udp%3A%2F%2Ftracker.internetwarriors.net%3A1337%2Fannounce&tr=udp%3A%2F%2Ftracker.leechers-paradise.org%3A6969%2Fannounce&tr=udp%3A%2F%2Ftracker.coppersurfer.tk%3A6969%2Fannounce&tr=udp%3A%2F%2Ftracker.pirateparty.gr%3A6969%2Fannounce&tr=udp%3A%2F%2Ftracker.cyberia.is%3A6969%2Fannounce",
        "seeder": "154",
        "leecher": "47"
    },
    {
        "rank": "21",
        "title": "Neighbor Affair Vol. 44 [Naughty America 2021] XXX WEB-DL Split",
        "link": "magnet:?xt=urn:btih:5E76A8FED08E0B50D99EB63EF61E823DC54A0340&dn=Neighbor+Affair+Vol.+44+%5BNaughty+America+2021%5D+XXX+WEB-DL+Split&tr=udp%3A%2F%2Ftracker.coppersurfer.tk%3A6969%2Fannounce&tr=udp%3A%2F%2F9.rarbg.to%3A2920%2Fannounce&tr=udp%3A%2F%2Ftracker.opentrackr.org%3A1337&tr=udp%3A%2F%2Ftracker.internetwarriors.net%3A1337%2Fannounce&tr=udp%3A%2F%2Ftracker.leechers-paradise.org%3A6969%2Fannounce&tr=udp%3A%2F%2Ftracker.coppersurfer.tk%3A6969%2Fannounce&tr=udp%3A%2F%2Ftracker.pirateparty.gr%3A6969%2Fannounce&tr=udp%3A%2F%2Ftracker.cyberia.is%3A6969%2Fannounce",
        "seeder": "151",
        "leecher": "39"
    },
    {
        "rank": "22",
        "title": "18+ Japanese Hot Beautiful Girls JAV UNCENSORED XXX Porn Movies",
        "link": "magnet:?xt=urn:btih:0EE165081EAE697AF15D9C3D60A9F0BEECE1ACDD&dn=18%2B+Japanese+Hot+Beautiful+Girls+JAV+UNCENSORED+XXX+Porn+Movies&tr=udp%3A%2F%2Ftracker.coppersurfer.tk%3A6969%2Fannounce&tr=udp%3A%2F%2F9.rarbg.to%3A2920%2Fannounce&tr=udp%3A%2F%2Ftracker.opentrackr.org%3A1337&tr=udp%3A%2F%2Ftracker.internetwarriors.net%3A1337%2Fannounce&tr=udp%3A%2F%2Ftracker.leechers-paradise.org%3A6969%2Fannounce&tr=udp%3A%2F%2Ftracker.coppersurfer.tk%3A6969%2Fannounce&tr=udp%3A%2F%2Ftracker.pirateparty.gr%3A6969%2Fannounce&tr=udp%3A%2F%2Ftracker.cyberia.is%3A6969%2Fannounce",
        "seeder": "143",
        "leecher": "22"
    },
    {
        "rank": "23",
        "title": "Cold.Pursuit..2019..[BluRay].[1080p].",
        "link": "magnet:?xt=urn:btih:8F633ADE68281674EBF175A9FC100DCA33AB827A&dn=Cold.Pursuit..2019..%5BBluRay%5D.%5B1080p%5D.&tr=udp%3A%2F%2Ftracker.coppersurfer.tk%3A6969%2Fannounce&tr=udp%3A%2F%2F9.rarbg.to%3A2920%2Fannounce&tr=udp%3A%2F%2Ftracker.opentrackr.org%3A1337&tr=udp%3A%2F%2Ftracker.internetwarriors.net%3A1337%2Fannounce&tr=udp%3A%2F%2Ftracker.leechers-paradise.org%3A6969%2Fannounce&tr=udp%3A%2F%2Ftracker.coppersurfer.tk%3A6969%2Fannounce&tr=udp%3A%2F%2Ftracker.pirateparty.gr%3A6969%2Fannounce&tr=udp%3A%2F%2Ftracker.cyberia.is%3A6969%2Fannounce",
        "seeder": "136",
        "leecher": "12"
    },
    {
        "rank": "24",
        "title": "Dad Crush Vol. 10 [Crave Media 2021] XXX WEB-DL Split Scenes",
        "link": "magnet:?xt=urn:btih:D725D54AB1E201D7D5D7891F3A9AACB5F9BFC798&dn=Dad+Crush+Vol.+10+%5BCrave+Media+2021%5D+XXX+WEB-DL+Split+Scenes&tr=udp%3A%2F%2Ftracker.coppersurfer.tk%3A6969%2Fannounce&tr=udp%3A%2F%2F9.rarbg.to%3A2920%2Fannounce&tr=udp%3A%2F%2Ftracker.opentrackr.org%3A1337&tr=udp%3A%2F%2Ftracker.internetwarriors.net%3A1337%2Fannounce&tr=udp%3A%2F%2Ftracker.leechers-paradise.org%3A6969%2Fannounce&tr=udp%3A%2F%2Ftracker.coppersurfer.tk%3A6969%2Fannounce&tr=udp%3A%2F%2Ftracker.pirateparty.gr%3A6969%2Fannounce&tr=udp%3A%2F%2Ftracker.cyberia.is%3A6969%2Fannounce",
        "seeder": "131",
        "leecher": "22"
    },
    {
        "rank": "25",
        "title": "Busty Petite 9 [Team Skeet 2021] XXX WEB-DL Split Scenes",
        "link": "magnet:?xt=urn:btih:8E3E304C4634A28926AAD7DD6B487C50E760C1DD&dn=Busty+Petite+9+%5BTeam+Skeet+2021%5D+XXX+WEB-DL+Split+Scenes&tr=udp%3A%2F%2Ftracker.coppersurfer.tk%3A6969%2Fannounce&tr=udp%3A%2F%2F9.rarbg.to%3A2920%2Fannounce&tr=udp%3A%2F%2Ftracker.opentrackr.org%3A1337&tr=udp%3A%2F%2Ftracker.internetwarriors.net%3A1337%2Fannounce&tr=udp%3A%2F%2Ftracker.leechers-paradise.org%3A6969%2Fannounce&tr=udp%3A%2F%2Ftracker.coppersurfer.tk%3A6969%2Fannounce&tr=udp%3A%2F%2Ftracker.pirateparty.gr%3A6969%2Fannounce&tr=udp%3A%2F%2Ftracker.cyberia.is%3A6969%2Fannounce",
        "seeder": "129",
        "leecher": "25"
    },
    {
        "rank": "26",
        "title": "Cum In A Teen [PornFidelity 2021] XXX WEB-DL Split Scenes",
        "link": "magnet:?xt=urn:btih:16148D1C486121E57D2E4C56ADFD35E5E614D11B&dn=Cum+In+A+Teen+%5BPornFidelity+2021%5D+XXX+WEB-DL+Split+Scenes&tr=udp%3A%2F%2Ftracker.coppersurfer.tk%3A6969%2Fannounce&tr=udp%3A%2F%2F9.rarbg.to%3A2920%2Fannounce&tr=udp%3A%2F%2Ftracker.opentrackr.org%3A1337&tr=udp%3A%2F%2Ftracker.internetwarriors.net%3A1337%2Fannounce&tr=udp%3A%2F%2Ftracker.leechers-paradise.org%3A6969%2Fannounce&tr=udp%3A%2F%2Ftracker.coppersurfer.tk%3A6969%2Fannounce&tr=udp%3A%2F%2Ftracker.pirateparty.gr%3A6969%2Fannounce&tr=udp%3A%2F%2Ftracker.cyberia.is%3A6969%2Fannounce",
        "seeder": "117",
        "leecher": "47"
    },
    {
        "rank": "27",
        "title": "Let.Me.Watch.2.XXX.DVDRip.x264-STARLETS",
        "link": "magnet:?xt=urn:btih:6817AF49D4A2C5BBC48ECE7371CD584DD6CDE1E0&dn=Let.Me.Watch.2.XXX.DVDRip.x264-STARLETS&tr=udp%3A%2F%2Ftracker.coppersurfer.tk%3A6969%2Fannounce&tr=udp%3A%2F%2F9.rarbg.to%3A2920%2Fannounce&tr=udp%3A%2F%2Ftracker.opentrackr.org%3A1337&tr=udp%3A%2F%2Ftracker.internetwarriors.net%3A1337%2Fannounce&tr=udp%3A%2F%2Ftracker.leechers-paradise.org%3A6969%2Fannounce&tr=udp%3A%2F%2Ftracker.coppersurfer.tk%3A6969%2Fannounce&tr=udp%3A%2F%2Ftracker.pirateparty.gr%3A6969%2Fannounce&tr=udp%3A%2F%2Ftracker.cyberia.is%3A6969%2Fannounce",
        "seeder": "115",
        "leecher": "14"
    },
    {
        "rank": "28",
        "title": "Pornstar Therapy 6 [Brazzers 2021] XXX WEB-DL Split Scenes",
        "link": "magnet:?xt=urn:btih:A8E25653C5DD323967C753AB15585F7AA0119262&dn=Pornstar+Therapy+6+%5BBrazzers+2021%5D+XXX+WEB-DL+Split+Scenes&tr=udp%3A%2F%2Ftracker.coppersurfer.tk%3A6969%2Fannounce&tr=udp%3A%2F%2F9.rarbg.to%3A2920%2Fannounce&tr=udp%3A%2F%2Ftracker.opentrackr.org%3A1337&tr=udp%3A%2F%2Ftracker.internetwarriors.net%3A1337%2Fannounce&tr=udp%3A%2F%2Ftracker.leechers-paradise.org%3A6969%2Fannounce&tr=udp%3A%2F%2Ftracker.coppersurfer.tk%3A6969%2Fannounce&tr=udp%3A%2F%2Ftracker.pirateparty.gr%3A6969%2Fannounce&tr=udp%3A%2F%2Ftracker.cyberia.is%3A6969%2Fannounce",
        "seeder": "115",
        "leecher": "18"
    },
    {
        "rank": "29",
        "title": "Moms Bang Teens 40 [Reality Kings 2021] XXX WEB-DL Split Scenes",
        "link": "magnet:?xt=urn:btih:885DA7BE8C887A356DD71A159E1A6E43F0B05B39&dn=Moms+Bang+Teens+40+%5BReality+Kings+2021%5D+XXX+WEB-DL+Split+Scenes&tr=udp%3A%2F%2Ftracker.coppersurfer.tk%3A6969%2Fannounce&tr=udp%3A%2F%2F9.rarbg.to%3A2920%2Fannounce&tr=udp%3A%2F%2Ftracker.opentrackr.org%3A1337&tr=udp%3A%2F%2Ftracker.internetwarriors.net%3A1337%2Fannounce&tr=udp%3A%2F%2Ftracker.leechers-paradise.org%3A6969%2Fannounce&tr=udp%3A%2F%2Ftracker.coppersurfer.tk%3A6969%2Fannounce&tr=udp%3A%2F%2Ftracker.pirateparty.gr%3A6969%2Fannounce&tr=udp%3A%2F%2Ftracker.cyberia.is%3A6969%2Fannounce",
        "seeder": "113",
        "leecher": "19"
    },
    {
        "rank": "30",
        "title": "Teens Love Huge Cocks Vol. 36 [Reality Kings 2021] XXX WEB-DL Sp",
        "link": "magnet:?xt=urn:btih:4D578BFC96297E32DD10A2E7518A2E60BC9CE26C&dn=Teens+Love+Huge+Cocks+Vol.+36+%5BReality+Kings+2021%5D+XXX+WEB-DL+Sp&tr=udp%3A%2F%2Ftracker.coppersurfer.tk%3A6969%2Fannounce&tr=udp%3A%2F%2F9.rarbg.to%3A2920%2Fannounce&tr=udp%3A%2F%2Ftracker.opentrackr.org%3A1337&tr=udp%3A%2F%2Ftracker.internetwarriors.net%3A1337%2Fannounce&tr=udp%3A%2F%2Ftracker.leechers-paradise.org%3A6969%2Fannounce&tr=udp%3A%2F%2Ftracker.coppersurfer.tk%3A6969%2Fannounce&tr=udp%3A%2F%2Ftracker.pirateparty.gr%3A6969%2Fannounce&tr=udp%3A%2F%2Ftracker.cyberia.is%3A6969%2Fannounce",
        "seeder": "111",
        "leecher": "34"
    },
    {
        "rank": "31",
        "title": "Moms And MILFs 2 [MomXXX 2021] XXX WEB-DL Split Scenes",
        "link": "magnet:?xt=urn:btih:1BD83A50487F7703699350F2704D06163F1BFBF8&dn=Moms+And+MILFs+2+%5BMomXXX+2021%5D+XXX+WEB-DL+Split+Scenes&tr=udp%3A%2F%2Ftracker.coppersurfer.tk%3A6969%2Fannounce&tr=udp%3A%2F%2F9.rarbg.to%3A2920%2Fannounce&tr=udp%3A%2F%2Ftracker.opentrackr.org%3A1337&tr=udp%3A%2F%2Ftracker.internetwarriors.net%3A1337%2Fannounce&tr=udp%3A%2F%2Ftracker.leechers-paradise.org%3A6969%2Fannounce&tr=udp%3A%2F%2Ftracker.coppersurfer.tk%3A6969%2Fannounce&tr=udp%3A%2F%2Ftracker.pirateparty.gr%3A6969%2Fannounce&tr=udp%3A%2F%2Ftracker.cyberia.is%3A6969%2Fannounce",
        "seeder": "106",
        "leecher": "12"
    },
    {
        "rank": "32",
        "title": "Young and In Lust [Karups 2021] XXX WEB-DL Split Scenes",
        "link": "magnet:?xt=urn:btih:C6BCCBFD36EB47E1CC125545F35EFDAC5FE8B576&dn=Young+and+In+Lust+%5BKarups+2021%5D+XXX+WEB-DL+Split+Scenes&tr=udp%3A%2F%2Ftracker.coppersurfer.tk%3A6969%2Fannounce&tr=udp%3A%2F%2F9.rarbg.to%3A2920%2Fannounce&tr=udp%3A%2F%2Ftracker.opentrackr.org%3A1337&tr=udp%3A%2F%2Ftracker.internetwarriors.net%3A1337%2Fannounce&tr=udp%3A%2F%2Ftracker.leechers-paradise.org%3A6969%2Fannounce&tr=udp%3A%2F%2Ftracker.coppersurfer.tk%3A6969%2Fannounce&tr=udp%3A%2F%2Ftracker.pirateparty.gr%3A6969%2Fannounce&tr=udp%3A%2F%2Ftracker.cyberia.is%3A6969%2Fannounce",
        "seeder": "104",
        "leecher": "8"
    },
    {
        "rank": "33",
        "title": "Wet and Wild Asses 4 [Brazzers 2021] XXX WEB-DL Split Scenes",
        "link": "magnet:?xt=urn:btih:9AE1777A053AB37C7E61E801BCA547BFC2572C81&dn=Wet+and+Wild+Asses+4+%5BBrazzers+2021%5D+XXX+WEB-DL+Split+Scenes&tr=udp%3A%2F%2Ftracker.coppersurfer.tk%3A6969%2Fannounce&tr=udp%3A%2F%2F9.rarbg.to%3A2920%2Fannounce&tr=udp%3A%2F%2Ftracker.opentrackr.org%3A1337&tr=udp%3A%2F%2Ftracker.internetwarriors.net%3A1337%2Fannounce&tr=udp%3A%2F%2Ftracker.leechers-paradise.org%3A6969%2Fannounce&tr=udp%3A%2F%2Ftracker.coppersurfer.tk%3A6969%2Fannounce&tr=udp%3A%2F%2Ftracker.pirateparty.gr%3A6969%2Fannounce&tr=udp%3A%2F%2Ftracker.cyberia.is%3A6969%2Fannounce",
        "seeder": "103",
        "leecher": "21"
    },
    {
        "rank": "34",
        "title": "Blacked.Raw.V38.XXX.DVDRiP.X264-LOVEXXX",
        "link": "magnet:?xt=urn:btih:60119E39F3DEEE5E4C0CE2549583547CB09BB1F2&dn=Blacked.Raw.V38.XXX.DVDRiP.X264-LOVEXXX&tr=udp%3A%2F%2Ftracker.coppersurfer.tk%3A6969%2Fannounce&tr=udp%3A%2F%2F9.rarbg.to%3A2920%2Fannounce&tr=udp%3A%2F%2Ftracker.opentrackr.org%3A1337&tr=udp%3A%2F%2Ftracker.internetwarriors.net%3A1337%2Fannounce&tr=udp%3A%2F%2Ftracker.leechers-paradise.org%3A6969%2Fannounce&tr=udp%3A%2F%2Ftracker.coppersurfer.tk%3A6969%2Fannounce&tr=udp%3A%2F%2Ftracker.pirateparty.gr%3A6969%2Fannounce&tr=udp%3A%2F%2Ftracker.cyberia.is%3A6969%2Fannounce",
        "seeder": "101",
        "leecher": "13"
    },
    {
        "rank": "35",
        "title": "LA.Sluts.01.XXX.DVDRiP.X264-LOVEXXX",
        "link": "magnet:?xt=urn:btih:5A6A639DD85AC963623A5D69961E0614742B35CF&dn=LA.Sluts.01.XXX.DVDRiP.X264-LOVEXXX&tr=udp%3A%2F%2Ftracker.coppersurfer.tk%3A6969%2Fannounce&tr=udp%3A%2F%2F9.rarbg.to%3A2920%2Fannounce&tr=udp%3A%2F%2Ftracker.opentrackr.org%3A1337&tr=udp%3A%2F%2Ftracker.internetwarriors.net%3A1337%2Fannounce&tr=udp%3A%2F%2Ftracker.leechers-paradise.org%3A6969%2Fannounce&tr=udp%3A%2F%2Ftracker.coppersurfer.tk%3A6969%2Fannounce&tr=udp%3A%2F%2Ftracker.pirateparty.gr%3A6969%2Fannounce&tr=udp%3A%2F%2Ftracker.cyberia.is%3A6969%2Fannounce",
        "seeder": "99",
        "leecher": "23"
    },
    {
        "rank": "36",
        "title": "A Hotwife Blindfolded 5 [New Sensations 2021] XXX WEB-DL Split S",
        "link": "magnet:?xt=urn:btih:4D461B98477C76FC4E2EF1F411CE2E839DF4F659&dn=A+Hotwife+Blindfolded+5+%5BNew+Sensations+2021%5D+XXX+WEB-DL+Split+S&tr=udp%3A%2F%2Ftracker.coppersurfer.tk%3A6969%2Fannounce&tr=udp%3A%2F%2F9.rarbg.to%3A2920%2Fannounce&tr=udp%3A%2F%2Ftracker.opentrackr.org%3A1337&tr=udp%3A%2F%2Ftracker.internetwarriors.net%3A1337%2Fannounce&tr=udp%3A%2F%2Ftracker.leechers-paradise.org%3A6969%2Fannounce&tr=udp%3A%2F%2Ftracker.coppersurfer.tk%3A6969%2Fannounce&tr=udp%3A%2F%2Ftracker.pirateparty.gr%3A6969%2Fannounce&tr=udp%3A%2F%2Ftracker.cyberia.is%3A6969%2Fannounce",
        "seeder": "99",
        "leecher": "33"
    },
    {
        "rank": "37",
        "title": "Mix XXX 23 Movies",
        "link": "magnet:?xt=urn:btih:CC2ABC40D377C8A88C10BA27B07590D66051122D&dn=Mix+XXX+23+Movies&tr=udp%3A%2F%2Ftracker.coppersurfer.tk%3A6969%2Fannounce&tr=udp%3A%2F%2F9.rarbg.to%3A2920%2Fannounce&tr=udp%3A%2F%2Ftracker.opentrackr.org%3A1337&tr=udp%3A%2F%2Ftracker.internetwarriors.net%3A1337%2Fannounce&tr=udp%3A%2F%2Ftracker.leechers-paradise.org%3A6969%2Fannounce&tr=udp%3A%2F%2Ftracker.coppersurfer.tk%3A6969%2Fannounce&tr=udp%3A%2F%2Ftracker.pirateparty.gr%3A6969%2Fannounce&tr=udp%3A%2F%2Ftracker.cyberia.is%3A6969%2Fannounce",
        "seeder": "97",
        "leecher": "176"
    },
    {
        "rank": "38",
        "title": "My Daughters Hot Friend Vol. 2 [Naughty America 2021] XXX WEB-DL",
        "link": "magnet:?xt=urn:btih:0DF040FCB5DD4F52BE3D97270186AC7318CA0572&dn=My+Daughters+Hot+Friend+Vol.+2+%5BNaughty+America+2021%5D+XXX+WEB-DL&tr=udp%3A%2F%2Ftracker.coppersurfer.tk%3A6969%2Fannounce&tr=udp%3A%2F%2F9.rarbg.to%3A2920%2Fannounce&tr=udp%3A%2F%2Ftracker.opentrackr.org%3A1337&tr=udp%3A%2F%2Ftracker.internetwarriors.net%3A1337%2Fannounce&tr=udp%3A%2F%2Ftracker.leechers-paradise.org%3A6969%2Fannounce&tr=udp%3A%2F%2Ftracker.coppersurfer.tk%3A6969%2Fannounce&tr=udp%3A%2F%2Ftracker.pirateparty.gr%3A6969%2Fannounce&tr=udp%3A%2F%2Ftracker.cyberia.is%3A6969%2Fannounce",
        "seeder": "96",
        "leecher": "30"
    },
    {
        "rank": "39",
        "title": "Ebony.Power.Agent.2.XXX.DVDRiP.X264-LOVEXXX",
        "link": "magnet:?xt=urn:btih:C33338CE5BCB2DEB36535E05147C12350C797064&dn=Ebony.Power.Agent.2.XXX.DVDRiP.X264-LOVEXXX&tr=udp%3A%2F%2Ftracker.coppersurfer.tk%3A6969%2Fannounce&tr=udp%3A%2F%2F9.rarbg.to%3A2920%2Fannounce&tr=udp%3A%2F%2Ftracker.opentrackr.org%3A1337&tr=udp%3A%2F%2Ftracker.internetwarriors.net%3A1337%2Fannounce&tr=udp%3A%2F%2Ftracker.leechers-paradise.org%3A6969%2Fannounce&tr=udp%3A%2F%2Ftracker.coppersurfer.tk%3A6969%2Fannounce&tr=udp%3A%2F%2Ftracker.pirateparty.gr%3A6969%2Fannounce&tr=udp%3A%2F%2Ftracker.cyberia.is%3A6969%2Fannounce",
        "seeder": "92",
        "leecher": "22"
    },
    {
        "rank": "40",
        "title": "Pint Sized Cock Pocket 9 [NSFW Films 2021] XXX WEB-DL Split Scen",
        "link": "magnet:?xt=urn:btih:E781AD27B01B4E0BE0B8AD7150FC2E2C2C3142D3&dn=Pint+Sized+Cock+Pocket+9+%5BNSFW+Films+2021%5D+XXX+WEB-DL+Split+Scen&tr=udp%3A%2F%2Ftracker.coppersurfer.tk%3A6969%2Fannounce&tr=udp%3A%2F%2F9.rarbg.to%3A2920%2Fannounce&tr=udp%3A%2F%2Ftracker.opentrackr.org%3A1337&tr=udp%3A%2F%2Ftracker.internetwarriors.net%3A1337%2Fannounce&tr=udp%3A%2F%2Ftracker.leechers-paradise.org%3A6969%2Fannounce&tr=udp%3A%2F%2Ftracker.coppersurfer.tk%3A6969%2Fannounce&tr=udp%3A%2F%2Ftracker.pirateparty.gr%3A6969%2Fannounce&tr=udp%3A%2F%2Ftracker.cyberia.is%3A6969%2Fannounce",
        "seeder": "92",
        "leecher": "22"
    },
    {
        "rank": "41",
        "title": "Stars 2 [Marc Dorcel 2020] WEB-DL",
        "link": "magnet:?xt=urn:btih:CA754F9D5FF9B2E86640B6642AC74632F8935FC4&dn=Stars+2+%5BMarc+Dorcel+2020%5D+WEB-DL&tr=udp%3A%2F%2Ftracker.coppersurfer.tk%3A6969%2Fannounce&tr=udp%3A%2F%2F9.rarbg.to%3A2920%2Fannounce&tr=udp%3A%2F%2Ftracker.opentrackr.org%3A1337&tr=udp%3A%2F%2Ftracker.internetwarriors.net%3A1337%2Fannounce&tr=udp%3A%2F%2Ftracker.leechers-paradise.org%3A6969%2Fannounce&tr=udp%3A%2F%2Ftracker.coppersurfer.tk%3A6969%2Fannounce&tr=udp%3A%2F%2Ftracker.pirateparty.gr%3A6969%2Fannounce&tr=udp%3A%2F%2Ftracker.cyberia.is%3A6969%2Fannounce",
        "seeder": "90",
        "leecher": "11"
    },
    {
        "rank": "42",
        "title": "Performers.Of.The.Year.2020.XXX.DVDRip.x264-STARLETS",
        "link": "magnet:?xt=urn:btih:66C84CB99C8648CAEDD40822F44A16D8C2670750&dn=Performers.Of.The.Year.2020.XXX.DVDRip.x264-STARLETS&tr=udp%3A%2F%2Ftracker.coppersurfer.tk%3A6969%2Fannounce&tr=udp%3A%2F%2F9.rarbg.to%3A2920%2Fannounce&tr=udp%3A%2F%2Ftracker.opentrackr.org%3A1337&tr=udp%3A%2F%2Ftracker.internetwarriors.net%3A1337%2Fannounce&tr=udp%3A%2F%2Ftracker.leechers-paradise.org%3A6969%2Fannounce&tr=udp%3A%2F%2Ftracker.coppersurfer.tk%3A6969%2Fannounce&tr=udp%3A%2F%2Ftracker.pirateparty.gr%3A6969%2Fannounce&tr=udp%3A%2F%2Ftracker.cyberia.is%3A6969%2Fannounce",
        "seeder": "84",
        "leecher": "18"
    },
    {
        "rank": "43",
        "title": "Sexual Fantasies 5 [2021] XXX WEB-DL Split Scenes",
        "link": "magnet:?xt=urn:btih:4EE9BD7BFC8EEC4632A12F2BDAE8301F9343C254&dn=Sexual+Fantasies+5+%5B2021%5D+XXX+WEB-DL+Split+Scenes&tr=udp%3A%2F%2Ftracker.coppersurfer.tk%3A6969%2Fannounce&tr=udp%3A%2F%2F9.rarbg.to%3A2920%2Fannounce&tr=udp%3A%2F%2Ftracker.opentrackr.org%3A1337&tr=udp%3A%2F%2Ftracker.internetwarriors.net%3A1337%2Fannounce&tr=udp%3A%2F%2Ftracker.leechers-paradise.org%3A6969%2Fannounce&tr=udp%3A%2F%2Ftracker.coppersurfer.tk%3A6969%2Fannounce&tr=udp%3A%2F%2Ftracker.pirateparty.gr%3A6969%2Fannounce&tr=udp%3A%2F%2Ftracker.cyberia.is%3A6969%2Fannounce",
        "seeder": "81",
        "leecher": "20"
    },
    {
        "rank": "44",
        "title": "True Amateurs Anal Edition Vol. 3 [True Amateurs 2021] XXX WEB-D",
        "link": "magnet:?xt=urn:btih:ECB23BB74808E4609A88F58113166DDE516CB86E&dn=True+Amateurs+Anal+Edition+Vol.+3+%5BTrue+Amateurs+2021%5D+XXX+WEB-D&tr=udp%3A%2F%2Ftracker.coppersurfer.tk%3A6969%2Fannounce&tr=udp%3A%2F%2F9.rarbg.to%3A2920%2Fannounce&tr=udp%3A%2F%2Ftracker.opentrackr.org%3A1337&tr=udp%3A%2F%2Ftracker.internetwarriors.net%3A1337%2Fannounce&tr=udp%3A%2F%2Ftracker.leechers-paradise.org%3A6969%2Fannounce&tr=udp%3A%2F%2Ftracker.coppersurfer.tk%3A6969%2Fannounce&tr=udp%3A%2F%2Ftracker.pirateparty.gr%3A6969%2Fannounce&tr=udp%3A%2F%2Ftracker.cyberia.is%3A6969%2Fannounce",
        "seeder": "80",
        "leecher": "13"
    },
    {
        "rank": "45",
        "title": "Blacked Raw V36 [Blacked Raw 2021] XXX WEB-DL Split Scenes",
        "link": "magnet:?xt=urn:btih:5C9894EDE837DEB088C52C06347AB1C07D8E7161&dn=Blacked+Raw+V36+%5BBlacked+Raw+2021%5D+XXX+WEB-DL+Split+Scenes&tr=udp%3A%2F%2Ftracker.coppersurfer.tk%3A6969%2Fannounce&tr=udp%3A%2F%2F9.rarbg.to%3A2920%2Fannounce&tr=udp%3A%2F%2Ftracker.opentrackr.org%3A1337&tr=udp%3A%2F%2Ftracker.internetwarriors.net%3A1337%2Fannounce&tr=udp%3A%2F%2Ftracker.leechers-paradise.org%3A6969%2Fannounce&tr=udp%3A%2F%2Ftracker.coppersurfer.tk%3A6969%2Fannounce&tr=udp%3A%2F%2Ftracker.pirateparty.gr%3A6969%2Fannounce&tr=udp%3A%2F%2Ftracker.cyberia.is%3A6969%2Fannounce",
        "seeder": "79",
        "leecher": "21"
    },
    {
        "rank": "46",
        "title": "Pulsions vol.3  (Marc Dorcel) [2021 \u0433., WEBRip]",
        "link": "magnet:?xt=urn:btih:2540F79A413EB1D5DD35878F25F507385858CA3B&dn=Pulsions+vol.3++%28Marc+Dorcel%29+%5B2021+%D0%B3.%2C+WEBRip%5D&tr=udp%3A%2F%2Ftracker.coppersurfer.tk%3A6969%2Fannounce&tr=udp%3A%2F%2F9.rarbg.to%3A2920%2Fannounce&tr=udp%3A%2F%2Ftracker.opentrackr.org%3A1337&tr=udp%3A%2F%2Ftracker.internetwarriors.net%3A1337%2Fannounce&tr=udp%3A%2F%2Ftracker.leechers-paradise.org%3A6969%2Fannounce&tr=udp%3A%2F%2Ftracker.coppersurfer.tk%3A6969%2Fannounce&tr=udp%3A%2F%2Ftracker.pirateparty.gr%3A6969%2Fannounce&tr=udp%3A%2F%2Ftracker.cyberia.is%3A6969%2Fannounce",
        "seeder": "79",
        "leecher": "4"
    },
    {
        "rank": "47",
        "title": "Nubiles ET V5 [Nubiles 2021] XXX WEB-DL Split Scenes",
        "link": "magnet:?xt=urn:btih:A9D8612766BBD6C88794826D179E239434D0F399&dn=Nubiles+ET+V5+%5BNubiles+2021%5D+XXX+WEB-DL+Split+Scenes&tr=udp%3A%2F%2Ftracker.coppersurfer.tk%3A6969%2Fannounce&tr=udp%3A%2F%2F9.rarbg.to%3A2920%2Fannounce&tr=udp%3A%2F%2Ftracker.opentrackr.org%3A1337&tr=udp%3A%2F%2Ftracker.internetwarriors.net%3A1337%2Fannounce&tr=udp%3A%2F%2Ftracker.leechers-paradise.org%3A6969%2Fannounce&tr=udp%3A%2F%2Ftracker.coppersurfer.tk%3A6969%2Fannounce&tr=udp%3A%2F%2Ftracker.pirateparty.gr%3A6969%2Fannounce&tr=udp%3A%2F%2Ftracker.cyberia.is%3A6969%2Fannounce",
        "seeder": "71",
        "leecher": "12"
    },
    {
        "rank": "48",
        "title": "Vibes 3 [Vixen 2021] XXX WEB-DL Split Scenes",
        "link": "magnet:?xt=urn:btih:64FC7A3A29F86077295E4B939420D3721F08AF49&dn=Vibes+3+%5BVixen+2021%5D+XXX+WEB-DL+Split+Scenes&tr=udp%3A%2F%2Ftracker.coppersurfer.tk%3A6969%2Fannounce&tr=udp%3A%2F%2F9.rarbg.to%3A2920%2Fannounce&tr=udp%3A%2F%2Ftracker.opentrackr.org%3A1337&tr=udp%3A%2F%2Ftracker.internetwarriors.net%3A1337%2Fannounce&tr=udp%3A%2F%2Ftracker.leechers-paradise.org%3A6969%2Fannounce&tr=udp%3A%2F%2Ftracker.coppersurfer.tk%3A6969%2Fannounce&tr=udp%3A%2F%2Ftracker.pirateparty.gr%3A6969%2Fannounce&tr=udp%3A%2F%2Ftracker.cyberia.is%3A6969%2Fannounce",
        "seeder": "70",
        "leecher": "24"
    },
    {
        "rank": "49",
        "title": "Tonights Girlfriend Vol. 94 [Naughty America 2021] XXX WEB-DL Sp",
        "link": "magnet:?xt=urn:btih:AF683415989ABB8CAA656299E991B2CD80426DF8&dn=Tonights+Girlfriend+Vol.+94+%5BNaughty+America+2021%5D+XXX+WEB-DL+Sp&tr=udp%3A%2F%2Ftracker.coppersurfer.tk%3A6969%2Fannounce&tr=udp%3A%2F%2F9.rarbg.to%3A2920%2Fannounce&tr=udp%3A%2F%2Ftracker.opentrackr.org%3A1337&tr=udp%3A%2F%2Ftracker.internetwarriors.net%3A1337%2Fannounce&tr=udp%3A%2F%2Ftracker.leechers-paradise.org%3A6969%2Fannounce&tr=udp%3A%2F%2Ftracker.coppersurfer.tk%3A6969%2Fannounce&tr=udp%3A%2F%2Ftracker.pirateparty.gr%3A6969%2Fannounce&tr=udp%3A%2F%2Ftracker.cyberia.is%3A6969%2Fannounce",
        "seeder": "69",
        "leecher": "21"
    },
    {
        "rank": "50",
        "title": "The Sex Therapist Vol. 4 [Sweet Sinner 2021] XXX WEB-DL Split Sc",
        "link": "magnet:?xt=urn:btih:91F46C4D5690C1D70D1F5CC9DDA93AD62E56D508&dn=The+Sex+Therapist+Vol.+4+%5BSweet+Sinner+2021%5D+XXX+WEB-DL+Split+Sc&tr=udp%3A%2F%2Ftracker.coppersurfer.tk%3A6969%2Fannounce&tr=udp%3A%2F%2F9.rarbg.to%3A2920%2Fannounce&tr=udp%3A%2F%2Ftracker.opentrackr.org%3A1337&tr=udp%3A%2F%2Ftracker.internetwarriors.net%3A1337%2Fannounce&tr=udp%3A%2F%2Ftracker.leechers-paradise.org%3A6969%2Fannounce&tr=udp%3A%2F%2Ftracker.coppersurfer.tk%3A6969%2Fannounce&tr=udp%3A%2F%2Ftracker.pirateparty.gr%3A6969%2Fannounce&tr=udp%3A%2F%2Ftracker.cyberia.is%3A6969%2Fannounce",
        "seeder": "69",
        "leecher": "10"
    },
    {
        "rank": "51",
        "title": "RK Prime 26 [Reality Kings 2021] XXX WEB-DL Split Scenes",
        "link": "magnet:?xt=urn:btih:BDBDADFD0D4BF64DD8EBD994880701AE3AF94526&dn=RK+Prime+26+%5BReality+Kings+2021%5D+XXX+WEB-DL+Split+Scenes&tr=udp%3A%2F%2Ftracker.coppersurfer.tk%3A6969%2Fannounce&tr=udp%3A%2F%2F9.rarbg.to%3A2920%2Fannounce&tr=udp%3A%2F%2Ftracker.opentrackr.org%3A1337&tr=udp%3A%2F%2Ftracker.internetwarriors.net%3A1337%2Fannounce&tr=udp%3A%2F%2Ftracker.leechers-paradise.org%3A6969%2Fannounce&tr=udp%3A%2F%2Ftracker.coppersurfer.tk%3A6969%2Fannounce&tr=udp%3A%2F%2Ftracker.pirateparty.gr%3A6969%2Fannounce&tr=udp%3A%2F%2Ftracker.cyberia.is%3A6969%2Fannounce",
        "seeder": "69",
        "leecher": "21"
    },
    {
        "rank": "52",
        "title": "Czech.Mega.Swingers.Megaswingers.Uncensored.XXX.DVDRip.x264-Digi",
        "link": "magnet:?xt=urn:btih:21CED19CB5E1D96654E0229B0B791C3FAC21629D&dn=Czech.Mega.Swingers.Megaswingers.Uncensored.XXX.DVDRip.x264-Digi&tr=udp%3A%2F%2Ftracker.coppersurfer.tk%3A6969%2Fannounce&tr=udp%3A%2F%2F9.rarbg.to%3A2920%2Fannounce&tr=udp%3A%2F%2Ftracker.opentrackr.org%3A1337&tr=udp%3A%2F%2Ftracker.internetwarriors.net%3A1337%2Fannounce&tr=udp%3A%2F%2Ftracker.leechers-paradise.org%3A6969%2Fannounce&tr=udp%3A%2F%2Ftracker.coppersurfer.tk%3A6969%2Fannounce&tr=udp%3A%2F%2Ftracker.pirateparty.gr%3A6969%2Fannounce&tr=udp%3A%2F%2Ftracker.cyberia.is%3A6969%2Fannounce",
        "seeder": "69",
        "leecher": "10"
    },
    {
        "rank": "53",
        "title": "Family Secrets - The Au Pair (Franck Vicomte, Marc Dorcel) 2020",
        "link": "magnet:?xt=urn:btih:A33A85CABEA910157210B5A1D12B7309C59B775C&dn=Family+Secrets+-+The+Au+Pair+%28Franck+Vicomte%2C+Marc+Dorcel%29+2020&tr=udp%3A%2F%2Ftracker.coppersurfer.tk%3A6969%2Fannounce&tr=udp%3A%2F%2F9.rarbg.to%3A2920%2Fannounce&tr=udp%3A%2F%2Ftracker.opentrackr.org%3A1337&tr=udp%3A%2F%2Ftracker.internetwarriors.net%3A1337%2Fannounce&tr=udp%3A%2F%2Ftracker.leechers-paradise.org%3A6969%2Fannounce&tr=udp%3A%2F%2Ftracker.coppersurfer.tk%3A6969%2Fannounce&tr=udp%3A%2F%2Ftracker.pirateparty.gr%3A6969%2Fannounce&tr=udp%3A%2F%2Ftracker.cyberia.is%3A6969%2Fannounce",
        "seeder": "68",
        "leecher": "4"
    },
    {
        "rank": "54",
        "title": "Big.Cock.Bully.2.XXX.DVDRiP.X264-LOVEXXX",
        "link": "magnet:?xt=urn:btih:AFCA0CC7563E02B322E433E87638A950D618CCD1&dn=Big.Cock.Bully.2.XXX.DVDRiP.X264-LOVEXXX&tr=udp%3A%2F%2Ftracker.coppersurfer.tk%3A6969%2Fannounce&tr=udp%3A%2F%2F9.rarbg.to%3A2920%2Fannounce&tr=udp%3A%2F%2Ftracker.opentrackr.org%3A1337&tr=udp%3A%2F%2Ftracker.internetwarriors.net%3A1337%2Fannounce&tr=udp%3A%2F%2Ftracker.leechers-paradise.org%3A6969%2Fannounce&tr=udp%3A%2F%2Ftracker.coppersurfer.tk%3A6969%2Fannounce&tr=udp%3A%2F%2Ftracker.pirateparty.gr%3A6969%2Fannounce&tr=udp%3A%2F%2Ftracker.cyberia.is%3A6969%2Fannounce",
        "seeder": "67",
        "leecher": "9"
    },
    {
        "rank": "55",
        "title": "Tiny Tittie Teens 2 [2020  WEB-DL, 540p] (Spli",
        "link": "magnet:?xt=urn:btih:F56AC915A3DF57D817907CE539900FE4D564BF23&dn=Tiny+Tittie+Teens+2+%5B2020++WEB-DL%2C+540p%5D+%28Spli&tr=udp%3A%2F%2Ftracker.coppersurfer.tk%3A6969%2Fannounce&tr=udp%3A%2F%2F9.rarbg.to%3A2920%2Fannounce&tr=udp%3A%2F%2Ftracker.opentrackr.org%3A1337&tr=udp%3A%2F%2Ftracker.internetwarriors.net%3A1337%2Fannounce&tr=udp%3A%2F%2Ftracker.leechers-paradise.org%3A6969%2Fannounce&tr=udp%3A%2F%2Ftracker.coppersurfer.tk%3A6969%2Fannounce&tr=udp%3A%2F%2Ftracker.pirateparty.gr%3A6969%2Fannounce&tr=udp%3A%2F%2Ftracker.cyberia.is%3A6969%2Fannounce",
        "seeder": "65",
        "leecher": "15"
    },
    {
        "rank": "56",
        "title": "Perfect Homemade Clips Collection (Best Amateur Pack)",
        "link": "magnet:?xt=urn:btih:26323975A50EBEEA556FC88FC7CA105D1174246C&dn=Perfect+Homemade+Clips+Collection+%28Best+Amateur+Pack%29&tr=udp%3A%2F%2Ftracker.coppersurfer.tk%3A6969%2Fannounce&tr=udp%3A%2F%2F9.rarbg.to%3A2920%2Fannounce&tr=udp%3A%2F%2Ftracker.opentrackr.org%3A1337&tr=udp%3A%2F%2Ftracker.internetwarriors.net%3A1337%2Fannounce&tr=udp%3A%2F%2Ftracker.leechers-paradise.org%3A6969%2Fannounce&tr=udp%3A%2F%2Ftracker.coppersurfer.tk%3A6969%2Fannounce&tr=udp%3A%2F%2Ftracker.pirateparty.gr%3A6969%2Fannounce&tr=udp%3A%2F%2Ftracker.cyberia.is%3A6969%2Fannounce",
        "seeder": "65",
        "leecher": "8"
    },
    {
        "rank": "57",
        "title": "The Swap Life [Raw Attack 2021] XXX WEB-DL Split Scenes",
        "link": "magnet:?xt=urn:btih:693A9AA4F5ACF38C905B22ABD87B2BD58A412679&dn=The+Swap+Life+%5BRaw+Attack+2021%5D+XXX+WEB-DL+Split+Scenes&tr=udp%3A%2F%2Ftracker.coppersurfer.tk%3A6969%2Fannounce&tr=udp%3A%2F%2F9.rarbg.to%3A2920%2Fannounce&tr=udp%3A%2F%2Ftracker.opentrackr.org%3A1337&tr=udp%3A%2F%2Ftracker.internetwarriors.net%3A1337%2Fannounce&tr=udp%3A%2F%2Ftracker.leechers-paradise.org%3A6969%2Fannounce&tr=udp%3A%2F%2Ftracker.coppersurfer.tk%3A6969%2Fannounce&tr=udp%3A%2F%2Ftracker.pirateparty.gr%3A6969%2Fannounce&tr=udp%3A%2F%2Ftracker.cyberia.is%3A6969%2Fannounce",
        "seeder": "63",
        "leecher": "19"
    },
    {
        "rank": "58",
        "title": "Anal Teen Angels 19 [21 Sextury 2021] XXX WEB-DL Split Scenes",
        "link": "magnet:?xt=urn:btih:A3B8A361F3C6E20C6CA90030BF33AFCDB68F7932&dn=Anal+Teen+Angels+19+%5B21+Sextury+2021%5D+XXX+WEB-DL+Split+Scenes&tr=udp%3A%2F%2Ftracker.coppersurfer.tk%3A6969%2Fannounce&tr=udp%3A%2F%2F9.rarbg.to%3A2920%2Fannounce&tr=udp%3A%2F%2Ftracker.opentrackr.org%3A1337&tr=udp%3A%2F%2Ftracker.internetwarriors.net%3A1337%2Fannounce&tr=udp%3A%2F%2Ftracker.leechers-paradise.org%3A6969%2Fannounce&tr=udp%3A%2F%2Ftracker.coppersurfer.tk%3A6969%2Fannounce&tr=udp%3A%2F%2Ftracker.pirateparty.gr%3A6969%2Fannounce&tr=udp%3A%2F%2Ftracker.cyberia.is%3A6969%2Fannounce",
        "seeder": "63",
        "leecher": "13"
    },
    {
        "rank": "59",
        "title": "Asian.Gangbang.Supreme.JAV.UNCENSORED.XXX.DVDRip.x264-JAVSiDERS",
        "link": "magnet:?xt=urn:btih:CA381E84B07AF5EBD3EDAC157D69B6458930B9C9&dn=Asian.Gangbang.Supreme.JAV.UNCENSORED.XXX.DVDRip.x264-JAVSiDERS&tr=udp%3A%2F%2Ftracker.coppersurfer.tk%3A6969%2Fannounce&tr=udp%3A%2F%2F9.rarbg.to%3A2920%2Fannounce&tr=udp%3A%2F%2Ftracker.opentrackr.org%3A1337&tr=udp%3A%2F%2Ftracker.internetwarriors.net%3A1337%2Fannounce&tr=udp%3A%2F%2Ftracker.leechers-paradise.org%3A6969%2Fannounce&tr=udp%3A%2F%2Ftracker.coppersurfer.tk%3A6969%2Fannounce&tr=udp%3A%2F%2Ftracker.pirateparty.gr%3A6969%2Fannounce&tr=udp%3A%2F%2Ftracker.cyberia.is%3A6969%2Fannounce",
        "seeder": "63",
        "leecher": "1"
    },
    {
        "rank": "60",
        "title": "Natural DS 2 [DD Busty 2021] XXX WEB-DL Split Scenes",
        "link": "magnet:?xt=urn:btih:9D7B6EB44273F587B26065FD5E77B78C5FE08BEC&dn=Natural+DS+2+%5BDD+Busty+2021%5D+XXX+WEB-DL+Split+Scenes&tr=udp%3A%2F%2Ftracker.coppersurfer.tk%3A6969%2Fannounce&tr=udp%3A%2F%2F9.rarbg.to%3A2920%2Fannounce&tr=udp%3A%2F%2Ftracker.opentrackr.org%3A1337&tr=udp%3A%2F%2Ftracker.internetwarriors.net%3A1337%2Fannounce&tr=udp%3A%2F%2Ftracker.leechers-paradise.org%3A6969%2Fannounce&tr=udp%3A%2F%2Ftracker.coppersurfer.tk%3A6969%2Fannounce&tr=udp%3A%2F%2Ftracker.pirateparty.gr%3A6969%2Fannounce&tr=udp%3A%2F%2Ftracker.cyberia.is%3A6969%2Fannounce",
        "seeder": "61",
        "leecher": "13"
    },
    {
        "rank": "61",
        "title": "The.Most.Beautiful.Girls.In.Porn.4.DiSC2.XXX.DVDRip.x264-ROXXX",
        "link": "magnet:?xt=urn:btih:07B0FE9D2782F0AA278AFCBB294E379562284730&dn=The.Most.Beautiful.Girls.In.Porn.4.DiSC2.XXX.DVDRip.x264-ROXXX&tr=udp%3A%2F%2Ftracker.coppersurfer.tk%3A6969%2Fannounce&tr=udp%3A%2F%2F9.rarbg.to%3A2920%2Fannounce&tr=udp%3A%2F%2Ftracker.opentrackr.org%3A1337&tr=udp%3A%2F%2Ftracker.internetwarriors.net%3A1337%2Fannounce&tr=udp%3A%2F%2Ftracker.leechers-paradise.org%3A6969%2Fannounce&tr=udp%3A%2F%2Ftracker.coppersurfer.tk%3A6969%2Fannounce&tr=udp%3A%2F%2Ftracker.pirateparty.gr%3A6969%2Fannounce&tr=udp%3A%2F%2Ftracker.cyberia.is%3A6969%2Fannounce",
        "seeder": "61",
        "leecher": "6"
    },
    {
        "rank": "62",
        "title": "Club VXN Vol. 7 [Vixen 2021] XXX WEB-DL Split Scenes",
        "link": "magnet:?xt=urn:btih:99439AE0F7042396DD1B255D99D3DFCED08E48E8&dn=Club+VXN+Vol.+7+%5BVixen+2021%5D+XXX+WEB-DL+Split+Scenes&tr=udp%3A%2F%2Ftracker.coppersurfer.tk%3A6969%2Fannounce&tr=udp%3A%2F%2F9.rarbg.to%3A2920%2Fannounce&tr=udp%3A%2F%2Ftracker.opentrackr.org%3A1337&tr=udp%3A%2F%2Ftracker.internetwarriors.net%3A1337%2Fannounce&tr=udp%3A%2F%2Ftracker.leechers-paradise.org%3A6969%2Fannounce&tr=udp%3A%2F%2Ftracker.coppersurfer.tk%3A6969%2Fannounce&tr=udp%3A%2F%2Ftracker.pirateparty.gr%3A6969%2Fannounce&tr=udp%3A%2F%2Ftracker.cyberia.is%3A6969%2Fannounce",
        "seeder": "60",
        "leecher": "18"
    },
    {
        "rank": "63",
        "title": "Big Cock Bully [Naughty America 2021] XXX WEB-DL Split Scenes",
        "link": "magnet:?xt=urn:btih:75CBD7AFDEF1EB008C05761A0C70B00009068FD6&dn=Big+Cock+Bully+%5BNaughty+America+2021%5D+XXX+WEB-DL+Split+Scenes&tr=udp%3A%2F%2Ftracker.coppersurfer.tk%3A6969%2Fannounce&tr=udp%3A%2F%2F9.rarbg.to%3A2920%2Fannounce&tr=udp%3A%2F%2Ftracker.opentrackr.org%3A1337&tr=udp%3A%2F%2Ftracker.internetwarriors.net%3A1337%2Fannounce&tr=udp%3A%2F%2Ftracker.leechers-paradise.org%3A6969%2Fannounce&tr=udp%3A%2F%2Ftracker.coppersurfer.tk%3A6969%2Fannounce&tr=udp%3A%2F%2Ftracker.pirateparty.gr%3A6969%2Fannounce&tr=udp%3A%2F%2Ftracker.cyberia.is%3A6969%2Fannounce",
        "seeder": "59",
        "leecher": "29"
    },
    {
        "rank": "64",
        "title": "Adorable Teens 5 [Private 2021] XXX WEB-DL Split Scenes",
        "link": "magnet:?xt=urn:btih:5D03622E9E4F51F9BA3C9252395265C515A89737&dn=Adorable+Teens+5+%5BPrivate+2021%5D+XXX+WEB-DL+Split+Scenes&tr=udp%3A%2F%2Ftracker.coppersurfer.tk%3A6969%2Fannounce&tr=udp%3A%2F%2F9.rarbg.to%3A2920%2Fannounce&tr=udp%3A%2F%2Ftracker.opentrackr.org%3A1337&tr=udp%3A%2F%2Ftracker.internetwarriors.net%3A1337%2Fannounce&tr=udp%3A%2F%2Ftracker.leechers-paradise.org%3A6969%2Fannounce&tr=udp%3A%2F%2Ftracker.coppersurfer.tk%3A6969%2Fannounce&tr=udp%3A%2F%2Ftracker.pirateparty.gr%3A6969%2Fannounce&tr=udp%3A%2F%2Ftracker.cyberia.is%3A6969%2Fannounce",
        "seeder": "59",
        "leecher": "11"
    },
    {
        "rank": "65",
        "title": "Living Vicariously [Pure Taboo 2021] XXX WEB-DL Split Scenes",
        "link": "magnet:?xt=urn:btih:109160BE4FBC73E1BBCA81C9A9DAB203532C2103&dn=Living+Vicariously+%5BPure+Taboo+2021%5D+XXX+WEB-DL+Split+Scenes&tr=udp%3A%2F%2Ftracker.coppersurfer.tk%3A6969%2Fannounce&tr=udp%3A%2F%2F9.rarbg.to%3A2920%2Fannounce&tr=udp%3A%2F%2Ftracker.opentrackr.org%3A1337&tr=udp%3A%2F%2Ftracker.internetwarriors.net%3A1337%2Fannounce&tr=udp%3A%2F%2Ftracker.leechers-paradise.org%3A6969%2Fannounce&tr=udp%3A%2F%2Ftracker.coppersurfer.tk%3A6969%2Fannounce&tr=udp%3A%2F%2Ftracker.pirateparty.gr%3A6969%2Fannounce&tr=udp%3A%2F%2Ftracker.cyberia.is%3A6969%2Fannounce",
        "seeder": "57",
        "leecher": "11"
    },
    {
        "rank": "66",
        "title": "TS Factor 14 (Joey Silvera, Evil Angel) 2021 (Split Scenes)",
        "link": "magnet:?xt=urn:btih:6C541405E98C02601F6998DA28A8336335EA3F31&dn=TS+Factor+14+%28Joey+Silvera%2C+Evil+Angel%29+2021+%28Split+Scenes%29&tr=udp%3A%2F%2Ftracker.coppersurfer.tk%3A6969%2Fannounce&tr=udp%3A%2F%2F9.rarbg.to%3A2920%2Fannounce&tr=udp%3A%2F%2Ftracker.opentrackr.org%3A1337&tr=udp%3A%2F%2Ftracker.internetwarriors.net%3A1337%2Fannounce&tr=udp%3A%2F%2Ftracker.leechers-paradise.org%3A6969%2Fannounce&tr=udp%3A%2F%2Ftracker.coppersurfer.tk%3A6969%2Fannounce&tr=udp%3A%2F%2Ftracker.pirateparty.gr%3A6969%2Fannounce&tr=udp%3A%2F%2Ftracker.cyberia.is%3A6969%2Fannounce",
        "seeder": "57",
        "leecher": "13"
    },
    {
        "rank": "67",
        "title": "Mom Drips 2 [MYLF 2021] XXX WEB-DL 576p Split Scenes",
        "link": "magnet:?xt=urn:btih:D9B5646D11E46645B285638419446C3CEA833298&dn=Mom+Drips+2+%5BMYLF+2021%5D+XXX+WEB-DL+576p+Split+Scenes&tr=udp%3A%2F%2Ftracker.coppersurfer.tk%3A6969%2Fannounce&tr=udp%3A%2F%2F9.rarbg.to%3A2920%2Fannounce&tr=udp%3A%2F%2Ftracker.opentrackr.org%3A1337&tr=udp%3A%2F%2Ftracker.internetwarriors.net%3A1337%2Fannounce&tr=udp%3A%2F%2Ftracker.leechers-paradise.org%3A6969%2Fannounce&tr=udp%3A%2F%2Ftracker.coppersurfer.tk%3A6969%2Fannounce&tr=udp%3A%2F%2Ftracker.pirateparty.gr%3A6969%2Fannounce&tr=udp%3A%2F%2Ftracker.cyberia.is%3A6969%2Fannounce",
        "seeder": "55",
        "leecher": "15"
    },
    {
        "rank": "68",
        "title": "Monster Curves Vol. 41 [Reality Kings 2021] XXX WEB-DL Split Sce",
        "link": "magnet:?xt=urn:btih:4F9228D1DC7ECA24148D47E7F2279F1611B1FA98&dn=Monster+Curves+Vol.+41+%5BReality+Kings+2021%5D+XXX+WEB-DL+Split+Sce&tr=udp%3A%2F%2Ftracker.coppersurfer.tk%3A6969%2Fannounce&tr=udp%3A%2F%2F9.rarbg.to%3A2920%2Fannounce&tr=udp%3A%2F%2Ftracker.opentrackr.org%3A1337&tr=udp%3A%2F%2Ftracker.internetwarriors.net%3A1337%2Fannounce&tr=udp%3A%2F%2Ftracker.leechers-paradise.org%3A6969%2Fannounce&tr=udp%3A%2F%2Ftracker.coppersurfer.tk%3A6969%2Fannounce&tr=udp%3A%2F%2Ftracker.pirateparty.gr%3A6969%2Fannounce&tr=udp%3A%2F%2Ftracker.cyberia.is%3A6969%2Fannounce",
        "seeder": "54",
        "leecher": "22"
    },
    {
        "rank": "69",
        "title": "Olia Young Russian Teen, 8 movies [Russian porn]",
        "link": "magnet:?xt=urn:btih:64FD31989547C0326855301B86C7EB7F2A49A0A6&dn=Olia+Young+Russian+Teen%2C+8+movies+%5BRussian+porn%5D&tr=udp%3A%2F%2Ftracker.coppersurfer.tk%3A6969%2Fannounce&tr=udp%3A%2F%2F9.rarbg.to%3A2920%2Fannounce&tr=udp%3A%2F%2Ftracker.opentrackr.org%3A1337&tr=udp%3A%2F%2Ftracker.internetwarriors.net%3A1337%2Fannounce&tr=udp%3A%2F%2Ftracker.leechers-paradise.org%3A6969%2Fannounce&tr=udp%3A%2F%2Ftracker.coppersurfer.tk%3A6969%2Fannounce&tr=udp%3A%2F%2Ftracker.pirateparty.gr%3A6969%2Fannounce&tr=udp%3A%2F%2Ftracker.cyberia.is%3A6969%2Fannounce",
        "seeder": "54",
        "leecher": "6"
    },
    {
        "rank": "70",
        "title": "Evil Squirters 6 [Evil Angel 2021] XXX WEB-DL Split Scenes",
        "link": "magnet:?xt=urn:btih:74B94EFF00BDDCB23CEF665C4B2DC1D9A3789FB4&dn=Evil+Squirters+6+%5BEvil+Angel+2021%5D+XXX+WEB-DL+Split+Scenes&tr=udp%3A%2F%2Ftracker.coppersurfer.tk%3A6969%2Fannounce&tr=udp%3A%2F%2F9.rarbg.to%3A2920%2Fannounce&tr=udp%3A%2F%2Ftracker.opentrackr.org%3A1337&tr=udp%3A%2F%2Ftracker.internetwarriors.net%3A1337%2Fannounce&tr=udp%3A%2F%2Ftracker.leechers-paradise.org%3A6969%2Fannounce&tr=udp%3A%2F%2Ftracker.coppersurfer.tk%3A6969%2Fannounce&tr=udp%3A%2F%2Ftracker.pirateparty.gr%3A6969%2Fannounce&tr=udp%3A%2F%2Ftracker.cyberia.is%3A6969%2Fannounce",
        "seeder": "53",
        "leecher": "12"
    },
    {
        "rank": "71",
        "title": "Impulse [Deeper 2021] XXX WEB-DL Split Scenes",
        "link": "magnet:?xt=urn:btih:7081107A14CB73290F2A528171BF78078E01AD7D&dn=Impulse+%5BDeeper+2021%5D+XXX+WEB-DL+Split+Scenes&tr=udp%3A%2F%2Ftracker.coppersurfer.tk%3A6969%2Fannounce&tr=udp%3A%2F%2F9.rarbg.to%3A2920%2Fannounce&tr=udp%3A%2F%2Ftracker.opentrackr.org%3A1337&tr=udp%3A%2F%2Ftracker.internetwarriors.net%3A1337%2Fannounce&tr=udp%3A%2F%2Ftracker.leechers-paradise.org%3A6969%2Fannounce&tr=udp%3A%2F%2Ftracker.coppersurfer.tk%3A6969%2Fannounce&tr=udp%3A%2F%2Ftracker.pirateparty.gr%3A6969%2Fannounce&tr=udp%3A%2F%2Ftracker.cyberia.is%3A6969%2Fannounce",
        "seeder": "50",
        "leecher": "11"
    },
    {
        "rank": "72",
        "title": "Unfaithfully Yours Vol. 2 [Love Her Feet 2021] XXX WEB-DL 540p",
        "link": "magnet:?xt=urn:btih:E9CF7C62A4C6A6EDC17B463B80EAACC0B07681F8&dn=Unfaithfully+Yours+Vol.+2+%5BLove+Her+Feet+2021%5D+XXX+WEB-DL+540p&tr=udp%3A%2F%2Ftracker.coppersurfer.tk%3A6969%2Fannounce&tr=udp%3A%2F%2F9.rarbg.to%3A2920%2Fannounce&tr=udp%3A%2F%2Ftracker.opentrackr.org%3A1337&tr=udp%3A%2F%2Ftracker.internetwarriors.net%3A1337%2Fannounce&tr=udp%3A%2F%2Ftracker.leechers-paradise.org%3A6969%2Fannounce&tr=udp%3A%2F%2Ftracker.coppersurfer.tk%3A6969%2Fannounce&tr=udp%3A%2F%2Ftracker.pirateparty.gr%3A6969%2Fannounce&tr=udp%3A%2F%2Ftracker.cyberia.is%3A6969%2Fannounce",
        "seeder": "50",
        "leecher": "14"
    },
    {
        "rank": "73",
        "title": "My Best Friend Stole My Girlfriend [Devils Film 2021] XXX WEB-DL",
        "link": "magnet:?xt=urn:btih:5CBB2BDD28CFE089D67985D3F23BBBC6F3FDEEDE&dn=My+Best+Friend+Stole+My+Girlfriend+%5BDevils+Film+2021%5D+XXX+WEB-DL&tr=udp%3A%2F%2Ftracker.coppersurfer.tk%3A6969%2Fannounce&tr=udp%3A%2F%2F9.rarbg.to%3A2920%2Fannounce&tr=udp%3A%2F%2Ftracker.opentrackr.org%3A1337&tr=udp%3A%2F%2Ftracker.internetwarriors.net%3A1337%2Fannounce&tr=udp%3A%2F%2Ftracker.leechers-paradise.org%3A6969%2Fannounce&tr=udp%3A%2F%2Ftracker.coppersurfer.tk%3A6969%2Fannounce&tr=udp%3A%2F%2Ftracker.pirateparty.gr%3A6969%2Fannounce&tr=udp%3A%2F%2Ftracker.cyberia.is%3A6969%2Fannounce",
        "seeder": "49",
        "leecher": "12"
    },
    {
        "rank": "74",
        "title": "Stretching My Girlfriends Pussy 8 [Mofos 2021] XXX WEB-DL Split",
        "link": "magnet:?xt=urn:btih:818F97F909AC5AFD0089983B4CE62CE2FC55138E&dn=Stretching+My+Girlfriends+Pussy+8+%5BMofos+2021%5D+XXX+WEB-DL+Split&tr=udp%3A%2F%2Ftracker.coppersurfer.tk%3A6969%2Fannounce&tr=udp%3A%2F%2F9.rarbg.to%3A2920%2Fannounce&tr=udp%3A%2F%2Ftracker.opentrackr.org%3A1337&tr=udp%3A%2F%2Ftracker.internetwarriors.net%3A1337%2Fannounce&tr=udp%3A%2F%2Ftracker.leechers-paradise.org%3A6969%2Fannounce&tr=udp%3A%2F%2Ftracker.coppersurfer.tk%3A6969%2Fannounce&tr=udp%3A%2F%2Ftracker.pirateparty.gr%3A6969%2Fannounce&tr=udp%3A%2F%2Ftracker.cyberia.is%3A6969%2Fannounce",
        "seeder": "49",
        "leecher": "7"
    },
    {
        "rank": "75",
        "title": "Size Does Matter 19 [Porn Pros 2021] XXX WEB-DL Split Scenes",
        "link": "magnet:?xt=urn:btih:EE8FE83FFB8FB6D4DD6AA43E51CDE6373CE14E1C&dn=Size+Does+Matter+19+%5BPorn+Pros+2021%5D+XXX+WEB-DL+Split+Scenes&tr=udp%3A%2F%2Ftracker.coppersurfer.tk%3A6969%2Fannounce&tr=udp%3A%2F%2F9.rarbg.to%3A2920%2Fannounce&tr=udp%3A%2F%2Ftracker.opentrackr.org%3A1337&tr=udp%3A%2F%2Ftracker.internetwarriors.net%3A1337%2Fannounce&tr=udp%3A%2F%2Ftracker.leechers-paradise.org%3A6969%2Fannounce&tr=udp%3A%2F%2Ftracker.coppersurfer.tk%3A6969%2Fannounce&tr=udp%3A%2F%2Ftracker.pirateparty.gr%3A6969%2Fannounce&tr=udp%3A%2F%2Ftracker.cyberia.is%3A6969%2Fannounce",
        "seeder": "48",
        "leecher": "16"
    },
    {
        "rank": "76",
        "title": "Trans Education (Jim Powers, Gender X) 2021 (Split Scenes)",
        "link": "magnet:?xt=urn:btih:E5887E517F78CB1E04D218B889A77887774269BA&dn=Trans+Education+%28Jim+Powers%2C+Gender+X%29+2021+%28Split+Scenes%29&tr=udp%3A%2F%2Ftracker.coppersurfer.tk%3A6969%2Fannounce&tr=udp%3A%2F%2F9.rarbg.to%3A2920%2Fannounce&tr=udp%3A%2F%2Ftracker.opentrackr.org%3A1337&tr=udp%3A%2F%2Ftracker.internetwarriors.net%3A1337%2Fannounce&tr=udp%3A%2F%2Ftracker.leechers-paradise.org%3A6969%2Fannounce&tr=udp%3A%2F%2Ftracker.coppersurfer.tk%3A6969%2Fannounce&tr=udp%3A%2F%2Ftracker.pirateparty.gr%3A6969%2Fannounce&tr=udp%3A%2F%2Ftracker.cyberia.is%3A6969%2Fannounce",
        "seeder": "46",
        "leecher": "6"
    },
    {
        "rank": "77",
        "title": "One night in Budapest (Marc Dorcel) NEW 2020 XXX WEB-DL",
        "link": "magnet:?xt=urn:btih:60277203660EF7258DFC0E2F676EBDAF8BE5DFC2&dn=One+night+in+Budapest+%28Marc+Dorcel%29+NEW+2020+XXX+WEB-DL&tr=udp%3A%2F%2Ftracker.coppersurfer.tk%3A6969%2Fannounce&tr=udp%3A%2F%2F9.rarbg.to%3A2920%2Fannounce&tr=udp%3A%2F%2Ftracker.opentrackr.org%3A1337&tr=udp%3A%2F%2Ftracker.internetwarriors.net%3A1337%2Fannounce&tr=udp%3A%2F%2Ftracker.leechers-paradise.org%3A6969%2Fannounce&tr=udp%3A%2F%2Ftracker.coppersurfer.tk%3A6969%2Fannounce&tr=udp%3A%2F%2Ftracker.pirateparty.gr%3A6969%2Fannounce&tr=udp%3A%2F%2Ftracker.cyberia.is%3A6969%2Fannounce",
        "seeder": "46",
        "leecher": "4"
    },
    {
        "rank": "78",
        "title": "Captain.Marvel.XXX.An.Axel.Braun.Parody.XXX.DVDRip.x264-XCiTE",
        "link": "magnet:?xt=urn:btih:9FB0EF5C50AD41C07C4D0310FE30195FA672D03D&dn=Captain.Marvel.XXX.An.Axel.Braun.Parody.XXX.DVDRip.x264-XCiTE&tr=udp%3A%2F%2Ftracker.coppersurfer.tk%3A6969%2Fannounce&tr=udp%3A%2F%2F9.rarbg.to%3A2920%2Fannounce&tr=udp%3A%2F%2Ftracker.opentrackr.org%3A1337&tr=udp%3A%2F%2Ftracker.internetwarriors.net%3A1337%2Fannounce&tr=udp%3A%2F%2Ftracker.leechers-paradise.org%3A6969%2Fannounce&tr=udp%3A%2F%2Ftracker.coppersurfer.tk%3A6969%2Fannounce&tr=udp%3A%2F%2Ftracker.pirateparty.gr%3A6969%2Fannounce&tr=udp%3A%2F%2Ftracker.cyberia.is%3A6969%2Fannounce",
        "seeder": "46",
        "leecher": "5"
    },
    {
        "rank": "79",
        "title": "PerverseFamily 3 Movies 3",
        "link": "magnet:?xt=urn:btih:3B687D541A215D59E22031979E81E49D61290C45&dn=PerverseFamily+3+Movies+3&tr=udp%3A%2F%2Ftracker.coppersurfer.tk%3A6969%2Fannounce&tr=udp%3A%2F%2F9.rarbg.to%3A2920%2Fannounce&tr=udp%3A%2F%2Ftracker.opentrackr.org%3A1337&tr=udp%3A%2F%2Ftracker.internetwarriors.net%3A1337%2Fannounce&tr=udp%3A%2F%2Ftracker.leechers-paradise.org%3A6969%2Fannounce&tr=udp%3A%2F%2Ftracker.coppersurfer.tk%3A6969%2Fannounce&tr=udp%3A%2F%2Ftracker.pirateparty.gr%3A6969%2Fannounce&tr=udp%3A%2F%2Ftracker.cyberia.is%3A6969%2Fannounce",
        "seeder": "45",
        "leecher": "12"
    },
    {
        "rank": "80",
        "title": "Oiled Up Natural Tits 3 [Zero Tolerance Ent. 2021] XXX WEB-DL Sp",
        "link": "magnet:?xt=urn:btih:9845DE0C739AF00A75FB16A69B0A263616A53CBB&dn=Oiled+Up+Natural+Tits+3+%5BZero+Tolerance+Ent.+2021%5D+XXX+WEB-DL+Sp&tr=udp%3A%2F%2Ftracker.coppersurfer.tk%3A6969%2Fannounce&tr=udp%3A%2F%2F9.rarbg.to%3A2920%2Fannounce&tr=udp%3A%2F%2Ftracker.opentrackr.org%3A1337&tr=udp%3A%2F%2Ftracker.internetwarriors.net%3A1337%2Fannounce&tr=udp%3A%2F%2Ftracker.leechers-paradise.org%3A6969%2Fannounce&tr=udp%3A%2F%2Ftracker.coppersurfer.tk%3A6969%2Fannounce&tr=udp%3A%2F%2Ftracker.pirateparty.gr%3A6969%2Fannounce&tr=udp%3A%2F%2Ftracker.cyberia.is%3A6969%2Fannounce",
        "seeder": "45",
        "leecher": "9"
    },
    {
        "rank": "81",
        "title": "Marc.Dorcel.Rebecca.An.Indecent.Story.XXX.DVDRiP.X264-LOVEXXX",
        "link": "magnet:?xt=urn:btih:17942376B59CE3187CD096724D525372269A353D&dn=Marc.Dorcel.Rebecca.An.Indecent.Story.XXX.DVDRiP.X264-LOVEXXX&tr=udp%3A%2F%2Ftracker.coppersurfer.tk%3A6969%2Fannounce&tr=udp%3A%2F%2F9.rarbg.to%3A2920%2Fannounce&tr=udp%3A%2F%2Ftracker.opentrackr.org%3A1337&tr=udp%3A%2F%2Ftracker.internetwarriors.net%3A1337%2Fannounce&tr=udp%3A%2F%2Ftracker.leechers-paradise.org%3A6969%2Fannounce&tr=udp%3A%2F%2Ftracker.coppersurfer.tk%3A6969%2Fannounce&tr=udp%3A%2F%2Ftracker.pirateparty.gr%3A6969%2Fannounce&tr=udp%3A%2F%2Ftracker.cyberia.is%3A6969%2Fannounce",
        "seeder": "45",
        "leecher": "6"
    },
    {
        "rank": "82",
        "title": "FantASStic DP 54 [21 Sextury Video 2021] XXX WEB-DL 540p Split S",
        "link": "magnet:?xt=urn:btih:CA2796860A7BAE240AC06A364435C54443F3EC29&dn=FantASStic+DP+54+%5B21+Sextury+Video+2021%5D+XXX+WEB-DL+540p+Split+S&tr=udp%3A%2F%2Ftracker.coppersurfer.tk%3A6969%2Fannounce&tr=udp%3A%2F%2F9.rarbg.to%3A2920%2Fannounce&tr=udp%3A%2F%2Ftracker.opentrackr.org%3A1337&tr=udp%3A%2F%2Ftracker.internetwarriors.net%3A1337%2Fannounce&tr=udp%3A%2F%2Ftracker.leechers-paradise.org%3A6969%2Fannounce&tr=udp%3A%2F%2Ftracker.coppersurfer.tk%3A6969%2Fannounce&tr=udp%3A%2F%2Ftracker.pirateparty.gr%3A6969%2Fannounce&tr=udp%3A%2F%2Ftracker.cyberia.is%3A6969%2Fannounce",
        "seeder": "43",
        "leecher": "14"
    },
    {
        "rank": "83",
        "title": "DP Lust 2 [Reality Junkies 2021] XXX WEB-DL Split Scene",
        "link": "magnet:?xt=urn:btih:9D98ED5D4FD75D08763B17837F87B1C0342F49DD&dn=DP+Lust+2+%5BReality+Junkies+2021%5D+XXX+WEB-DL+Split+Scene&tr=udp%3A%2F%2Ftracker.coppersurfer.tk%3A6969%2Fannounce&tr=udp%3A%2F%2F9.rarbg.to%3A2920%2Fannounce&tr=udp%3A%2F%2Ftracker.opentrackr.org%3A1337&tr=udp%3A%2F%2Ftracker.internetwarriors.net%3A1337%2Fannounce&tr=udp%3A%2F%2Ftracker.leechers-paradise.org%3A6969%2Fannounce&tr=udp%3A%2F%2Ftracker.coppersurfer.tk%3A6969%2Fannounce&tr=udp%3A%2F%2Ftracker.pirateparty.gr%3A6969%2Fannounce&tr=udp%3A%2F%2Ftracker.cyberia.is%3A6969%2Fannounce",
        "seeder": "41",
        "leecher": "7"
    },
    {
        "rank": "84",
        "title": "Fuck Phys-Ed Vol. 2 [Vision Films 2021] XXX WEB-DL Split Scenes",
        "link": "magnet:?xt=urn:btih:0C1980152FD54D9CD90BB46A67E272505EDADBB1&dn=Fuck+Phys-Ed+Vol.+2+%5BVision+Films+2021%5D+XXX+WEB-DL+Split+Scenes&tr=udp%3A%2F%2Ftracker.coppersurfer.tk%3A6969%2Fannounce&tr=udp%3A%2F%2F9.rarbg.to%3A2920%2Fannounce&tr=udp%3A%2F%2Ftracker.opentrackr.org%3A1337&tr=udp%3A%2F%2Ftracker.internetwarriors.net%3A1337%2Fannounce&tr=udp%3A%2F%2Ftracker.leechers-paradise.org%3A6969%2Fannounce&tr=udp%3A%2F%2Ftracker.coppersurfer.tk%3A6969%2Fannounce&tr=udp%3A%2F%2Ftracker.pirateparty.gr%3A6969%2Fannounce&tr=udp%3A%2F%2Ftracker.cyberia.is%3A6969%2Fannounce",
        "seeder": "41",
        "leecher": "7"
    },
    {
        "rank": "85",
        "title": "Czech.Mega.Swingers.The.Blond.Rebel.XXX.DVDRip.x264-SUCKXXX",
        "link": "magnet:?xt=urn:btih:8E7A145B34A13090657A08A14491D02E308DB284&dn=Czech.Mega.Swingers.The.Blond.Rebel.XXX.DVDRip.x264-SUCKXXX&tr=udp%3A%2F%2Ftracker.coppersurfer.tk%3A6969%2Fannounce&tr=udp%3A%2F%2F9.rarbg.to%3A2920%2Fannounce&tr=udp%3A%2F%2Ftracker.opentrackr.org%3A1337&tr=udp%3A%2F%2Ftracker.internetwarriors.net%3A1337%2Fannounce&tr=udp%3A%2F%2Ftracker.leechers-paradise.org%3A6969%2Fannounce&tr=udp%3A%2F%2Ftracker.coppersurfer.tk%3A6969%2Fannounce&tr=udp%3A%2F%2Ftracker.pirateparty.gr%3A6969%2Fannounce&tr=udp%3A%2F%2Ftracker.cyberia.is%3A6969%2Fannounce",
        "seeder": "41",
        "leecher": "4"
    },
    {
        "rank": "86",
        "title": "Angela.Loves.Anal.XXX.DVDRip.x264-PDTM",
        "link": "magnet:?xt=urn:btih:C1334F2D9DB124D70D4BCF047D2565620260221D&dn=Angela.Loves.Anal.XXX.DVDRip.x264-PDTM&tr=udp%3A%2F%2Ftracker.coppersurfer.tk%3A6969%2Fannounce&tr=udp%3A%2F%2F9.rarbg.to%3A2920%2Fannounce&tr=udp%3A%2F%2Ftracker.opentrackr.org%3A1337&tr=udp%3A%2F%2Ftracker.internetwarriors.net%3A1337%2Fannounce&tr=udp%3A%2F%2Ftracker.leechers-paradise.org%3A6969%2Fannounce&tr=udp%3A%2F%2Ftracker.coppersurfer.tk%3A6969%2Fannounce&tr=udp%3A%2F%2Ftracker.pirateparty.gr%3A6969%2Fannounce&tr=udp%3A%2F%2Ftracker.cyberia.is%3A6969%2Fannounce",
        "seeder": "40",
        "leecher": "8"
    },
    {
        "rank": "87",
        "title": "GGG.Bukkake.Anal.1.GERMAN.XXX.DVDRip.x264-JustLUCY",
        "link": "magnet:?xt=urn:btih:6C27BB85EA0E4BBD05D38E136373F91256FB4830&dn=GGG.Bukkake.Anal.1.GERMAN.XXX.DVDRip.x264-JustLUCY&tr=udp%3A%2F%2Ftracker.coppersurfer.tk%3A6969%2Fannounce&tr=udp%3A%2F%2F9.rarbg.to%3A2920%2Fannounce&tr=udp%3A%2F%2Ftracker.opentrackr.org%3A1337&tr=udp%3A%2F%2Ftracker.internetwarriors.net%3A1337%2Fannounce&tr=udp%3A%2F%2Ftracker.leechers-paradise.org%3A6969%2Fannounce&tr=udp%3A%2F%2Ftracker.coppersurfer.tk%3A6969%2Fannounce&tr=udp%3A%2F%2Ftracker.pirateparty.gr%3A6969%2Fannounce&tr=udp%3A%2F%2Ftracker.cyberia.is%3A6969%2Fannounce",
        "seeder": "40",
        "leecher": "6"
    },
    {
        "rank": "88",
        "title": "His First Trans Encounter 2 (Devil s Film) 2021 (Split Scenes)",
        "link": "magnet:?xt=urn:btih:75B9E5C9E94962F3B639CAC3CD3E540C99EEA972&dn=His+First+Trans+Encounter+2+%28Devil+s+Film%29+2021+%28Split+Scenes%29&tr=udp%3A%2F%2Ftracker.coppersurfer.tk%3A6969%2Fannounce&tr=udp%3A%2F%2F9.rarbg.to%3A2920%2Fannounce&tr=udp%3A%2F%2Ftracker.opentrackr.org%3A1337&tr=udp%3A%2F%2Ftracker.internetwarriors.net%3A1337%2Fannounce&tr=udp%3A%2F%2Ftracker.leechers-paradise.org%3A6969%2Fannounce&tr=udp%3A%2F%2Ftracker.coppersurfer.tk%3A6969%2Fannounce&tr=udp%3A%2F%2Ftracker.pirateparty.gr%3A6969%2Fannounce&tr=udp%3A%2F%2Ftracker.cyberia.is%3A6969%2Fannounce",
        "seeder": "40",
        "leecher": "7"
    },
    {
        "rank": "89",
        "title": "Horny Housewives 6 (Brazzers) XXX WEB-DL NEW 2019 (Split Scenes)",
        "link": "magnet:?xt=urn:btih:F517FE3F77841B47093BE54AE173A0574EFE715F&dn=Horny+Housewives+6+%28Brazzers%29+XXX+WEB-DL+NEW+2019+%28Split+Scenes%29&tr=udp%3A%2F%2Ftracker.coppersurfer.tk%3A6969%2Fannounce&tr=udp%3A%2F%2F9.rarbg.to%3A2920%2Fannounce&tr=udp%3A%2F%2Ftracker.opentrackr.org%3A1337&tr=udp%3A%2F%2Ftracker.internetwarriors.net%3A1337%2Fannounce&tr=udp%3A%2F%2Ftracker.leechers-paradise.org%3A6969%2Fannounce&tr=udp%3A%2F%2Ftracker.coppersurfer.tk%3A6969%2Fannounce&tr=udp%3A%2F%2Ftracker.pirateparty.gr%3A6969%2Fannounce&tr=udp%3A%2F%2Ftracker.cyberia.is%3A6969%2Fannounce",
        "seeder": "40",
        "leecher": "3"
    },
    {
        "rank": "90",
        "title": "GGG.Bukkake.Anal.2.German.XXX.DVDRip.x264-CiCXXX",
        "link": "magnet:?xt=urn:btih:8A8776110D5EE278BB00F3FF9C97EA7F5823B228&dn=GGG.Bukkake.Anal.2.German.XXX.DVDRip.x264-CiCXXX&tr=udp%3A%2F%2Ftracker.coppersurfer.tk%3A6969%2Fannounce&tr=udp%3A%2F%2F9.rarbg.to%3A2920%2Fannounce&tr=udp%3A%2F%2Ftracker.opentrackr.org%3A1337&tr=udp%3A%2F%2Ftracker.internetwarriors.net%3A1337%2Fannounce&tr=udp%3A%2F%2Ftracker.leechers-paradise.org%3A6969%2Fannounce&tr=udp%3A%2F%2Ftracker.coppersurfer.tk%3A6969%2Fannounce&tr=udp%3A%2F%2Ftracker.pirateparty.gr%3A6969%2Fannounce&tr=udp%3A%2F%2Ftracker.cyberia.is%3A6969%2Fannounce",
        "seeder": "39",
        "leecher": "16"
    },
    {
        "rank": "91",
        "title": "The GILF Next Door [Karups 2021] XXX WEB-DL Split Scenes",
        "link": "magnet:?xt=urn:btih:1F2D2ADA9E8F68B2023DF8F31BC875B73B563939&dn=The+GILF+Next+Door+%5BKarups+2021%5D+XXX+WEB-DL+Split+Scenes&tr=udp%3A%2F%2Ftracker.coppersurfer.tk%3A6969%2Fannounce&tr=udp%3A%2F%2F9.rarbg.to%3A2920%2Fannounce&tr=udp%3A%2F%2Ftracker.opentrackr.org%3A1337&tr=udp%3A%2F%2Ftracker.internetwarriors.net%3A1337%2Fannounce&tr=udp%3A%2F%2Ftracker.leechers-paradise.org%3A6969%2Fannounce&tr=udp%3A%2F%2Ftracker.coppersurfer.tk%3A6969%2Fannounce&tr=udp%3A%2F%2Ftracker.pirateparty.gr%3A6969%2Fannounce&tr=udp%3A%2F%2Ftracker.cyberia.is%3A6969%2Fannounce",
        "seeder": "39",
        "leecher": "14"
    },
    {
        "rank": "92",
        "title": "Once.Upon.A.Japanese.Gangbang.JAV.UNCENSORED.XXX.DVDRip.x264-JAV",
        "link": "magnet:?xt=urn:btih:335414CE9E971881419D8F996F8BFC7737D8066E&dn=Once.Upon.A.Japanese.Gangbang.JAV.UNCENSORED.XXX.DVDRip.x264-JAV&tr=udp%3A%2F%2Ftracker.coppersurfer.tk%3A6969%2Fannounce&tr=udp%3A%2F%2F9.rarbg.to%3A2920%2Fannounce&tr=udp%3A%2F%2Ftracker.opentrackr.org%3A1337&tr=udp%3A%2F%2Ftracker.internetwarriors.net%3A1337%2Fannounce&tr=udp%3A%2F%2Ftracker.leechers-paradise.org%3A6969%2Fannounce&tr=udp%3A%2F%2Ftracker.coppersurfer.tk%3A6969%2Fannounce&tr=udp%3A%2F%2Ftracker.pirateparty.gr%3A6969%2Fannounce&tr=udp%3A%2F%2Ftracker.cyberia.is%3A6969%2Fannounce",
        "seeder": "39",
        "leecher": "2"
    },
    {
        "rank": "93",
        "title": "Angelika, An Indecent Story (Alis Locanta, Marc Dorcel) 2020",
        "link": "magnet:?xt=urn:btih:0281FEBD1EF1BFC9D203E54FCBEDBA7FC61B0758&dn=Angelika%2C+An+Indecent+Story+%28Alis+Locanta%2C+Marc+Dorcel%29+2020&tr=udp%3A%2F%2Ftracker.coppersurfer.tk%3A6969%2Fannounce&tr=udp%3A%2F%2F9.rarbg.to%3A2920%2Fannounce&tr=udp%3A%2F%2Ftracker.opentrackr.org%3A1337&tr=udp%3A%2F%2Ftracker.internetwarriors.net%3A1337%2Fannounce&tr=udp%3A%2F%2Ftracker.leechers-paradise.org%3A6969%2Fannounce&tr=udp%3A%2F%2Ftracker.coppersurfer.tk%3A6969%2Fannounce&tr=udp%3A%2F%2Ftracker.pirateparty.gr%3A6969%2Fannounce&tr=udp%3A%2F%2Ftracker.cyberia.is%3A6969%2Fannounce",
        "seeder": "38",
        "leecher": "3"
    },
    {
        "rank": "94",
        "title": "Tushy Raw V19 [Tushy Raw 2021] XXX WEB-DL Split Scenes",
        "link": "magnet:?xt=urn:btih:C3476BDA1BB303C899B36F74239EE5C2DF2A7A2F&dn=Tushy+Raw+V19+%5BTushy+Raw+2021%5D+XXX+WEB-DL+Split+Scenes&tr=udp%3A%2F%2Ftracker.coppersurfer.tk%3A6969%2Fannounce&tr=udp%3A%2F%2F9.rarbg.to%3A2920%2Fannounce&tr=udp%3A%2F%2Ftracker.opentrackr.org%3A1337&tr=udp%3A%2F%2Ftracker.internetwarriors.net%3A1337%2Fannounce&tr=udp%3A%2F%2Ftracker.leechers-paradise.org%3A6969%2Fannounce&tr=udp%3A%2F%2Ftracker.coppersurfer.tk%3A6969%2Fannounce&tr=udp%3A%2F%2Ftracker.pirateparty.gr%3A6969%2Fannounce&tr=udp%3A%2F%2Ftracker.cyberia.is%3A6969%2Fannounce",
        "seeder": "37",
        "leecher": "8"
    },
    {
        "rank": "95",
        "title": "Petite.Girls.Club.XXX.DVDRip.x264-PDTM",
        "link": "magnet:?xt=urn:btih:FF1DF4981D9D7392382F50591BB81425A9BF1647&dn=Petite.Girls.Club.XXX.DVDRip.x264-PDTM&tr=udp%3A%2F%2Ftracker.coppersurfer.tk%3A6969%2Fannounce&tr=udp%3A%2F%2F9.rarbg.to%3A2920%2Fannounce&tr=udp%3A%2F%2Ftracker.opentrackr.org%3A1337&tr=udp%3A%2F%2Ftracker.internetwarriors.net%3A1337%2Fannounce&tr=udp%3A%2F%2Ftracker.leechers-paradise.org%3A6969%2Fannounce&tr=udp%3A%2F%2Ftracker.coppersurfer.tk%3A6969%2Fannounce&tr=udp%3A%2F%2Ftracker.pirateparty.gr%3A6969%2Fannounce&tr=udp%3A%2F%2Ftracker.cyberia.is%3A6969%2Fannounce",
        "seeder": "37",
        "leecher": "1"
    },
    {
        "rank": "96",
        "title": "Perv Citys Department Of Double Penetration Vol. 3 [Perv City 20",
        "link": "magnet:?xt=urn:btih:94DBA105E6A778B525E261CD321B63B8B7E01835&dn=Perv+Citys+Department+Of+Double+Penetration+Vol.+3+%5BPerv+City+20&tr=udp%3A%2F%2Ftracker.coppersurfer.tk%3A6969%2Fannounce&tr=udp%3A%2F%2F9.rarbg.to%3A2920%2Fannounce&tr=udp%3A%2F%2Ftracker.opentrackr.org%3A1337&tr=udp%3A%2F%2Ftracker.internetwarriors.net%3A1337%2Fannounce&tr=udp%3A%2F%2Ftracker.leechers-paradise.org%3A6969%2Fannounce&tr=udp%3A%2F%2Ftracker.coppersurfer.tk%3A6969%2Fannounce&tr=udp%3A%2F%2Ftracker.pirateparty.gr%3A6969%2Fannounce&tr=udp%3A%2F%2Ftracker.cyberia.is%3A6969%2Fannounce",
        "seeder": "36",
        "leecher": "8"
    },
    {
        "rank": "97",
        "title": "Hegre-Art.15.07.21.Yoni.Honouring.Oral.Massage.XXX.WEB.x264-Gala",
        "link": "magnet:?xt=urn:btih:AE33D5CE753E0AFB6787A366B2DA086497A5D7F7&dn=Hegre-Art.15.07.21.Yoni.Honouring.Oral.Massage.XXX.WEB.x264-Gala&tr=udp%3A%2F%2Ftracker.coppersurfer.tk%3A6969%2Fannounce&tr=udp%3A%2F%2F9.rarbg.to%3A2920%2Fannounce&tr=udp%3A%2F%2Ftracker.opentrackr.org%3A1337&tr=udp%3A%2F%2Ftracker.internetwarriors.net%3A1337%2Fannounce&tr=udp%3A%2F%2Ftracker.leechers-paradise.org%3A6969%2Fannounce&tr=udp%3A%2F%2Ftracker.coppersurfer.tk%3A6969%2Fannounce&tr=udp%3A%2F%2Ftracker.pirateparty.gr%3A6969%2Fannounce&tr=udp%3A%2F%2Ftracker.cyberia.is%3A6969%2Fannounce",
        "seeder": "36",
        "leecher": "1"
    },
    {
        "rank": "98",
        "title": "Czech.Mega.Swingers.100.Amateurs.Fucking.Together.XXX.DVDRip.x26",
        "link": "magnet:?xt=urn:btih:702BF79D61C86A4205612C57E445C2471D07B113&dn=Czech.Mega.Swingers.100.Amateurs.Fucking.Together.XXX.DVDRip.x26&tr=udp%3A%2F%2Ftracker.coppersurfer.tk%3A6969%2Fannounce&tr=udp%3A%2F%2F9.rarbg.to%3A2920%2Fannounce&tr=udp%3A%2F%2Ftracker.opentrackr.org%3A1337&tr=udp%3A%2F%2Ftracker.internetwarriors.net%3A1337%2Fannounce&tr=udp%3A%2F%2Ftracker.leechers-paradise.org%3A6969%2Fannounce&tr=udp%3A%2F%2Ftracker.coppersurfer.tk%3A6969%2Fannounce&tr=udp%3A%2F%2Ftracker.pirateparty.gr%3A6969%2Fannounce&tr=udp%3A%2F%2Ftracker.cyberia.is%3A6969%2Fannounce",
        "seeder": "36",
        "leecher": "4"
    },
    {
        "rank": "99",
        "title": "Tushy.Raw.V20.XXX.DVDRip.x264-CiCXXX",
        "link": "magnet:?xt=urn:btih:9148EA9289E75D241A36851687B08C8601DAACBF&dn=Tushy.Raw.V20.XXX.DVDRip.x264-CiCXXX&tr=udp%3A%2F%2Ftracker.coppersurfer.tk%3A6969%2Fannounce&tr=udp%3A%2F%2F9.rarbg.to%3A2920%2Fannounce&tr=udp%3A%2F%2Ftracker.opentrackr.org%3A1337&tr=udp%3A%2F%2Ftracker.internetwarriors.net%3A1337%2Fannounce&tr=udp%3A%2F%2Ftracker.leechers-paradise.org%3A6969%2Fannounce&tr=udp%3A%2F%2Ftracker.coppersurfer.tk%3A6969%2Fannounce&tr=udp%3A%2F%2Ftracker.pirateparty.gr%3A6969%2Fannounce&tr=udp%3A%2F%2Ftracker.cyberia.is%3A6969%2Fannounce",
        "seeder": "35",
        "leecher": "6"
    },
    {
        "rank": "100",
        "title": "AmateureXtreme 34 Movies",
        "link": "magnet:?xt=urn:btih:FE87B6ED36B703AC8C2D6241B5CFA8E94E8DE62F&dn=AmateureXtreme+34+Movies&tr=udp%3A%2F%2Ftracker.coppersurfer.tk%3A6969%2Fannounce&tr=udp%3A%2F%2F9.rarbg.to%3A2920%2Fannounce&tr=udp%3A%2F%2Ftracker.opentrackr.org%3A1337&tr=udp%3A%2F%2Ftracker.internetwarriors.net%3A1337%2Fannounce&tr=udp%3A%2F%2Ftracker.leechers-paradise.org%3A6969%2Fannounce&tr=udp%3A%2F%2Ftracker.coppersurfer.tk%3A6969%2Fannounce&tr=udp%3A%2F%2Ftracker.pirateparty.gr%3A6969%2Fannounce&tr=udp%3A%2F%2Ftracker.cyberia.is%3A6969%2Fannounce",
        "seeder": "35",
        "leecher": "19"
    }
]
