{
    "rank": "1",
    "title": "NordVPN: Best VPN Unlimited PREMIUM v4.5.2 + Accounts",
    "link": "magnet:?xt=urn:btih:6B18216CE1479DDCF7CC7BF5DAA778F2CD31D0FA&dn=NordVPN%3A+Best+VPN+Unlimited+PREMIUM+v4.5.2+%2B+Accounts&tr=udp%3A%2F%2Ftracker.coppersurfer.tk%3A6969%2Fannounce&tr=udp%3A%2F%2F9.rarbg.to%3A2920%2Fannounce&tr=udp%3A%2F%2Ftracker.opentrackr.org%3A1337&tr=udp%3A%2F%2Ftracker.internetwarriors.net%3A1337%2Fannounce&tr=udp%3A%2F%2Ftracker.leechers-paradise.org%3A6969%2Fannounce&tr=udp%3A%2F%2Ftracker.coppersurfer.tk%3A6969%2Fannounce&tr=udp%3A%2F%2Ftracker.pirateparty.gr%3A6969%2Fannounce&tr=udp%3A%2F%2Ftracker.cyberia.is%3A6969%2Fannounce",
    "seeder": "238",
    "leecher": "5"
}{
    "rank": "2",
    "title": "Spotify Music 8.6.0.830 [Final] [Mod Apk] {B4tman}",
    "link": "magnet:?xt=urn:btih:F243DA99EB8A210A5B8AC480878B4564DF6BE221&dn=Spotify+Music+8.6.0.830+%5BFinal%5D+%5BMod+Apk%5D+%7BB4tman%7D&tr=udp%3A%2F%2Ftracker.coppersurfer.tk%3A6969%2Fannounce&tr=udp%3A%2F%2F9.rarbg.to%3A2920%2Fannounce&tr=udp%3A%2F%2Ftracker.opentrackr.org%3A1337&tr=udp%3A%2F%2Ftracker.internetwarriors.net%3A1337%2Fannounce&tr=udp%3A%2F%2Ftracker.leechers-paradise.org%3A6969%2Fannounce&tr=udp%3A%2F%2Ftracker.coppersurfer.tk%3A6969%2Fannounce&tr=udp%3A%2F%2Ftracker.pirateparty.gr%3A6969%2Fannounce&tr=udp%3A%2F%2Ftracker.cyberia.is%3A6969%2Fannounce",
    "seeder": "116",
    "leecher": "3"
}{
    "rank": "3",
    "title": "Spotify Music Premium v8.5.3.716 {B4tman}",
    "link": "magnet:?xt=urn:btih:604FACFBB5FCC7D7A33E493B015D7C51094E01B8&dn=Spotify+Music+Premium+v8.5.3.716+%7BB4tman%7D&tr=udp%3A%2F%2Ftracker.coppersurfer.tk%3A6969%2Fannounce&tr=udp%3A%2F%2F9.rarbg.to%3A2920%2Fannounce&tr=udp%3A%2F%2Ftracker.opentrackr.org%3A1337&tr=udp%3A%2F%2Ftracker.internetwarriors.net%3A1337%2Fannounce&tr=udp%3A%2F%2Ftracker.leechers-paradise.org%3A6969%2Fannounce&tr=udp%3A%2F%2Ftracker.coppersurfer.tk%3A6969%2Fannounce&tr=udp%3A%2F%2Ftracker.pirateparty.gr%3A6969%2Fannounce&tr=udp%3A%2F%2Ftracker.cyberia.is%3A6969%2Fannounce",
    "seeder": "92",
    "leecher": "7"
}{
    "rank": "4",
    "title": "ExpressVPN - Unlimited Secure VPN Proxy v8.01. [Mod] Android",
    "link": "magnet:?xt=urn:btih:36E717EF97C7718ED578E4AC7DEFA0290FA2F3EA&dn=ExpressVPN+-+Unlimited+Secure+VPN+Proxy+v8.01.+%5BMod%5D+Android&tr=udp%3A%2F%2Ftracker.coppersurfer.tk%3A6969%2Fannounce&tr=udp%3A%2F%2F9.rarbg.to%3A2920%2Fannounce&tr=udp%3A%2F%2Ftracker.opentrackr.org%3A1337&tr=udp%3A%2F%2Ftracker.internetwarriors.net%3A1337%2Fannounce&tr=udp%3A%2F%2Ftracker.leechers-paradise.org%3A6969%2Fannounce&tr=udp%3A%2F%2Ftracker.coppersurfer.tk%3A6969%2Fannounce&tr=udp%3A%2F%2Ftracker.pirateparty.gr%3A6969%2Fannounce&tr=udp%3A%2F%2Ftracker.cyberia.is%3A6969%2Fannounce",
    "seeder": "72",
    "leecher": "0"
}{
    "rank": "5",
    "title": "YouTube Vanced APK Premium (Add Free) Android",
    "link": "magnet:?xt=urn:btih:272D8AFC5498A9365EA779696266E3FEBB451580&dn=YouTube+Vanced+APK+Premium+%28Add+Free%29+Android&tr=udp%3A%2F%2Ftracker.coppersurfer.tk%3A6969%2Fannounce&tr=udp%3A%2F%2F9.rarbg.to%3A2920%2Fannounce&tr=udp%3A%2F%2Ftracker.opentrackr.org%3A1337&tr=udp%3A%2F%2Ftracker.internetwarriors.net%3A1337%2Fannounce&tr=udp%3A%2F%2Ftracker.leechers-paradise.org%3A6969%2Fannounce&tr=udp%3A%2F%2Ftracker.coppersurfer.tk%3A6969%2Fannounce&tr=udp%3A%2F%2Ftracker.pirateparty.gr%3A6969%2Fannounce&tr=udp%3A%2F%2Ftracker.cyberia.is%3A6969%2Fannounce",
    "seeder": "63",
    "leecher": "4"
}{
    "rank": "6",
    "title": "IPTV Pro 5.0.11 [Paid] [Patched + AOSP] {B4tman}",
    "link": "magnet:?xt=urn:btih:0FA177845218823927713943EE9CCED857AFD166&dn=IPTV+Pro+5.0.11+%5BPaid%5D+%5BPatched+%2B+AOSP%5D+%7BB4tman%7D&tr=udp%3A%2F%2Ftracker.coppersurfer.tk%3A6969%2Fannounce&tr=udp%3A%2F%2F9.rarbg.to%3A2920%2Fannounce&tr=udp%3A%2F%2Ftracker.opentrackr.org%3A1337&tr=udp%3A%2F%2Ftracker.internetwarriors.net%3A1337%2Fannounce&tr=udp%3A%2F%2Ftracker.leechers-paradise.org%3A6969%2Fannounce&tr=udp%3A%2F%2Ftracker.coppersurfer.tk%3A6969%2Fannounce&tr=udp%3A%2F%2Ftracker.pirateparty.gr%3A6969%2Fannounce&tr=udp%3A%2F%2Ftracker.cyberia.is%3A6969%2Fannounce",
    "seeder": "56",
    "leecher": "3"
}{
    "rank": "7",
    "title": "ExpressVPN VPN - v10.0.0 Beta (MOD)",
    "link": "magnet:?xt=urn:btih:C96F4D7A83BAE41C0ED01AA27DCDB381602DC854&dn=ExpressVPN+VPN+-+v10.0.0+Beta+%28MOD%29&tr=udp%3A%2F%2Ftracker.coppersurfer.tk%3A6969%2Fannounce&tr=udp%3A%2F%2F9.rarbg.to%3A2920%2Fannounce&tr=udp%3A%2F%2Ftracker.opentrackr.org%3A1337&tr=udp%3A%2F%2Ftracker.internetwarriors.net%3A1337%2Fannounce&tr=udp%3A%2F%2Ftracker.leechers-paradise.org%3A6969%2Fannounce&tr=udp%3A%2F%2Ftracker.coppersurfer.tk%3A6969%2Fannounce&tr=udp%3A%2F%2Ftracker.pirateparty.gr%3A6969%2Fannounce&tr=udp%3A%2F%2Ftracker.cyberia.is%3A6969%2Fannounce",
    "seeder": "52",
    "leecher": "3"
}{
    "rank": "8",
    "title": "Sygic GPS Navigation & Maps v18.7.7 Unlocked Apk - [haxNode]",
    "link": "magnet:?xt=urn:btih:2B236E7D69416A5A18EA289B89E723A15CF5CF7E&dn=Sygic+GPS+Navigation+%26amp%3B+Maps+v18.7.7+Unlocked+Apk+-+%5BhaxNode%5D&tr=udp%3A%2F%2Ftracker.coppersurfer.tk%3A6969%2Fannounce&tr=udp%3A%2F%2F9.rarbg.to%3A2920%2Fannounce&tr=udp%3A%2F%2Ftracker.opentrackr.org%3A1337&tr=udp%3A%2F%2Ftracker.internetwarriors.net%3A1337%2Fannounce&tr=udp%3A%2F%2Ftracker.leechers-paradise.org%3A6969%2Fannounce&tr=udp%3A%2F%2Ftracker.coppersurfer.tk%3A6969%2Fannounce&tr=udp%3A%2F%2Ftracker.pirateparty.gr%3A6969%2Fannounce&tr=udp%3A%2F%2Ftracker.cyberia.is%3A6969%2Fannounce",
    "seeder": "41",
    "leecher": "0"
}{
    "rank": "9",
    "title": "Rosetta Stone - Learn New Languages 5.10.0 Unlocked {B4tman}",
    "link": "magnet:?xt=urn:btih:FB39425BEFFA2623B73D61EC4E8E8877D1DA7610&dn=Rosetta+Stone+-+Learn+New+Languages+5.10.0+Unlocked+%7BB4tman%7D&tr=udp%3A%2F%2Ftracker.coppersurfer.tk%3A6969%2Fannounce&tr=udp%3A%2F%2F9.rarbg.to%3A2920%2Fannounce&tr=udp%3A%2F%2Ftracker.opentrackr.org%3A1337&tr=udp%3A%2F%2Ftracker.internetwarriors.net%3A1337%2Fannounce&tr=udp%3A%2F%2Ftracker.leechers-paradise.org%3A6969%2Fannounce&tr=udp%3A%2F%2Ftracker.coppersurfer.tk%3A6969%2Fannounce&tr=udp%3A%2F%2Ftracker.pirateparty.gr%3A6969%2Fannounce&tr=udp%3A%2F%2Ftracker.cyberia.is%3A6969%2Fannounce",
    "seeder": "36",
    "leecher": "0"
}{
    "rank": "10",
    "title": "ExpressVPN - Unlimited Secure VPN Proxy v7.11.0 [Mod]",
    "link": "magnet:?xt=urn:btih:30757A567F9059ED7DD2C55D794A500B9769AEA1&dn=ExpressVPN+-+Unlimited+Secure+VPN+Proxy+v7.11.0+%5BMod%5D&tr=udp%3A%2F%2Ftracker.coppersurfer.tk%3A6969%2Fannounce&tr=udp%3A%2F%2F9.rarbg.to%3A2920%2Fannounce&tr=udp%3A%2F%2Ftracker.opentrackr.org%3A1337&tr=udp%3A%2F%2Ftracker.internetwarriors.net%3A1337%2Fannounce&tr=udp%3A%2F%2Ftracker.leechers-paradise.org%3A6969%2Fannounce&tr=udp%3A%2F%2Ftracker.coppersurfer.tk%3A6969%2Fannounce&tr=udp%3A%2F%2Ftracker.pirateparty.gr%3A6969%2Fannounce&tr=udp%3A%2F%2Ftracker.cyberia.is%3A6969%2Fannounce",
    "seeder": "30",
    "leecher": "0"
}{
    "rank": "11",
    "title": "Truecaller Premium Caller ID, Spam Blocking 10.65.6 {B4tman}",
    "link": "magnet:?xt=urn:btih:07BE213CCB44EE1BAA941719B8C660EBFD34174E&dn=Truecaller+Premium+Caller+ID%2C+Spam+Blocking+10.65.6+%7BB4tman%7D&tr=udp%3A%2F%2Ftracker.coppersurfer.tk%3A6969%2Fannounce&tr=udp%3A%2F%2F9.rarbg.to%3A2920%2Fannounce&tr=udp%3A%2F%2Ftracker.opentrackr.org%3A1337&tr=udp%3A%2F%2Ftracker.internetwarriors.net%3A1337%2Fannounce&tr=udp%3A%2F%2Ftracker.leechers-paradise.org%3A6969%2Fannounce&tr=udp%3A%2F%2Ftracker.coppersurfer.tk%3A6969%2Fannounce&tr=udp%3A%2F%2Ftracker.pirateparty.gr%3A6969%2Fannounce&tr=udp%3A%2F%2Ftracker.cyberia.is%3A6969%2Fannounce",
    "seeder": "29",
    "leecher": "0"
}{
    "rank": "12",
    "title": "PicsArt Photo Studio & Collage v12.6.2 [Unlocked] [APKGOD]",
    "link": "magnet:?xt=urn:btih:593DFC058042CFC56B89FDF8E6CE30A5BC693468&dn=PicsArt+Photo+Studio+%26amp%3B+Collage+v12.6.2+%5BUnlocked%5D+%5BAPKGOD%5D&tr=udp%3A%2F%2Ftracker.coppersurfer.tk%3A6969%2Fannounce&tr=udp%3A%2F%2F9.rarbg.to%3A2920%2Fannounce&tr=udp%3A%2F%2Ftracker.opentrackr.org%3A1337&tr=udp%3A%2F%2Ftracker.internetwarriors.net%3A1337%2Fannounce&tr=udp%3A%2F%2Ftracker.leechers-paradise.org%3A6969%2Fannounce&tr=udp%3A%2F%2Ftracker.coppersurfer.tk%3A6969%2Fannounce&tr=udp%3A%2F%2Ftracker.pirateparty.gr%3A6969%2Fannounce&tr=udp%3A%2F%2Ftracker.cyberia.is%3A6969%2Fannounce",
    "seeder": "28",
    "leecher": "0"
}{
    "rank": "13",
    "title": "YouTube Vanced 15.40.37 Premium [ML][SAP] {B4tman}",
    "link": "magnet:?xt=urn:btih:701D959E098CE01B054C100AFC84E1082E406F9C&dn=YouTube+Vanced+15.40.37+Premium+%5BML%5D%5BSAP%5D+%7BB4tman%7D&tr=udp%3A%2F%2Ftracker.coppersurfer.tk%3A6969%2Fannounce&tr=udp%3A%2F%2F9.rarbg.to%3A2920%2Fannounce&tr=udp%3A%2F%2Ftracker.opentrackr.org%3A1337&tr=udp%3A%2F%2Ftracker.internetwarriors.net%3A1337%2Fannounce&tr=udp%3A%2F%2Ftracker.leechers-paradise.org%3A6969%2Fannounce&tr=udp%3A%2F%2Ftracker.coppersurfer.tk%3A6969%2Fannounce&tr=udp%3A%2F%2Ftracker.pirateparty.gr%3A6969%2Fannounce&tr=udp%3A%2F%2Ftracker.cyberia.is%3A6969%2Fannounce",
    "seeder": "27",
    "leecher": "2"
}{
    "rank": "14",
    "title": "Smart YouTube TV - NO ADS! (Android TV) 6.17.702 {B4tman}",
    "link": "magnet:?xt=urn:btih:1E9ADBBBEBBBE7BD979FCD7EA02562D20BE4F38F&dn=Smart+YouTube+TV+-+NO+ADS%21+%28Android+TV%29+6.17.702+%7BB4tman%7D&tr=udp%3A%2F%2Ftracker.coppersurfer.tk%3A6969%2Fannounce&tr=udp%3A%2F%2F9.rarbg.to%3A2920%2Fannounce&tr=udp%3A%2F%2Ftracker.opentrackr.org%3A1337&tr=udp%3A%2F%2Ftracker.internetwarriors.net%3A1337%2Fannounce&tr=udp%3A%2F%2Ftracker.leechers-paradise.org%3A6969%2Fannounce&tr=udp%3A%2F%2Ftracker.coppersurfer.tk%3A6969%2Fannounce&tr=udp%3A%2F%2Ftracker.pirateparty.gr%3A6969%2Fannounce&tr=udp%3A%2F%2Ftracker.cyberia.is%3A6969%2Fannounce",
    "seeder": "27",
    "leecher": "0"
}{
    "rank": "15",
    "title": "ReadEra Premium - book reader 19.12.27+1120 {B4tman}",
    "link": "magnet:?xt=urn:btih:E4546948095129B95D8CF40D3D42AC2C6738FB87&dn=ReadEra+Premium+-+book+reader+19.12.27%2B1120+%7BB4tman%7D&tr=udp%3A%2F%2Ftracker.coppersurfer.tk%3A6969%2Fannounce&tr=udp%3A%2F%2F9.rarbg.to%3A2920%2Fannounce&tr=udp%3A%2F%2Ftracker.opentrackr.org%3A1337&tr=udp%3A%2F%2Ftracker.internetwarriors.net%3A1337%2Fannounce&tr=udp%3A%2F%2Ftracker.leechers-paradise.org%3A6969%2Fannounce&tr=udp%3A%2F%2Ftracker.coppersurfer.tk%3A6969%2Fannounce&tr=udp%3A%2F%2Ftracker.pirateparty.gr%3A6969%2Fannounce&tr=udp%3A%2F%2Ftracker.cyberia.is%3A6969%2Fannounce",
    "seeder": "26",
    "leecher": "1"
}{
    "rank": "16",
    "title": "Photo Lab Pro - Picture Editor 3.8.20 [Patched] {B4tman}",
    "link": "magnet:?xt=urn:btih:A642C989FE3D1117113D76FF94BF484679FDDC51&dn=Photo+Lab+Pro+-+Picture+Editor+3.8.20+%5BPatched%5D+%7BB4tman%7D&tr=udp%3A%2F%2Ftracker.coppersurfer.tk%3A6969%2Fannounce&tr=udp%3A%2F%2F9.rarbg.to%3A2920%2Fannounce&tr=udp%3A%2F%2Ftracker.opentrackr.org%3A1337&tr=udp%3A%2F%2Ftracker.internetwarriors.net%3A1337%2Fannounce&tr=udp%3A%2F%2Ftracker.leechers-paradise.org%3A6969%2Fannounce&tr=udp%3A%2F%2Ftracker.coppersurfer.tk%3A6969%2Fannounce&tr=udp%3A%2F%2Ftracker.pirateparty.gr%3A6969%2Fannounce&tr=udp%3A%2F%2Ftracker.cyberia.is%3A6969%2Fannounce",
    "seeder": "25",
    "leecher": "1"
}{
    "rank": "17",
    "title": "Adobe Spark Post Premium v3.0.2 [Unlocked] {B4tman}",
    "link": "magnet:?xt=urn:btih:FA29433BDF08438ABB0D2AFA04DA4CC4EC568896&dn=Adobe+Spark+Post+Premium+v3.0.2+%5BUnlocked%5D+%7BB4tman%7D&tr=udp%3A%2F%2Ftracker.coppersurfer.tk%3A6969%2Fannounce&tr=udp%3A%2F%2F9.rarbg.to%3A2920%2Fannounce&tr=udp%3A%2F%2Ftracker.opentrackr.org%3A1337&tr=udp%3A%2F%2Ftracker.internetwarriors.net%3A1337%2Fannounce&tr=udp%3A%2F%2Ftracker.leechers-paradise.org%3A6969%2Fannounce&tr=udp%3A%2F%2Ftracker.coppersurfer.tk%3A6969%2Fannounce&tr=udp%3A%2F%2Ftracker.pirateparty.gr%3A6969%2Fannounce&tr=udp%3A%2F%2Ftracker.cyberia.is%3A6969%2Fannounce",
    "seeder": "24",
    "leecher": "0"
}{
    "rank": "18",
    "title": "Torque Pro (OBD 2 & Car) 1.8.202 [.APK][Android] [ENG]",
    "link": "magnet:?xt=urn:btih:3236C106C553B3A7C694001B6434DC1F4E5F06DB&dn=Torque+Pro+%28OBD+2+%26amp%3B+Car%29+1.8.202+%5B.APK%5D%5BAndroid%5D+%5BENG%5D&tr=udp%3A%2F%2Ftracker.coppersurfer.tk%3A6969%2Fannounce&tr=udp%3A%2F%2F9.rarbg.to%3A2920%2Fannounce&tr=udp%3A%2F%2Ftracker.opentrackr.org%3A1337&tr=udp%3A%2F%2Ftracker.internetwarriors.net%3A1337%2Fannounce&tr=udp%3A%2F%2Ftracker.leechers-paradise.org%3A6969%2Fannounce&tr=udp%3A%2F%2Ftracker.coppersurfer.tk%3A6969%2Fannounce&tr=udp%3A%2F%2Ftracker.pirateparty.gr%3A6969%2Fannounce&tr=udp%3A%2F%2Ftracker.cyberia.is%3A6969%2Fannounce",
    "seeder": "23",
    "leecher": "1"
}{
    "rank": "19",
    "title": "Android Paid & Modded Apps Pack 13-April -2019 [APKGOD]",
    "link": "magnet:?xt=urn:btih:5695130F231491C4453B779FF529196A117D217B&dn=Android+Paid+%26amp%3B+Modded+Apps+Pack+13-April+-2019+%5BAPKGOD%5D&tr=udp%3A%2F%2Ftracker.coppersurfer.tk%3A6969%2Fannounce&tr=udp%3A%2F%2F9.rarbg.to%3A2920%2Fannounce&tr=udp%3A%2F%2Ftracker.opentrackr.org%3A1337&tr=udp%3A%2F%2Ftracker.internetwarriors.net%3A1337%2Fannounce&tr=udp%3A%2F%2Ftracker.leechers-paradise.org%3A6969%2Fannounce&tr=udp%3A%2F%2Ftracker.coppersurfer.tk%3A6969%2Fannounce&tr=udp%3A%2F%2Ftracker.pirateparty.gr%3A6969%2Fannounce&tr=udp%3A%2F%2Ftracker.cyberia.is%3A6969%2Fannounce",
    "seeder": "22",
    "leecher": "6"
}{
    "rank": "20",
    "title": "TeamViewer for Remote Control v14.2.180 [Ad Free] {B4tman}",
    "link": "magnet:?xt=urn:btih:A0403C4E7E92D1888E4F5F957B0367FCD9450264&dn=TeamViewer+for+Remote+Control+v14.2.180+%5BAd+Free%5D+%7BB4tman%7D&tr=udp%3A%2F%2Ftracker.coppersurfer.tk%3A6969%2Fannounce&tr=udp%3A%2F%2F9.rarbg.to%3A2920%2Fannounce&tr=udp%3A%2F%2Ftracker.opentrackr.org%3A1337&tr=udp%3A%2F%2Ftracker.internetwarriors.net%3A1337%2Fannounce&tr=udp%3A%2F%2Ftracker.leechers-paradise.org%3A6969%2Fannounce&tr=udp%3A%2F%2Ftracker.coppersurfer.tk%3A6969%2Fannounce&tr=udp%3A%2F%2Ftracker.pirateparty.gr%3A6969%2Fannounce&tr=udp%3A%2F%2Ftracker.cyberia.is%3A6969%2Fannounce",
    "seeder": "22",
    "leecher": "1"
}{
    "rank": "21",
    "title": "Spotify - Music and Podcasts 8.5.70.868 Mod Apk - [haxNode]",
    "link": "magnet:?xt=urn:btih:4065E25CBBDA46270176BEFFBB4859C564216A49&dn=Spotify+-+Music+and+Podcasts+8.5.70.868+Mod+Apk+-+%5BhaxNode%5D&tr=udp%3A%2F%2Ftracker.coppersurfer.tk%3A6969%2Fannounce&tr=udp%3A%2F%2F9.rarbg.to%3A2920%2Fannounce&tr=udp%3A%2F%2Ftracker.opentrackr.org%3A1337&tr=udp%3A%2F%2Ftracker.internetwarriors.net%3A1337%2Fannounce&tr=udp%3A%2F%2Ftracker.leechers-paradise.org%3A6969%2Fannounce&tr=udp%3A%2F%2Ftracker.coppersurfer.tk%3A6969%2Fannounce&tr=udp%3A%2F%2Ftracker.pirateparty.gr%3A6969%2Fannounce&tr=udp%3A%2F%2Ftracker.cyberia.is%3A6969%2Fannounce",
    "seeder": "20",
    "leecher": "0"
}{
    "rank": "22",
    "title": "Ultimate Guitar Tabs Chords v4.10.6 [Unlocked] [WWRG]",
    "link": "magnet:?xt=urn:btih:939FE2B48A7E9DF215138A3058169EDA08D751B5&dn=Ultimate+Guitar+Tabs+Chords+v4.10.6+%5BUnlocked%5D+%5BWWRG%5D&tr=udp%3A%2F%2Ftracker.coppersurfer.tk%3A6969%2Fannounce&tr=udp%3A%2F%2F9.rarbg.to%3A2920%2Fannounce&tr=udp%3A%2F%2Ftracker.opentrackr.org%3A1337&tr=udp%3A%2F%2Ftracker.internetwarriors.net%3A1337%2Fannounce&tr=udp%3A%2F%2Ftracker.leechers-paradise.org%3A6969%2Fannounce&tr=udp%3A%2F%2Ftracker.coppersurfer.tk%3A6969%2Fannounce&tr=udp%3A%2F%2Ftracker.pirateparty.gr%3A6969%2Fannounce&tr=udp%3A%2F%2Ftracker.cyberia.is%3A6969%2Fannounce",
    "seeder": "18",
    "leecher": "0"
}{
    "rank": "23",
    "title": "IPTV Extreme Pro v41.0 [Patched] [WWRG]",
    "link": "magnet:?xt=urn:btih:4C776C1E24AF6E5CA3596872250AE6956CB45E48&dn=IPTV+Extreme+Pro+v41.0+%5BPatched%5D+%5BWWRG%5D&tr=udp%3A%2F%2Ftracker.coppersurfer.tk%3A6969%2Fannounce&tr=udp%3A%2F%2F9.rarbg.to%3A2920%2Fannounce&tr=udp%3A%2F%2Ftracker.opentrackr.org%3A1337&tr=udp%3A%2F%2Ftracker.internetwarriors.net%3A1337%2Fannounce&tr=udp%3A%2F%2Ftracker.leechers-paradise.org%3A6969%2Fannounce&tr=udp%3A%2F%2Ftracker.coppersurfer.tk%3A6969%2Fannounce&tr=udp%3A%2F%2Ftracker.pirateparty.gr%3A6969%2Fannounce&tr=udp%3A%2F%2Ftracker.cyberia.is%3A6969%2Fannounce",
    "seeder": "18",
    "leecher": "0"
}{
    "rank": "24",
    "title": "Live NetTV 4.7 [Mod Apk] {B4tman}",
    "link": "magnet:?xt=urn:btih:F0B150C98D330258E1941D1A953E73F5474DC0AC&dn=Live+NetTV+4.7+%5BMod+Apk%5D+%7BB4tman%7D&tr=udp%3A%2F%2Ftracker.coppersurfer.tk%3A6969%2Fannounce&tr=udp%3A%2F%2F9.rarbg.to%3A2920%2Fannounce&tr=udp%3A%2F%2Ftracker.opentrackr.org%3A1337&tr=udp%3A%2F%2Ftracker.internetwarriors.net%3A1337%2Fannounce&tr=udp%3A%2F%2Ftracker.leechers-paradise.org%3A6969%2Fannounce&tr=udp%3A%2F%2Ftracker.coppersurfer.tk%3A6969%2Fannounce&tr=udp%3A%2F%2Ftracker.pirateparty.gr%3A6969%2Fannounce&tr=udp%3A%2F%2Ftracker.cyberia.is%3A6969%2Fannounce",
    "seeder": "18",
    "leecher": "0"
}{
    "rank": "25",
    "title": "uTorrent\u00ae Pro 6.1.8 [Android] {B4tman}",
    "link": "magnet:?xt=urn:btih:791DB49CE15894144DD065F604B94B08F95288EC&dn=uTorrent%26reg%3B+Pro+6.1.8+%5BAndroid%5D+%7BB4tman%7D&tr=udp%3A%2F%2Ftracker.coppersurfer.tk%3A6969%2Fannounce&tr=udp%3A%2F%2F9.rarbg.to%3A2920%2Fannounce&tr=udp%3A%2F%2Ftracker.opentrackr.org%3A1337&tr=udp%3A%2F%2Ftracker.internetwarriors.net%3A1337%2Fannounce&tr=udp%3A%2F%2Ftracker.leechers-paradise.org%3A6969%2Fannounce&tr=udp%3A%2F%2Ftracker.coppersurfer.tk%3A6969%2Fannounce&tr=udp%3A%2F%2Ftracker.pirateparty.gr%3A6969%2Fannounce&tr=udp%3A%2F%2Ftracker.cyberia.is%3A6969%2Fannounce",
    "seeder": "17",
    "leecher": "1"
}{
    "rank": "26",
    "title": "ExpressVPN 9.3.0 Beta [Android] [Mod Apk] {B4tman}",
    "link": "magnet:?xt=urn:btih:3F0C200550B03455864018D649AA11E25A896804&dn=ExpressVPN+9.3.0+Beta+%5BAndroid%5D+%5BMod+Apk%5D+%7BB4tman%7D&tr=udp%3A%2F%2Ftracker.coppersurfer.tk%3A6969%2Fannounce&tr=udp%3A%2F%2F9.rarbg.to%3A2920%2Fannounce&tr=udp%3A%2F%2Ftracker.opentrackr.org%3A1337&tr=udp%3A%2F%2Ftracker.internetwarriors.net%3A1337%2Fannounce&tr=udp%3A%2F%2Ftracker.leechers-paradise.org%3A6969%2Fannounce&tr=udp%3A%2F%2Ftracker.coppersurfer.tk%3A6969%2Fannounce&tr=udp%3A%2F%2Ftracker.pirateparty.gr%3A6969%2Fannounce&tr=udp%3A%2F%2Ftracker.cyberia.is%3A6969%2Fannounce",
    "seeder": "16",
    "leecher": "0"
}{
    "rank": "27",
    "title": "SnapTube VIP \u2013 Video Downloader 5.02.0.5021210 {B4tman}",
    "link": "magnet:?xt=urn:btih:2A90AB46FAAB8B003BF80CE7D5A5DC5A65CBCA6F&dn=SnapTube+VIP+%26ndash%3B+Video+Downloader+5.02.0.5021210+%7BB4tman%7D&tr=udp%3A%2F%2Ftracker.coppersurfer.tk%3A6969%2Fannounce&tr=udp%3A%2F%2F9.rarbg.to%3A2920%2Fannounce&tr=udp%3A%2F%2Ftracker.opentrackr.org%3A1337&tr=udp%3A%2F%2Ftracker.internetwarriors.net%3A1337%2Fannounce&tr=udp%3A%2F%2Ftracker.leechers-paradise.org%3A6969%2Fannounce&tr=udp%3A%2F%2Ftracker.coppersurfer.tk%3A6969%2Fannounce&tr=udp%3A%2F%2Ftracker.pirateparty.gr%3A6969%2Fannounce&tr=udp%3A%2F%2Ftracker.cyberia.is%3A6969%2Fannounce",
    "seeder": "16",
    "leecher": "1"
}{
    "rank": "28",
    "title": "SHAREit - Transfer & Share 5.0.28 [Mod AdFree] {B4tman}",
    "link": "magnet:?xt=urn:btih:7C20E0EA560DBC13B0B616518A28221E93EA84EB&dn=SHAREit+-+Transfer+%26amp%3B+Share+5.0.28+%5BMod+AdFree%5D+%7BB4tman%7D&tr=udp%3A%2F%2Ftracker.coppersurfer.tk%3A6969%2Fannounce&tr=udp%3A%2F%2F9.rarbg.to%3A2920%2Fannounce&tr=udp%3A%2F%2Ftracker.opentrackr.org%3A1337&tr=udp%3A%2F%2Ftracker.internetwarriors.net%3A1337%2Fannounce&tr=udp%3A%2F%2Ftracker.leechers-paradise.org%3A6969%2Fannounce&tr=udp%3A%2F%2Ftracker.coppersurfer.tk%3A6969%2Fannounce&tr=udp%3A%2F%2Ftracker.pirateparty.gr%3A6969%2Fannounce&tr=udp%3A%2F%2Ftracker.cyberia.is%3A6969%2Fannounce",
    "seeder": "16",
    "leecher": "1"
}{
    "rank": "29",
    "title": "Duolingo Plus Learn Languages Free 4.25.3 [Mod] {B4tman}",
    "link": "magnet:?xt=urn:btih:E9F4444B347F7BDCCB16EA389F561765AD122D9A&dn=Duolingo+Plus+Learn+Languages+Free+4.25.3+%5BMod%5D+%7BB4tman%7D&tr=udp%3A%2F%2Ftracker.coppersurfer.tk%3A6969%2Fannounce&tr=udp%3A%2F%2F9.rarbg.to%3A2920%2Fannounce&tr=udp%3A%2F%2Ftracker.opentrackr.org%3A1337&tr=udp%3A%2F%2Ftracker.internetwarriors.net%3A1337%2Fannounce&tr=udp%3A%2F%2Ftracker.leechers-paradise.org%3A6969%2Fannounce&tr=udp%3A%2F%2Ftracker.coppersurfer.tk%3A6969%2Fannounce&tr=udp%3A%2F%2Ftracker.pirateparty.gr%3A6969%2Fannounce&tr=udp%3A%2F%2Ftracker.cyberia.is%3A6969%2Fannounce",
    "seeder": "16",
    "leecher": "0"
}{
    "rank": "30",
    "title": "Adobe Spark Post Premium 3.4.3 {B4tman}",
    "link": "magnet:?xt=urn:btih:DE6A6FCD54D86580D738CC725A60242C601BCE78&dn=Adobe+Spark+Post+Premium+3.4.3+%7BB4tman%7D&tr=udp%3A%2F%2Ftracker.coppersurfer.tk%3A6969%2Fannounce&tr=udp%3A%2F%2F9.rarbg.to%3A2920%2Fannounce&tr=udp%3A%2F%2Ftracker.opentrackr.org%3A1337&tr=udp%3A%2F%2Ftracker.internetwarriors.net%3A1337%2Fannounce&tr=udp%3A%2F%2Ftracker.leechers-paradise.org%3A6969%2Fannounce&tr=udp%3A%2F%2Ftracker.coppersurfer.tk%3A6969%2Fannounce&tr=udp%3A%2F%2Ftracker.pirateparty.gr%3A6969%2Fannounce&tr=udp%3A%2F%2Ftracker.cyberia.is%3A6969%2Fannounce",
    "seeder": "15",
    "leecher": "1"
}{
    "rank": "31",
    "title": "OfficeSuite v10.19.29474 Premium Apk - [haxNode]",
    "link": "magnet:?xt=urn:btih:724FFEE868C21E14642110B2EAD09E62E082CB6C&dn=OfficeSuite+v10.19.29474+Premium+Apk+-+%5BhaxNode%5D&tr=udp%3A%2F%2Ftracker.coppersurfer.tk%3A6969%2Fannounce&tr=udp%3A%2F%2F9.rarbg.to%3A2920%2Fannounce&tr=udp%3A%2F%2Ftracker.opentrackr.org%3A1337&tr=udp%3A%2F%2Ftracker.internetwarriors.net%3A1337%2Fannounce&tr=udp%3A%2F%2Ftracker.leechers-paradise.org%3A6969%2Fannounce&tr=udp%3A%2F%2Ftracker.coppersurfer.tk%3A6969%2Fannounce&tr=udp%3A%2F%2Ftracker.pirateparty.gr%3A6969%2Fannounce&tr=udp%3A%2F%2Ftracker.cyberia.is%3A6969%2Fannounce",
    "seeder": "15",
    "leecher": "0"
}{
    "rank": "32",
    "title": "jetAudio HD Music Player Plus 10.0.2 [Patched] {B4tman}",
    "link": "magnet:?xt=urn:btih:893BE62D9D3729EBC7101C9774DD5F312D51F9B6&dn=jetAudio+HD+Music+Player+Plus+10.0.2+%5BPatched%5D+%7BB4tman%7D&tr=udp%3A%2F%2Ftracker.coppersurfer.tk%3A6969%2Fannounce&tr=udp%3A%2F%2F9.rarbg.to%3A2920%2Fannounce&tr=udp%3A%2F%2Ftracker.opentrackr.org%3A1337&tr=udp%3A%2F%2Ftracker.internetwarriors.net%3A1337%2Fannounce&tr=udp%3A%2F%2Ftracker.leechers-paradise.org%3A6969%2Fannounce&tr=udp%3A%2F%2Ftracker.coppersurfer.tk%3A6969%2Fannounce&tr=udp%3A%2F%2Ftracker.pirateparty.gr%3A6969%2Fannounce&tr=udp%3A%2F%2Ftracker.cyberia.is%3A6969%2Fannounce",
    "seeder": "15",
    "leecher": "0"
}{
    "rank": "33",
    "title": "Spotify Music Premium 8.5.13.637 {B4tman}",
    "link": "magnet:?xt=urn:btih:D2837F2C017B135D0CDCF5502070146578E4FB7F&dn=Spotify+Music+Premium+8.5.13.637+%7BB4tman%7D&tr=udp%3A%2F%2Ftracker.coppersurfer.tk%3A6969%2Fannounce&tr=udp%3A%2F%2F9.rarbg.to%3A2920%2Fannounce&tr=udp%3A%2F%2Ftracker.opentrackr.org%3A1337&tr=udp%3A%2F%2Ftracker.internetwarriors.net%3A1337%2Fannounce&tr=udp%3A%2F%2Ftracker.leechers-paradise.org%3A6969%2Fannounce&tr=udp%3A%2F%2Ftracker.coppersurfer.tk%3A6969%2Fannounce&tr=udp%3A%2F%2Ftracker.pirateparty.gr%3A6969%2Fannounce&tr=udp%3A%2F%2Ftracker.cyberia.is%3A6969%2Fannounce",
    "seeder": "15",
    "leecher": "0"
}{
    "rank": "34",
    "title": "Live NetTV 4.7.4 [AIO Mod Apk] {B4tman}",
    "link": "magnet:?xt=urn:btih:BEB525A23F83A7385E547A45D9DD06C002C7A4D4&dn=Live+NetTV+4.7.4+%5BAIO+Mod+Apk%5D+%7BB4tman%7D&tr=udp%3A%2F%2Ftracker.coppersurfer.tk%3A6969%2Fannounce&tr=udp%3A%2F%2F9.rarbg.to%3A2920%2Fannounce&tr=udp%3A%2F%2Ftracker.opentrackr.org%3A1337&tr=udp%3A%2F%2Ftracker.internetwarriors.net%3A1337%2Fannounce&tr=udp%3A%2F%2Ftracker.leechers-paradise.org%3A6969%2Fannounce&tr=udp%3A%2F%2Ftracker.coppersurfer.tk%3A6969%2Fannounce&tr=udp%3A%2F%2Ftracker.pirateparty.gr%3A6969%2Fannounce&tr=udp%3A%2F%2Ftracker.cyberia.is%3A6969%2Fannounce",
    "seeder": "14",
    "leecher": "1"
}{
    "rank": "35",
    "title": "Sygic GPS Navigation v18.1.1 Unlocked APK + DATA [APKGOD]",
    "link": "magnet:?xt=urn:btih:261D6604EB77ECBE8B467210966AC931B7BAB883&dn=Sygic+GPS+Navigation+v18.1.1+Unlocked+APK+%2B+DATA+%5BAPKGOD%5D&tr=udp%3A%2F%2Ftracker.coppersurfer.tk%3A6969%2Fannounce&tr=udp%3A%2F%2F9.rarbg.to%3A2920%2Fannounce&tr=udp%3A%2F%2Ftracker.opentrackr.org%3A1337&tr=udp%3A%2F%2Ftracker.internetwarriors.net%3A1337%2Fannounce&tr=udp%3A%2F%2Ftracker.leechers-paradise.org%3A6969%2Fannounce&tr=udp%3A%2F%2Ftracker.coppersurfer.tk%3A6969%2Fannounce&tr=udp%3A%2F%2Ftracker.pirateparty.gr%3A6969%2Fannounce&tr=udp%3A%2F%2Ftracker.cyberia.is%3A6969%2Fannounce",
    "seeder": "14",
    "leecher": "0"
}{
    "rank": "36",
    "title": "Hotspot Shield Elite 4.2.5 apk VPN Proxy Cracked Full Unlocked",
    "link": "magnet:?xt=urn:btih:955466AA6BC3B3B199D32940493341848EE75B4C&dn=Hotspot+Shield+Elite+4.2.5+apk+VPN+Proxy+Cracked+Full+Unlocked&tr=udp%3A%2F%2Ftracker.coppersurfer.tk%3A6969%2Fannounce&tr=udp%3A%2F%2F9.rarbg.to%3A2920%2Fannounce&tr=udp%3A%2F%2Ftracker.opentrackr.org%3A1337&tr=udp%3A%2F%2Ftracker.internetwarriors.net%3A1337%2Fannounce&tr=udp%3A%2F%2Ftracker.leechers-paradise.org%3A6969%2Fannounce&tr=udp%3A%2F%2Ftracker.coppersurfer.tk%3A6969%2Fannounce&tr=udp%3A%2F%2Ftracker.pirateparty.gr%3A6969%2Fannounce&tr=udp%3A%2F%2Ftracker.cyberia.is%3A6969%2Fannounce",
    "seeder": "14",
    "leecher": "0"
}{
    "rank": "37",
    "title": "Live NetTV v4.7.4 Mod Apk - [haxNode]",
    "link": "magnet:?xt=urn:btih:2DAF9C3A3D067AFD71C99190A5EBC83EF7DE8656&dn=Live+NetTV+v4.7.4+Mod+Apk+-+%5BhaxNode%5D&tr=udp%3A%2F%2Ftracker.coppersurfer.tk%3A6969%2Fannounce&tr=udp%3A%2F%2F9.rarbg.to%3A2920%2Fannounce&tr=udp%3A%2F%2Ftracker.opentrackr.org%3A1337&tr=udp%3A%2F%2Ftracker.internetwarriors.net%3A1337%2Fannounce&tr=udp%3A%2F%2Ftracker.leechers-paradise.org%3A6969%2Fannounce&tr=udp%3A%2F%2Ftracker.coppersurfer.tk%3A6969%2Fannounce&tr=udp%3A%2F%2Ftracker.pirateparty.gr%3A6969%2Fannounce&tr=udp%3A%2F%2Ftracker.cyberia.is%3A6969%2Fannounce",
    "seeder": "14",
    "leecher": "0"
}{
    "rank": "38",
    "title": "RedFlix TV App 2.5 [Mod Apk] {B4tman}",
    "link": "magnet:?xt=urn:btih:6FCFC72E813AB05941F49DB56E08247317546764&dn=RedFlix+TV+App+2.5+%5BMod+Apk%5D+%7BB4tman%7D&tr=udp%3A%2F%2Ftracker.coppersurfer.tk%3A6969%2Fannounce&tr=udp%3A%2F%2F9.rarbg.to%3A2920%2Fannounce&tr=udp%3A%2F%2Ftracker.opentrackr.org%3A1337&tr=udp%3A%2F%2Ftracker.internetwarriors.net%3A1337%2Fannounce&tr=udp%3A%2F%2Ftracker.leechers-paradise.org%3A6969%2Fannounce&tr=udp%3A%2F%2Ftracker.coppersurfer.tk%3A6969%2Fannounce&tr=udp%3A%2F%2Ftracker.pirateparty.gr%3A6969%2Fannounce&tr=udp%3A%2F%2Ftracker.cyberia.is%3A6969%2Fannounce",
    "seeder": "13",
    "leecher": "0"
}{
    "rank": "39",
    "title": "Learn Korean,Japanese,Chinese + More LingoDeer 2.38 {B4tman}",
    "link": "magnet:?xt=urn:btih:0EC54A56BD0B1FD5ED68721242D842B90047EE33&dn=Learn+Korean%2CJapanese%2CChinese+%2B+More+LingoDeer+2.38+%7BB4tman%7D&tr=udp%3A%2F%2Ftracker.coppersurfer.tk%3A6969%2Fannounce&tr=udp%3A%2F%2F9.rarbg.to%3A2920%2Fannounce&tr=udp%3A%2F%2Ftracker.opentrackr.org%3A1337&tr=udp%3A%2F%2Ftracker.internetwarriors.net%3A1337%2Fannounce&tr=udp%3A%2F%2Ftracker.leechers-paradise.org%3A6969%2Fannounce&tr=udp%3A%2F%2Ftracker.coppersurfer.tk%3A6969%2Fannounce&tr=udp%3A%2F%2Ftracker.pirateparty.gr%3A6969%2Fannounce&tr=udp%3A%2F%2Ftracker.cyberia.is%3A6969%2Fannounce",
    "seeder": "12",
    "leecher": "0"
}{
    "rank": "40",
    "title": "Android Gameboy (Color) Emulator + 2054 ROMs",
    "link": "magnet:?xt=urn:btih:A3198878F1307F8D892FC90C9480B3CA307B411B&dn=Android+Gameboy+%28Color%29+Emulator+%2B+2054+ROMs&tr=udp%3A%2F%2Ftracker.coppersurfer.tk%3A6969%2Fannounce&tr=udp%3A%2F%2F9.rarbg.to%3A2920%2Fannounce&tr=udp%3A%2F%2Ftracker.opentrackr.org%3A1337&tr=udp%3A%2F%2Ftracker.internetwarriors.net%3A1337%2Fannounce&tr=udp%3A%2F%2Ftracker.leechers-paradise.org%3A6969%2Fannounce&tr=udp%3A%2F%2Ftracker.coppersurfer.tk%3A6969%2Fannounce&tr=udp%3A%2F%2Ftracker.pirateparty.gr%3A6969%2Fannounce&tr=udp%3A%2F%2Ftracker.cyberia.is%3A6969%2Fannounce",
    "seeder": "12",
    "leecher": "1"
}{
    "rank": "41",
    "title": "ExpressVPN - Unlimited Secure VPN Proxy v7.8.1 [Mod]",
    "link": "magnet:?xt=urn:btih:BF5C23434F9CB32DE9B3C20CEB8427C4DABED06C&dn=ExpressVPN+-+Unlimited+Secure+VPN+Proxy+v7.8.1+%5BMod%5D&tr=udp%3A%2F%2Ftracker.coppersurfer.tk%3A6969%2Fannounce&tr=udp%3A%2F%2F9.rarbg.to%3A2920%2Fannounce&tr=udp%3A%2F%2Ftracker.opentrackr.org%3A1337&tr=udp%3A%2F%2Ftracker.internetwarriors.net%3A1337%2Fannounce&tr=udp%3A%2F%2Ftracker.leechers-paradise.org%3A6969%2Fannounce&tr=udp%3A%2F%2Ftracker.coppersurfer.tk%3A6969%2Fannounce&tr=udp%3A%2F%2Ftracker.pirateparty.gr%3A6969%2Fannounce&tr=udp%3A%2F%2Ftracker.cyberia.is%3A6969%2Fannounce",
    "seeder": "12",
    "leecher": "0"
}{
    "rank": "42",
    "title": "THOPTV v23 [Mod Apk] {B4tman}",
    "link": "magnet:?xt=urn:btih:5C748A52B039D620CAD438CC8A85D831F1871FC3&dn=THOPTV+v23+%5BMod+Apk%5D+%7BB4tman%7D&tr=udp%3A%2F%2Ftracker.coppersurfer.tk%3A6969%2Fannounce&tr=udp%3A%2F%2F9.rarbg.to%3A2920%2Fannounce&tr=udp%3A%2F%2Ftracker.opentrackr.org%3A1337&tr=udp%3A%2F%2Ftracker.internetwarriors.net%3A1337%2Fannounce&tr=udp%3A%2F%2Ftracker.leechers-paradise.org%3A6969%2Fannounce&tr=udp%3A%2F%2Ftracker.coppersurfer.tk%3A6969%2Fannounce&tr=udp%3A%2F%2Ftracker.pirateparty.gr%3A6969%2Fannounce&tr=udp%3A%2F%2Ftracker.cyberia.is%3A6969%2Fannounce",
    "seeder": "12",
    "leecher": "0"
}{
    "rank": "43",
    "title": "BeeTV v2.5.1 Mod Apk - [haxNode]",
    "link": "magnet:?xt=urn:btih:8F2B63CB34E5DF5AD45F50502DC82CED3D82E593&dn=BeeTV+v2.5.1+Mod+Apk+-+%5BhaxNode%5D&tr=udp%3A%2F%2Ftracker.coppersurfer.tk%3A6969%2Fannounce&tr=udp%3A%2F%2F9.rarbg.to%3A2920%2Fannounce&tr=udp%3A%2F%2Ftracker.opentrackr.org%3A1337&tr=udp%3A%2F%2Ftracker.internetwarriors.net%3A1337%2Fannounce&tr=udp%3A%2F%2Ftracker.leechers-paradise.org%3A6969%2Fannounce&tr=udp%3A%2F%2Ftracker.coppersurfer.tk%3A6969%2Fannounce&tr=udp%3A%2F%2Ftracker.pirateparty.gr%3A6969%2Fannounce&tr=udp%3A%2F%2Ftracker.cyberia.is%3A6969%2Fannounce",
    "seeder": "12",
    "leecher": "1"
}{
    "rank": "44",
    "title": "Turbo VPN VIP \u2013 Unlimited Fast Security VPN 2.8.8 {B4tman}",
    "link": "magnet:?xt=urn:btih:89214506EC53CF2786B5C01B9702BB03C50905E1&dn=Turbo+VPN+VIP+%26ndash%3B+Unlimited+Fast+Security+VPN+2.8.8+%7BB4tman%7D&tr=udp%3A%2F%2Ftracker.coppersurfer.tk%3A6969%2Fannounce&tr=udp%3A%2F%2F9.rarbg.to%3A2920%2Fannounce&tr=udp%3A%2F%2Ftracker.opentrackr.org%3A1337&tr=udp%3A%2F%2Ftracker.internetwarriors.net%3A1337%2Fannounce&tr=udp%3A%2F%2Ftracker.leechers-paradise.org%3A6969%2Fannounce&tr=udp%3A%2F%2Ftracker.coppersurfer.tk%3A6969%2Fannounce&tr=udp%3A%2F%2Ftracker.pirateparty.gr%3A6969%2Fannounce&tr=udp%3A%2F%2Ftracker.cyberia.is%3A6969%2Fannounce",
    "seeder": "12",
    "leecher": "0"
}{
    "rank": "45",
    "title": "Hola VPN Proxy Plus Premium 1.144.194 {B4tman}",
    "link": "magnet:?xt=urn:btih:190F341C3DF783B7CF21E767B7BA4C8A7045F013&dn=Hola+VPN+Proxy+Plus+Premium+1.144.194+%7BB4tman%7D&tr=udp%3A%2F%2Ftracker.coppersurfer.tk%3A6969%2Fannounce&tr=udp%3A%2F%2F9.rarbg.to%3A2920%2Fannounce&tr=udp%3A%2F%2Ftracker.opentrackr.org%3A1337&tr=udp%3A%2F%2Ftracker.internetwarriors.net%3A1337%2Fannounce&tr=udp%3A%2F%2Ftracker.leechers-paradise.org%3A6969%2Fannounce&tr=udp%3A%2F%2Ftracker.coppersurfer.tk%3A6969%2Fannounce&tr=udp%3A%2F%2Ftracker.pirateparty.gr%3A6969%2Fannounce&tr=udp%3A%2F%2Ftracker.cyberia.is%3A6969%2Fannounce",
    "seeder": "11",
    "leecher": "1"
}{
    "rank": "46",
    "title": "Android Atari 2600 Emulator + 2548 ROMs",
    "link": "magnet:?xt=urn:btih:19126C5E40BC05CA2C77EACA8038E91423C9F567&dn=Android+Atari+2600+Emulator+%2B+2548+ROMs&tr=udp%3A%2F%2Ftracker.coppersurfer.tk%3A6969%2Fannounce&tr=udp%3A%2F%2F9.rarbg.to%3A2920%2Fannounce&tr=udp%3A%2F%2Ftracker.opentrackr.org%3A1337&tr=udp%3A%2F%2Ftracker.internetwarriors.net%3A1337%2Fannounce&tr=udp%3A%2F%2Ftracker.leechers-paradise.org%3A6969%2Fannounce&tr=udp%3A%2F%2Ftracker.coppersurfer.tk%3A6969%2Fannounce&tr=udp%3A%2F%2Ftracker.pirateparty.gr%3A6969%2Fannounce&tr=udp%3A%2F%2Ftracker.cyberia.is%3A6969%2Fannounce",
    "seeder": "11",
    "leecher": "0"
}{
    "rank": "47",
    "title": "CyberLink PowerDirector Premium 6.1.0 [Mod Apk] {B4tman}",
    "link": "magnet:?xt=urn:btih:7B921DAB430E17DF187F22C15CDD8691D15CDE35&dn=CyberLink+PowerDirector+Premium+6.1.0+%5BMod+Apk%5D+%7BB4tman%7D&tr=udp%3A%2F%2Ftracker.coppersurfer.tk%3A6969%2Fannounce&tr=udp%3A%2F%2F9.rarbg.to%3A2920%2Fannounce&tr=udp%3A%2F%2Ftracker.opentrackr.org%3A1337&tr=udp%3A%2F%2Ftracker.internetwarriors.net%3A1337%2Fannounce&tr=udp%3A%2F%2Ftracker.leechers-paradise.org%3A6969%2Fannounce&tr=udp%3A%2F%2Ftracker.coppersurfer.tk%3A6969%2Fannounce&tr=udp%3A%2F%2Ftracker.pirateparty.gr%3A6969%2Fannounce&tr=udp%3A%2F%2Ftracker.cyberia.is%3A6969%2Fannounce",
    "seeder": "11",
    "leecher": "0"
}{
    "rank": "48",
    "title": "iTranslate Translator & Dictionary 5.2.9 [Pro] {B4tman}",
    "link": "magnet:?xt=urn:btih:4DA85DF4771AA82CC3C5806AC40574B9049B8F1A&dn=iTranslate+Translator+%26amp%3B+Dictionary+5.2.9+%5BPro%5D+%7BB4tman%7D&tr=udp%3A%2F%2Ftracker.coppersurfer.tk%3A6969%2Fannounce&tr=udp%3A%2F%2F9.rarbg.to%3A2920%2Fannounce&tr=udp%3A%2F%2Ftracker.opentrackr.org%3A1337&tr=udp%3A%2F%2Ftracker.internetwarriors.net%3A1337%2Fannounce&tr=udp%3A%2F%2Ftracker.leechers-paradise.org%3A6969%2Fannounce&tr=udp%3A%2F%2Ftracker.coppersurfer.tk%3A6969%2Fannounce&tr=udp%3A%2F%2Ftracker.pirateparty.gr%3A6969%2Fannounce&tr=udp%3A%2F%2Ftracker.cyberia.is%3A6969%2Fannounce",
    "seeder": "10",
    "leecher": "0"
}{
    "rank": "49",
    "title": "OREO TV 1.8.1 [Ad-Free Apk] {B4tman}",
    "link": "magnet:?xt=urn:btih:4A5E3498E84E517AC84D90CBD09CC168640A379F&dn=OREO+TV+1.8.1+%5BAd-Free+Apk%5D+%7BB4tman%7D&tr=udp%3A%2F%2Ftracker.coppersurfer.tk%3A6969%2Fannounce&tr=udp%3A%2F%2F9.rarbg.to%3A2920%2Fannounce&tr=udp%3A%2F%2Ftracker.opentrackr.org%3A1337&tr=udp%3A%2F%2Ftracker.internetwarriors.net%3A1337%2Fannounce&tr=udp%3A%2F%2Ftracker.leechers-paradise.org%3A6969%2Fannounce&tr=udp%3A%2F%2Ftracker.coppersurfer.tk%3A6969%2Fannounce&tr=udp%3A%2F%2Ftracker.pirateparty.gr%3A6969%2Fannounce&tr=udp%3A%2F%2Ftracker.cyberia.is%3A6969%2Fannounce",
    "seeder": "10",
    "leecher": "0"
}{
    "rank": "50",
    "title": "Programming Hub  Code 5.0.33 [Unlocked] {B4tman}",
    "link": "magnet:?xt=urn:btih:04403E948C55C92AB69640E36B5C45BB36D007EF&dn=Programming+Hub++Code+5.0.33+%5BUnlocked%5D+%7BB4tman%7D&tr=udp%3A%2F%2Ftracker.coppersurfer.tk%3A6969%2Fannounce&tr=udp%3A%2F%2F9.rarbg.to%3A2920%2Fannounce&tr=udp%3A%2F%2Ftracker.opentrackr.org%3A1337&tr=udp%3A%2F%2Ftracker.internetwarriors.net%3A1337%2Fannounce&tr=udp%3A%2F%2Ftracker.leechers-paradise.org%3A6969%2Fannounce&tr=udp%3A%2F%2Ftracker.coppersurfer.tk%3A6969%2Fannounce&tr=udp%3A%2F%2Ftracker.pirateparty.gr%3A6969%2Fannounce&tr=udp%3A%2F%2Ftracker.cyberia.is%3A6969%2Fannounce",
    "seeder": "9",
    "leecher": "0"
}{
    "rank": "51",
    "title": "SuperVPN Free VPN Client 2.5.6 [VIP Mod] {B4tman}",
    "link": "magnet:?xt=urn:btih:55617DE57B9536F0C65C3FF7DC0794E3CAAD85F6&dn=SuperVPN+Free+VPN+Client+2.5.6+%5BVIP+Mod%5D+%7BB4tman%7D&tr=udp%3A%2F%2Ftracker.coppersurfer.tk%3A6969%2Fannounce&tr=udp%3A%2F%2F9.rarbg.to%3A2920%2Fannounce&tr=udp%3A%2F%2Ftracker.opentrackr.org%3A1337&tr=udp%3A%2F%2Ftracker.internetwarriors.net%3A1337%2Fannounce&tr=udp%3A%2F%2Ftracker.leechers-paradise.org%3A6969%2Fannounce&tr=udp%3A%2F%2Ftracker.coppersurfer.tk%3A6969%2Fannounce&tr=udp%3A%2F%2Ftracker.pirateparty.gr%3A6969%2Fannounce&tr=udp%3A%2F%2Ftracker.cyberia.is%3A6969%2Fannounce",
    "seeder": "9",
    "leecher": "0"
}{
    "rank": "52",
    "title": "uTorrent\u00ae Pro v5.4.5 [Paid] {B4tman}",
    "link": "magnet:?xt=urn:btih:B4648EB8A8F0ED3D9DABBB07F31CACC98F056082&dn=uTorrent%26reg%3B+Pro+v5.4.5+%5BPaid%5D+%7BB4tman%7D&tr=udp%3A%2F%2Ftracker.coppersurfer.tk%3A6969%2Fannounce&tr=udp%3A%2F%2F9.rarbg.to%3A2920%2Fannounce&tr=udp%3A%2F%2Ftracker.opentrackr.org%3A1337&tr=udp%3A%2F%2Ftracker.internetwarriors.net%3A1337%2Fannounce&tr=udp%3A%2F%2Ftracker.leechers-paradise.org%3A6969%2Fannounce&tr=udp%3A%2F%2Ftracker.coppersurfer.tk%3A6969%2Fannounce&tr=udp%3A%2F%2Ftracker.pirateparty.gr%3A6969%2Fannounce&tr=udp%3A%2F%2Ftracker.cyberia.is%3A6969%2Fannounce",
    "seeder": "9",
    "leecher": "1"
}{
    "rank": "53",
    "title": "SnapTube VIP v5.05.1.5052301 Beta Apk - [haxNode]",
    "link": "magnet:?xt=urn:btih:ED0FA18E711B2DDA76C4A544D8B79EBB087EBFAC&dn=SnapTube+VIP+v5.05.1.5052301+Beta+Apk+-+%5BhaxNode%5D&tr=udp%3A%2F%2Ftracker.coppersurfer.tk%3A6969%2Fannounce&tr=udp%3A%2F%2F9.rarbg.to%3A2920%2Fannounce&tr=udp%3A%2F%2Ftracker.opentrackr.org%3A1337&tr=udp%3A%2F%2Ftracker.internetwarriors.net%3A1337%2Fannounce&tr=udp%3A%2F%2Ftracker.leechers-paradise.org%3A6969%2Fannounce&tr=udp%3A%2F%2Ftracker.coppersurfer.tk%3A6969%2Fannounce&tr=udp%3A%2F%2Ftracker.pirateparty.gr%3A6969%2Fannounce&tr=udp%3A%2F%2Ftracker.cyberia.is%3A6969%2Fannounce",
    "seeder": "9",
    "leecher": "0"
}{
    "rank": "54",
    "title": "Car Gauge Pro (OBD2 + Enhance) v3.66.26 (CTRC)",
    "link": "magnet:?xt=urn:btih:D0F4D6AC0EE1C1CB9DFE53B8A913C461D67A0EE1&dn=Car+Gauge+Pro+%28OBD2+%2B+Enhance%29+v3.66.26+%28CTRC%29&tr=udp%3A%2F%2Ftracker.coppersurfer.tk%3A6969%2Fannounce&tr=udp%3A%2F%2F9.rarbg.to%3A2920%2Fannounce&tr=udp%3A%2F%2Ftracker.opentrackr.org%3A1337&tr=udp%3A%2F%2Ftracker.internetwarriors.net%3A1337%2Fannounce&tr=udp%3A%2F%2Ftracker.leechers-paradise.org%3A6969%2Fannounce&tr=udp%3A%2F%2Ftracker.coppersurfer.tk%3A6969%2Fannounce&tr=udp%3A%2F%2Ftracker.pirateparty.gr%3A6969%2Fannounce&tr=udp%3A%2F%2Ftracker.cyberia.is%3A6969%2Fannounce",
    "seeder": "9",
    "leecher": "0"
}{
    "rank": "55",
    "title": "Recover Deleted All Photos, Files v2.2 Pro {B4tman}",
    "link": "magnet:?xt=urn:btih:10B496BCD7217826B953CED4DE56D06A922449D3&dn=Recover+Deleted+All+Photos%2C+Files+v2.2+Pro+%7BB4tman%7D&tr=udp%3A%2F%2Ftracker.coppersurfer.tk%3A6969%2Fannounce&tr=udp%3A%2F%2F9.rarbg.to%3A2920%2Fannounce&tr=udp%3A%2F%2Ftracker.opentrackr.org%3A1337&tr=udp%3A%2F%2Ftracker.internetwarriors.net%3A1337%2Fannounce&tr=udp%3A%2F%2Ftracker.leechers-paradise.org%3A6969%2Fannounce&tr=udp%3A%2F%2Ftracker.coppersurfer.tk%3A6969%2Fannounce&tr=udp%3A%2F%2Ftracker.pirateparty.gr%3A6969%2Fannounce&tr=udp%3A%2F%2Ftracker.cyberia.is%3A6969%2Fannounce",
    "seeder": "9",
    "leecher": "0"
}{
    "rank": "56",
    "title": "BeeTV - Watch Movies & Tv Shows 2.4.0 [Mod] {B4tman}",
    "link": "magnet:?xt=urn:btih:568B97C22157286BBAEB3C95D869B8C35DD62204&dn=BeeTV+-+Watch+Movies+%26amp%3B+Tv+Shows+2.4.0+%5BMod%5D+%7BB4tman%7D&tr=udp%3A%2F%2Ftracker.coppersurfer.tk%3A6969%2Fannounce&tr=udp%3A%2F%2F9.rarbg.to%3A2920%2Fannounce&tr=udp%3A%2F%2Ftracker.opentrackr.org%3A1337&tr=udp%3A%2F%2Ftracker.internetwarriors.net%3A1337%2Fannounce&tr=udp%3A%2F%2Ftracker.leechers-paradise.org%3A6969%2Fannounce&tr=udp%3A%2F%2Ftracker.coppersurfer.tk%3A6969%2Fannounce&tr=udp%3A%2F%2Ftracker.pirateparty.gr%3A6969%2Fannounce&tr=udp%3A%2F%2Ftracker.cyberia.is%3A6969%2Fannounce",
    "seeder": "8",
    "leecher": "0"
}{
    "rank": "57",
    "title": "CCleaner Pro v4.15.1 Cracked MOD APK ~ [APKGOD]",
    "link": "magnet:?xt=urn:btih:01A1C0C983C57DA62BD42D6D41B53267EFAB91D4&dn=CCleaner+Pro+v4.15.1+Cracked+MOD+APK+%7E+%5BAPKGOD%5D&tr=udp%3A%2F%2Ftracker.coppersurfer.tk%3A6969%2Fannounce&tr=udp%3A%2F%2F9.rarbg.to%3A2920%2Fannounce&tr=udp%3A%2F%2Ftracker.opentrackr.org%3A1337&tr=udp%3A%2F%2Ftracker.internetwarriors.net%3A1337%2Fannounce&tr=udp%3A%2F%2Ftracker.leechers-paradise.org%3A6969%2Fannounce&tr=udp%3A%2F%2Ftracker.coppersurfer.tk%3A6969%2Fannounce&tr=udp%3A%2F%2Ftracker.pirateparty.gr%3A6969%2Fannounce&tr=udp%3A%2F%2Ftracker.cyberia.is%3A6969%2Fannounce",
    "seeder": "8",
    "leecher": "0"
}{
    "rank": "58",
    "title": "Android NES - Nintendo Emulator + 1090 ROMs",
    "link": "magnet:?xt=urn:btih:FE87512D146034B106AD01171A42EE33E434B10F&dn=Android+NES+-+Nintendo+Emulator+%2B+1090+ROMs&tr=udp%3A%2F%2Ftracker.coppersurfer.tk%3A6969%2Fannounce&tr=udp%3A%2F%2F9.rarbg.to%3A2920%2Fannounce&tr=udp%3A%2F%2Ftracker.opentrackr.org%3A1337&tr=udp%3A%2F%2Ftracker.internetwarriors.net%3A1337%2Fannounce&tr=udp%3A%2F%2Ftracker.leechers-paradise.org%3A6969%2Fannounce&tr=udp%3A%2F%2Ftracker.coppersurfer.tk%3A6969%2Fannounce&tr=udp%3A%2F%2Ftracker.pirateparty.gr%3A6969%2Fannounce&tr=udp%3A%2F%2Ftracker.cyberia.is%3A6969%2Fannounce",
    "seeder": "8",
    "leecher": "0"
}{
    "rank": "59",
    "title": "ExpressVPN 7.9.8 Build 21248 [Mod Apk] {B4tman}",
    "link": "magnet:?xt=urn:btih:6F0D828F94B67F77D40FB51ED38E32B12E0E347D&dn=ExpressVPN+7.9.8+Build+21248+%5BMod+Apk%5D+%7BB4tman%7D&tr=udp%3A%2F%2Ftracker.coppersurfer.tk%3A6969%2Fannounce&tr=udp%3A%2F%2F9.rarbg.to%3A2920%2Fannounce&tr=udp%3A%2F%2Ftracker.opentrackr.org%3A1337&tr=udp%3A%2F%2Ftracker.internetwarriors.net%3A1337%2Fannounce&tr=udp%3A%2F%2Ftracker.leechers-paradise.org%3A6969%2Fannounce&tr=udp%3A%2F%2Ftracker.coppersurfer.tk%3A6969%2Fannounce&tr=udp%3A%2F%2Ftracker.pirateparty.gr%3A6969%2Fannounce&tr=udp%3A%2F%2Ftracker.cyberia.is%3A6969%2Fannounce",
    "seeder": "7",
    "leecher": "0"
}{
    "rank": "60",
    "title": "Office Mobile for Office 365 v15.0.1924.2000 (Full)",
    "link": "magnet:?xt=urn:btih:BF7F43D346315C639C0DCFC6EDF01E6C600BBB81&dn=Office+Mobile+for+Office+365+v15.0.1924.2000+%28Full%29&tr=udp%3A%2F%2Ftracker.coppersurfer.tk%3A6969%2Fannounce&tr=udp%3A%2F%2F9.rarbg.to%3A2920%2Fannounce&tr=udp%3A%2F%2Ftracker.opentrackr.org%3A1337&tr=udp%3A%2F%2Ftracker.internetwarriors.net%3A1337%2Fannounce&tr=udp%3A%2F%2Ftracker.leechers-paradise.org%3A6969%2Fannounce&tr=udp%3A%2F%2Ftracker.coppersurfer.tk%3A6969%2Fannounce&tr=udp%3A%2F%2Ftracker.pirateparty.gr%3A6969%2Fannounce&tr=udp%3A%2F%2Ftracker.cyberia.is%3A6969%2Fannounce",
    "seeder": "7",
    "leecher": "0"
}{
    "rank": "61",
    "title": "NordVPN Android 4.6.1 + [10K Premium Accounts] {B4tman}",
    "link": "magnet:?xt=urn:btih:B480C6D2C61E69594BE2CBA7268CA9D7006DFC72&dn=NordVPN+Android+4.6.1+%2B+%5B10K+Premium+Accounts%5D+%7BB4tman%7D&tr=udp%3A%2F%2Ftracker.coppersurfer.tk%3A6969%2Fannounce&tr=udp%3A%2F%2F9.rarbg.to%3A2920%2Fannounce&tr=udp%3A%2F%2Ftracker.opentrackr.org%3A1337&tr=udp%3A%2F%2Ftracker.internetwarriors.net%3A1337%2Fannounce&tr=udp%3A%2F%2Ftracker.leechers-paradise.org%3A6969%2Fannounce&tr=udp%3A%2F%2Ftracker.coppersurfer.tk%3A6969%2Fannounce&tr=udp%3A%2F%2Ftracker.pirateparty.gr%3A6969%2Fannounce&tr=udp%3A%2F%2Ftracker.cyberia.is%3A6969%2Fannounce",
    "seeder": "7",
    "leecher": "0"
}{
    "rank": "62",
    "title": "USB Driver for Android Devices 9.9 (Mod APK) {B4tman}",
    "link": "magnet:?xt=urn:btih:352BA82182285EDB77E6F15E21D58A5E32F76FF8&dn=USB+Driver+for+Android+Devices+9.9+%28Mod+APK%29+%7BB4tman%7D&tr=udp%3A%2F%2Ftracker.coppersurfer.tk%3A6969%2Fannounce&tr=udp%3A%2F%2F9.rarbg.to%3A2920%2Fannounce&tr=udp%3A%2F%2Ftracker.opentrackr.org%3A1337&tr=udp%3A%2F%2Ftracker.internetwarriors.net%3A1337%2Fannounce&tr=udp%3A%2F%2Ftracker.leechers-paradise.org%3A6969%2Fannounce&tr=udp%3A%2F%2Ftracker.coppersurfer.tk%3A6969%2Fannounce&tr=udp%3A%2F%2Ftracker.pirateparty.gr%3A6969%2Fannounce&tr=udp%3A%2F%2Ftracker.cyberia.is%3A6969%2Fannounce",
    "seeder": "7",
    "leecher": "0"
}{
    "rank": "63",
    "title": "MX Player Pro 1.11.6 [Patched-AC3-DTS] {B4tman}",
    "link": "magnet:?xt=urn:btih:3B30C7E586D5F158745B658792BCF9C97F2D9E60&dn=MX+Player+Pro+1.11.6+%5BPatched-AC3-DTS%5D+%7BB4tman%7D&tr=udp%3A%2F%2Ftracker.coppersurfer.tk%3A6969%2Fannounce&tr=udp%3A%2F%2F9.rarbg.to%3A2920%2Fannounce&tr=udp%3A%2F%2Ftracker.opentrackr.org%3A1337&tr=udp%3A%2F%2Ftracker.internetwarriors.net%3A1337%2Fannounce&tr=udp%3A%2F%2Ftracker.leechers-paradise.org%3A6969%2Fannounce&tr=udp%3A%2F%2Ftracker.coppersurfer.tk%3A6969%2Fannounce&tr=udp%3A%2F%2Ftracker.pirateparty.gr%3A6969%2Fannounce&tr=udp%3A%2F%2Ftracker.cyberia.is%3A6969%2Fannounce",
    "seeder": "7",
    "leecher": "0"
}{
    "rank": "64",
    "title": "Android Paid & Modded Apps Pack ~ 14 April 2019 [APKGOD]",
    "link": "magnet:?xt=urn:btih:21528629F9B9871075B78CCE61F1B2BEF7A119EE&dn=Android+Paid+%26amp%3B+Modded+Apps+Pack+%7E+14+April+2019+%5BAPKGOD%5D&tr=udp%3A%2F%2Ftracker.coppersurfer.tk%3A6969%2Fannounce&tr=udp%3A%2F%2F9.rarbg.to%3A2920%2Fannounce&tr=udp%3A%2F%2Ftracker.opentrackr.org%3A1337&tr=udp%3A%2F%2Ftracker.internetwarriors.net%3A1337%2Fannounce&tr=udp%3A%2F%2Ftracker.leechers-paradise.org%3A6969%2Fannounce&tr=udp%3A%2F%2Ftracker.coppersurfer.tk%3A6969%2Fannounce&tr=udp%3A%2F%2Ftracker.pirateparty.gr%3A6969%2Fannounce&tr=udp%3A%2F%2Ftracker.cyberia.is%3A6969%2Fannounce",
    "seeder": "7",
    "leecher": "2"
}{
    "rank": "65",
    "title": "MAPS.ME - Offline Map 9.4.1 [Mod] {B4tman}",
    "link": "magnet:?xt=urn:btih:40C453E00138B8D93A11E69E526809F46B4F6F50&dn=MAPS.ME+-+Offline+Map+9.4.1+%5BMod%5D+%7BB4tman%7D&tr=udp%3A%2F%2Ftracker.coppersurfer.tk%3A6969%2Fannounce&tr=udp%3A%2F%2F9.rarbg.to%3A2920%2Fannounce&tr=udp%3A%2F%2Ftracker.opentrackr.org%3A1337&tr=udp%3A%2F%2Ftracker.internetwarriors.net%3A1337%2Fannounce&tr=udp%3A%2F%2Ftracker.leechers-paradise.org%3A6969%2Fannounce&tr=udp%3A%2F%2Ftracker.coppersurfer.tk%3A6969%2Fannounce&tr=udp%3A%2F%2Ftracker.pirateparty.gr%3A6969%2Fannounce&tr=udp%3A%2F%2Ftracker.cyberia.is%3A6969%2Fannounce",
    "seeder": "7",
    "leecher": "0"
}{
    "rank": "66",
    "title": "SuperGNES (SNES Emulator) v1.5.5 + 740 roms",
    "link": "magnet:?xt=urn:btih:A34D16A70C8CFCEFF5EE3630BD3C43B055C07760&dn=SuperGNES+%28SNES+Emulator%29+v1.5.5+%2B+740+roms&tr=udp%3A%2F%2Ftracker.coppersurfer.tk%3A6969%2Fannounce&tr=udp%3A%2F%2F9.rarbg.to%3A2920%2Fannounce&tr=udp%3A%2F%2Ftracker.opentrackr.org%3A1337&tr=udp%3A%2F%2Ftracker.internetwarriors.net%3A1337%2Fannounce&tr=udp%3A%2F%2Ftracker.leechers-paradise.org%3A6969%2Fannounce&tr=udp%3A%2F%2Ftracker.coppersurfer.tk%3A6969%2Fannounce&tr=udp%3A%2F%2Ftracker.pirateparty.gr%3A6969%2Fannounce&tr=udp%3A%2F%2Ftracker.cyberia.is%3A6969%2Fannounce",
    "seeder": "6",
    "leecher": "0"
}{
    "rank": "67",
    "title": "VIMAGE Premium - cinemagraph animator 2.3.0.2 {B4tman}",
    "link": "magnet:?xt=urn:btih:CE4C1A54E84CBBF277C08F07E58E3DEEC8558769&dn=VIMAGE+Premium+-+cinemagraph+animator+2.3.0.2+%7BB4tman%7D&tr=udp%3A%2F%2Ftracker.coppersurfer.tk%3A6969%2Fannounce&tr=udp%3A%2F%2F9.rarbg.to%3A2920%2Fannounce&tr=udp%3A%2F%2Ftracker.opentrackr.org%3A1337&tr=udp%3A%2F%2Ftracker.internetwarriors.net%3A1337%2Fannounce&tr=udp%3A%2F%2Ftracker.leechers-paradise.org%3A6969%2Fannounce&tr=udp%3A%2F%2Ftracker.coppersurfer.tk%3A6969%2Fannounce&tr=udp%3A%2F%2Ftracker.pirateparty.gr%3A6969%2Fannounce&tr=udp%3A%2F%2Ftracker.cyberia.is%3A6969%2Fannounce",
    "seeder": "6",
    "leecher": "0"
}{
    "rank": "68",
    "title": "Android Neo Geo Pocket (Color) Emulator + 342 ROMs",
    "link": "magnet:?xt=urn:btih:FABAD5105F193531A597132BC9BF73FF6D2F9433&dn=Android+Neo+Geo+Pocket+%28Color%29+Emulator+%2B+342+ROMs&tr=udp%3A%2F%2Ftracker.coppersurfer.tk%3A6969%2Fannounce&tr=udp%3A%2F%2F9.rarbg.to%3A2920%2Fannounce&tr=udp%3A%2F%2Ftracker.opentrackr.org%3A1337&tr=udp%3A%2F%2Ftracker.internetwarriors.net%3A1337%2Fannounce&tr=udp%3A%2F%2Ftracker.leechers-paradise.org%3A6969%2Fannounce&tr=udp%3A%2F%2Ftracker.coppersurfer.tk%3A6969%2Fannounce&tr=udp%3A%2F%2Ftracker.pirateparty.gr%3A6969%2Fannounce&tr=udp%3A%2F%2Ftracker.cyberia.is%3A6969%2Fannounce",
    "seeder": "6",
    "leecher": "0"
}{
    "rank": "69",
    "title": "Smart YouTube TV - NO ADS! (Android TV) 6.17.357 {B4tman}",
    "link": "magnet:?xt=urn:btih:C0BF432515ACA8CA45FD149CA53029BEB74454A1&dn=Smart+YouTube+TV+-+NO+ADS%21+%28Android+TV%29+6.17.357+%7BB4tman%7D&tr=udp%3A%2F%2Ftracker.coppersurfer.tk%3A6969%2Fannounce&tr=udp%3A%2F%2F9.rarbg.to%3A2920%2Fannounce&tr=udp%3A%2F%2Ftracker.opentrackr.org%3A1337&tr=udp%3A%2F%2Ftracker.internetwarriors.net%3A1337%2Fannounce&tr=udp%3A%2F%2Ftracker.leechers-paradise.org%3A6969%2Fannounce&tr=udp%3A%2F%2Ftracker.coppersurfer.tk%3A6969%2Fannounce&tr=udp%3A%2F%2Ftracker.pirateparty.gr%3A6969%2Fannounce&tr=udp%3A%2F%2Ftracker.cyberia.is%3A6969%2Fannounce",
    "seeder": "6",
    "leecher": "0"
}{
    "rank": "70",
    "title": "Truecaller Premium Caller ID, Spam Blocking 10.45.5 {B4tman}",
    "link": "magnet:?xt=urn:btih:D428B5237DCBADDB5ACE50EF96F9C1827E69579F&dn=Truecaller+Premium+Caller+ID%2C+Spam+Blocking+10.45.5+%7BB4tman%7D&tr=udp%3A%2F%2Ftracker.coppersurfer.tk%3A6969%2Fannounce&tr=udp%3A%2F%2F9.rarbg.to%3A2920%2Fannounce&tr=udp%3A%2F%2Ftracker.opentrackr.org%3A1337&tr=udp%3A%2F%2Ftracker.internetwarriors.net%3A1337%2Fannounce&tr=udp%3A%2F%2Ftracker.leechers-paradise.org%3A6969%2Fannounce&tr=udp%3A%2F%2Ftracker.coppersurfer.tk%3A6969%2Fannounce&tr=udp%3A%2F%2Ftracker.pirateparty.gr%3A6969%2Fannounce&tr=udp%3A%2F%2Ftracker.cyberia.is%3A6969%2Fannounce",
    "seeder": "6",
    "leecher": "0"
}{
    "rank": "71",
    "title": "Melon VPN v3.9.100 Vip Apk - [haxNode]",
    "link": "magnet:?xt=urn:btih:F88178393C67F2547918631FC0C27A467B66DA8A&dn=Melon+VPN+v3.9.100+Vip+Apk+-+%5BhaxNode%5D&tr=udp%3A%2F%2Ftracker.coppersurfer.tk%3A6969%2Fannounce&tr=udp%3A%2F%2F9.rarbg.to%3A2920%2Fannounce&tr=udp%3A%2F%2Ftracker.opentrackr.org%3A1337&tr=udp%3A%2F%2Ftracker.internetwarriors.net%3A1337%2Fannounce&tr=udp%3A%2F%2Ftracker.leechers-paradise.org%3A6969%2Fannounce&tr=udp%3A%2F%2Ftracker.coppersurfer.tk%3A6969%2Fannounce&tr=udp%3A%2F%2Ftracker.pirateparty.gr%3A6969%2Fannounce&tr=udp%3A%2F%2Ftracker.cyberia.is%3A6969%2Fannounce",
    "seeder": "6",
    "leecher": "1"
}{
    "rank": "72",
    "title": "tTorrent v1.6.7 [Paid] [Mod] Android",
    "link": "magnet:?xt=urn:btih:85F9B73369110361FA2E22F5EF2184617DCED050&dn=tTorrent+v1.6.7+%5BPaid%5D+%5BMod%5D+Android&tr=udp%3A%2F%2Ftracker.coppersurfer.tk%3A6969%2Fannounce&tr=udp%3A%2F%2F9.rarbg.to%3A2920%2Fannounce&tr=udp%3A%2F%2Ftracker.opentrackr.org%3A1337&tr=udp%3A%2F%2Ftracker.internetwarriors.net%3A1337%2Fannounce&tr=udp%3A%2F%2Ftracker.leechers-paradise.org%3A6969%2Fannounce&tr=udp%3A%2F%2Ftracker.coppersurfer.tk%3A6969%2Fannounce&tr=udp%3A%2F%2Ftracker.pirateparty.gr%3A6969%2Fannounce&tr=udp%3A%2F%2Ftracker.cyberia.is%3A6969%2Fannounce",
    "seeder": "6",
    "leecher": "0"
}{
    "rank": "73",
    "title": "ePSXe for Android v2.0.14 Ultimate Mod",
    "link": "magnet:?xt=urn:btih:0F08E853EA873001963C526E6DC5B227C66FD712&dn=ePSXe+for+Android+v2.0.14+Ultimate+Mod&tr=udp%3A%2F%2Ftracker.coppersurfer.tk%3A6969%2Fannounce&tr=udp%3A%2F%2F9.rarbg.to%3A2920%2Fannounce&tr=udp%3A%2F%2Ftracker.opentrackr.org%3A1337&tr=udp%3A%2F%2Ftracker.internetwarriors.net%3A1337%2Fannounce&tr=udp%3A%2F%2Ftracker.leechers-paradise.org%3A6969%2Fannounce&tr=udp%3A%2F%2Ftracker.coppersurfer.tk%3A6969%2Fannounce&tr=udp%3A%2F%2Ftracker.pirateparty.gr%3A6969%2Fannounce&tr=udp%3A%2F%2Ftracker.cyberia.is%3A6969%2Fannounce",
    "seeder": "6",
    "leecher": "1"
}{
    "rank": "74",
    "title": "Avast Antivirus Premium \u2013 Mobile Security 6.24.0 {B4tman}",
    "link": "magnet:?xt=urn:btih:1E5A79D89396E14930E23C5678E8F329B57C3F71&dn=Avast+Antivirus+Premium+%26ndash%3B+Mobile+Security+6.24.0+%7BB4tman%7D&tr=udp%3A%2F%2Ftracker.coppersurfer.tk%3A6969%2Fannounce&tr=udp%3A%2F%2F9.rarbg.to%3A2920%2Fannounce&tr=udp%3A%2F%2Ftracker.opentrackr.org%3A1337&tr=udp%3A%2F%2Ftracker.internetwarriors.net%3A1337%2Fannounce&tr=udp%3A%2F%2Ftracker.leechers-paradise.org%3A6969%2Fannounce&tr=udp%3A%2F%2Ftracker.coppersurfer.tk%3A6969%2Fannounce&tr=udp%3A%2F%2Ftracker.pirateparty.gr%3A6969%2Fannounce&tr=udp%3A%2F%2Ftracker.cyberia.is%3A6969%2Fannounce",
    "seeder": "6",
    "leecher": "0"
}{
    "rank": "75",
    "title": "Facebook Hack v1.0 Android",
    "link": "magnet:?xt=urn:btih:8B0D652789141B82AFE5A8CBE20014879E1534D7&dn=Facebook+Hack+v1.0+Android&tr=udp%3A%2F%2Ftracker.coppersurfer.tk%3A6969%2Fannounce&tr=udp%3A%2F%2F9.rarbg.to%3A2920%2Fannounce&tr=udp%3A%2F%2Ftracker.opentrackr.org%3A1337&tr=udp%3A%2F%2Ftracker.internetwarriors.net%3A1337%2Fannounce&tr=udp%3A%2F%2Ftracker.leechers-paradise.org%3A6969%2Fannounce&tr=udp%3A%2F%2Ftracker.coppersurfer.tk%3A6969%2Fannounce&tr=udp%3A%2F%2Ftracker.pirateparty.gr%3A6969%2Fannounce&tr=udp%3A%2F%2Ftracker.cyberia.is%3A6969%2Fannounce",
    "seeder": "6",
    "leecher": "1"
}{
    "rank": "76",
    "title": "ExpressVPN 8.1.0 [Android] [Mod Apk] {B4tman}",
    "link": "magnet:?xt=urn:btih:9DF42CC319336EDF5EA9EB68C715336B541791AF&dn=ExpressVPN+8.1.0+%5BAndroid%5D+%5BMod+Apk%5D+%7BB4tman%7D&tr=udp%3A%2F%2Ftracker.coppersurfer.tk%3A6969%2Fannounce&tr=udp%3A%2F%2F9.rarbg.to%3A2920%2Fannounce&tr=udp%3A%2F%2Ftracker.opentrackr.org%3A1337&tr=udp%3A%2F%2Ftracker.internetwarriors.net%3A1337%2Fannounce&tr=udp%3A%2F%2Ftracker.leechers-paradise.org%3A6969%2Fannounce&tr=udp%3A%2F%2Ftracker.coppersurfer.tk%3A6969%2Fannounce&tr=udp%3A%2F%2Ftracker.pirateparty.gr%3A6969%2Fannounce&tr=udp%3A%2F%2Ftracker.cyberia.is%3A6969%2Fannounce",
    "seeder": "5",
    "leecher": "0"
}{
    "rank": "77",
    "title": "HDz - Live TV, Radio 3.1.8 [Mod Apk] {B4tman}",
    "link": "magnet:?xt=urn:btih:3D8B9E94602DC034969176CA45DB8D7CD787536A&dn=HDz+-+Live+TV%2C+Radio+3.1.8+%5BMod+Apk%5D+%7BB4tman%7D&tr=udp%3A%2F%2Ftracker.coppersurfer.tk%3A6969%2Fannounce&tr=udp%3A%2F%2F9.rarbg.to%3A2920%2Fannounce&tr=udp%3A%2F%2Ftracker.opentrackr.org%3A1337&tr=udp%3A%2F%2Ftracker.internetwarriors.net%3A1337%2Fannounce&tr=udp%3A%2F%2Ftracker.leechers-paradise.org%3A6969%2Fannounce&tr=udp%3A%2F%2Ftracker.coppersurfer.tk%3A6969%2Fannounce&tr=udp%3A%2F%2Ftracker.pirateparty.gr%3A6969%2Fannounce&tr=udp%3A%2F%2Ftracker.cyberia.is%3A6969%2Fannounce",
    "seeder": "5",
    "leecher": "0"
}{
    "rank": "78",
    "title": "Learn English with ABA English v3.7.3 [Premium] {B4tman}",
    "link": "magnet:?xt=urn:btih:24FCF57E9F69784E6ECD7213B9EB9A85B20F9E97&dn=Learn+English+with+ABA+English+v3.7.3+%5BPremium%5D+%7BB4tman%7D&tr=udp%3A%2F%2Ftracker.coppersurfer.tk%3A6969%2Fannounce&tr=udp%3A%2F%2F9.rarbg.to%3A2920%2Fannounce&tr=udp%3A%2F%2Ftracker.opentrackr.org%3A1337&tr=udp%3A%2F%2Ftracker.internetwarriors.net%3A1337%2Fannounce&tr=udp%3A%2F%2Ftracker.leechers-paradise.org%3A6969%2Fannounce&tr=udp%3A%2F%2Ftracker.coppersurfer.tk%3A6969%2Fannounce&tr=udp%3A%2F%2Ftracker.pirateparty.gr%3A6969%2Fannounce&tr=udp%3A%2F%2Ftracker.cyberia.is%3A6969%2Fannounce",
    "seeder": "5",
    "leecher": "0"
}{
    "rank": "79",
    "title": "UFO VPN MOD APK Premium Servers 2.2.7",
    "link": "magnet:?xt=urn:btih:12FE11164E8A80C59AEF95141D838848C327A79E&dn=UFO+VPN+MOD+APK+Premium+Servers+2.2.7&tr=udp%3A%2F%2Ftracker.coppersurfer.tk%3A6969%2Fannounce&tr=udp%3A%2F%2F9.rarbg.to%3A2920%2Fannounce&tr=udp%3A%2F%2Ftracker.opentrackr.org%3A1337&tr=udp%3A%2F%2Ftracker.internetwarriors.net%3A1337%2Fannounce&tr=udp%3A%2F%2Ftracker.leechers-paradise.org%3A6969%2Fannounce&tr=udp%3A%2F%2Ftracker.coppersurfer.tk%3A6969%2Fannounce&tr=udp%3A%2F%2Ftracker.pirateparty.gr%3A6969%2Fannounce&tr=udp%3A%2F%2Ftracker.cyberia.is%3A6969%2Fannounce",
    "seeder": "5",
    "leecher": "0"
}{
    "rank": "80",
    "title": "Android Apps Pack 19- November - 2019 ~ [APKGOD]",
    "link": "magnet:?xt=urn:btih:6CEC723304551EDC85534E1CC165F13ABA60FE85&dn=Android+Apps+Pack+19-+November+-+2019+%7E+%5BAPKGOD%5D&tr=udp%3A%2F%2Ftracker.coppersurfer.tk%3A6969%2Fannounce&tr=udp%3A%2F%2F9.rarbg.to%3A2920%2Fannounce&tr=udp%3A%2F%2Ftracker.opentrackr.org%3A1337&tr=udp%3A%2F%2Ftracker.internetwarriors.net%3A1337%2Fannounce&tr=udp%3A%2F%2Ftracker.leechers-paradise.org%3A6969%2Fannounce&tr=udp%3A%2F%2Ftracker.coppersurfer.tk%3A6969%2Fannounce&tr=udp%3A%2F%2Ftracker.pirateparty.gr%3A6969%2Fannounce&tr=udp%3A%2F%2Ftracker.cyberia.is%3A6969%2Fannounce",
    "seeder": "5",
    "leecher": "0"
}{
    "rank": "81",
    "title": "Home Workout - No Equipment v1.0.22 B.22 [Ad Free] {B4tman}",
    "link": "magnet:?xt=urn:btih:406AA086E8931491E4C9BC2719A5E41929B9959F&dn=Home+Workout+-+No+Equipment+v1.0.22+B.22+%5BAd+Free%5D+%7BB4tman%7D&tr=udp%3A%2F%2Ftracker.coppersurfer.tk%3A6969%2Fannounce&tr=udp%3A%2F%2F9.rarbg.to%3A2920%2Fannounce&tr=udp%3A%2F%2Ftracker.opentrackr.org%3A1337&tr=udp%3A%2F%2Ftracker.internetwarriors.net%3A1337%2Fannounce&tr=udp%3A%2F%2Ftracker.leechers-paradise.org%3A6969%2Fannounce&tr=udp%3A%2F%2Ftracker.coppersurfer.tk%3A6969%2Fannounce&tr=udp%3A%2F%2Ftracker.pirateparty.gr%3A6969%2Fannounce&tr=udp%3A%2F%2Ftracker.cyberia.is%3A6969%2Fannounce",
    "seeder": "5",
    "leecher": "0"
}{
    "rank": "82",
    "title": "iGO Primo Android v 7.3.rar",
    "link": "magnet:?xt=urn:btih:EE39D127C44FEB481C7145B91C581D0A0253B3D9&dn=iGO+Primo+Android+v+7.3.rar&tr=udp%3A%2F%2Ftracker.coppersurfer.tk%3A6969%2Fannounce&tr=udp%3A%2F%2F9.rarbg.to%3A2920%2Fannounce&tr=udp%3A%2F%2Ftracker.opentrackr.org%3A1337&tr=udp%3A%2F%2Ftracker.internetwarriors.net%3A1337%2Fannounce&tr=udp%3A%2F%2Ftracker.leechers-paradise.org%3A6969%2Fannounce&tr=udp%3A%2F%2Ftracker.coppersurfer.tk%3A6969%2Fannounce&tr=udp%3A%2F%2Ftracker.pirateparty.gr%3A6969%2Fannounce&tr=udp%3A%2F%2Ftracker.cyberia.is%3A6969%2Fannounce",
    "seeder": "5",
    "leecher": "0"
}{
    "rank": "83",
    "title": "Instagram 100.0.0.17.129(V18) (Dark Mode) [Mod] {B4tman}",
    "link": "magnet:?xt=urn:btih:57C847A05C98483A7A3CCEE13E3E1D27687B9E8F&dn=Instagram+100.0.0.17.129%28V18%29+%28Dark+Mode%29+%5BMod%5D+%7BB4tman%7D&tr=udp%3A%2F%2Ftracker.coppersurfer.tk%3A6969%2Fannounce&tr=udp%3A%2F%2F9.rarbg.to%3A2920%2Fannounce&tr=udp%3A%2F%2Ftracker.opentrackr.org%3A1337&tr=udp%3A%2F%2Ftracker.internetwarriors.net%3A1337%2Fannounce&tr=udp%3A%2F%2Ftracker.leechers-paradise.org%3A6969%2Fannounce&tr=udp%3A%2F%2Ftracker.coppersurfer.tk%3A6969%2Fannounce&tr=udp%3A%2F%2Ftracker.pirateparty.gr%3A6969%2Fannounce&tr=udp%3A%2F%2Ftracker.cyberia.is%3A6969%2Fannounce",
    "seeder": "5",
    "leecher": "0"
}{
    "rank": "84",
    "title": "Spotify Music Premium v8.4.97.807 Final {B4tman}",
    "link": "magnet:?xt=urn:btih:DD2262811431E38EE1764DCD706BF33749ECDF04&dn=Spotify+Music+Premium+v8.4.97.807+Final+%7BB4tman%7D&tr=udp%3A%2F%2Ftracker.coppersurfer.tk%3A6969%2Fannounce&tr=udp%3A%2F%2F9.rarbg.to%3A2920%2Fannounce&tr=udp%3A%2F%2Ftracker.opentrackr.org%3A1337&tr=udp%3A%2F%2Ftracker.internetwarriors.net%3A1337%2Fannounce&tr=udp%3A%2F%2Ftracker.leechers-paradise.org%3A6969%2Fannounce&tr=udp%3A%2F%2Ftracker.coppersurfer.tk%3A6969%2Fannounce&tr=udp%3A%2F%2Ftracker.pirateparty.gr%3A6969%2Fannounce&tr=udp%3A%2F%2Ftracker.cyberia.is%3A6969%2Fannounce",
    "seeder": "5",
    "leecher": "0"
}{
    "rank": "85",
    "title": "Microsoft Office Mobile v15.0.5430.2000 {B4tman}",
    "link": "magnet:?xt=urn:btih:66C4E76982937CBE32A3F2587DB03A834AB90D77&dn=Microsoft+Office+Mobile+v15.0.5430.2000+%7BB4tman%7D&tr=udp%3A%2F%2Ftracker.coppersurfer.tk%3A6969%2Fannounce&tr=udp%3A%2F%2F9.rarbg.to%3A2920%2Fannounce&tr=udp%3A%2F%2Ftracker.opentrackr.org%3A1337&tr=udp%3A%2F%2Ftracker.internetwarriors.net%3A1337%2Fannounce&tr=udp%3A%2F%2Ftracker.leechers-paradise.org%3A6969%2Fannounce&tr=udp%3A%2F%2Ftracker.coppersurfer.tk%3A6969%2Fannounce&tr=udp%3A%2F%2Ftracker.pirateparty.gr%3A6969%2Fannounce&tr=udp%3A%2F%2Ftracker.cyberia.is%3A6969%2Fannounce",
    "seeder": "5",
    "leecher": "0"
}{
    "rank": "86",
    "title": "ExpressVPN - Unlimited Secure VPN Proxy v7.7.0 Android",
    "link": "magnet:?xt=urn:btih:F3DCD6F3A709E63FEC811946C450E6B866878FBF&dn=ExpressVPN+-+Unlimited+Secure+VPN+Proxy+v7.7.0+Android&tr=udp%3A%2F%2Ftracker.coppersurfer.tk%3A6969%2Fannounce&tr=udp%3A%2F%2F9.rarbg.to%3A2920%2Fannounce&tr=udp%3A%2F%2Ftracker.opentrackr.org%3A1337&tr=udp%3A%2F%2Ftracker.internetwarriors.net%3A1337%2Fannounce&tr=udp%3A%2F%2Ftracker.leechers-paradise.org%3A6969%2Fannounce&tr=udp%3A%2F%2Ftracker.coppersurfer.tk%3A6969%2Fannounce&tr=udp%3A%2F%2Ftracker.pirateparty.gr%3A6969%2Fannounce&tr=udp%3A%2F%2Ftracker.cyberia.is%3A6969%2Fannounce",
    "seeder": "5",
    "leecher": "0"
}{
    "rank": "87",
    "title": "Music Zen Premium - Relaxing Sounds 1.7 {B4tman}",
    "link": "magnet:?xt=urn:btih:3CA234A0F3A4E9F42A07799F7EBBD8ABCC556156&dn=Music+Zen+Premium+-+Relaxing+Sounds+1.7+%7BB4tman%7D&tr=udp%3A%2F%2Ftracker.coppersurfer.tk%3A6969%2Fannounce&tr=udp%3A%2F%2F9.rarbg.to%3A2920%2Fannounce&tr=udp%3A%2F%2Ftracker.opentrackr.org%3A1337&tr=udp%3A%2F%2Ftracker.internetwarriors.net%3A1337%2Fannounce&tr=udp%3A%2F%2Ftracker.leechers-paradise.org%3A6969%2Fannounce&tr=udp%3A%2F%2Ftracker.coppersurfer.tk%3A6969%2Fannounce&tr=udp%3A%2F%2Ftracker.pirateparty.gr%3A6969%2Fannounce&tr=udp%3A%2F%2Ftracker.cyberia.is%3A6969%2Fannounce",
    "seeder": "5",
    "leecher": "0"
}{
    "rank": "88",
    "title": "Home Workouts Gym Pro 11.0.1 [Paid] {B4tman}",
    "link": "magnet:?xt=urn:btih:4F9B4A8DE2DEA598B59F82093A7342FEE50CB654&dn=Home+Workouts+Gym+Pro+11.0.1+%5BPaid%5D+%7BB4tman%7D&tr=udp%3A%2F%2Ftracker.coppersurfer.tk%3A6969%2Fannounce&tr=udp%3A%2F%2F9.rarbg.to%3A2920%2Fannounce&tr=udp%3A%2F%2Ftracker.opentrackr.org%3A1337&tr=udp%3A%2F%2Ftracker.internetwarriors.net%3A1337%2Fannounce&tr=udp%3A%2F%2Ftracker.leechers-paradise.org%3A6969%2Fannounce&tr=udp%3A%2F%2Ftracker.coppersurfer.tk%3A6969%2Fannounce&tr=udp%3A%2F%2Ftracker.pirateparty.gr%3A6969%2Fannounce&tr=udp%3A%2F%2Ftracker.cyberia.is%3A6969%2Fannounce",
    "seeder": "5",
    "leecher": "0"
}{
    "rank": "89",
    "title": "VLC for Android (VideoLAN) 3.1.6 {B4tman}",
    "link": "magnet:?xt=urn:btih:93EDF8F971E62EEB99C0679271B7822ADFCB2118&dn=VLC+for+Android+%28VideoLAN%29+3.1.6+%7BB4tman%7D&tr=udp%3A%2F%2Ftracker.coppersurfer.tk%3A6969%2Fannounce&tr=udp%3A%2F%2F9.rarbg.to%3A2920%2Fannounce&tr=udp%3A%2F%2Ftracker.opentrackr.org%3A1337&tr=udp%3A%2F%2Ftracker.internetwarriors.net%3A1337%2Fannounce&tr=udp%3A%2F%2Ftracker.leechers-paradise.org%3A6969%2Fannounce&tr=udp%3A%2F%2Ftracker.coppersurfer.tk%3A6969%2Fannounce&tr=udp%3A%2F%2Ftracker.pirateparty.gr%3A6969%2Fannounce&tr=udp%3A%2F%2Ftracker.cyberia.is%3A6969%2Fannounce",
    "seeder": "5",
    "leecher": "0"
}{
    "rank": "90",
    "title": "Virtual DJ Mixer Pro v5.0.6",
    "link": "magnet:?xt=urn:btih:953FE7F533FE613A4164B1F28E1B98EE8090184C&dn=Virtual+DJ+Mixer+Pro+v5.0.6&tr=udp%3A%2F%2Ftracker.coppersurfer.tk%3A6969%2Fannounce&tr=udp%3A%2F%2F9.rarbg.to%3A2920%2Fannounce&tr=udp%3A%2F%2Ftracker.opentrackr.org%3A1337&tr=udp%3A%2F%2Ftracker.internetwarriors.net%3A1337%2Fannounce&tr=udp%3A%2F%2Ftracker.leechers-paradise.org%3A6969%2Fannounce&tr=udp%3A%2F%2Ftracker.coppersurfer.tk%3A6969%2Fannounce&tr=udp%3A%2F%2Ftracker.pirateparty.gr%3A6969%2Fannounce&tr=udp%3A%2F%2Ftracker.cyberia.is%3A6969%2Fannounce",
    "seeder": "5",
    "leecher": "0"
}{
    "rank": "91",
    "title": "Spotify Music Premium 8.5.4.770 {B4tman}",
    "link": "magnet:?xt=urn:btih:47BA567E138786EDC1E8BA2A068D6FF56FC12285&dn=Spotify+Music+Premium+8.5.4.770+%7BB4tman%7D&tr=udp%3A%2F%2Ftracker.coppersurfer.tk%3A6969%2Fannounce&tr=udp%3A%2F%2F9.rarbg.to%3A2920%2Fannounce&tr=udp%3A%2F%2Ftracker.opentrackr.org%3A1337&tr=udp%3A%2F%2Ftracker.internetwarriors.net%3A1337%2Fannounce&tr=udp%3A%2F%2Ftracker.leechers-paradise.org%3A6969%2Fannounce&tr=udp%3A%2F%2Ftracker.coppersurfer.tk%3A6969%2Fannounce&tr=udp%3A%2F%2Ftracker.pirateparty.gr%3A6969%2Fannounce&tr=udp%3A%2F%2Ftracker.cyberia.is%3A6969%2Fannounce",
    "seeder": "4",
    "leecher": "0"
}{
    "rank": "92",
    "title": "Slader - Homework Answers 2.1.1 {B4tman}",
    "link": "magnet:?xt=urn:btih:24EC8E532DD72D92FABF512E4FC57A93DD7F5950&dn=Slader+-+Homework+Answers+2.1.1+%7BB4tman%7D&tr=udp%3A%2F%2Ftracker.coppersurfer.tk%3A6969%2Fannounce&tr=udp%3A%2F%2F9.rarbg.to%3A2920%2Fannounce&tr=udp%3A%2F%2Ftracker.opentrackr.org%3A1337&tr=udp%3A%2F%2Ftracker.internetwarriors.net%3A1337%2Fannounce&tr=udp%3A%2F%2Ftracker.leechers-paradise.org%3A6969%2Fannounce&tr=udp%3A%2F%2Ftracker.coppersurfer.tk%3A6969%2Fannounce&tr=udp%3A%2F%2Ftracker.pirateparty.gr%3A6969%2Fannounce&tr=udp%3A%2F%2Ftracker.cyberia.is%3A6969%2Fannounce",
    "seeder": "4",
    "leecher": "0"
}{
    "rank": "93",
    "title": "TeaTV - Watch HD Movies & Shows 10.0.0r [Mod] {B4tman}",
    "link": "magnet:?xt=urn:btih:F4D97FC77D0355354EF4F79ED95A6879BF5A74A9&dn=TeaTV+-+Watch+HD+Movies+%26amp%3B+Shows+10.0.0r+%5BMod%5D+%7BB4tman%7D&tr=udp%3A%2F%2Ftracker.coppersurfer.tk%3A6969%2Fannounce&tr=udp%3A%2F%2F9.rarbg.to%3A2920%2Fannounce&tr=udp%3A%2F%2Ftracker.opentrackr.org%3A1337&tr=udp%3A%2F%2Ftracker.internetwarriors.net%3A1337%2Fannounce&tr=udp%3A%2F%2Ftracker.leechers-paradise.org%3A6969%2Fannounce&tr=udp%3A%2F%2Ftracker.coppersurfer.tk%3A6969%2Fannounce&tr=udp%3A%2F%2Ftracker.pirateparty.gr%3A6969%2Fannounce&tr=udp%3A%2F%2Ftracker.cyberia.is%3A6969%2Fannounce",
    "seeder": "4",
    "leecher": "1"
}{
    "rank": "94",
    "title": "SonyLIV Premium (All Sony Content Online) 5.5.2 {B4tman}",
    "link": "magnet:?xt=urn:btih:E68BB723E48E5E1BF6C7C257E435D7FB64B43606&dn=SonyLIV+Premium+%28All+Sony+Content+Online%29+5.5.2+%7BB4tman%7D&tr=udp%3A%2F%2Ftracker.coppersurfer.tk%3A6969%2Fannounce&tr=udp%3A%2F%2F9.rarbg.to%3A2920%2Fannounce&tr=udp%3A%2F%2Ftracker.opentrackr.org%3A1337&tr=udp%3A%2F%2Ftracker.internetwarriors.net%3A1337%2Fannounce&tr=udp%3A%2F%2Ftracker.leechers-paradise.org%3A6969%2Fannounce&tr=udp%3A%2F%2Ftracker.coppersurfer.tk%3A6969%2Fannounce&tr=udp%3A%2F%2Ftracker.pirateparty.gr%3A6969%2Fannounce&tr=udp%3A%2F%2Ftracker.cyberia.is%3A6969%2Fannounce",
    "seeder": "4",
    "leecher": "0"
}{
    "rank": "95",
    "title": "Spotify Music Premium v8.5.10.774 MOD APK ~ [APKGOD]",
    "link": "magnet:?xt=urn:btih:9C7703101758029DB60267F09CAD708C2471A487&dn=Spotify+Music+Premium+v8.5.10.774+MOD+APK+%7E+%5BAPKGOD%5D&tr=udp%3A%2F%2Ftracker.coppersurfer.tk%3A6969%2Fannounce&tr=udp%3A%2F%2F9.rarbg.to%3A2920%2Fannounce&tr=udp%3A%2F%2Ftracker.opentrackr.org%3A1337&tr=udp%3A%2F%2Ftracker.internetwarriors.net%3A1337%2Fannounce&tr=udp%3A%2F%2Ftracker.leechers-paradise.org%3A6969%2Fannounce&tr=udp%3A%2F%2Ftracker.coppersurfer.tk%3A6969%2Fannounce&tr=udp%3A%2F%2Ftracker.pirateparty.gr%3A6969%2Fannounce&tr=udp%3A%2F%2Ftracker.cyberia.is%3A6969%2Fannounce",
    "seeder": "4",
    "leecher": "0"
}{
    "rank": "96",
    "title": "Adobe Photoshop Lightroom CC Premium 4.3 [Unlocked] {B4tman}",
    "link": "magnet:?xt=urn:btih:D51411033257576D085CD1EAF22768A5B11ACEE0&dn=Adobe+Photoshop+Lightroom+CC+Premium+4.3+%5BUnlocked%5D+%7BB4tman%7D&tr=udp%3A%2F%2Ftracker.coppersurfer.tk%3A6969%2Fannounce&tr=udp%3A%2F%2F9.rarbg.to%3A2920%2Fannounce&tr=udp%3A%2F%2Ftracker.opentrackr.org%3A1337&tr=udp%3A%2F%2Ftracker.internetwarriors.net%3A1337%2Fannounce&tr=udp%3A%2F%2Ftracker.leechers-paradise.org%3A6969%2Fannounce&tr=udp%3A%2F%2Ftracker.coppersurfer.tk%3A6969%2Fannounce&tr=udp%3A%2F%2Ftracker.pirateparty.gr%3A6969%2Fannounce&tr=udp%3A%2F%2Ftracker.cyberia.is%3A6969%2Fannounce",
    "seeder": "4",
    "leecher": "0"
}{
    "rank": "97",
    "title": "TvTap Pro - Watch Live TV 1.9 [Mod] {B4tman}",
    "link": "magnet:?xt=urn:btih:038D59D1A1185008B0E5FDB496D19A53A27300E0&dn=TvTap+Pro+-+Watch+Live+TV+1.9+%5BMod%5D+%7BB4tman%7D&tr=udp%3A%2F%2Ftracker.coppersurfer.tk%3A6969%2Fannounce&tr=udp%3A%2F%2F9.rarbg.to%3A2920%2Fannounce&tr=udp%3A%2F%2Ftracker.opentrackr.org%3A1337&tr=udp%3A%2F%2Ftracker.internetwarriors.net%3A1337%2Fannounce&tr=udp%3A%2F%2Ftracker.leechers-paradise.org%3A6969%2Fannounce&tr=udp%3A%2F%2Ftracker.coppersurfer.tk%3A6969%2Fannounce&tr=udp%3A%2F%2Ftracker.pirateparty.gr%3A6969%2Fannounce&tr=udp%3A%2F%2Ftracker.cyberia.is%3A6969%2Fannounce",
    "seeder": "4",
    "leecher": "0"
}{
    "rank": "98",
    "title": "Betternet Premium VPN Proxy v3.8.6 [Unlocked] Android",
    "link": "magnet:?xt=urn:btih:322AC2A6D01AFBBC396CF497AC91F4A27E7A9F71&dn=Betternet+Premium+VPN+Proxy+v3.8.6+%5BUnlocked%5D+Android&tr=udp%3A%2F%2Ftracker.coppersurfer.tk%3A6969%2Fannounce&tr=udp%3A%2F%2F9.rarbg.to%3A2920%2Fannounce&tr=udp%3A%2F%2Ftracker.opentrackr.org%3A1337&tr=udp%3A%2F%2Ftracker.internetwarriors.net%3A1337%2Fannounce&tr=udp%3A%2F%2Ftracker.leechers-paradise.org%3A6969%2Fannounce&tr=udp%3A%2F%2Ftracker.coppersurfer.tk%3A6969%2Fannounce&tr=udp%3A%2F%2Ftracker.pirateparty.gr%3A6969%2Fannounce&tr=udp%3A%2F%2Ftracker.cyberia.is%3A6969%2Fannounce",
    "seeder": "4",
    "leecher": "0"
}{
    "rank": "99",
    "title": "Instagram 100.0.0.17.129 (v16) [Mod Apk] {B4tman}",
    "link": "magnet:?xt=urn:btih:CB9B95574680A9327CFBCB1884808537AB29870E&dn=Instagram+100.0.0.17.129+%28v16%29+%5BMod+Apk%5D+%7BB4tman%7D&tr=udp%3A%2F%2Ftracker.coppersurfer.tk%3A6969%2Fannounce&tr=udp%3A%2F%2F9.rarbg.to%3A2920%2Fannounce&tr=udp%3A%2F%2Ftracker.opentrackr.org%3A1337&tr=udp%3A%2F%2Ftracker.internetwarriors.net%3A1337%2Fannounce&tr=udp%3A%2F%2Ftracker.leechers-paradise.org%3A6969%2Fannounce&tr=udp%3A%2F%2Ftracker.coppersurfer.tk%3A6969%2Fannounce&tr=udp%3A%2F%2Ftracker.pirateparty.gr%3A6969%2Fannounce&tr=udp%3A%2F%2Ftracker.cyberia.is%3A6969%2Fannounce",
    "seeder": "4",
    "leecher": "1"
}{
    "rank": "100",
    "title": "Nova Launcher Prime v6.1.4 [Beta]+TeslaUnread v5.1.2 {B4tman}",
    "link": "magnet:?xt=urn:btih:0B5C11FD50B11E9AD21ED1288B05526DE99FA975&dn=Nova+Launcher+Prime+v6.1.4+%5BBeta%5D%2BTeslaUnread+v5.1.2+%7BB4tman%7D&tr=udp%3A%2F%2Ftracker.coppersurfer.tk%3A6969%2Fannounce&tr=udp%3A%2F%2F9.rarbg.to%3A2920%2Fannounce&tr=udp%3A%2F%2Ftracker.opentrackr.org%3A1337&tr=udp%3A%2F%2Ftracker.internetwarriors.net%3A1337%2Fannounce&tr=udp%3A%2F%2Ftracker.leechers-paradise.org%3A6969%2Fannounce&tr=udp%3A%2F%2Ftracker.coppersurfer.tk%3A6969%2Fannounce&tr=udp%3A%2F%2Ftracker.pirateparty.gr%3A6969%2Fannounce&tr=udp%3A%2F%2Ftracker.cyberia.is%3A6969%2Fannounce",
    "seeder": "4",
    "leecher": "0"
}