{
    "rank": "1",
    "title": "Garmin City Navigator North America NT 2017.10 Unlocked IMG",
    "link": "magnet:?xt=urn:btih:9D3E59C37D0706A59FCA836A64140B6C7ADEF282&dn=Garmin+City+Navigator+North+America+NT+2017.10+Unlocked+IMG&tr=udp%3A%2F%2Ftracker.coppersurfer.tk%3A6969%2Fannounce&tr=udp%3A%2F%2F9.rarbg.to%3A2920%2Fannounce&tr=udp%3A%2F%2Ftracker.opentrackr.org%3A1337&tr=udp%3A%2F%2Ftracker.internetwarriors.net%3A1337%2Fannounce&tr=udp%3A%2F%2Ftracker.leechers-paradise.org%3A6969%2Fannounce&tr=udp%3A%2F%2Ftracker.coppersurfer.tk%3A6969%2Fannounce&tr=udp%3A%2F%2Ftracker.pirateparty.gr%3A6969%2Fannounce&tr=udp%3A%2F%2Ftracker.cyberia.is%3A6969%2Fannounce",
    "seeder": "4",
    "leecher": "0"
}{
    "rank": "2",
    "title": "Garmin City Navigator Europe NT 2016.10",
    "link": "magnet:?xt=urn:btih:6E7BD07082DB76AE205F0B4E17E4DDB5B9484161&dn=Garmin+City+Navigator+Europe+NT+2016.10&tr=udp%3A%2F%2Ftracker.coppersurfer.tk%3A6969%2Fannounce&tr=udp%3A%2F%2F9.rarbg.to%3A2920%2Fannounce&tr=udp%3A%2F%2Ftracker.opentrackr.org%3A1337&tr=udp%3A%2F%2Ftracker.internetwarriors.net%3A1337%2Fannounce&tr=udp%3A%2F%2Ftracker.leechers-paradise.org%3A6969%2Fannounce&tr=udp%3A%2F%2Ftracker.coppersurfer.tk%3A6969%2Fannounce&tr=udp%3A%2F%2Ftracker.pirateparty.gr%3A6969%2Fannounce&tr=udp%3A%2F%2Ftracker.cyberia.is%3A6969%2Fannounce",
    "seeder": "3",
    "leecher": "0"
}{
    "rank": "3",
    "title": "Time.Crisis.Strike.v1.0.0.for.iPhone.and.iPod.Touch-GiZPDA",
    "link": "magnet:?xt=urn:btih:8ADFA5B7F38EA1E55DC17DA2968CDB6F69524076&dn=Time.Crisis.Strike.v1.0.0.for.iPhone.and.iPod.Touch-GiZPDA&tr=udp%3A%2F%2Ftracker.coppersurfer.tk%3A6969%2Fannounce&tr=udp%3A%2F%2F9.rarbg.to%3A2920%2Fannounce&tr=udp%3A%2F%2Ftracker.opentrackr.org%3A1337&tr=udp%3A%2F%2Ftracker.internetwarriors.net%3A1337%2Fannounce&tr=udp%3A%2F%2Ftracker.leechers-paradise.org%3A6969%2Fannounce&tr=udp%3A%2F%2Ftracker.coppersurfer.tk%3A6969%2Fannounce&tr=udp%3A%2F%2Ftracker.pirateparty.gr%3A6969%2Fannounce&tr=udp%3A%2F%2Ftracker.cyberia.is%3A6969%2Fannounce",
    "seeder": "2",
    "leecher": "0"
}{
    "rank": "4",
    "title": "Star.Paint.v1.1.iPhone.iPod.Touch-COREPDA",
    "link": "magnet:?xt=urn:btih:DB733ACCC7C54443DBAE8A5C6B6CE35963F2A3B7&dn=Star.Paint.v1.1.iPhone.iPod.Touch-COREPDA&tr=udp%3A%2F%2Ftracker.coppersurfer.tk%3A6969%2Fannounce&tr=udp%3A%2F%2F9.rarbg.to%3A2920%2Fannounce&tr=udp%3A%2F%2Ftracker.opentrackr.org%3A1337&tr=udp%3A%2F%2Ftracker.internetwarriors.net%3A1337%2Fannounce&tr=udp%3A%2F%2Ftracker.leechers-paradise.org%3A6969%2Fannounce&tr=udp%3A%2F%2Ftracker.coppersurfer.tk%3A6969%2Fannounce&tr=udp%3A%2F%2Ftracker.pirateparty.gr%3A6969%2Fannounce&tr=udp%3A%2F%2Ftracker.cyberia.is%3A6969%2Fannounce",
    "seeder": "2",
    "leecher": "0"
}{
    "rank": "5",
    "title": "Air.Hockey.Christmas.v1.0.iPhone.iPod.Touch-COREPDA",
    "link": "magnet:?xt=urn:btih:B0EFE48BF854B2D08DF46689E8BD081D1C1DFEAE&dn=Air.Hockey.Christmas.v1.0.iPhone.iPod.Touch-COREPDA&tr=udp%3A%2F%2Ftracker.coppersurfer.tk%3A6969%2Fannounce&tr=udp%3A%2F%2F9.rarbg.to%3A2920%2Fannounce&tr=udp%3A%2F%2Ftracker.opentrackr.org%3A1337&tr=udp%3A%2F%2Ftracker.internetwarriors.net%3A1337%2Fannounce&tr=udp%3A%2F%2Ftracker.leechers-paradise.org%3A6969%2Fannounce&tr=udp%3A%2F%2Ftracker.coppersurfer.tk%3A6969%2Fannounce&tr=udp%3A%2F%2Ftracker.pirateparty.gr%3A6969%2Fannounce&tr=udp%3A%2F%2Ftracker.cyberia.is%3A6969%2Fannounce",
    "seeder": "2",
    "leecher": "0"
}{
    "rank": "6",
    "title": "Sniper.vs.Sniper.Online.v1.1.0.iPhone.iPod.Touch.Cracked-COREPDA",
    "link": "magnet:?xt=urn:btih:D758EFF383C41E7BDD35CB15AAFBA83B84748734&dn=Sniper.vs.Sniper.Online.v1.1.0.iPhone.iPod.Touch.Cracked-COREPDA&tr=udp%3A%2F%2Ftracker.coppersurfer.tk%3A6969%2Fannounce&tr=udp%3A%2F%2F9.rarbg.to%3A2920%2Fannounce&tr=udp%3A%2F%2Ftracker.opentrackr.org%3A1337&tr=udp%3A%2F%2Ftracker.internetwarriors.net%3A1337%2Fannounce&tr=udp%3A%2F%2Ftracker.leechers-paradise.org%3A6969%2Fannounce&tr=udp%3A%2F%2Ftracker.coppersurfer.tk%3A6969%2Fannounce&tr=udp%3A%2F%2Ftracker.pirateparty.gr%3A6969%2Fannounce&tr=udp%3A%2F%2Ftracker.cyberia.is%3A6969%2Fannounce",
    "seeder": "2",
    "leecher": "0"
}{
    "rank": "7",
    "title": "Sky Siege For Android",
    "link": "magnet:?xt=urn:btih:0045CD55E82C41B389A2D85EF35D1437D8785BF7&dn=Sky+Siege+For+Android&tr=udp%3A%2F%2Ftracker.coppersurfer.tk%3A6969%2Fannounce&tr=udp%3A%2F%2F9.rarbg.to%3A2920%2Fannounce&tr=udp%3A%2F%2Ftracker.opentrackr.org%3A1337&tr=udp%3A%2F%2Ftracker.internetwarriors.net%3A1337%2Fannounce&tr=udp%3A%2F%2Ftracker.leechers-paradise.org%3A6969%2Fannounce&tr=udp%3A%2F%2Ftracker.coppersurfer.tk%3A6969%2Fannounce&tr=udp%3A%2F%2Ftracker.pirateparty.gr%3A6969%2Fannounce&tr=udp%3A%2F%2Ftracker.cyberia.is%3A6969%2Fannounce",
    "seeder": "2",
    "leecher": "0"
}{
    "rank": "8",
    "title": "S60 SOFTWARE COLLECTION ~ W [Osheraj]",
    "link": "magnet:?xt=urn:btih:543617A5E0043D97D95C10210D2ABA20773A9F9C&dn=S60+SOFTWARE+COLLECTION+%7E+W+%5BOsheraj%5D&tr=udp%3A%2F%2Ftracker.coppersurfer.tk%3A6969%2Fannounce&tr=udp%3A%2F%2F9.rarbg.to%3A2920%2Fannounce&tr=udp%3A%2F%2Ftracker.opentrackr.org%3A1337&tr=udp%3A%2F%2Ftracker.internetwarriors.net%3A1337%2Fannounce&tr=udp%3A%2F%2Ftracker.leechers-paradise.org%3A6969%2Fannounce&tr=udp%3A%2F%2Ftracker.coppersurfer.tk%3A6969%2Fannounce&tr=udp%3A%2F%2Ftracker.pirateparty.gr%3A6969%2Fannounce&tr=udp%3A%2F%2Ftracker.cyberia.is%3A6969%2Fannounce",
    "seeder": "2",
    "leecher": "0"
}{
    "rank": "9",
    "title": "Autosputnik v3.2.6 Build 26863 WM2003 Yandex",
    "link": "magnet:?xt=urn:btih:F1BB1CB70F8E525FEBC54DE956D39F31C0A7B184&dn=Autosputnik+v3.2.6+Build+26863+WM2003+Yandex&tr=udp%3A%2F%2Ftracker.coppersurfer.tk%3A6969%2Fannounce&tr=udp%3A%2F%2F9.rarbg.to%3A2920%2Fannounce&tr=udp%3A%2F%2Ftracker.opentrackr.org%3A1337&tr=udp%3A%2F%2Ftracker.internetwarriors.net%3A1337%2Fannounce&tr=udp%3A%2F%2Ftracker.leechers-paradise.org%3A6969%2Fannounce&tr=udp%3A%2F%2Ftracker.coppersurfer.tk%3A6969%2Fannounce&tr=udp%3A%2F%2Ftracker.pirateparty.gr%3A6969%2Fannounce&tr=udp%3A%2F%2Ftracker.cyberia.is%3A6969%2Fannounce",
    "seeder": "2",
    "leecher": "0"
}{
    "rank": "10",
    "title": "Rio.2011.R5.LiNE.mp4",
    "link": "magnet:?xt=urn:btih:BB3B09B1FBB09161E3A4377D7410486AF2207CCD&dn=Rio.2011.R5.LiNE.mp4&tr=udp%3A%2F%2Ftracker.coppersurfer.tk%3A6969%2Fannounce&tr=udp%3A%2F%2F9.rarbg.to%3A2920%2Fannounce&tr=udp%3A%2F%2Ftracker.opentrackr.org%3A1337&tr=udp%3A%2F%2Ftracker.internetwarriors.net%3A1337%2Fannounce&tr=udp%3A%2F%2Ftracker.leechers-paradise.org%3A6969%2Fannounce&tr=udp%3A%2F%2Ftracker.coppersurfer.tk%3A6969%2Fannounce&tr=udp%3A%2F%2Ftracker.pirateparty.gr%3A6969%2Fannounce&tr=udp%3A%2F%2Ftracker.cyberia.is%3A6969%2Fannounce",
    "seeder": "2",
    "leecher": "0"
}{
    "rank": "11",
    "title": "SPB Weather Version. 2.4.0 (Build 2248) For The Pocket PC",
    "link": "magnet:?xt=urn:btih:D4DB980500D3ED737C234E0BCCF7E96745D17354&dn=SPB+Weather+Version.+2.4.0+%28Build+2248%29+For+The+Pocket+PC&tr=udp%3A%2F%2Ftracker.coppersurfer.tk%3A6969%2Fannounce&tr=udp%3A%2F%2F9.rarbg.to%3A2920%2Fannounce&tr=udp%3A%2F%2Ftracker.opentrackr.org%3A1337&tr=udp%3A%2F%2Ftracker.internetwarriors.net%3A1337%2Fannounce&tr=udp%3A%2F%2Ftracker.leechers-paradise.org%3A6969%2Fannounce&tr=udp%3A%2F%2Ftracker.coppersurfer.tk%3A6969%2Fannounce&tr=udp%3A%2F%2Ftracker.pirateparty.gr%3A6969%2Fannounce&tr=udp%3A%2F%2Ftracker.cyberia.is%3A6969%2Fannounce",
    "seeder": "2",
    "leecher": "0"
}{
    "rank": "12",
    "title": "Pocket PC Ultralingua Dictionnaire Fran\u00c3\u00a7ais/synonyme",
    "link": "magnet:?xt=urn:btih:94C9C458912B9D1DE8D8B5F73632DEC7940C07EF&dn=Pocket+PC+Ultralingua+Dictionnaire+Fran%C3%83%C2%A7ais%2Fsynonyme&tr=udp%3A%2F%2Ftracker.coppersurfer.tk%3A6969%2Fannounce&tr=udp%3A%2F%2F9.rarbg.to%3A2920%2Fannounce&tr=udp%3A%2F%2Ftracker.opentrackr.org%3A1337&tr=udp%3A%2F%2Ftracker.internetwarriors.net%3A1337%2Fannounce&tr=udp%3A%2F%2Ftracker.leechers-paradise.org%3A6969%2Fannounce&tr=udp%3A%2F%2Ftracker.coppersurfer.tk%3A6969%2Fannounce&tr=udp%3A%2F%2Ftracker.pirateparty.gr%3A6969%2Fannounce&tr=udp%3A%2F%2Ftracker.cyberia.is%3A6969%2Fannounce",
    "seeder": "2",
    "leecher": "0"
}{
    "rank": "13",
    "title": "Garmin - Iceland Speed Cameras",
    "link": "magnet:?xt=urn:btih:23D9AB21B722814CB5A9F36C3D0B50F9E5F8C30C&dn=Garmin+-+Iceland+Speed+Cameras&tr=udp%3A%2F%2Ftracker.coppersurfer.tk%3A6969%2Fannounce&tr=udp%3A%2F%2F9.rarbg.to%3A2920%2Fannounce&tr=udp%3A%2F%2Ftracker.opentrackr.org%3A1337&tr=udp%3A%2F%2Ftracker.internetwarriors.net%3A1337%2Fannounce&tr=udp%3A%2F%2Ftracker.leechers-paradise.org%3A6969%2Fannounce&tr=udp%3A%2F%2Ftracker.coppersurfer.tk%3A6969%2Fannounce&tr=udp%3A%2F%2Ftracker.pirateparty.gr%3A6969%2Fannounce&tr=udp%3A%2F%2Ftracker.cyberia.is%3A6969%2Fannounce",
    "seeder": "2",
    "leecher": "0"
}{
    "rank": "14",
    "title": "East.Story.v1.0.iPhone.iPod.Touch-iPWNPDA",
    "link": "magnet:?xt=urn:btih:B58FDCF74B39FA72DE0E6CCA4E4B71132B239D59&dn=East.Story.v1.0.iPhone.iPod.Touch-iPWNPDA&tr=udp%3A%2F%2Ftracker.coppersurfer.tk%3A6969%2Fannounce&tr=udp%3A%2F%2F9.rarbg.to%3A2920%2Fannounce&tr=udp%3A%2F%2Ftracker.opentrackr.org%3A1337&tr=udp%3A%2F%2Ftracker.internetwarriors.net%3A1337%2Fannounce&tr=udp%3A%2F%2Ftracker.leechers-paradise.org%3A6969%2Fannounce&tr=udp%3A%2F%2Ftracker.coppersurfer.tk%3A6969%2Fannounce&tr=udp%3A%2F%2Ftracker.pirateparty.gr%3A6969%2Fannounce&tr=udp%3A%2F%2Ftracker.cyberia.is%3A6969%2Fannounce",
    "seeder": "2",
    "leecher": "0"
}{
    "rank": "15",
    "title": "ChompSMS Donate Version. 4.8 For Android",
    "link": "magnet:?xt=urn:btih:8F7556CF2D92983BE2440273AE40B206C5AE160E&dn=ChompSMS+Donate+Version.+4.8+For+Android&tr=udp%3A%2F%2Ftracker.coppersurfer.tk%3A6969%2Fannounce&tr=udp%3A%2F%2F9.rarbg.to%3A2920%2Fannounce&tr=udp%3A%2F%2Ftracker.opentrackr.org%3A1337&tr=udp%3A%2F%2Ftracker.internetwarriors.net%3A1337%2Fannounce&tr=udp%3A%2F%2Ftracker.leechers-paradise.org%3A6969%2Fannounce&tr=udp%3A%2F%2Ftracker.coppersurfer.tk%3A6969%2Fannounce&tr=udp%3A%2F%2Ftracker.pirateparty.gr%3A6969%2Fannounce&tr=udp%3A%2F%2Ftracker.cyberia.is%3A6969%2Fannounce",
    "seeder": "2",
    "leecher": "0"
}{
    "rank": "16",
    "title": "OpenHome Version. 4.9.2 For Android",
    "link": "magnet:?xt=urn:btih:15EB91C6BB7F0A5CB98899C077C70D20C82D7E00&dn=OpenHome+Version.+4.9.2+For+Android&tr=udp%3A%2F%2Ftracker.coppersurfer.tk%3A6969%2Fannounce&tr=udp%3A%2F%2F9.rarbg.to%3A2920%2Fannounce&tr=udp%3A%2F%2Ftracker.opentrackr.org%3A1337&tr=udp%3A%2F%2Ftracker.internetwarriors.net%3A1337%2Fannounce&tr=udp%3A%2F%2Ftracker.leechers-paradise.org%3A6969%2Fannounce&tr=udp%3A%2F%2Ftracker.coppersurfer.tk%3A6969%2Fannounce&tr=udp%3A%2F%2Ftracker.pirateparty.gr%3A6969%2Fannounce&tr=udp%3A%2F%2Ftracker.cyberia.is%3A6969%2Fannounce",
    "seeder": "2",
    "leecher": "0"
}{
    "rank": "17",
    "title": "WisBar Advanced Desktop Version. 2.1.2.1 For The Pocket PC",
    "link": "magnet:?xt=urn:btih:CF3935B9AD0D7095147F2F2F7171024BDDF33576&dn=WisBar+Advanced+Desktop+Version.+2.1.2.1+For+The+Pocket+PC&tr=udp%3A%2F%2Ftracker.coppersurfer.tk%3A6969%2Fannounce&tr=udp%3A%2F%2F9.rarbg.to%3A2920%2Fannounce&tr=udp%3A%2F%2Ftracker.opentrackr.org%3A1337&tr=udp%3A%2F%2Ftracker.internetwarriors.net%3A1337%2Fannounce&tr=udp%3A%2F%2Ftracker.leechers-paradise.org%3A6969%2Fannounce&tr=udp%3A%2F%2Ftracker.coppersurfer.tk%3A6969%2Fannounce&tr=udp%3A%2F%2Ftracker.pirateparty.gr%3A6969%2Fannounce&tr=udp%3A%2F%2Ftracker.cyberia.is%3A6969%2Fannounce",
    "seeder": "1",
    "leecher": "0"
}{
    "rank": "18",
    "title": "Autosputnik Ukraine Map v0804 updated 2008.08.15",
    "link": "magnet:?xt=urn:btih:F9213EA5DF4E3980AB1B5599ABC7624DF5D3B57D&dn=Autosputnik+Ukraine+Map+v0804+updated+2008.08.15&tr=udp%3A%2F%2Ftracker.coppersurfer.tk%3A6969%2Fannounce&tr=udp%3A%2F%2F9.rarbg.to%3A2920%2Fannounce&tr=udp%3A%2F%2Ftracker.opentrackr.org%3A1337&tr=udp%3A%2F%2Ftracker.internetwarriors.net%3A1337%2Fannounce&tr=udp%3A%2F%2Ftracker.leechers-paradise.org%3A6969%2Fannounce&tr=udp%3A%2F%2Ftracker.coppersurfer.tk%3A6969%2Fannounce&tr=udp%3A%2F%2Ftracker.pirateparty.gr%3A6969%2Fannounce&tr=udp%3A%2F%2Ftracker.cyberia.is%3A6969%2Fannounce",
    "seeder": "1",
    "leecher": "0"
}{
    "rank": "19",
    "title": "Worded.v1.00.for.iPhone.and.iPod.Touch-FEGPDA",
    "link": "magnet:?xt=urn:btih:55E8DF0BE36D4C7F38A021AEBE5BEBA661116038&dn=Worded.v1.00.for.iPhone.and.iPod.Touch-FEGPDA&tr=udp%3A%2F%2Ftracker.coppersurfer.tk%3A6969%2Fannounce&tr=udp%3A%2F%2F9.rarbg.to%3A2920%2Fannounce&tr=udp%3A%2F%2Ftracker.opentrackr.org%3A1337&tr=udp%3A%2F%2Ftracker.internetwarriors.net%3A1337%2Fannounce&tr=udp%3A%2F%2Ftracker.leechers-paradise.org%3A6969%2Fannounce&tr=udp%3A%2F%2Ftracker.coppersurfer.tk%3A6969%2Fannounce&tr=udp%3A%2F%2Ftracker.pirateparty.gr%3A6969%2Fannounce&tr=udp%3A%2F%2Ftracker.cyberia.is%3A6969%2Fannounce",
    "seeder": "1",
    "leecher": "0"
}{
    "rank": "20",
    "title": "ClipMate.v7.3.14.223-DOA",
    "link": "magnet:?xt=urn:btih:3C2998D05D096C93CBE6C39398B393A3732F9BD6&dn=ClipMate.v7.3.14.223-DOA&tr=udp%3A%2F%2Ftracker.coppersurfer.tk%3A6969%2Fannounce&tr=udp%3A%2F%2F9.rarbg.to%3A2920%2Fannounce&tr=udp%3A%2F%2Ftracker.opentrackr.org%3A1337&tr=udp%3A%2F%2Ftracker.internetwarriors.net%3A1337%2Fannounce&tr=udp%3A%2F%2Ftracker.leechers-paradise.org%3A6969%2Fannounce&tr=udp%3A%2F%2Ftracker.coppersurfer.tk%3A6969%2Fannounce&tr=udp%3A%2F%2Ftracker.pirateparty.gr%3A6969%2Fannounce&tr=udp%3A%2F%2Ftracker.cyberia.is%3A6969%2Fannounce",
    "seeder": "1",
    "leecher": "1"
}{
    "rank": "21",
    "title": "Statetris.USA.v1.0.1.iPhone.iPod.Touch-COREPDA",
    "link": "magnet:?xt=urn:btih:C957C9940D90271D4455B8514A9DF85DE19E3140&dn=Statetris.USA.v1.0.1.iPhone.iPod.Touch-COREPDA&tr=udp%3A%2F%2Ftracker.coppersurfer.tk%3A6969%2Fannounce&tr=udp%3A%2F%2F9.rarbg.to%3A2920%2Fannounce&tr=udp%3A%2F%2Ftracker.opentrackr.org%3A1337&tr=udp%3A%2F%2Ftracker.internetwarriors.net%3A1337%2Fannounce&tr=udp%3A%2F%2Ftracker.leechers-paradise.org%3A6969%2Fannounce&tr=udp%3A%2F%2Ftracker.coppersurfer.tk%3A6969%2Fannounce&tr=udp%3A%2F%2Ftracker.pirateparty.gr%3A6969%2Fannounce&tr=udp%3A%2F%2Ftracker.cyberia.is%3A6969%2Fannounce",
    "seeder": "1",
    "leecher": "0"
}{
    "rank": "22",
    "title": "Cell phone accessories. 5000+  ringtones, apps. wallpaper etc",
    "link": "magnet:?xt=urn:btih:D4518F22A9CCC11DAFF328962009AB457537A928&dn=Cell+phone+accessories.+5000%2B++ringtones%2C+apps.+wallpaper+etc&tr=udp%3A%2F%2Ftracker.coppersurfer.tk%3A6969%2Fannounce&tr=udp%3A%2F%2F9.rarbg.to%3A2920%2Fannounce&tr=udp%3A%2F%2Ftracker.opentrackr.org%3A1337&tr=udp%3A%2F%2Ftracker.internetwarriors.net%3A1337%2Fannounce&tr=udp%3A%2F%2Ftracker.leechers-paradise.org%3A6969%2Fannounce&tr=udp%3A%2F%2Ftracker.coppersurfer.tk%3A6969%2Fannounce&tr=udp%3A%2F%2Ftracker.pirateparty.gr%3A6969%2Fannounce&tr=udp%3A%2F%2Ftracker.cyberia.is%3A6969%2Fannounce",
    "seeder": "1",
    "leecher": "0"
}{
    "rank": "23",
    "title": "A.Plus.Burger.v1.1.iPhone.iPod.Touch-iPWNPDA",
    "link": "magnet:?xt=urn:btih:234A016435B79ED4DF79861D2F837905E59A92C4&dn=A.Plus.Burger.v1.1.iPhone.iPod.Touch-iPWNPDA&tr=udp%3A%2F%2Ftracker.coppersurfer.tk%3A6969%2Fannounce&tr=udp%3A%2F%2F9.rarbg.to%3A2920%2Fannounce&tr=udp%3A%2F%2Ftracker.opentrackr.org%3A1337&tr=udp%3A%2F%2Ftracker.internetwarriors.net%3A1337%2Fannounce&tr=udp%3A%2F%2Ftracker.leechers-paradise.org%3A6969%2Fannounce&tr=udp%3A%2F%2Ftracker.coppersurfer.tk%3A6969%2Fannounce&tr=udp%3A%2F%2Ftracker.pirateparty.gr%3A6969%2Fannounce&tr=udp%3A%2F%2Ftracker.cyberia.is%3A6969%2Fannounce",
    "seeder": "1",
    "leecher": "0"
}{
    "rank": "24",
    "title": "IGO Version 8.4.2.139242 (With UK Maps) For Android",
    "link": "magnet:?xt=urn:btih:56C3C3B96A8A31FDD4C277FC603E645C2D678812&dn=IGO+Version+8.4.2.139242+%28With+UK+Maps%29+For+Android&tr=udp%3A%2F%2Ftracker.coppersurfer.tk%3A6969%2Fannounce&tr=udp%3A%2F%2F9.rarbg.to%3A2920%2Fannounce&tr=udp%3A%2F%2Ftracker.opentrackr.org%3A1337&tr=udp%3A%2F%2Ftracker.internetwarriors.net%3A1337%2Fannounce&tr=udp%3A%2F%2Ftracker.leechers-paradise.org%3A6969%2Fannounce&tr=udp%3A%2F%2Ftracker.coppersurfer.tk%3A6969%2Fannounce&tr=udp%3A%2F%2Ftracker.pirateparty.gr%3A6969%2Fannounce&tr=udp%3A%2F%2Ftracker.cyberia.is%3A6969%2Fannounce",
    "seeder": "1",
    "leecher": "0"
}{
    "rank": "25",
    "title": "SPB Pocket Plus Version. 4.1.0  For The Pocket PC",
    "link": "magnet:?xt=urn:btih:1032B84BF71E521457B69EC5FF73818C3E34328A&dn=SPB+Pocket+Plus+Version.+4.1.0++For+The+Pocket+PC&tr=udp%3A%2F%2Ftracker.coppersurfer.tk%3A6969%2Fannounce&tr=udp%3A%2F%2F9.rarbg.to%3A2920%2Fannounce&tr=udp%3A%2F%2Ftracker.opentrackr.org%3A1337&tr=udp%3A%2F%2Ftracker.internetwarriors.net%3A1337%2Fannounce&tr=udp%3A%2F%2Ftracker.leechers-paradise.org%3A6969%2Fannounce&tr=udp%3A%2F%2Ftracker.coppersurfer.tk%3A6969%2Fannounce&tr=udp%3A%2F%2Ftracker.pirateparty.gr%3A6969%2Fannounce&tr=udp%3A%2F%2Ftracker.cyberia.is%3A6969%2Fannounce",
    "seeder": "1",
    "leecher": "0"
}{
    "rank": "26",
    "title": "Autosputnik v3.1.105 for Hyundai H-CMDN6000",
    "link": "magnet:?xt=urn:btih:8E354AFEDE485811772B05C0255B69D663761671&dn=Autosputnik+v3.1.105+for+Hyundai+H-CMDN6000&tr=udp%3A%2F%2Ftracker.coppersurfer.tk%3A6969%2Fannounce&tr=udp%3A%2F%2F9.rarbg.to%3A2920%2Fannounce&tr=udp%3A%2F%2Ftracker.opentrackr.org%3A1337&tr=udp%3A%2F%2Ftracker.internetwarriors.net%3A1337%2Fannounce&tr=udp%3A%2F%2Ftracker.leechers-paradise.org%3A6969%2Fannounce&tr=udp%3A%2F%2Ftracker.coppersurfer.tk%3A6969%2Fannounce&tr=udp%3A%2F%2Ftracker.pirateparty.gr%3A6969%2Fannounce&tr=udp%3A%2F%2Ftracker.cyberia.is%3A6969%2Fannounce",
    "seeder": "1",
    "leecher": "0"
}{
    "rank": "27",
    "title": "Autosputnik v3.2.6 Build 26241 WM2003 Yandex",
    "link": "magnet:?xt=urn:btih:91FA812D07657A7BF1708A298D881DB7C0C3E88C&dn=Autosputnik+v3.2.6+Build+26241+WM2003+Yandex&tr=udp%3A%2F%2Ftracker.coppersurfer.tk%3A6969%2Fannounce&tr=udp%3A%2F%2F9.rarbg.to%3A2920%2Fannounce&tr=udp%3A%2F%2Ftracker.opentrackr.org%3A1337&tr=udp%3A%2F%2Ftracker.internetwarriors.net%3A1337%2Fannounce&tr=udp%3A%2F%2Ftracker.leechers-paradise.org%3A6969%2Fannounce&tr=udp%3A%2F%2Ftracker.coppersurfer.tk%3A6969%2Fannounce&tr=udp%3A%2F%2Ftracker.pirateparty.gr%3A6969%2Fannounce&tr=udp%3A%2F%2Ftracker.cyberia.is%3A6969%2Fannounce",
    "seeder": "1",
    "leecher": "0"
}{
    "rank": "28",
    "title": "Primo 2.0 WM",
    "link": "magnet:?xt=urn:btih:F3C0D4938DD1AB6EC22F6660375A03F036BA1786&dn=Primo+2.0+WM&tr=udp%3A%2F%2Ftracker.coppersurfer.tk%3A6969%2Fannounce&tr=udp%3A%2F%2F9.rarbg.to%3A2920%2Fannounce&tr=udp%3A%2F%2Ftracker.opentrackr.org%3A1337&tr=udp%3A%2F%2Ftracker.internetwarriors.net%3A1337%2Fannounce&tr=udp%3A%2F%2Ftracker.leechers-paradise.org%3A6969%2Fannounce&tr=udp%3A%2F%2Ftracker.coppersurfer.tk%3A6969%2Fannounce&tr=udp%3A%2F%2Ftracker.pirateparty.gr%3A6969%2Fannounce&tr=udp%3A%2F%2Ftracker.cyberia.is%3A6969%2Fannounce",
    "seeder": "1",
    "leecher": "0"
}{
    "rank": "29",
    "title": "Flash Player Mobile v1.5 For The Pocket PC",
    "link": "magnet:?xt=urn:btih:B27504D5EC8D3E1FF2190A40BED4DFB65BBB7F2A&dn=Flash+Player+Mobile+v1.5+For+The+Pocket+PC&tr=udp%3A%2F%2Ftracker.coppersurfer.tk%3A6969%2Fannounce&tr=udp%3A%2F%2F9.rarbg.to%3A2920%2Fannounce&tr=udp%3A%2F%2Ftracker.opentrackr.org%3A1337&tr=udp%3A%2F%2Ftracker.internetwarriors.net%3A1337%2Fannounce&tr=udp%3A%2F%2Ftracker.leechers-paradise.org%3A6969%2Fannounce&tr=udp%3A%2F%2Ftracker.coppersurfer.tk%3A6969%2Fannounce&tr=udp%3A%2F%2Ftracker.pirateparty.gr%3A6969%2Fannounce&tr=udp%3A%2F%2Ftracker.cyberia.is%3A6969%2Fannounce",
    "seeder": "1",
    "leecher": "0"
}{
    "rank": "30",
    "title": "Autosputnik v3.1.105 for xDevice microMAP-6027B/6032",
    "link": "magnet:?xt=urn:btih:4897C41E250043AEBC649CC26DC9AA37587AC8AB&dn=Autosputnik+v3.1.105+for+xDevice+microMAP-6027B%2F6032&tr=udp%3A%2F%2Ftracker.coppersurfer.tk%3A6969%2Fannounce&tr=udp%3A%2F%2F9.rarbg.to%3A2920%2Fannounce&tr=udp%3A%2F%2Ftracker.opentrackr.org%3A1337&tr=udp%3A%2F%2Ftracker.internetwarriors.net%3A1337%2Fannounce&tr=udp%3A%2F%2Ftracker.leechers-paradise.org%3A6969%2Fannounce&tr=udp%3A%2F%2Ftracker.coppersurfer.tk%3A6969%2Fannounce&tr=udp%3A%2F%2Ftracker.pirateparty.gr%3A6969%2Fannounce&tr=udp%3A%2F%2Ftracker.cyberia.is%3A6969%2Fannounce",
    "seeder": "1",
    "leecher": "0"
}{
    "rank": "31",
    "title": "Lemonade.2.v1.5.iPhone.iPod.Touch-iPWNPDA",
    "link": "magnet:?xt=urn:btih:AC474D29981FA834197589E9FF9D994BB142583B&dn=Lemonade.2.v1.5.iPhone.iPod.Touch-iPWNPDA&tr=udp%3A%2F%2Ftracker.coppersurfer.tk%3A6969%2Fannounce&tr=udp%3A%2F%2F9.rarbg.to%3A2920%2Fannounce&tr=udp%3A%2F%2Ftracker.opentrackr.org%3A1337&tr=udp%3A%2F%2Ftracker.internetwarriors.net%3A1337%2Fannounce&tr=udp%3A%2F%2Ftracker.leechers-paradise.org%3A6969%2Fannounce&tr=udp%3A%2F%2Ftracker.coppersurfer.tk%3A6969%2Fannounce&tr=udp%3A%2F%2Ftracker.pirateparty.gr%3A6969%2Fannounce&tr=udp%3A%2F%2Ftracker.cyberia.is%3A6969%2Fannounce",
    "seeder": "1",
    "leecher": "0"
}{
    "rank": "32",
    "title": "Primo 2.0 9.6.5.216230 Dec 14 2011",
    "link": "magnet:?xt=urn:btih:3C9BABA2CFDD70B0B498433997415DDDD56B2294&dn=Primo+2.0+9.6.5.216230+Dec+14+2011&tr=udp%3A%2F%2Ftracker.coppersurfer.tk%3A6969%2Fannounce&tr=udp%3A%2F%2F9.rarbg.to%3A2920%2Fannounce&tr=udp%3A%2F%2Ftracker.opentrackr.org%3A1337&tr=udp%3A%2F%2Ftracker.internetwarriors.net%3A1337%2Fannounce&tr=udp%3A%2F%2Ftracker.leechers-paradise.org%3A6969%2Fannounce&tr=udp%3A%2F%2Ftracker.coppersurfer.tk%3A6969%2Fannounce&tr=udp%3A%2F%2Ftracker.pirateparty.gr%3A6969%2Fannounce&tr=udp%3A%2F%2Ftracker.cyberia.is%3A6969%2Fannounce",
    "seeder": "1",
    "leecher": "0"
}{
    "rank": "33",
    "title": "Voice Machine Version. 1.0 For Android",
    "link": "magnet:?xt=urn:btih:1B635FA5001BBBC175004F27AE8140E5DE736C48&dn=Voice+Machine+Version.+1.0+For+Android&tr=udp%3A%2F%2Ftracker.coppersurfer.tk%3A6969%2Fannounce&tr=udp%3A%2F%2F9.rarbg.to%3A2920%2Fannounce&tr=udp%3A%2F%2Ftracker.opentrackr.org%3A1337&tr=udp%3A%2F%2Ftracker.internetwarriors.net%3A1337%2Fannounce&tr=udp%3A%2F%2Ftracker.leechers-paradise.org%3A6969%2Fannounce&tr=udp%3A%2F%2Ftracker.coppersurfer.tk%3A6969%2Fannounce&tr=udp%3A%2F%2Ftracker.pirateparty.gr%3A6969%2Fannounce&tr=udp%3A%2F%2Ftracker.cyberia.is%3A6969%2Fannounce",
    "seeder": "1",
    "leecher": "0"
}{
    "rank": "34",
    "title": "Flash menu for Sony Ericsson",
    "link": "magnet:?xt=urn:btih:D0B6B5F5793BBF9A89A0A2A1CDA2122536DE1FA6&dn=Flash+menu+for+Sony+Ericsson&tr=udp%3A%2F%2Ftracker.coppersurfer.tk%3A6969%2Fannounce&tr=udp%3A%2F%2F9.rarbg.to%3A2920%2Fannounce&tr=udp%3A%2F%2Ftracker.opentrackr.org%3A1337&tr=udp%3A%2F%2Ftracker.internetwarriors.net%3A1337%2Fannounce&tr=udp%3A%2F%2Ftracker.leechers-paradise.org%3A6969%2Fannounce&tr=udp%3A%2F%2Ftracker.coppersurfer.tk%3A6969%2Fannounce&tr=udp%3A%2F%2Ftracker.pirateparty.gr%3A6969%2Fannounce&tr=udp%3A%2F%2Ftracker.cyberia.is%3A6969%2Fannounce",
    "seeder": "1",
    "leecher": "0"
}{
    "rank": "35",
    "title": "Wolfenstein.3D.v1.0.iPhone.iPod.Touch-TCFPDA",
    "link": "magnet:?xt=urn:btih:38D14505BA12ABCB4A35026D1D7243F92D929209&dn=Wolfenstein.3D.v1.0.iPhone.iPod.Touch-TCFPDA&tr=udp%3A%2F%2Ftracker.coppersurfer.tk%3A6969%2Fannounce&tr=udp%3A%2F%2F9.rarbg.to%3A2920%2Fannounce&tr=udp%3A%2F%2Ftracker.opentrackr.org%3A1337&tr=udp%3A%2F%2Ftracker.internetwarriors.net%3A1337%2Fannounce&tr=udp%3A%2F%2Ftracker.leechers-paradise.org%3A6969%2Fannounce&tr=udp%3A%2F%2Ftracker.coppersurfer.tk%3A6969%2Fannounce&tr=udp%3A%2F%2Ftracker.pirateparty.gr%3A6969%2Fannounce&tr=udp%3A%2F%2Ftracker.cyberia.is%3A6969%2Fannounce",
    "seeder": "1",
    "leecher": "0"
}{
    "rank": "36",
    "title": "Wolfenstein.3D.v1.0.iPhone.iPod.Touch.REPACK-TCFPDA",
    "link": "magnet:?xt=urn:btih:C3973016C0E41641CEF73616CDF901BFF5816D5B&dn=Wolfenstein.3D.v1.0.iPhone.iPod.Touch.REPACK-TCFPDA&tr=udp%3A%2F%2Ftracker.coppersurfer.tk%3A6969%2Fannounce&tr=udp%3A%2F%2F9.rarbg.to%3A2920%2Fannounce&tr=udp%3A%2F%2Ftracker.opentrackr.org%3A1337&tr=udp%3A%2F%2Ftracker.internetwarriors.net%3A1337%2Fannounce&tr=udp%3A%2F%2Ftracker.leechers-paradise.org%3A6969%2Fannounce&tr=udp%3A%2F%2Ftracker.coppersurfer.tk%3A6969%2Fannounce&tr=udp%3A%2F%2Ftracker.pirateparty.gr%3A6969%2Fannounce&tr=udp%3A%2F%2Ftracker.cyberia.is%3A6969%2Fannounce",
    "seeder": "1",
    "leecher": "0"
}{
    "rank": "37",
    "title": "Garmin City Navigator Middle East and Northern Africa",
    "link": "magnet:?xt=urn:btih:C378EFBFE12BAEB9175CD0E812410DABF3DF6016&dn=Garmin+City+Navigator+Middle+East+and+Northern+Africa&tr=udp%3A%2F%2Ftracker.coppersurfer.tk%3A6969%2Fannounce&tr=udp%3A%2F%2F9.rarbg.to%3A2920%2Fannounce&tr=udp%3A%2F%2Ftracker.opentrackr.org%3A1337&tr=udp%3A%2F%2Ftracker.internetwarriors.net%3A1337%2Fannounce&tr=udp%3A%2F%2Ftracker.leechers-paradise.org%3A6969%2Fannounce&tr=udp%3A%2F%2Ftracker.coppersurfer.tk%3A6969%2Fannounce&tr=udp%3A%2F%2Ftracker.pirateparty.gr%3A6969%2Fannounce&tr=udp%3A%2F%2Ftracker.cyberia.is%3A6969%2Fannounce",
    "seeder": "1",
    "leecher": "0"
}{
    "rank": "38",
    "title": "MyGirl - Video Girl 1.0 iPhone iPad and iPod touch",
    "link": "magnet:?xt=urn:btih:EAF895450543D7B7A00CCB735F35861BA780C393&dn=MyGirl+-+Video+Girl+1.0+iPhone+iPad+and+iPod+touch&tr=udp%3A%2F%2Ftracker.coppersurfer.tk%3A6969%2Fannounce&tr=udp%3A%2F%2F9.rarbg.to%3A2920%2Fannounce&tr=udp%3A%2F%2Ftracker.opentrackr.org%3A1337&tr=udp%3A%2F%2Ftracker.internetwarriors.net%3A1337%2Fannounce&tr=udp%3A%2F%2Ftracker.leechers-paradise.org%3A6969%2Fannounce&tr=udp%3A%2F%2Ftracker.coppersurfer.tk%3A6969%2Fannounce&tr=udp%3A%2F%2Ftracker.pirateparty.gr%3A6969%2Fannounce&tr=udp%3A%2F%2Ftracker.cyberia.is%3A6969%2Fannounce",
    "seeder": "1",
    "leecher": "0"
}{
    "rank": "39",
    "title": "Autosputnik v3.2.3 Build 20927 WM5/6",
    "link": "magnet:?xt=urn:btih:BD045787F5BF707EAEA269B77E3BCB3F90651D9B&dn=Autosputnik+v3.2.3+Build+20927+WM5%2F6&tr=udp%3A%2F%2Ftracker.coppersurfer.tk%3A6969%2Fannounce&tr=udp%3A%2F%2F9.rarbg.to%3A2920%2Fannounce&tr=udp%3A%2F%2Ftracker.opentrackr.org%3A1337&tr=udp%3A%2F%2Ftracker.internetwarriors.net%3A1337%2Fannounce&tr=udp%3A%2F%2Ftracker.leechers-paradise.org%3A6969%2Fannounce&tr=udp%3A%2F%2Ftracker.coppersurfer.tk%3A6969%2Fannounce&tr=udp%3A%2F%2Ftracker.pirateparty.gr%3A6969%2Fannounce&tr=udp%3A%2F%2Ftracker.cyberia.is%3A6969%2Fannounce",
    "seeder": "1",
    "leecher": "0"
}{
    "rank": "40",
    "title": "CamHelium 1.0 - p0wersurge",
    "link": "magnet:?xt=urn:btih:F7437B5201BFCCD3411C91B7BF71DCE61AEB7D9F&dn=CamHelium+1.0+-+p0wersurge&tr=udp%3A%2F%2Ftracker.coppersurfer.tk%3A6969%2Fannounce&tr=udp%3A%2F%2F9.rarbg.to%3A2920%2Fannounce&tr=udp%3A%2F%2Ftracker.opentrackr.org%3A1337&tr=udp%3A%2F%2Ftracker.internetwarriors.net%3A1337%2Fannounce&tr=udp%3A%2F%2Ftracker.leechers-paradise.org%3A6969%2Fannounce&tr=udp%3A%2F%2Ftracker.coppersurfer.tk%3A6969%2Fannounce&tr=udp%3A%2F%2Ftracker.pirateparty.gr%3A6969%2Fannounce&tr=udp%3A%2F%2Ftracker.cyberia.is%3A6969%2Fannounce",
    "seeder": "1",
    "leecher": "0"
}{
    "rank": "41",
    "title": "Autosputnik v3.2.6 Build 26824 for Pocket Navigator PN-7000",
    "link": "magnet:?xt=urn:btih:01784381B10C30F67E017BFAE3B841380FC1BC71&dn=Autosputnik+v3.2.6+Build+26824+for+Pocket+Navigator+PN-7000&tr=udp%3A%2F%2Ftracker.coppersurfer.tk%3A6969%2Fannounce&tr=udp%3A%2F%2F9.rarbg.to%3A2920%2Fannounce&tr=udp%3A%2F%2Ftracker.opentrackr.org%3A1337&tr=udp%3A%2F%2Ftracker.internetwarriors.net%3A1337%2Fannounce&tr=udp%3A%2F%2Ftracker.leechers-paradise.org%3A6969%2Fannounce&tr=udp%3A%2F%2Ftracker.coppersurfer.tk%3A6969%2Fannounce&tr=udp%3A%2F%2Ftracker.pirateparty.gr%3A6969%2Fannounce&tr=udp%3A%2F%2Ftracker.cyberia.is%3A6969%2Fannounce",
    "seeder": "1",
    "leecher": "0"
}{
    "rank": "42",
    "title": "Autosputnik v3.2.2 Build 20927 WM2003",
    "link": "magnet:?xt=urn:btih:560462C05CEB663CF7BF4ADE74D9E7927ED394FD&dn=Autosputnik+v3.2.2+Build+20927+WM2003&tr=udp%3A%2F%2Ftracker.coppersurfer.tk%3A6969%2Fannounce&tr=udp%3A%2F%2F9.rarbg.to%3A2920%2Fannounce&tr=udp%3A%2F%2Ftracker.opentrackr.org%3A1337&tr=udp%3A%2F%2Ftracker.internetwarriors.net%3A1337%2Fannounce&tr=udp%3A%2F%2Ftracker.leechers-paradise.org%3A6969%2Fannounce&tr=udp%3A%2F%2Ftracker.coppersurfer.tk%3A6969%2Fannounce&tr=udp%3A%2F%2Ftracker.pirateparty.gr%3A6969%2Fannounce&tr=udp%3A%2F%2Ftracker.cyberia.is%3A6969%2Fannounce",
    "seeder": "1",
    "leecher": "0"
}{
    "rank": "43",
    "title": "SPB Mobile Shell v3.5.Build.9593 - (Malestrom)",
    "link": "magnet:?xt=urn:btih:813B5F077FC1890BA583AB9E88F6B6CFF342E5F3&dn=SPB+Mobile+Shell+v3.5.Build.9593+-+%28Malestrom%29&tr=udp%3A%2F%2Ftracker.coppersurfer.tk%3A6969%2Fannounce&tr=udp%3A%2F%2F9.rarbg.to%3A2920%2Fannounce&tr=udp%3A%2F%2Ftracker.opentrackr.org%3A1337&tr=udp%3A%2F%2Ftracker.internetwarriors.net%3A1337%2Fannounce&tr=udp%3A%2F%2Ftracker.leechers-paradise.org%3A6969%2Fannounce&tr=udp%3A%2F%2Ftracker.coppersurfer.tk%3A6969%2Fannounce&tr=udp%3A%2F%2Ftracker.pirateparty.gr%3A6969%2Fannounce&tr=udp%3A%2F%2Ftracker.cyberia.is%3A6969%2Fannounce",
    "seeder": "1",
    "leecher": "0"
}{
    "rank": "44",
    "title": "Audi Navigation Europe MMI 2G DVD 2010 MULTiLANGUAGE-HETERO",
    "link": "magnet:?xt=urn:btih:4C90E3E129E450DA824C39F495E1B3B8292F8B74&dn=Audi+Navigation+Europe+MMI+2G+DVD+2010+MULTiLANGUAGE-HETERO&tr=udp%3A%2F%2Ftracker.coppersurfer.tk%3A6969%2Fannounce&tr=udp%3A%2F%2F9.rarbg.to%3A2920%2Fannounce&tr=udp%3A%2F%2Ftracker.opentrackr.org%3A1337&tr=udp%3A%2F%2Ftracker.internetwarriors.net%3A1337%2Fannounce&tr=udp%3A%2F%2Ftracker.leechers-paradise.org%3A6969%2Fannounce&tr=udp%3A%2F%2Ftracker.coppersurfer.tk%3A6969%2Fannounce&tr=udp%3A%2F%2Ftracker.pirateparty.gr%3A6969%2Fannounce&tr=udp%3A%2F%2Ftracker.cyberia.is%3A6969%2Fannounce",
    "seeder": "1",
    "leecher": "0"
}{
    "rank": "45",
    "title": "Autosputnik v3.2.6 Build 23090 WM2003 Yandex",
    "link": "magnet:?xt=urn:btih:CAFBA25BDD2FE00A6BC21AA8AB0C51FE0B8263E9&dn=Autosputnik+v3.2.6+Build+23090+WM2003+Yandex&tr=udp%3A%2F%2Ftracker.coppersurfer.tk%3A6969%2Fannounce&tr=udp%3A%2F%2F9.rarbg.to%3A2920%2Fannounce&tr=udp%3A%2F%2Ftracker.opentrackr.org%3A1337&tr=udp%3A%2F%2Ftracker.internetwarriors.net%3A1337%2Fannounce&tr=udp%3A%2F%2Ftracker.leechers-paradise.org%3A6969%2Fannounce&tr=udp%3A%2F%2Ftracker.coppersurfer.tk%3A6969%2Fannounce&tr=udp%3A%2F%2Ftracker.pirateparty.gr%3A6969%2Fannounce&tr=udp%3A%2F%2Ftracker.cyberia.is%3A6969%2Fannounce",
    "seeder": "1",
    "leecher": "1"
}{
    "rank": "46",
    "title": "Into the Wild (Ipod).mp4",
    "link": "magnet:?xt=urn:btih:0042F8D1D1DCA332005CBA4407450E822645B0BE&dn=Into+the+Wild+%28Ipod%29.mp4&tr=udp%3A%2F%2Ftracker.coppersurfer.tk%3A6969%2Fannounce&tr=udp%3A%2F%2F9.rarbg.to%3A2920%2Fannounce&tr=udp%3A%2F%2Ftracker.opentrackr.org%3A1337&tr=udp%3A%2F%2Ftracker.internetwarriors.net%3A1337%2Fannounce&tr=udp%3A%2F%2Ftracker.leechers-paradise.org%3A6969%2Fannounce&tr=udp%3A%2F%2Ftracker.coppersurfer.tk%3A6969%2Fannounce&tr=udp%3A%2F%2Ftracker.pirateparty.gr%3A6969%2Fannounce&tr=udp%3A%2F%2Ftracker.cyberia.is%3A6969%2Fannounce",
    "seeder": "1",
    "leecher": "0"
}{
    "rank": "47",
    "title": "Nokia_PC_Suite",
    "link": "magnet:?xt=urn:btih:9687B7079234FC74999484F5D534966AC303184F&dn=Nokia_PC_Suite&tr=udp%3A%2F%2Ftracker.coppersurfer.tk%3A6969%2Fannounce&tr=udp%3A%2F%2F9.rarbg.to%3A2920%2Fannounce&tr=udp%3A%2F%2Ftracker.opentrackr.org%3A1337&tr=udp%3A%2F%2Ftracker.internetwarriors.net%3A1337%2Fannounce&tr=udp%3A%2F%2Ftracker.leechers-paradise.org%3A6969%2Fannounce&tr=udp%3A%2F%2Ftracker.coppersurfer.tk%3A6969%2Fannounce&tr=udp%3A%2F%2Ftracker.pirateparty.gr%3A6969%2Fannounce&tr=udp%3A%2F%2Ftracker.cyberia.is%3A6969%2Fannounce",
    "seeder": "1",
    "leecher": "0"
}{
    "rank": "48",
    "title": "GW.Fire.v1.0.3.for.iPhone.and.iPod.Touch-NOKiApDA",
    "link": "magnet:?xt=urn:btih:F83526E76933CDA1BA6CD3EF4B202912909590DC&dn=GW.Fire.v1.0.3.for.iPhone.and.iPod.Touch-NOKiApDA&tr=udp%3A%2F%2Ftracker.coppersurfer.tk%3A6969%2Fannounce&tr=udp%3A%2F%2F9.rarbg.to%3A2920%2Fannounce&tr=udp%3A%2F%2Ftracker.opentrackr.org%3A1337&tr=udp%3A%2F%2Ftracker.internetwarriors.net%3A1337%2Fannounce&tr=udp%3A%2F%2Ftracker.leechers-paradise.org%3A6969%2Fannounce&tr=udp%3A%2F%2Ftracker.coppersurfer.tk%3A6969%2Fannounce&tr=udp%3A%2F%2Ftracker.pirateparty.gr%3A6969%2Fannounce&tr=udp%3A%2F%2Ftracker.cyberia.is%3A6969%2Fannounce",
    "seeder": "1",
    "leecher": "0"
}{
    "rank": "49",
    "title": "Software Sony Ericsson  K800i",
    "link": "magnet:?xt=urn:btih:C61F097FE9723C326ADBEF4CCA3FF608451EE128&dn=Software+Sony+Ericsson++K800i&tr=udp%3A%2F%2Ftracker.coppersurfer.tk%3A6969%2Fannounce&tr=udp%3A%2F%2F9.rarbg.to%3A2920%2Fannounce&tr=udp%3A%2F%2Ftracker.opentrackr.org%3A1337&tr=udp%3A%2F%2Ftracker.internetwarriors.net%3A1337%2Fannounce&tr=udp%3A%2F%2Ftracker.leechers-paradise.org%3A6969%2Fannounce&tr=udp%3A%2F%2Ftracker.coppersurfer.tk%3A6969%2Fannounce&tr=udp%3A%2F%2Ftracker.pirateparty.gr%3A6969%2Fannounce&tr=udp%3A%2F%2Ftracker.cyberia.is%3A6969%2Fannounce",
    "seeder": "1",
    "leecher": "0"
}{
    "rank": "50",
    "title": "GW.Egg.v1.0.1.for.iPhone.and.iPod.Touch-NOKiApDA",
    "link": "magnet:?xt=urn:btih:6CE14F59130E859D496AF02CD8A0A6C3405BFAAA&dn=GW.Egg.v1.0.1.for.iPhone.and.iPod.Touch-NOKiApDA&tr=udp%3A%2F%2Ftracker.coppersurfer.tk%3A6969%2Fannounce&tr=udp%3A%2F%2F9.rarbg.to%3A2920%2Fannounce&tr=udp%3A%2F%2Ftracker.opentrackr.org%3A1337&tr=udp%3A%2F%2Ftracker.internetwarriors.net%3A1337%2Fannounce&tr=udp%3A%2F%2Ftracker.leechers-paradise.org%3A6969%2Fannounce&tr=udp%3A%2F%2Ftracker.coppersurfer.tk%3A6969%2Fannounce&tr=udp%3A%2F%2Ftracker.pirateparty.gr%3A6969%2Fannounce&tr=udp%3A%2F%2Ftracker.cyberia.is%3A6969%2Fannounce",
    "seeder": "1",
    "leecher": "0"
}{
    "rank": "51",
    "title": "GW.Chef.v1.0.5.for.iPhone.and.iPod.Touch-NOKiApDA",
    "link": "magnet:?xt=urn:btih:9070129EF9B0F26D567826380DCC2D20BDD72BC5&dn=GW.Chef.v1.0.5.for.iPhone.and.iPod.Touch-NOKiApDA&tr=udp%3A%2F%2Ftracker.coppersurfer.tk%3A6969%2Fannounce&tr=udp%3A%2F%2F9.rarbg.to%3A2920%2Fannounce&tr=udp%3A%2F%2Ftracker.opentrackr.org%3A1337&tr=udp%3A%2F%2Ftracker.internetwarriors.net%3A1337%2Fannounce&tr=udp%3A%2F%2Ftracker.leechers-paradise.org%3A6969%2Fannounce&tr=udp%3A%2F%2Ftracker.coppersurfer.tk%3A6969%2Fannounce&tr=udp%3A%2F%2Ftracker.pirateparty.gr%3A6969%2Fannounce&tr=udp%3A%2F%2Ftracker.cyberia.is%3A6969%2Fannounce",
    "seeder": "1",
    "leecher": "0"
}{
    "rank": "52",
    "title": "Sony Ericsson K608i Original PC Suite",
    "link": "magnet:?xt=urn:btih:CD9F13F310978F3607810BEC816CEC9F623A0513&dn=Sony+Ericsson+K608i+Original+PC+Suite&tr=udp%3A%2F%2Ftracker.coppersurfer.tk%3A6969%2Fannounce&tr=udp%3A%2F%2F9.rarbg.to%3A2920%2Fannounce&tr=udp%3A%2F%2Ftracker.opentrackr.org%3A1337&tr=udp%3A%2F%2Ftracker.internetwarriors.net%3A1337%2Fannounce&tr=udp%3A%2F%2Ftracker.leechers-paradise.org%3A6969%2Fannounce&tr=udp%3A%2F%2Ftracker.coppersurfer.tk%3A6969%2Fannounce&tr=udp%3A%2F%2Ftracker.pirateparty.gr%3A6969%2Fannounce&tr=udp%3A%2F%2Ftracker.cyberia.is%3A6969%2Fannounce",
    "seeder": "1",
    "leecher": "0"
}{
    "rank": "53",
    "title": "Symantec Endpoint Protection Corporate For The Pocket PC",
    "link": "magnet:?xt=urn:btih:28F6A1968213EF50196F4121AC5350071D8A4E13&dn=Symantec+Endpoint+Protection+Corporate+For+The+Pocket+PC&tr=udp%3A%2F%2Ftracker.coppersurfer.tk%3A6969%2Fannounce&tr=udp%3A%2F%2F9.rarbg.to%3A2920%2Fannounce&tr=udp%3A%2F%2Ftracker.opentrackr.org%3A1337&tr=udp%3A%2F%2Ftracker.internetwarriors.net%3A1337%2Fannounce&tr=udp%3A%2F%2Ftracker.leechers-paradise.org%3A6969%2Fannounce&tr=udp%3A%2F%2Ftracker.coppersurfer.tk%3A6969%2Fannounce&tr=udp%3A%2F%2Ftracker.pirateparty.gr%3A6969%2Fannounce&tr=udp%3A%2F%2Ftracker.cyberia.is%3A6969%2Fannounce",
    "seeder": "1",
    "leecher": "0"
}{
    "rank": "54",
    "title": "Implode.v1.1.0.iPhone.iPod.Touch.Cracked-COREPDA",
    "link": "magnet:?xt=urn:btih:D27F1469244E5D74BB2F08678FB6DAB4E7F9D325&dn=Implode.v1.1.0.iPhone.iPod.Touch.Cracked-COREPDA&tr=udp%3A%2F%2Ftracker.coppersurfer.tk%3A6969%2Fannounce&tr=udp%3A%2F%2F9.rarbg.to%3A2920%2Fannounce&tr=udp%3A%2F%2Ftracker.opentrackr.org%3A1337&tr=udp%3A%2F%2Ftracker.internetwarriors.net%3A1337%2Fannounce&tr=udp%3A%2F%2Ftracker.leechers-paradise.org%3A6969%2Fannounce&tr=udp%3A%2F%2Ftracker.coppersurfer.tk%3A6969%2Fannounce&tr=udp%3A%2F%2Ftracker.pirateparty.gr%3A6969%2Fannounce&tr=udp%3A%2F%2Ftracker.cyberia.is%3A6969%2Fannounce",
    "seeder": "1",
    "leecher": "0"
}{
    "rank": "55",
    "title": "Wave Blazer For Android",
    "link": "magnet:?xt=urn:btih:DBCAF21AC71F2A80EBD2BEB6EA243DDED4CF4484&dn=Wave+Blazer+For+Android&tr=udp%3A%2F%2Ftracker.coppersurfer.tk%3A6969%2Fannounce&tr=udp%3A%2F%2F9.rarbg.to%3A2920%2Fannounce&tr=udp%3A%2F%2Ftracker.opentrackr.org%3A1337&tr=udp%3A%2F%2Ftracker.internetwarriors.net%3A1337%2Fannounce&tr=udp%3A%2F%2Ftracker.leechers-paradise.org%3A6969%2Fannounce&tr=udp%3A%2F%2Ftracker.coppersurfer.tk%3A6969%2Fannounce&tr=udp%3A%2F%2Ftracker.pirateparty.gr%3A6969%2Fannounce&tr=udp%3A%2F%2Ftracker.cyberia.is%3A6969%2Fannounce",
    "seeder": "1",
    "leecher": "0"
}{
    "rank": "56",
    "title": "Corvette USA XBOX-CSiSO",
    "link": "magnet:?xt=urn:btih:D239B1D14E5836465799D769DD033FA7050B8A29&dn=Corvette+USA+XBOX-CSiSO&tr=udp%3A%2F%2Ftracker.coppersurfer.tk%3A6969%2Fannounce&tr=udp%3A%2F%2F9.rarbg.to%3A2920%2Fannounce&tr=udp%3A%2F%2Ftracker.opentrackr.org%3A1337&tr=udp%3A%2F%2Ftracker.internetwarriors.net%3A1337%2Fannounce&tr=udp%3A%2F%2Ftracker.leechers-paradise.org%3A6969%2Fannounce&tr=udp%3A%2F%2Ftracker.coppersurfer.tk%3A6969%2Fannounce&tr=udp%3A%2F%2Ftracker.pirateparty.gr%3A6969%2Fannounce&tr=udp%3A%2F%2Ftracker.cyberia.is%3A6969%2Fannounce",
    "seeder": "1",
    "leecher": "0"
}{
    "rank": "57",
    "title": "Incognito.v1.00.for.iPhone.and.iPod.Touch-FEGPDA",
    "link": "magnet:?xt=urn:btih:B1FD41468026DF4755C2409F462D6BFBE979F4DF&dn=Incognito.v1.00.for.iPhone.and.iPod.Touch-FEGPDA&tr=udp%3A%2F%2Ftracker.coppersurfer.tk%3A6969%2Fannounce&tr=udp%3A%2F%2F9.rarbg.to%3A2920%2Fannounce&tr=udp%3A%2F%2Ftracker.opentrackr.org%3A1337&tr=udp%3A%2F%2Ftracker.internetwarriors.net%3A1337%2Fannounce&tr=udp%3A%2F%2Ftracker.leechers-paradise.org%3A6969%2Fannounce&tr=udp%3A%2F%2Ftracker.coppersurfer.tk%3A6969%2Fannounce&tr=udp%3A%2F%2Ftracker.pirateparty.gr%3A6969%2Fannounce&tr=udp%3A%2F%2Ftracker.cyberia.is%3A6969%2Fannounce",
    "seeder": "1",
    "leecher": "0"
}{
    "rank": "58",
    "title": "Hand Heater Pro 2.5 - team p0wersurge",
    "link": "magnet:?xt=urn:btih:9588C2F3303ECF04FDAAB3651634C0E48F33BC88&dn=Hand+Heater+Pro+2.5+-+team+p0wersurge&tr=udp%3A%2F%2Ftracker.coppersurfer.tk%3A6969%2Fannounce&tr=udp%3A%2F%2F9.rarbg.to%3A2920%2Fannounce&tr=udp%3A%2F%2Ftracker.opentrackr.org%3A1337&tr=udp%3A%2F%2Ftracker.internetwarriors.net%3A1337%2Fannounce&tr=udp%3A%2F%2Ftracker.leechers-paradise.org%3A6969%2Fannounce&tr=udp%3A%2F%2Ftracker.coppersurfer.tk%3A6969%2Fannounce&tr=udp%3A%2F%2Ftracker.pirateparty.gr%3A6969%2Fannounce&tr=udp%3A%2F%2Ftracker.cyberia.is%3A6969%2Fannounce",
    "seeder": "1",
    "leecher": "0"
}{
    "rank": "59",
    "title": "Modern Unlocks 2 1.4.2 - team p0wersurge",
    "link": "magnet:?xt=urn:btih:B9C7D34B72E7AAEC83D2AC04F3CEFE670CB121AB&dn=Modern+Unlocks+2+1.4.2+-+team+p0wersurge&tr=udp%3A%2F%2Ftracker.coppersurfer.tk%3A6969%2Fannounce&tr=udp%3A%2F%2F9.rarbg.to%3A2920%2Fannounce&tr=udp%3A%2F%2Ftracker.opentrackr.org%3A1337&tr=udp%3A%2F%2Ftracker.internetwarriors.net%3A1337%2Fannounce&tr=udp%3A%2F%2Ftracker.leechers-paradise.org%3A6969%2Fannounce&tr=udp%3A%2F%2Ftracker.coppersurfer.tk%3A6969%2Fannounce&tr=udp%3A%2F%2Ftracker.pirateparty.gr%3A6969%2Fannounce&tr=udp%3A%2F%2Ftracker.cyberia.is%3A6969%2Fannounce",
    "seeder": "1",
    "leecher": "0"
}{
    "rank": "60",
    "title": "TrackMe - For WM 5 & 6 Pocket PC's & Smartphones",
    "link": "magnet:?xt=urn:btih:5C4677E3C470393DD0907AED067C8BD4547B7F7B&dn=TrackMe+-+For+WM+5+%26+6+Pocket+PC%27s+%26+Smartphones&tr=udp%3A%2F%2Ftracker.coppersurfer.tk%3A6969%2Fannounce&tr=udp%3A%2F%2F9.rarbg.to%3A2920%2Fannounce&tr=udp%3A%2F%2Ftracker.opentrackr.org%3A1337&tr=udp%3A%2F%2Ftracker.internetwarriors.net%3A1337%2Fannounce&tr=udp%3A%2F%2Ftracker.leechers-paradise.org%3A6969%2Fannounce&tr=udp%3A%2F%2Ftracker.coppersurfer.tk%3A6969%2Fannounce&tr=udp%3A%2F%2Ftracker.pirateparty.gr%3A6969%2Fannounce&tr=udp%3A%2F%2Ftracker.cyberia.is%3A6969%2Fannounce",
    "seeder": "1",
    "leecher": "0"
}{
    "rank": "61",
    "title": "Shazam Encore 3.0.7 - p0wersurge",
    "link": "magnet:?xt=urn:btih:05A09EA362A61FADF7920227DD38EDD88F344734&dn=Shazam+Encore+3.0.7+-+p0wersurge&tr=udp%3A%2F%2Ftracker.coppersurfer.tk%3A6969%2Fannounce&tr=udp%3A%2F%2F9.rarbg.to%3A2920%2Fannounce&tr=udp%3A%2F%2Ftracker.opentrackr.org%3A1337&tr=udp%3A%2F%2Ftracker.internetwarriors.net%3A1337%2Fannounce&tr=udp%3A%2F%2Ftracker.leechers-paradise.org%3A6969%2Fannounce&tr=udp%3A%2F%2Ftracker.coppersurfer.tk%3A6969%2Fannounce&tr=udp%3A%2F%2Ftracker.pirateparty.gr%3A6969%2Fannounce&tr=udp%3A%2F%2Ftracker.cyberia.is%3A6969%2Fannounce",
    "seeder": "1",
    "leecher": "0"
}{
    "rank": "62",
    "title": "Vito EyePhoto Version 1.01 For The Pocket PC",
    "link": "magnet:?xt=urn:btih:AD69FAB5A0112DC1C7A2C3C8A292DF16FBA06E44&dn=Vito+EyePhoto+Version+1.01+For+The+Pocket+PC&tr=udp%3A%2F%2Ftracker.coppersurfer.tk%3A6969%2Fannounce&tr=udp%3A%2F%2F9.rarbg.to%3A2920%2Fannounce&tr=udp%3A%2F%2Ftracker.opentrackr.org%3A1337&tr=udp%3A%2F%2Ftracker.internetwarriors.net%3A1337%2Fannounce&tr=udp%3A%2F%2Ftracker.leechers-paradise.org%3A6969%2Fannounce&tr=udp%3A%2F%2Ftracker.coppersurfer.tk%3A6969%2Fannounce&tr=udp%3A%2F%2Ftracker.pirateparty.gr%3A6969%2Fannounce&tr=udp%3A%2F%2Ftracker.cyberia.is%3A6969%2Fannounce",
    "seeder": "1",
    "leecher": "0"
}{
    "rank": "63",
    "title": "Autosputnik v3.2.6 Build 24346 WM2003 Yandex",
    "link": "magnet:?xt=urn:btih:76C18EF27811D20D73A283F419687348DEFBBEBF&dn=Autosputnik+v3.2.6+Build+24346+WM2003+Yandex&tr=udp%3A%2F%2Ftracker.coppersurfer.tk%3A6969%2Fannounce&tr=udp%3A%2F%2F9.rarbg.to%3A2920%2Fannounce&tr=udp%3A%2F%2Ftracker.opentrackr.org%3A1337&tr=udp%3A%2F%2Ftracker.internetwarriors.net%3A1337%2Fannounce&tr=udp%3A%2F%2Ftracker.leechers-paradise.org%3A6969%2Fannounce&tr=udp%3A%2F%2Ftracker.coppersurfer.tk%3A6969%2Fannounce&tr=udp%3A%2F%2Ftracker.pirateparty.gr%3A6969%2Fannounce&tr=udp%3A%2F%2Ftracker.cyberia.is%3A6969%2Fannounce",
    "seeder": "1",
    "leecher": "0"
}{
    "rank": "64",
    "title": "Ateksoft WebCamera Plus.Version 2.0 For Windows Mobile",
    "link": "magnet:?xt=urn:btih:B78C3142942A5850DDCF45D1B318A64B2A1A5BA9&dn=Ateksoft+WebCamera+Plus.Version+2.0+For+Windows+Mobile&tr=udp%3A%2F%2Ftracker.coppersurfer.tk%3A6969%2Fannounce&tr=udp%3A%2F%2F9.rarbg.to%3A2920%2Fannounce&tr=udp%3A%2F%2Ftracker.opentrackr.org%3A1337&tr=udp%3A%2F%2Ftracker.internetwarriors.net%3A1337%2Fannounce&tr=udp%3A%2F%2Ftracker.leechers-paradise.org%3A6969%2Fannounce&tr=udp%3A%2F%2Ftracker.coppersurfer.tk%3A6969%2Fannounce&tr=udp%3A%2F%2Ftracker.pirateparty.gr%3A6969%2Fannounce&tr=udp%3A%2F%2Ftracker.cyberia.is%3A6969%2Fannounce",
    "seeder": "1",
    "leecher": "0"
}{
    "rank": "65",
    "title": "Sprite Backup Version 6.5.4 Build 8 For Windows Moble",
    "link": "magnet:?xt=urn:btih:B7682B4103AAA3F84B0617119B4F186D3497C116&dn=Sprite+Backup+Version+6.5.4+Build+8+For+Windows+Moble&tr=udp%3A%2F%2Ftracker.coppersurfer.tk%3A6969%2Fannounce&tr=udp%3A%2F%2F9.rarbg.to%3A2920%2Fannounce&tr=udp%3A%2F%2Ftracker.opentrackr.org%3A1337&tr=udp%3A%2F%2Ftracker.internetwarriors.net%3A1337%2Fannounce&tr=udp%3A%2F%2Ftracker.leechers-paradise.org%3A6969%2Fannounce&tr=udp%3A%2F%2Ftracker.coppersurfer.tk%3A6969%2Fannounce&tr=udp%3A%2F%2Ftracker.pirateparty.gr%3A6969%2Fannounce&tr=udp%3A%2F%2Ftracker.cyberia.is%3A6969%2Fannounce",
    "seeder": "1",
    "leecher": "0"
}{
    "rank": "66",
    "title": "Autosputnik v3.2.7 Build 24346 WM5/6 Yandex",
    "link": "magnet:?xt=urn:btih:F261116B5077FB7AA574490CE81AAEE86E75BC9B&dn=Autosputnik+v3.2.7+Build+24346+WM5%2F6+Yandex&tr=udp%3A%2F%2Ftracker.coppersurfer.tk%3A6969%2Fannounce&tr=udp%3A%2F%2F9.rarbg.to%3A2920%2Fannounce&tr=udp%3A%2F%2Ftracker.opentrackr.org%3A1337&tr=udp%3A%2F%2Ftracker.internetwarriors.net%3A1337%2Fannounce&tr=udp%3A%2F%2Ftracker.leechers-paradise.org%3A6969%2Fannounce&tr=udp%3A%2F%2Ftracker.coppersurfer.tk%3A6969%2Fannounce&tr=udp%3A%2F%2Ftracker.pirateparty.gr%3A6969%2Fannounce&tr=udp%3A%2F%2Ftracker.cyberia.is%3A6969%2Fannounce",
    "seeder": "1",
    "leecher": "0"
}{
    "rank": "67",
    "title": "AstroNavigator II SymPda",
    "link": "magnet:?xt=urn:btih:52F35A69F3C3C278333E793E9178567660E2FCAF&dn=AstroNavigator+II+SymPda&tr=udp%3A%2F%2Ftracker.coppersurfer.tk%3A6969%2Fannounce&tr=udp%3A%2F%2F9.rarbg.to%3A2920%2Fannounce&tr=udp%3A%2F%2Ftracker.opentrackr.org%3A1337&tr=udp%3A%2F%2Ftracker.internetwarriors.net%3A1337%2Fannounce&tr=udp%3A%2F%2Ftracker.leechers-paradise.org%3A6969%2Fannounce&tr=udp%3A%2F%2Ftracker.coppersurfer.tk%3A6969%2Fannounce&tr=udp%3A%2F%2Ftracker.pirateparty.gr%3A6969%2Fannounce&tr=udp%3A%2F%2Ftracker.cyberia.is%3A6969%2Fannounce",
    "seeder": "1",
    "leecher": "0"
}{
    "rank": "68",
    "title": "TomTom 7 Version 7.910.9185 For The Pocket PC",
    "link": "magnet:?xt=urn:btih:808E21F7C2E6E2E595F3F4C883626E2F68D9F062&dn=TomTom+7+Version+7.910.9185+For+The+Pocket+PC&tr=udp%3A%2F%2Ftracker.coppersurfer.tk%3A6969%2Fannounce&tr=udp%3A%2F%2F9.rarbg.to%3A2920%2Fannounce&tr=udp%3A%2F%2Ftracker.opentrackr.org%3A1337&tr=udp%3A%2F%2Ftracker.internetwarriors.net%3A1337%2Fannounce&tr=udp%3A%2F%2Ftracker.leechers-paradise.org%3A6969%2Fannounce&tr=udp%3A%2F%2Ftracker.coppersurfer.tk%3A6969%2Fannounce&tr=udp%3A%2F%2Ftracker.pirateparty.gr%3A6969%2Fannounce&tr=udp%3A%2F%2Ftracker.cyberia.is%3A6969%2Fannounce",
    "seeder": "1",
    "leecher": "0"
}{
    "rank": "69",
    "title": "TuneIn Radio 1.6.4 - team p0wersurge",
    "link": "magnet:?xt=urn:btih:F8ADAFD0D1511C03AD6AA5B613AA5280384458DD&dn=TuneIn+Radio+1.6.4+-+team+p0wersurge&tr=udp%3A%2F%2Ftracker.coppersurfer.tk%3A6969%2Fannounce&tr=udp%3A%2F%2F9.rarbg.to%3A2920%2Fannounce&tr=udp%3A%2F%2Ftracker.opentrackr.org%3A1337&tr=udp%3A%2F%2Ftracker.internetwarriors.net%3A1337%2Fannounce&tr=udp%3A%2F%2Ftracker.leechers-paradise.org%3A6969%2Fannounce&tr=udp%3A%2F%2Ftracker.coppersurfer.tk%3A6969%2Fannounce&tr=udp%3A%2F%2Ftracker.pirateparty.gr%3A6969%2Fannounce&tr=udp%3A%2F%2Ftracker.cyberia.is%3A6969%2Fannounce",
    "seeder": "1",
    "leecher": "0"
}{
    "rank": "70",
    "title": "Alien.Swarm.v1.3.iPhone.iPod.Touch-iPWNPDA",
    "link": "magnet:?xt=urn:btih:2EE760070A069A94361A87ADFBCE359791FDD4CE&dn=Alien.Swarm.v1.3.iPhone.iPod.Touch-iPWNPDA&tr=udp%3A%2F%2Ftracker.coppersurfer.tk%3A6969%2Fannounce&tr=udp%3A%2F%2F9.rarbg.to%3A2920%2Fannounce&tr=udp%3A%2F%2Ftracker.opentrackr.org%3A1337&tr=udp%3A%2F%2Ftracker.internetwarriors.net%3A1337%2Fannounce&tr=udp%3A%2F%2Ftracker.leechers-paradise.org%3A6969%2Fannounce&tr=udp%3A%2F%2Ftracker.coppersurfer.tk%3A6969%2Fannounce&tr=udp%3A%2F%2Ftracker.pirateparty.gr%3A6969%2Fannounce&tr=udp%3A%2F%2Ftracker.cyberia.is%3A6969%2Fannounce",
    "seeder": "1",
    "leecher": "0"
}{
    "rank": "71",
    "title": "Air.Cadets.v1.1.iPhone.iPod.Touch-iPWNPDA",
    "link": "magnet:?xt=urn:btih:76C3F9DEAD37F1FABC78B62FC929D554269F8EF3&dn=Air.Cadets.v1.1.iPhone.iPod.Touch-iPWNPDA&tr=udp%3A%2F%2Ftracker.coppersurfer.tk%3A6969%2Fannounce&tr=udp%3A%2F%2F9.rarbg.to%3A2920%2Fannounce&tr=udp%3A%2F%2Ftracker.opentrackr.org%3A1337&tr=udp%3A%2F%2Ftracker.internetwarriors.net%3A1337%2Fannounce&tr=udp%3A%2F%2Ftracker.leechers-paradise.org%3A6969%2Fannounce&tr=udp%3A%2F%2Ftracker.coppersurfer.tk%3A6969%2Fannounce&tr=udp%3A%2F%2Ftracker.pirateparty.gr%3A6969%2Fannounce&tr=udp%3A%2F%2Ftracker.cyberia.is%3A6969%2Fannounce",
    "seeder": "1",
    "leecher": "0"
}{
    "rank": "72",
    "title": "VITO Voice2Go For The Pocket PC",
    "link": "magnet:?xt=urn:btih:40969C610B2E288DEBA3D259E0945B351ACE1739&dn=VITO+Voice2Go+For+The+Pocket+PC&tr=udp%3A%2F%2Ftracker.coppersurfer.tk%3A6969%2Fannounce&tr=udp%3A%2F%2F9.rarbg.to%3A2920%2Fannounce&tr=udp%3A%2F%2Ftracker.opentrackr.org%3A1337&tr=udp%3A%2F%2Ftracker.internetwarriors.net%3A1337%2Fannounce&tr=udp%3A%2F%2Ftracker.leechers-paradise.org%3A6969%2Fannounce&tr=udp%3A%2F%2Ftracker.coppersurfer.tk%3A6969%2Fannounce&tr=udp%3A%2F%2Ftracker.pirateparty.gr%3A6969%2Fannounce&tr=udp%3A%2F%2Ftracker.cyberia.is%3A6969%2Fannounce",
    "seeder": "1",
    "leecher": "0"
}{
    "rank": "73",
    "title": "Bravian.Lands.v1.0.3.iPhone.iPod.Touch-iPWNPDA",
    "link": "magnet:?xt=urn:btih:BCE6881DF859D65F6489655EEE3BB034A5A1661F&dn=Bravian.Lands.v1.0.3.iPhone.iPod.Touch-iPWNPDA&tr=udp%3A%2F%2Ftracker.coppersurfer.tk%3A6969%2Fannounce&tr=udp%3A%2F%2F9.rarbg.to%3A2920%2Fannounce&tr=udp%3A%2F%2Ftracker.opentrackr.org%3A1337&tr=udp%3A%2F%2Ftracker.internetwarriors.net%3A1337%2Fannounce&tr=udp%3A%2F%2Ftracker.leechers-paradise.org%3A6969%2Fannounce&tr=udp%3A%2F%2Ftracker.coppersurfer.tk%3A6969%2Fannounce&tr=udp%3A%2F%2Ftracker.pirateparty.gr%3A6969%2Fannounce&tr=udp%3A%2F%2Ftracker.cyberia.is%3A6969%2Fannounce",
    "seeder": "1",
    "leecher": "0"
}{
    "rank": "74",
    "title": "BetterCut Version 2.5 For Android",
    "link": "magnet:?xt=urn:btih:D056338C335F46D3492D41B47EDCDA367E877E43&dn=BetterCut+Version+2.5+For+Android&tr=udp%3A%2F%2Ftracker.coppersurfer.tk%3A6969%2Fannounce&tr=udp%3A%2F%2F9.rarbg.to%3A2920%2Fannounce&tr=udp%3A%2F%2Ftracker.opentrackr.org%3A1337&tr=udp%3A%2F%2Ftracker.internetwarriors.net%3A1337%2Fannounce&tr=udp%3A%2F%2Ftracker.leechers-paradise.org%3A6969%2Fannounce&tr=udp%3A%2F%2Ftracker.coppersurfer.tk%3A6969%2Fannounce&tr=udp%3A%2F%2Ftracker.pirateparty.gr%3A6969%2Fannounce&tr=udp%3A%2F%2Ftracker.cyberia.is%3A6969%2Fannounce",
    "seeder": "1",
    "leecher": "0"
}{
    "rank": "75",
    "title": "Lux.DLX.v1.1.iPhone.iPod.Touch-iPWNPDA",
    "link": "magnet:?xt=urn:btih:22EB82F59E5B6B7B01253C6E968AE5D8FCC9588C&dn=Lux.DLX.v1.1.iPhone.iPod.Touch-iPWNPDA&tr=udp%3A%2F%2Ftracker.coppersurfer.tk%3A6969%2Fannounce&tr=udp%3A%2F%2F9.rarbg.to%3A2920%2Fannounce&tr=udp%3A%2F%2Ftracker.opentrackr.org%3A1337&tr=udp%3A%2F%2Ftracker.internetwarriors.net%3A1337%2Fannounce&tr=udp%3A%2F%2Ftracker.leechers-paradise.org%3A6969%2Fannounce&tr=udp%3A%2F%2Ftracker.coppersurfer.tk%3A6969%2Fannounce&tr=udp%3A%2F%2Ftracker.pirateparty.gr%3A6969%2Fannounce&tr=udp%3A%2F%2Ftracker.cyberia.is%3A6969%2Fannounce",
    "seeder": "1",
    "leecher": "0"
}{
    "rank": "76",
    "title": "Garmin - City Navigator North America NT 2015.30 Unlocked IMG",
    "link": "magnet:?xt=urn:btih:85931C5BAC244C5258CCD5A7B22F899A400C6633&dn=Garmin+-+City+Navigator+North+America+NT+2015.30+Unlocked+IMG&tr=udp%3A%2F%2Ftracker.coppersurfer.tk%3A6969%2Fannounce&tr=udp%3A%2F%2F9.rarbg.to%3A2920%2Fannounce&tr=udp%3A%2F%2Ftracker.opentrackr.org%3A1337&tr=udp%3A%2F%2Ftracker.internetwarriors.net%3A1337%2Fannounce&tr=udp%3A%2F%2Ftracker.leechers-paradise.org%3A6969%2Fannounce&tr=udp%3A%2F%2Ftracker.coppersurfer.tk%3A6969%2Fannounce&tr=udp%3A%2F%2Ftracker.pirateparty.gr%3A6969%2Fannounce&tr=udp%3A%2F%2Ftracker.cyberia.is%3A6969%2Fannounce",
    "seeder": "1",
    "leecher": "0"
}{
    "rank": "77",
    "title": "Taskiller Full Version 2.6.1 For Android",
    "link": "magnet:?xt=urn:btih:EDB69A10123FEA8034A6A87EC304D64657411686&dn=Taskiller+Full+Version+2.6.1+For+Android&tr=udp%3A%2F%2Ftracker.coppersurfer.tk%3A6969%2Fannounce&tr=udp%3A%2F%2F9.rarbg.to%3A2920%2Fannounce&tr=udp%3A%2F%2Ftracker.opentrackr.org%3A1337&tr=udp%3A%2F%2Ftracker.internetwarriors.net%3A1337%2Fannounce&tr=udp%3A%2F%2Ftracker.leechers-paradise.org%3A6969%2Fannounce&tr=udp%3A%2F%2Ftracker.coppersurfer.tk%3A6969%2Fannounce&tr=udp%3A%2F%2Ftracker.pirateparty.gr%3A6969%2Fannounce&tr=udp%3A%2F%2Ftracker.cyberia.is%3A6969%2Fannounce",
    "seeder": "1",
    "leecher": "0"
}{
    "rank": "78",
    "title": "Reign.Of.Swords.v1.2.iPhone.iPod.Touch-iPWNPDA",
    "link": "magnet:?xt=urn:btih:EDFAF0859308D16B927BC842F3FB7BF332D71F64&dn=Reign.Of.Swords.v1.2.iPhone.iPod.Touch-iPWNPDA&tr=udp%3A%2F%2Ftracker.coppersurfer.tk%3A6969%2Fannounce&tr=udp%3A%2F%2F9.rarbg.to%3A2920%2Fannounce&tr=udp%3A%2F%2Ftracker.opentrackr.org%3A1337&tr=udp%3A%2F%2Ftracker.internetwarriors.net%3A1337%2Fannounce&tr=udp%3A%2F%2Ftracker.leechers-paradise.org%3A6969%2Fannounce&tr=udp%3A%2F%2Ftracker.coppersurfer.tk%3A6969%2Fannounce&tr=udp%3A%2F%2Ftracker.pirateparty.gr%3A6969%2Fannounce&tr=udp%3A%2F%2Ftracker.cyberia.is%3A6969%2Fannounce",
    "seeder": "1",
    "leecher": "0"
}{
    "rank": "79",
    "title": "Vito Winterface Version 1.02 For The Pocket PC",
    "link": "magnet:?xt=urn:btih:5425C99A80B191E6DD91EC927E6CCE55F5A65431&dn=Vito+Winterface+Version+1.02+For+The+Pocket+PC&tr=udp%3A%2F%2Ftracker.coppersurfer.tk%3A6969%2Fannounce&tr=udp%3A%2F%2F9.rarbg.to%3A2920%2Fannounce&tr=udp%3A%2F%2Ftracker.opentrackr.org%3A1337&tr=udp%3A%2F%2Ftracker.internetwarriors.net%3A1337%2Fannounce&tr=udp%3A%2F%2Ftracker.leechers-paradise.org%3A6969%2Fannounce&tr=udp%3A%2F%2Ftracker.coppersurfer.tk%3A6969%2Fannounce&tr=udp%3A%2F%2Ftracker.pirateparty.gr%3A6969%2Fannounce&tr=udp%3A%2F%2Ftracker.cyberia.is%3A6969%2Fannounce",
    "seeder": "1",
    "leecher": "0"
}{
    "rank": "80",
    "title": "WisBar Advance Version 3.3 For The Pocket PC",
    "link": "magnet:?xt=urn:btih:7F73B39582F575754F693B14BC1688AE45045774&dn=WisBar+Advance+Version+3.3+For+The+Pocket+PC&tr=udp%3A%2F%2Ftracker.coppersurfer.tk%3A6969%2Fannounce&tr=udp%3A%2F%2F9.rarbg.to%3A2920%2Fannounce&tr=udp%3A%2F%2Ftracker.opentrackr.org%3A1337&tr=udp%3A%2F%2Ftracker.internetwarriors.net%3A1337%2Fannounce&tr=udp%3A%2F%2Ftracker.leechers-paradise.org%3A6969%2Fannounce&tr=udp%3A%2F%2Ftracker.coppersurfer.tk%3A6969%2Fannounce&tr=udp%3A%2F%2Ftracker.pirateparty.gr%3A6969%2Fannounce&tr=udp%3A%2F%2Ftracker.cyberia.is%3A6969%2Fannounce",
    "seeder": "1",
    "leecher": "0"
}{
    "rank": "81",
    "title": "Scan2PDF Mobile 2.0 Version 2.0.4 For Android",
    "link": "magnet:?xt=urn:btih:4CB43B05FE1E2A7FB6C4CBB251C06D99554A4E77&dn=Scan2PDF+Mobile+2.0+Version+2.0.4+For+Android&tr=udp%3A%2F%2Ftracker.coppersurfer.tk%3A6969%2Fannounce&tr=udp%3A%2F%2F9.rarbg.to%3A2920%2Fannounce&tr=udp%3A%2F%2Ftracker.opentrackr.org%3A1337&tr=udp%3A%2F%2Ftracker.internetwarriors.net%3A1337%2Fannounce&tr=udp%3A%2F%2Ftracker.leechers-paradise.org%3A6969%2Fannounce&tr=udp%3A%2F%2Ftracker.coppersurfer.tk%3A6969%2Fannounce&tr=udp%3A%2F%2Ftracker.pirateparty.gr%3A6969%2Fannounce&tr=udp%3A%2F%2Ftracker.cyberia.is%3A6969%2Fannounce",
    "seeder": "1",
    "leecher": "0"
}{
    "rank": "82",
    "title": "Sway.v1.1.0.iPhone.iPod.Touch-iPWNPDA",
    "link": "magnet:?xt=urn:btih:FF6A48C732558CC0BDB2F689EE610C5CF11BCD9F&dn=Sway.v1.1.0.iPhone.iPod.Touch-iPWNPDA&tr=udp%3A%2F%2Ftracker.coppersurfer.tk%3A6969%2Fannounce&tr=udp%3A%2F%2F9.rarbg.to%3A2920%2Fannounce&tr=udp%3A%2F%2Ftracker.opentrackr.org%3A1337&tr=udp%3A%2F%2Ftracker.internetwarriors.net%3A1337%2Fannounce&tr=udp%3A%2F%2Ftracker.leechers-paradise.org%3A6969%2Fannounce&tr=udp%3A%2F%2Ftracker.coppersurfer.tk%3A6969%2Fannounce&tr=udp%3A%2F%2Ftracker.pirateparty.gr%3A6969%2Fannounce&tr=udp%3A%2F%2Ftracker.cyberia.is%3A6969%2Fannounce",
    "seeder": "1",
    "leecher": "0"
}{
    "rank": "83",
    "title": "Spb Mobile Shell v3.0.0 Build 6362 - (Malestrom)",
    "link": "magnet:?xt=urn:btih:200BB8B3A1C5AC8CD07F88EC6FBE029C0DC09281&dn=Spb+Mobile+Shell+v3.0.0+Build+6362+-+%28Malestrom%29&tr=udp%3A%2F%2Ftracker.coppersurfer.tk%3A6969%2Fannounce&tr=udp%3A%2F%2F9.rarbg.to%3A2920%2Fannounce&tr=udp%3A%2F%2Ftracker.opentrackr.org%3A1337&tr=udp%3A%2F%2Ftracker.internetwarriors.net%3A1337%2Fannounce&tr=udp%3A%2F%2Ftracker.leechers-paradise.org%3A6969%2Fannounce&tr=udp%3A%2F%2Ftracker.coppersurfer.tk%3A6969%2Fannounce&tr=udp%3A%2F%2Ftracker.pirateparty.gr%3A6969%2Fannounce&tr=udp%3A%2F%2Ftracker.cyberia.is%3A6969%2Fannounce",
    "seeder": "1",
    "leecher": "0"
}{
    "rank": "84",
    "title": "N.O.V.A. (Near Orbit Vanguard Alliance) For Android",
    "link": "magnet:?xt=urn:btih:B7BC6E6829BD933C8B43AB580D2018E59CB80166&dn=N.O.V.A.+%28Near+Orbit+Vanguard+Alliance%29+For+Android&tr=udp%3A%2F%2Ftracker.coppersurfer.tk%3A6969%2Fannounce&tr=udp%3A%2F%2F9.rarbg.to%3A2920%2Fannounce&tr=udp%3A%2F%2Ftracker.opentrackr.org%3A1337&tr=udp%3A%2F%2Ftracker.internetwarriors.net%3A1337%2Fannounce&tr=udp%3A%2F%2Ftracker.leechers-paradise.org%3A6969%2Fannounce&tr=udp%3A%2F%2Ftracker.coppersurfer.tk%3A6969%2Fannounce&tr=udp%3A%2F%2Ftracker.pirateparty.gr%3A6969%2Fannounce&tr=udp%3A%2F%2Ftracker.cyberia.is%3A6969%2Fannounce",
    "seeder": "1",
    "leecher": "0"
}{
    "rank": "85",
    "title": "iGO TopMap 2012 Q3.rar",
    "link": "magnet:?xt=urn:btih:F1EB899E9CD262DD3CA338A772F9962B378BA453&dn=iGO+TopMap+2012+Q3.rar&tr=udp%3A%2F%2Ftracker.coppersurfer.tk%3A6969%2Fannounce&tr=udp%3A%2F%2F9.rarbg.to%3A2920%2Fannounce&tr=udp%3A%2F%2Ftracker.opentrackr.org%3A1337&tr=udp%3A%2F%2Ftracker.internetwarriors.net%3A1337%2Fannounce&tr=udp%3A%2F%2Ftracker.leechers-paradise.org%3A6969%2Fannounce&tr=udp%3A%2F%2Ftracker.coppersurfer.tk%3A6969%2Fannounce&tr=udp%3A%2F%2Ftracker.pirateparty.gr%3A6969%2Fannounce&tr=udp%3A%2F%2Ftracker.cyberia.is%3A6969%2Fannounce",
    "seeder": "1",
    "leecher": "0"
}{
    "rank": "86",
    "title": "Pirates.Sea.Battle.2.v2.0.0.iPhone.iPod.Touch-iPWNPDA",
    "link": "magnet:?xt=urn:btih:270166A73320F12373853D03789F5F2D150490EB&dn=Pirates.Sea.Battle.2.v2.0.0.iPhone.iPod.Touch-iPWNPDA&tr=udp%3A%2F%2Ftracker.coppersurfer.tk%3A6969%2Fannounce&tr=udp%3A%2F%2F9.rarbg.to%3A2920%2Fannounce&tr=udp%3A%2F%2Ftracker.opentrackr.org%3A1337&tr=udp%3A%2F%2Ftracker.internetwarriors.net%3A1337%2Fannounce&tr=udp%3A%2F%2Ftracker.leechers-paradise.org%3A6969%2Fannounce&tr=udp%3A%2F%2Ftracker.coppersurfer.tk%3A6969%2Fannounce&tr=udp%3A%2F%2Ftracker.pirateparty.gr%3A6969%2Fannounce&tr=udp%3A%2F%2Ftracker.cyberia.is%3A6969%2Fannounce",
    "seeder": "1",
    "leecher": "0"
}{
    "rank": "87",
    "title": "Garmin City Navigator BeNeLux France NT 2016.10",
    "link": "magnet:?xt=urn:btih:142F0E563AA64E1BF34CFE95A6608D47F651E2D5&dn=Garmin+City+Navigator+BeNeLux+France+NT+2016.10&tr=udp%3A%2F%2Ftracker.coppersurfer.tk%3A6969%2Fannounce&tr=udp%3A%2F%2F9.rarbg.to%3A2920%2Fannounce&tr=udp%3A%2F%2Ftracker.opentrackr.org%3A1337&tr=udp%3A%2F%2Ftracker.internetwarriors.net%3A1337%2Fannounce&tr=udp%3A%2F%2Ftracker.leechers-paradise.org%3A6969%2Fannounce&tr=udp%3A%2F%2Ftracker.coppersurfer.tk%3A6969%2Fannounce&tr=udp%3A%2F%2Ftracker.pirateparty.gr%3A6969%2Fannounce&tr=udp%3A%2F%2Ftracker.cyberia.is%3A6969%2Fannounce",
    "seeder": "1",
    "leecher": "0"
}{
    "rank": "88",
    "title": "Puzzle Bobble (PSP) lFoxhound",
    "link": "magnet:?xt=urn:btih:6027856E49EB558ABBDB5C0D62D211B91F47308C&dn=Puzzle+Bobble+%28PSP%29+lFoxhound&tr=udp%3A%2F%2Ftracker.coppersurfer.tk%3A6969%2Fannounce&tr=udp%3A%2F%2F9.rarbg.to%3A2920%2Fannounce&tr=udp%3A%2F%2Ftracker.opentrackr.org%3A1337&tr=udp%3A%2F%2Ftracker.internetwarriors.net%3A1337%2Fannounce&tr=udp%3A%2F%2Ftracker.leechers-paradise.org%3A6969%2Fannounce&tr=udp%3A%2F%2Ftracker.coppersurfer.tk%3A6969%2Fannounce&tr=udp%3A%2F%2Ftracker.pirateparty.gr%3A6969%2Fannounce&tr=udp%3A%2F%2Ftracker.cyberia.is%3A6969%2Fannounce",
    "seeder": "1",
    "leecher": "0"
}{
    "rank": "89",
    "title": "SoftMaker Office 2008 For The Pocket PC",
    "link": "magnet:?xt=urn:btih:4FA35F3B6C6904AFBF789B25D3051F1432D53729&dn=SoftMaker+Office+2008+For+The+Pocket+PC&tr=udp%3A%2F%2Ftracker.coppersurfer.tk%3A6969%2Fannounce&tr=udp%3A%2F%2F9.rarbg.to%3A2920%2Fannounce&tr=udp%3A%2F%2Ftracker.opentrackr.org%3A1337&tr=udp%3A%2F%2Ftracker.internetwarriors.net%3A1337%2Fannounce&tr=udp%3A%2F%2Ftracker.leechers-paradise.org%3A6969%2Fannounce&tr=udp%3A%2F%2Ftracker.coppersurfer.tk%3A6969%2Fannounce&tr=udp%3A%2F%2Ftracker.pirateparty.gr%3A6969%2Fannounce&tr=udp%3A%2F%2Ftracker.cyberia.is%3A6969%2Fannounce",
    "seeder": "1",
    "leecher": "0"
}{
    "rank": "90",
    "title": "Motorola.RAZR.Pack.2-2008-[NoFS]",
    "link": "magnet:?xt=urn:btih:9A478866FE060D95AD8FE285457F6AA4C437D8CE&dn=Motorola.RAZR.Pack.2-2008-%5BNoFS%5D&tr=udp%3A%2F%2Ftracker.coppersurfer.tk%3A6969%2Fannounce&tr=udp%3A%2F%2F9.rarbg.to%3A2920%2Fannounce&tr=udp%3A%2F%2Ftracker.opentrackr.org%3A1337&tr=udp%3A%2F%2Ftracker.internetwarriors.net%3A1337%2Fannounce&tr=udp%3A%2F%2Ftracker.leechers-paradise.org%3A6969%2Fannounce&tr=udp%3A%2F%2Ftracker.coppersurfer.tk%3A6969%2Fannounce&tr=udp%3A%2F%2Ftracker.pirateparty.gr%3A6969%2Fannounce&tr=udp%3A%2F%2Ftracker.cyberia.is%3A6969%2Fannounce",
    "seeder": "1",
    "leecher": "0"
}{
    "rank": "91",
    "title": "PojaSoft.GoParking.v1.1.iPhone.iPod.Touch-Lz0PDA",
    "link": "magnet:?xt=urn:btih:C58FFF7D33BC6F17A2435AE4F840CFCCE57C7C11&dn=PojaSoft.GoParking.v1.1.iPhone.iPod.Touch-Lz0PDA&tr=udp%3A%2F%2Ftracker.coppersurfer.tk%3A6969%2Fannounce&tr=udp%3A%2F%2F9.rarbg.to%3A2920%2Fannounce&tr=udp%3A%2F%2Ftracker.opentrackr.org%3A1337&tr=udp%3A%2F%2Ftracker.internetwarriors.net%3A1337%2Fannounce&tr=udp%3A%2F%2Ftracker.leechers-paradise.org%3A6969%2Fannounce&tr=udp%3A%2F%2Ftracker.coppersurfer.tk%3A6969%2Fannounce&tr=udp%3A%2F%2Ftracker.pirateparty.gr%3A6969%2Fannounce&tr=udp%3A%2F%2Ftracker.cyberia.is%3A6969%2Fannounce",
    "seeder": "1",
    "leecher": "0"
}{
    "rank": "92",
    "title": "Crusade Of Destiny For Android",
    "link": "magnet:?xt=urn:btih:2C17B4DBF4E09B420B379F5ECA20429CF4DE1D34&dn=Crusade+Of+Destiny+For+Android&tr=udp%3A%2F%2Ftracker.coppersurfer.tk%3A6969%2Fannounce&tr=udp%3A%2F%2F9.rarbg.to%3A2920%2Fannounce&tr=udp%3A%2F%2Ftracker.opentrackr.org%3A1337&tr=udp%3A%2F%2Ftracker.internetwarriors.net%3A1337%2Fannounce&tr=udp%3A%2F%2Ftracker.leechers-paradise.org%3A6969%2Fannounce&tr=udp%3A%2F%2Ftracker.coppersurfer.tk%3A6969%2Fannounce&tr=udp%3A%2F%2Ftracker.pirateparty.gr%3A6969%2Fannounce&tr=udp%3A%2F%2Ftracker.cyberia.is%3A6969%2Fannounce",
    "seeder": "1",
    "leecher": "0"
}{
    "rank": "93",
    "title": "Garmin City Navigator Italy Greece NT.2016.10",
    "link": "magnet:?xt=urn:btih:8E6462774DB67DE0FD4535FDF9B7B8DA1BB7F0BD&dn=Garmin+City+Navigator+Italy+Greece+NT.2016.10&tr=udp%3A%2F%2Ftracker.coppersurfer.tk%3A6969%2Fannounce&tr=udp%3A%2F%2F9.rarbg.to%3A2920%2Fannounce&tr=udp%3A%2F%2Ftracker.opentrackr.org%3A1337&tr=udp%3A%2F%2Ftracker.internetwarriors.net%3A1337%2Fannounce&tr=udp%3A%2F%2Ftracker.leechers-paradise.org%3A6969%2Fannounce&tr=udp%3A%2F%2Ftracker.coppersurfer.tk%3A6969%2Fannounce&tr=udp%3A%2F%2Ftracker.pirateparty.gr%3A6969%2Fannounce&tr=udp%3A%2F%2Ftracker.cyberia.is%3A6969%2Fannounce",
    "seeder": "1",
    "leecher": "0"
}{
    "rank": "94",
    "title": "Autosputnik Russia Map v0902 updated 2009.04.07 Full Version",
    "link": "magnet:?xt=urn:btih:E21AC7B02B76810EC766B6A5E0D9CF0EA5F7715B&dn=Autosputnik+Russia+Map+v0902+updated+2009.04.07+Full+Version&tr=udp%3A%2F%2Ftracker.coppersurfer.tk%3A6969%2Fannounce&tr=udp%3A%2F%2F9.rarbg.to%3A2920%2Fannounce&tr=udp%3A%2F%2Ftracker.opentrackr.org%3A1337&tr=udp%3A%2F%2Ftracker.internetwarriors.net%3A1337%2Fannounce&tr=udp%3A%2F%2Ftracker.leechers-paradise.org%3A6969%2Fannounce&tr=udp%3A%2F%2Ftracker.coppersurfer.tk%3A6969%2Fannounce&tr=udp%3A%2F%2Ftracker.pirateparty.gr%3A6969%2Fannounce&tr=udp%3A%2F%2Ftracker.cyberia.is%3A6969%2Fannounce",
    "seeder": "1",
    "leecher": "0"
}{
    "rank": "95",
    "title": "GPS Tuner Version 5.3c For The Pocket PC",
    "link": "magnet:?xt=urn:btih:431A0490C1F909F2F9154A41487AAD7A7082BFFC&dn=GPS+Tuner+Version+5.3c+For+The+Pocket+PC&tr=udp%3A%2F%2Ftracker.coppersurfer.tk%3A6969%2Fannounce&tr=udp%3A%2F%2F9.rarbg.to%3A2920%2Fannounce&tr=udp%3A%2F%2Ftracker.opentrackr.org%3A1337&tr=udp%3A%2F%2Ftracker.internetwarriors.net%3A1337%2Fannounce&tr=udp%3A%2F%2Ftracker.leechers-paradise.org%3A6969%2Fannounce&tr=udp%3A%2F%2Ftracker.coppersurfer.tk%3A6969%2Fannounce&tr=udp%3A%2F%2Ftracker.pirateparty.gr%3A6969%2Fannounce&tr=udp%3A%2F%2Ftracker.cyberia.is%3A6969%2Fannounce",
    "seeder": "1",
    "leecher": "0"
}{
    "rank": "96",
    "title": "The.Quest.v1.2.iPhone.iPod.Touch-iPWNPDA",
    "link": "magnet:?xt=urn:btih:7BED883CD14192A8D01C62DB6CC5AD76E9108319&dn=The.Quest.v1.2.iPhone.iPod.Touch-iPWNPDA&tr=udp%3A%2F%2Ftracker.coppersurfer.tk%3A6969%2Fannounce&tr=udp%3A%2F%2F9.rarbg.to%3A2920%2Fannounce&tr=udp%3A%2F%2Ftracker.opentrackr.org%3A1337&tr=udp%3A%2F%2Ftracker.internetwarriors.net%3A1337%2Fannounce&tr=udp%3A%2F%2Ftracker.leechers-paradise.org%3A6969%2Fannounce&tr=udp%3A%2F%2Ftracker.coppersurfer.tk%3A6969%2Fannounce&tr=udp%3A%2F%2Ftracker.pirateparty.gr%3A6969%2Fannounce&tr=udp%3A%2F%2Ftracker.cyberia.is%3A6969%2Fannounce",
    "seeder": "1",
    "leecher": "0"
}{
    "rank": "97",
    "title": "Autosputnik Russia Map JJ-Connect v0812 updated 2009.01.20",
    "link": "magnet:?xt=urn:btih:0CA504328BD4ED036D00EB93D5FC5095568CB91E&dn=Autosputnik+Russia+Map+JJ-Connect+v0812+updated+2009.01.20&tr=udp%3A%2F%2Ftracker.coppersurfer.tk%3A6969%2Fannounce&tr=udp%3A%2F%2F9.rarbg.to%3A2920%2Fannounce&tr=udp%3A%2F%2Ftracker.opentrackr.org%3A1337&tr=udp%3A%2F%2Ftracker.internetwarriors.net%3A1337%2Fannounce&tr=udp%3A%2F%2Ftracker.leechers-paradise.org%3A6969%2Fannounce&tr=udp%3A%2F%2Ftracker.coppersurfer.tk%3A6969%2Fannounce&tr=udp%3A%2F%2Ftracker.pirateparty.gr%3A6969%2Fannounce&tr=udp%3A%2F%2Ftracker.cyberia.is%3A6969%2Fannounce",
    "seeder": "1",
    "leecher": "0"
}{
    "rank": "98",
    "title": "Autosputnik Russia Map v0902 updated 2009.04.07 Split Version",
    "link": "magnet:?xt=urn:btih:AA04F666D43A079DD88F69083177D2687861C8C9&dn=Autosputnik+Russia+Map+v0902+updated+2009.04.07+Split+Version&tr=udp%3A%2F%2Ftracker.coppersurfer.tk%3A6969%2Fannounce&tr=udp%3A%2F%2F9.rarbg.to%3A2920%2Fannounce&tr=udp%3A%2F%2Ftracker.opentrackr.org%3A1337&tr=udp%3A%2F%2Ftracker.internetwarriors.net%3A1337%2Fannounce&tr=udp%3A%2F%2Ftracker.leechers-paradise.org%3A6969%2Fannounce&tr=udp%3A%2F%2Ftracker.coppersurfer.tk%3A6969%2Fannounce&tr=udp%3A%2F%2Ftracker.pirateparty.gr%3A6969%2Fannounce&tr=udp%3A%2F%2Ftracker.cyberia.is%3A6969%2Fannounce",
    "seeder": "1",
    "leecher": "0"
}{
    "rank": "99",
    "title": "Autosputnik Russia Map v0810 updated 2009.01.29",
    "link": "magnet:?xt=urn:btih:AEC1873ECE6B8285F1B67A0BE9625C81487D7CF7&dn=Autosputnik+Russia+Map+v0810+updated+2009.01.29&tr=udp%3A%2F%2Ftracker.coppersurfer.tk%3A6969%2Fannounce&tr=udp%3A%2F%2F9.rarbg.to%3A2920%2Fannounce&tr=udp%3A%2F%2Ftracker.opentrackr.org%3A1337&tr=udp%3A%2F%2Ftracker.internetwarriors.net%3A1337%2Fannounce&tr=udp%3A%2F%2Ftracker.leechers-paradise.org%3A6969%2Fannounce&tr=udp%3A%2F%2Ftracker.coppersurfer.tk%3A6969%2Fannounce&tr=udp%3A%2F%2Ftracker.pirateparty.gr%3A6969%2Fannounce&tr=udp%3A%2F%2Ftracker.cyberia.is%3A6969%2Fannounce",
    "seeder": "1",
    "leecher": "0"
}{
    "rank": "100",
    "title": "MitAPP.Eco.Footprint.v1.0.iPhone.iPod.Touch-Lz0PDA",
    "link": "magnet:?xt=urn:btih:C6CAA3A3AA9D15E01A561F8B5435068D083BB652&dn=MitAPP.Eco.Footprint.v1.0.iPhone.iPod.Touch-Lz0PDA&tr=udp%3A%2F%2Ftracker.coppersurfer.tk%3A6969%2Fannounce&tr=udp%3A%2F%2F9.rarbg.to%3A2920%2Fannounce&tr=udp%3A%2F%2Ftracker.opentrackr.org%3A1337&tr=udp%3A%2F%2Ftracker.internetwarriors.net%3A1337%2Fannounce&tr=udp%3A%2F%2Ftracker.leechers-paradise.org%3A6969%2Fannounce&tr=udp%3A%2F%2Ftracker.coppersurfer.tk%3A6969%2Fannounce&tr=udp%3A%2F%2Ftracker.pirateparty.gr%3A6969%2Fannounce&tr=udp%3A%2F%2Ftracker.cyberia.is%3A6969%2Fannounce",
    "seeder": "1",
    "leecher": "0"
}