{
    "rank": "1",
    "title": "Gran Turismo 4 [PS2]",
    "link": "magnet:?xt=urn:btih:1E29A8809ADB6811B83982EC6E4754FA0630DC6D&dn=Gran+Turismo+4+%5BPS2%5D&tr=udp%3A%2F%2Ftracker.coppersurfer.tk%3A6969%2Fannounce&tr=udp%3A%2F%2F9.rarbg.to%3A2920%2Fannounce&tr=udp%3A%2F%2Ftracker.opentrackr.org%3A1337&tr=udp%3A%2F%2Ftracker.internetwarriors.net%3A1337%2Fannounce&tr=udp%3A%2F%2Ftracker.leechers-paradise.org%3A6969%2Fannounce&tr=udp%3A%2F%2Ftracker.coppersurfer.tk%3A6969%2Fannounce&tr=udp%3A%2F%2Ftracker.pirateparty.gr%3A6969%2Fannounce&tr=udp%3A%2F%2Ftracker.cyberia.is%3A6969%2Fannounce",
    "seeder": "30",
    "leecher": "0"
}{
    "rank": "2",
    "title": "Snes, Sega Genesis, Master System, Nintendo, Atari Emulators PS2",
    "link": "magnet:?xt=urn:btih:EB636E04C581E602C0AF2D9DE2C4162975608B6C&dn=Snes%2C+Sega+Genesis%2C+Master+System%2C+Nintendo%2C+Atari+Emulators+PS2&tr=udp%3A%2F%2Ftracker.coppersurfer.tk%3A6969%2Fannounce&tr=udp%3A%2F%2F9.rarbg.to%3A2920%2Fannounce&tr=udp%3A%2F%2Ftracker.opentrackr.org%3A1337&tr=udp%3A%2F%2Ftracker.internetwarriors.net%3A1337%2Fannounce&tr=udp%3A%2F%2Ftracker.leechers-paradise.org%3A6969%2Fannounce&tr=udp%3A%2F%2Ftracker.coppersurfer.tk%3A6969%2Fannounce&tr=udp%3A%2F%2Ftracker.pirateparty.gr%3A6969%2Fannounce&tr=udp%3A%2F%2Ftracker.cyberia.is%3A6969%2Fannounce",
    "seeder": "23",
    "leecher": "1"
}{
    "rank": "3",
    "title": "Demons Souls (2010) [Ps3][EUR][MULTi5]",
    "link": "magnet:?xt=urn:btih:5CE9720502BBF6CC52461DEBBDFEE7A6107E78BB&dn=Demons+Souls+%282010%29+%5BPs3%5D%5BEUR%5D%5BMULTi5%5D&tr=udp%3A%2F%2Ftracker.coppersurfer.tk%3A6969%2Fannounce&tr=udp%3A%2F%2F9.rarbg.to%3A2920%2Fannounce&tr=udp%3A%2F%2Ftracker.opentrackr.org%3A1337&tr=udp%3A%2F%2Ftracker.internetwarriors.net%3A1337%2Fannounce&tr=udp%3A%2F%2Ftracker.leechers-paradise.org%3A6969%2Fannounce&tr=udp%3A%2F%2Ftracker.coppersurfer.tk%3A6969%2Fannounce&tr=udp%3A%2F%2Ftracker.pirateparty.gr%3A6969%2Fannounce&tr=udp%3A%2F%2Ftracker.cyberia.is%3A6969%2Fannounce",
    "seeder": "22",
    "leecher": "0"
}{
    "rank": "4",
    "title": "Metal Gear Solid 4 Guns of the Patriots (2008) [Ps3][PAL][MULTi6",
    "link": "magnet:?xt=urn:btih:F4429A86DA301FD7736C8015280F32C6D62A8C54&dn=Metal+Gear+Solid+4+Guns+of+the+Patriots+%282008%29+%5BPs3%5D%5BPAL%5D%5BMULTi6&tr=udp%3A%2F%2Ftracker.coppersurfer.tk%3A6969%2Fannounce&tr=udp%3A%2F%2F9.rarbg.to%3A2920%2Fannounce&tr=udp%3A%2F%2Ftracker.opentrackr.org%3A1337&tr=udp%3A%2F%2Ftracker.internetwarriors.net%3A1337%2Fannounce&tr=udp%3A%2F%2Ftracker.leechers-paradise.org%3A6969%2Fannounce&tr=udp%3A%2F%2Ftracker.coppersurfer.tk%3A6969%2Fannounce&tr=udp%3A%2F%2Ftracker.pirateparty.gr%3A6969%2Fannounce&tr=udp%3A%2F%2Ftracker.cyberia.is%3A6969%2Fannounce",
    "seeder": "18",
    "leecher": "0"
}{
    "rank": "5",
    "title": "GTA Grand Theft Auto V (PS3)",
    "link": "magnet:?xt=urn:btih:D97E5C5C451E25F25A25D09DA87C670FDD6352EB&dn=GTA+Grand+Theft+Auto+V+%28PS3%29&tr=udp%3A%2F%2Ftracker.coppersurfer.tk%3A6969%2Fannounce&tr=udp%3A%2F%2F9.rarbg.to%3A2920%2Fannounce&tr=udp%3A%2F%2Ftracker.opentrackr.org%3A1337&tr=udp%3A%2F%2Ftracker.internetwarriors.net%3A1337%2Fannounce&tr=udp%3A%2F%2Ftracker.leechers-paradise.org%3A6969%2Fannounce&tr=udp%3A%2F%2Ftracker.coppersurfer.tk%3A6969%2Fannounce&tr=udp%3A%2F%2Ftracker.pirateparty.gr%3A6969%2Fannounce&tr=udp%3A%2F%2Ftracker.cyberia.is%3A6969%2Fannounce",
    "seeder": "15",
    "leecher": "3"
}{
    "rank": "6",
    "title": "Crash Bandicoot the wrath of cortex ps2 pal multi5",
    "link": "magnet:?xt=urn:btih:10986F13F107D9D087F81E8B445C80E84AD0CB6C&dn=Crash+Bandicoot+the+wrath+of+cortex+ps2+pal+multi5&tr=udp%3A%2F%2Ftracker.coppersurfer.tk%3A6969%2Fannounce&tr=udp%3A%2F%2F9.rarbg.to%3A2920%2Fannounce&tr=udp%3A%2F%2Ftracker.opentrackr.org%3A1337&tr=udp%3A%2F%2Ftracker.internetwarriors.net%3A1337%2Fannounce&tr=udp%3A%2F%2Ftracker.leechers-paradise.org%3A6969%2Fannounce&tr=udp%3A%2F%2Ftracker.coppersurfer.tk%3A6969%2Fannounce&tr=udp%3A%2F%2Ftracker.pirateparty.gr%3A6969%2Fannounce&tr=udp%3A%2F%2Ftracker.cyberia.is%3A6969%2Fannounce",
    "seeder": "15",
    "leecher": "0"
}{
    "rank": "7",
    "title": "Call of Duty : Black Ops III (PS3)",
    "link": "magnet:?xt=urn:btih:7BA0543DB870F927791CFABAB921E67918EC86C2&dn=Call+of+Duty+%3A+Black+Ops+III+%28PS3%29&tr=udp%3A%2F%2Ftracker.coppersurfer.tk%3A6969%2Fannounce&tr=udp%3A%2F%2F9.rarbg.to%3A2920%2Fannounce&tr=udp%3A%2F%2Ftracker.opentrackr.org%3A1337&tr=udp%3A%2F%2Ftracker.internetwarriors.net%3A1337%2Fannounce&tr=udp%3A%2F%2Ftracker.leechers-paradise.org%3A6969%2Fannounce&tr=udp%3A%2F%2Ftracker.coppersurfer.tk%3A6969%2Fannounce&tr=udp%3A%2F%2Ftracker.pirateparty.gr%3A6969%2Fannounce&tr=udp%3A%2F%2Ftracker.cyberia.is%3A6969%2Fannounce",
    "seeder": "15",
    "leecher": "3"
}{
    "rank": "8",
    "title": "NHL 13 [PS3]",
    "link": "magnet:?xt=urn:btih:6342BBDAAA1BE600AC7B786DB9009AD65FC22406&dn=NHL+13+%5BPS3%5D&tr=udp%3A%2F%2Ftracker.coppersurfer.tk%3A6969%2Fannounce&tr=udp%3A%2F%2F9.rarbg.to%3A2920%2Fannounce&tr=udp%3A%2F%2Ftracker.opentrackr.org%3A1337&tr=udp%3A%2F%2Ftracker.internetwarriors.net%3A1337%2Fannounce&tr=udp%3A%2F%2Ftracker.leechers-paradise.org%3A6969%2Fannounce&tr=udp%3A%2F%2Ftracker.coppersurfer.tk%3A6969%2Fannounce&tr=udp%3A%2F%2Ftracker.pirateparty.gr%3A6969%2Fannounce&tr=udp%3A%2F%2Ftracker.cyberia.is%3A6969%2Fannounce",
    "seeder": "14",
    "leecher": "0"
}{
    "rank": "9",
    "title": "Gran Turismo 6 PS3-DUPLEX",
    "link": "magnet:?xt=urn:btih:E8D2191ABD84ABF99E99407E715BF432EFD426A9&dn=Gran+Turismo+6+PS3-DUPLEX&tr=udp%3A%2F%2Ftracker.coppersurfer.tk%3A6969%2Fannounce&tr=udp%3A%2F%2F9.rarbg.to%3A2920%2Fannounce&tr=udp%3A%2F%2Ftracker.opentrackr.org%3A1337&tr=udp%3A%2F%2Ftracker.internetwarriors.net%3A1337%2Fannounce&tr=udp%3A%2F%2Ftracker.leechers-paradise.org%3A6969%2Fannounce&tr=udp%3A%2F%2Ftracker.coppersurfer.tk%3A6969%2Fannounce&tr=udp%3A%2F%2Ftracker.pirateparty.gr%3A6969%2Fannounce&tr=udp%3A%2F%2Ftracker.cyberia.is%3A6969%2Fannounce",
    "seeder": "14",
    "leecher": "1"
}{
    "rank": "10",
    "title": "Far_Cry_3_READNFO_EUR_JB_PS3-ANTiDOTE",
    "link": "magnet:?xt=urn:btih:CA5CB54C38A5BA4D70837CAE30A12DD80BDE0DDA&dn=Far_Cry_3_READNFO_EUR_JB_PS3-ANTiDOTE&tr=udp%3A%2F%2Ftracker.coppersurfer.tk%3A6969%2Fannounce&tr=udp%3A%2F%2F9.rarbg.to%3A2920%2Fannounce&tr=udp%3A%2F%2Ftracker.opentrackr.org%3A1337&tr=udp%3A%2F%2Ftracker.internetwarriors.net%3A1337%2Fannounce&tr=udp%3A%2F%2Ftracker.leechers-paradise.org%3A6969%2Fannounce&tr=udp%3A%2F%2Ftracker.coppersurfer.tk%3A6969%2Fannounce&tr=udp%3A%2F%2Ftracker.pirateparty.gr%3A6969%2Fannounce&tr=udp%3A%2F%2Ftracker.cyberia.is%3A6969%2Fannounce",
    "seeder": "13",
    "leecher": "1"
}{
    "rank": "11",
    "title": "Crash Bandicoot 1 - 2 - 3 - Crash Team Racing - Crash Bash",
    "link": "magnet:?xt=urn:btih:AFB772BDA3933792887BED5F1F79E3CBECEA1A3B&dn=Crash+Bandicoot+1+-+2+-+3+-+Crash+Team+Racing+-+Crash+Bash&tr=udp%3A%2F%2Ftracker.coppersurfer.tk%3A6969%2Fannounce&tr=udp%3A%2F%2F9.rarbg.to%3A2920%2Fannounce&tr=udp%3A%2F%2Ftracker.opentrackr.org%3A1337&tr=udp%3A%2F%2Ftracker.internetwarriors.net%3A1337%2Fannounce&tr=udp%3A%2F%2Ftracker.leechers-paradise.org%3A6969%2Fannounce&tr=udp%3A%2F%2Ftracker.coppersurfer.tk%3A6969%2Fannounce&tr=udp%3A%2F%2Ftracker.pirateparty.gr%3A6969%2Fannounce&tr=udp%3A%2F%2Ftracker.cyberia.is%3A6969%2Fannounce",
    "seeder": "13",
    "leecher": "2"
}{
    "rank": "12",
    "title": "God of War II PS2 DVD5 NTSC-U",
    "link": "magnet:?xt=urn:btih:053D974816161BF3B54B618C138C56A76B88579A&dn=God+of+War+II+PS2+DVD5+NTSC-U&tr=udp%3A%2F%2Ftracker.coppersurfer.tk%3A6969%2Fannounce&tr=udp%3A%2F%2F9.rarbg.to%3A2920%2Fannounce&tr=udp%3A%2F%2Ftracker.opentrackr.org%3A1337&tr=udp%3A%2F%2Ftracker.internetwarriors.net%3A1337%2Fannounce&tr=udp%3A%2F%2Ftracker.leechers-paradise.org%3A6969%2Fannounce&tr=udp%3A%2F%2Ftracker.coppersurfer.tk%3A6969%2Fannounce&tr=udp%3A%2F%2Ftracker.pirateparty.gr%3A6969%2Fannounce&tr=udp%3A%2F%2Ftracker.cyberia.is%3A6969%2Fannounce",
    "seeder": "13",
    "leecher": "2"
}{
    "rank": "13",
    "title": "GTA Liberty City Stories [PSP]",
    "link": "magnet:?xt=urn:btih:7A662DEBDC803DEA52503758D96C77AC1D15F9FD&dn=GTA+Liberty+City+Stories+%5BPSP%5D&tr=udp%3A%2F%2Ftracker.coppersurfer.tk%3A6969%2Fannounce&tr=udp%3A%2F%2F9.rarbg.to%3A2920%2Fannounce&tr=udp%3A%2F%2Ftracker.opentrackr.org%3A1337&tr=udp%3A%2F%2Ftracker.internetwarriors.net%3A1337%2Fannounce&tr=udp%3A%2F%2Ftracker.leechers-paradise.org%3A6969%2Fannounce&tr=udp%3A%2F%2Ftracker.coppersurfer.tk%3A6969%2Fannounce&tr=udp%3A%2F%2Ftracker.pirateparty.gr%3A6969%2Fannounce&tr=udp%3A%2F%2Ftracker.cyberia.is%3A6969%2Fannounce",
    "seeder": "12",
    "leecher": "1"
}{
    "rank": "14",
    "title": "[PS3] PSX/PS1 Collection [ENG] [Repack]",
    "link": "magnet:?xt=urn:btih:850F154AD80BC23ADAA7071AEABCEE598C3258FE&dn=%5BPS3%5D+PSX%2FPS1+Collection+%5BENG%5D+%5BRepack%5D&tr=udp%3A%2F%2Ftracker.coppersurfer.tk%3A6969%2Fannounce&tr=udp%3A%2F%2F9.rarbg.to%3A2920%2Fannounce&tr=udp%3A%2F%2Ftracker.opentrackr.org%3A1337&tr=udp%3A%2F%2Ftracker.internetwarriors.net%3A1337%2Fannounce&tr=udp%3A%2F%2Ftracker.leechers-paradise.org%3A6969%2Fannounce&tr=udp%3A%2F%2Ftracker.coppersurfer.tk%3A6969%2Fannounce&tr=udp%3A%2F%2Ftracker.pirateparty.gr%3A6969%2Fannounce&tr=udp%3A%2F%2Ftracker.cyberia.is%3A6969%2Fannounce",
    "seeder": "12",
    "leecher": "2"
}{
    "rank": "15",
    "title": "NCAA.Football.14.PS3-PROTON",
    "link": "magnet:?xt=urn:btih:098CF912550CDC72286248B6840979BB87C74641&dn=NCAA.Football.14.PS3-PROTON&tr=udp%3A%2F%2Ftracker.coppersurfer.tk%3A6969%2Fannounce&tr=udp%3A%2F%2F9.rarbg.to%3A2920%2Fannounce&tr=udp%3A%2F%2Ftracker.opentrackr.org%3A1337&tr=udp%3A%2F%2Ftracker.internetwarriors.net%3A1337%2Fannounce&tr=udp%3A%2F%2Ftracker.leechers-paradise.org%3A6969%2Fannounce&tr=udp%3A%2F%2Ftracker.coppersurfer.tk%3A6969%2Fannounce&tr=udp%3A%2F%2Ftracker.pirateparty.gr%3A6969%2Fannounce&tr=udp%3A%2F%2Ftracker.cyberia.is%3A6969%2Fannounce",
    "seeder": "12",
    "leecher": "1"
}{
    "rank": "16",
    "title": "Tekken 5 PS2 (NTSC)[gamerguuy]",
    "link": "magnet:?xt=urn:btih:9B5ED43F81F70ECA49228AEF0705092C560E63E1&dn=Tekken+5+PS2+%28NTSC%29%5Bgamerguuy%5D&tr=udp%3A%2F%2Ftracker.coppersurfer.tk%3A6969%2Fannounce&tr=udp%3A%2F%2F9.rarbg.to%3A2920%2Fannounce&tr=udp%3A%2F%2Ftracker.opentrackr.org%3A1337&tr=udp%3A%2F%2Ftracker.internetwarriors.net%3A1337%2Fannounce&tr=udp%3A%2F%2Ftracker.leechers-paradise.org%3A6969%2Fannounce&tr=udp%3A%2F%2Ftracker.coppersurfer.tk%3A6969%2Fannounce&tr=udp%3A%2F%2Ftracker.pirateparty.gr%3A6969%2Fannounce&tr=udp%3A%2F%2Ftracker.cyberia.is%3A6969%2Fannounce",
    "seeder": "11",
    "leecher": "1"
}{
    "rank": "17",
    "title": "Grand Theft Auto (GTA): San Andreas (PS2)",
    "link": "magnet:?xt=urn:btih:F202E2C42EEA527B718F5BACFF5252BF1D0D4FE9&dn=Grand+Theft+Auto+%28GTA%29%3A+San+Andreas+%28PS2%29&tr=udp%3A%2F%2Ftracker.coppersurfer.tk%3A6969%2Fannounce&tr=udp%3A%2F%2F9.rarbg.to%3A2920%2Fannounce&tr=udp%3A%2F%2Ftracker.opentrackr.org%3A1337&tr=udp%3A%2F%2Ftracker.internetwarriors.net%3A1337%2Fannounce&tr=udp%3A%2F%2Ftracker.leechers-paradise.org%3A6969%2Fannounce&tr=udp%3A%2F%2Ftracker.coppersurfer.tk%3A6969%2Fannounce&tr=udp%3A%2F%2Ftracker.pirateparty.gr%3A6969%2Fannounce&tr=udp%3A%2F%2Ftracker.cyberia.is%3A6969%2Fannounce",
    "seeder": "11",
    "leecher": "1"
}{
    "rank": "18",
    "title": "Metal Gear Solid 3 - Snake Eater [PS2][FULLDVD][Multi2] pcto",
    "link": "magnet:?xt=urn:btih:0669D80EA9AD96A3EB13C8926F44393CF39CB9EC&dn=Metal+Gear+Solid+3+-+Snake+Eater+%5BPS2%5D%5BFULLDVD%5D%5BMulti2%5D+pcto&tr=udp%3A%2F%2Ftracker.coppersurfer.tk%3A6969%2Fannounce&tr=udp%3A%2F%2F9.rarbg.to%3A2920%2Fannounce&tr=udp%3A%2F%2Ftracker.opentrackr.org%3A1337&tr=udp%3A%2F%2Ftracker.internetwarriors.net%3A1337%2Fannounce&tr=udp%3A%2F%2Ftracker.leechers-paradise.org%3A6969%2Fannounce&tr=udp%3A%2F%2Ftracker.coppersurfer.tk%3A6969%2Fannounce&tr=udp%3A%2F%2Ftracker.pirateparty.gr%3A6969%2Fannounce&tr=udp%3A%2F%2Ftracker.cyberia.is%3A6969%2Fannounce",
    "seeder": "11",
    "leecher": "1"
}{
    "rank": "19",
    "title": "Playstation Rom Pack-zombiROMS",
    "link": "magnet:?xt=urn:btih:E26F89FC7B24C0DAA72C6CF8EBDA48B3EC434037&dn=Playstation+Rom+Pack-zombiROMS&tr=udp%3A%2F%2Ftracker.coppersurfer.tk%3A6969%2Fannounce&tr=udp%3A%2F%2F9.rarbg.to%3A2920%2Fannounce&tr=udp%3A%2F%2Ftracker.opentrackr.org%3A1337&tr=udp%3A%2F%2Ftracker.internetwarriors.net%3A1337%2Fannounce&tr=udp%3A%2F%2Ftracker.leechers-paradise.org%3A6969%2Fannounce&tr=udp%3A%2F%2Ftracker.coppersurfer.tk%3A6969%2Fannounce&tr=udp%3A%2F%2Ftracker.pirateparty.gr%3A6969%2Fannounce&tr=udp%3A%2F%2Ftracker.cyberia.is%3A6969%2Fannounce",
    "seeder": "10",
    "leecher": "2"
}{
    "rank": "20",
    "title": "Mortal Kombat Vs DC Universe [PS3] [PSJ]",
    "link": "magnet:?xt=urn:btih:EC224D98EA51B1B17132455AB0F4D7523676E97A&dn=Mortal+Kombat+Vs+DC+Universe+%5BPS3%5D+%5BPSJ%5D&tr=udp%3A%2F%2Ftracker.coppersurfer.tk%3A6969%2Fannounce&tr=udp%3A%2F%2F9.rarbg.to%3A2920%2Fannounce&tr=udp%3A%2F%2Ftracker.opentrackr.org%3A1337&tr=udp%3A%2F%2Ftracker.internetwarriors.net%3A1337%2Fannounce&tr=udp%3A%2F%2Ftracker.leechers-paradise.org%3A6969%2Fannounce&tr=udp%3A%2F%2Ftracker.coppersurfer.tk%3A6969%2Fannounce&tr=udp%3A%2F%2Ftracker.pirateparty.gr%3A6969%2Fannounce&tr=udp%3A%2F%2Ftracker.cyberia.is%3A6969%2Fannounce",
    "seeder": "10",
    "leecher": "1"
}{
    "rank": "21",
    "title": "God of War Collection (2011) [Ps3][MULTi5][3.66]",
    "link": "magnet:?xt=urn:btih:1368B0CD200B0E134FD2DAF45383565C31B287B3&dn=God+of+War+Collection+%282011%29+%5BPs3%5D%5BMULTi5%5D%5B3.66%5D&tr=udp%3A%2F%2Ftracker.coppersurfer.tk%3A6969%2Fannounce&tr=udp%3A%2F%2F9.rarbg.to%3A2920%2Fannounce&tr=udp%3A%2F%2Ftracker.opentrackr.org%3A1337&tr=udp%3A%2F%2Ftracker.internetwarriors.net%3A1337%2Fannounce&tr=udp%3A%2F%2Ftracker.leechers-paradise.org%3A6969%2Fannounce&tr=udp%3A%2F%2Ftracker.coppersurfer.tk%3A6969%2Fannounce&tr=udp%3A%2F%2Ftracker.pirateparty.gr%3A6969%2Fannounce&tr=udp%3A%2F%2Ftracker.cyberia.is%3A6969%2Fannounce",
    "seeder": "9",
    "leecher": "0"
}{
    "rank": "22",
    "title": "WWE.SmackDown.vs.RAW.2011.PAL.PS2",
    "link": "magnet:?xt=urn:btih:9ED6FCAA396FD60FE772102D8B0222058401AF83&dn=WWE.SmackDown.vs.RAW.2011.PAL.PS2&tr=udp%3A%2F%2Ftracker.coppersurfer.tk%3A6969%2Fannounce&tr=udp%3A%2F%2F9.rarbg.to%3A2920%2Fannounce&tr=udp%3A%2F%2Ftracker.opentrackr.org%3A1337&tr=udp%3A%2F%2Ftracker.internetwarriors.net%3A1337%2Fannounce&tr=udp%3A%2F%2Ftracker.leechers-paradise.org%3A6969%2Fannounce&tr=udp%3A%2F%2Ftracker.coppersurfer.tk%3A6969%2Fannounce&tr=udp%3A%2F%2Ftracker.pirateparty.gr%3A6969%2Fannounce&tr=udp%3A%2F%2Ftracker.cyberia.is%3A6969%2Fannounce",
    "seeder": "9",
    "leecher": "2"
}{
    "rank": "23",
    "title": "Need for Speed Underground [PS2 DVD NTSC]",
    "link": "magnet:?xt=urn:btih:B2A09E846ABE5B0EF23D14A39772B580D93E7DB0&dn=Need+for+Speed+Underground+%5BPS2+DVD+NTSC%5D&tr=udp%3A%2F%2Ftracker.coppersurfer.tk%3A6969%2Fannounce&tr=udp%3A%2F%2F9.rarbg.to%3A2920%2Fannounce&tr=udp%3A%2F%2Ftracker.opentrackr.org%3A1337&tr=udp%3A%2F%2Ftracker.internetwarriors.net%3A1337%2Fannounce&tr=udp%3A%2F%2Ftracker.leechers-paradise.org%3A6969%2Fannounce&tr=udp%3A%2F%2Ftracker.coppersurfer.tk%3A6969%2Fannounce&tr=udp%3A%2F%2Ftracker.pirateparty.gr%3A6969%2Fannounce&tr=udp%3A%2F%2Ftracker.cyberia.is%3A6969%2Fannounce",
    "seeder": "9",
    "leecher": "0"
}{
    "rank": "24",
    "title": "Ico & Shadow of The Colossus (2011) [Ps3][MULTi5][3.41 &",
    "link": "magnet:?xt=urn:btih:B7FEB7FDAF867215F4D6EB693CEA7294836AD35B&dn=Ico+%26amp%3B+Shadow+of+The+Colossus+%282011%29+%5BPs3%5D%5BMULTi5%5D%5B3.41+%26amp%3B&tr=udp%3A%2F%2Ftracker.coppersurfer.tk%3A6969%2Fannounce&tr=udp%3A%2F%2F9.rarbg.to%3A2920%2Fannounce&tr=udp%3A%2F%2Ftracker.opentrackr.org%3A1337&tr=udp%3A%2F%2Ftracker.internetwarriors.net%3A1337%2Fannounce&tr=udp%3A%2F%2Ftracker.leechers-paradise.org%3A6969%2Fannounce&tr=udp%3A%2F%2Ftracker.coppersurfer.tk%3A6969%2Fannounce&tr=udp%3A%2F%2Ftracker.pirateparty.gr%3A6969%2Fannounce&tr=udp%3A%2F%2Ftracker.cyberia.is%3A6969%2Fannounce",
    "seeder": "9",
    "leecher": "1"
}{
    "rank": "25",
    "title": "Final Fantasy X [Ntsc] Ps2",
    "link": "magnet:?xt=urn:btih:FDA46282415C7149CF6BC5B76060701CBE895EF1&dn=Final+Fantasy+X+%5BNtsc%5D+Ps2&tr=udp%3A%2F%2Ftracker.coppersurfer.tk%3A6969%2Fannounce&tr=udp%3A%2F%2F9.rarbg.to%3A2920%2Fannounce&tr=udp%3A%2F%2Ftracker.opentrackr.org%3A1337&tr=udp%3A%2F%2Ftracker.internetwarriors.net%3A1337%2Fannounce&tr=udp%3A%2F%2Ftracker.leechers-paradise.org%3A6969%2Fannounce&tr=udp%3A%2F%2Ftracker.coppersurfer.tk%3A6969%2Fannounce&tr=udp%3A%2F%2Ftracker.pirateparty.gr%3A6969%2Fannounce&tr=udp%3A%2F%2Ftracker.cyberia.is%3A6969%2Fannounce",
    "seeder": "8",
    "leecher": "2"
}{
    "rank": "26",
    "title": "Blur [PS3] [PSJ]",
    "link": "magnet:?xt=urn:btih:2C2C2964A8AE91F8366D24238AA4332B5BDE988F&dn=Blur+%5BPS3%5D+%5BPSJ%5D&tr=udp%3A%2F%2Ftracker.coppersurfer.tk%3A6969%2Fannounce&tr=udp%3A%2F%2F9.rarbg.to%3A2920%2Fannounce&tr=udp%3A%2F%2Ftracker.opentrackr.org%3A1337&tr=udp%3A%2F%2Ftracker.internetwarriors.net%3A1337%2Fannounce&tr=udp%3A%2F%2Ftracker.leechers-paradise.org%3A6969%2Fannounce&tr=udp%3A%2F%2Ftracker.coppersurfer.tk%3A6969%2Fannounce&tr=udp%3A%2F%2Ftracker.pirateparty.gr%3A6969%2Fannounce&tr=udp%3A%2F%2Ftracker.cyberia.is%3A6969%2Fannounce",
    "seeder": "8",
    "leecher": "2"
}{
    "rank": "27",
    "title": "Mafia II (2010) [Ps3][Multi5][RegionFree]",
    "link": "magnet:?xt=urn:btih:52847BEA07372A4944EC44C8860729E69A149436&dn=Mafia+II+%282010%29+%5BPs3%5D%5BMulti5%5D%5BRegionFree%5D&tr=udp%3A%2F%2Ftracker.coppersurfer.tk%3A6969%2Fannounce&tr=udp%3A%2F%2F9.rarbg.to%3A2920%2Fannounce&tr=udp%3A%2F%2Ftracker.opentrackr.org%3A1337&tr=udp%3A%2F%2Ftracker.internetwarriors.net%3A1337%2Fannounce&tr=udp%3A%2F%2Ftracker.leechers-paradise.org%3A6969%2Fannounce&tr=udp%3A%2F%2Ftracker.coppersurfer.tk%3A6969%2Fannounce&tr=udp%3A%2F%2Ftracker.pirateparty.gr%3A6969%2Fannounce&tr=udp%3A%2F%2Ftracker.cyberia.is%3A6969%2Fannounce",
    "seeder": "8",
    "leecher": "1"
}{
    "rank": "28",
    "title": "Tekken 5 PS2",
    "link": "magnet:?xt=urn:btih:2A66CAA7CDA4DA6BCE731D96FD30D634FDC5CBB2&dn=Tekken+5+PS2&tr=udp%3A%2F%2Ftracker.coppersurfer.tk%3A6969%2Fannounce&tr=udp%3A%2F%2F9.rarbg.to%3A2920%2Fannounce&tr=udp%3A%2F%2Ftracker.opentrackr.org%3A1337&tr=udp%3A%2F%2Ftracker.internetwarriors.net%3A1337%2Fannounce&tr=udp%3A%2F%2Ftracker.leechers-paradise.org%3A6969%2Fannounce&tr=udp%3A%2F%2Ftracker.coppersurfer.tk%3A6969%2Fannounce&tr=udp%3A%2F%2Ftracker.pirateparty.gr%3A6969%2Fannounce&tr=udp%3A%2F%2Ftracker.cyberia.is%3A6969%2Fannounce",
    "seeder": "8",
    "leecher": "0"
}{
    "rank": "29",
    "title": "The.Elder.Scrolls.V.Skyrim.Legendary.Edition.PS3-DUPLEX",
    "link": "magnet:?xt=urn:btih:8A3827B1064AE2CD27D8B0F1FAD4E6BC6C718210&dn=The.Elder.Scrolls.V.Skyrim.Legendary.Edition.PS3-DUPLEX&tr=udp%3A%2F%2Ftracker.coppersurfer.tk%3A6969%2Fannounce&tr=udp%3A%2F%2F9.rarbg.to%3A2920%2Fannounce&tr=udp%3A%2F%2Ftracker.opentrackr.org%3A1337&tr=udp%3A%2F%2Ftracker.internetwarriors.net%3A1337%2Fannounce&tr=udp%3A%2F%2Ftracker.leechers-paradise.org%3A6969%2Fannounce&tr=udp%3A%2F%2Ftracker.coppersurfer.tk%3A6969%2Fannounce&tr=udp%3A%2F%2Ftracker.pirateparty.gr%3A6969%2Fannounce&tr=udp%3A%2F%2Ftracker.cyberia.is%3A6969%2Fannounce",
    "seeder": "8",
    "leecher": "2"
}{
    "rank": "30",
    "title": "Naruto.Shippuden.Ultimate.Ninja.Storm.3.Full.Burst.PS3-DUPLEX",
    "link": "magnet:?xt=urn:btih:0DFBE3393ADA6C25FAE32C9FE57C59C0E65703FD&dn=Naruto.Shippuden.Ultimate.Ninja.Storm.3.Full.Burst.PS3-DUPLEX&tr=udp%3A%2F%2Ftracker.coppersurfer.tk%3A6969%2Fannounce&tr=udp%3A%2F%2F9.rarbg.to%3A2920%2Fannounce&tr=udp%3A%2F%2Ftracker.opentrackr.org%3A1337&tr=udp%3A%2F%2Ftracker.internetwarriors.net%3A1337%2Fannounce&tr=udp%3A%2F%2Ftracker.leechers-paradise.org%3A6969%2Fannounce&tr=udp%3A%2F%2Ftracker.coppersurfer.tk%3A6969%2Fannounce&tr=udp%3A%2F%2Ftracker.pirateparty.gr%3A6969%2Fannounce&tr=udp%3A%2F%2Ftracker.cyberia.is%3A6969%2Fannounce",
    "seeder": "8",
    "leecher": "0"
}{
    "rank": "31",
    "title": "Metal.Gear.Solid.V.The.Phantom.Pain.PS3-DUPLEX",
    "link": "magnet:?xt=urn:btih:CA4839D7041E61F5AD2E81FC70E3890A1D35AFA5&dn=Metal.Gear.Solid.V.The.Phantom.Pain.PS3-DUPLEX&tr=udp%3A%2F%2Ftracker.coppersurfer.tk%3A6969%2Fannounce&tr=udp%3A%2F%2F9.rarbg.to%3A2920%2Fannounce&tr=udp%3A%2F%2Ftracker.opentrackr.org%3A1337&tr=udp%3A%2F%2Ftracker.internetwarriors.net%3A1337%2Fannounce&tr=udp%3A%2F%2Ftracker.leechers-paradise.org%3A6969%2Fannounce&tr=udp%3A%2F%2Ftracker.coppersurfer.tk%3A6969%2Fannounce&tr=udp%3A%2F%2Ftracker.pirateparty.gr%3A6969%2Fannounce&tr=udp%3A%2F%2Ftracker.cyberia.is%3A6969%2Fannounce",
    "seeder": "8",
    "leecher": "2"
}{
    "rank": "32",
    "title": "Shin Megami Tensei Persona 3 FES [USA - English - PS2DVD]",
    "link": "magnet:?xt=urn:btih:CA92BC7C23288E459C42EAC691318E7CDEE930EB&dn=Shin+Megami+Tensei+Persona+3+FES+%5BUSA+-+English+-+PS2DVD%5D&tr=udp%3A%2F%2Ftracker.coppersurfer.tk%3A6969%2Fannounce&tr=udp%3A%2F%2F9.rarbg.to%3A2920%2Fannounce&tr=udp%3A%2F%2Ftracker.opentrackr.org%3A1337&tr=udp%3A%2F%2Ftracker.internetwarriors.net%3A1337%2Fannounce&tr=udp%3A%2F%2Ftracker.leechers-paradise.org%3A6969%2Fannounce&tr=udp%3A%2F%2Ftracker.coppersurfer.tk%3A6969%2Fannounce&tr=udp%3A%2F%2Ftracker.pirateparty.gr%3A6969%2Fannounce&tr=udp%3A%2F%2Ftracker.cyberia.is%3A6969%2Fannounce",
    "seeder": "7",
    "leecher": "0"
}{
    "rank": "33",
    "title": "LEGO Marvel Super Heroes PS3-DUPLEX",
    "link": "magnet:?xt=urn:btih:94E94DC8B043756190EB78B907A1A35C0BF1CC89&dn=LEGO+Marvel+Super+Heroes+PS3-DUPLEX&tr=udp%3A%2F%2Ftracker.coppersurfer.tk%3A6969%2Fannounce&tr=udp%3A%2F%2F9.rarbg.to%3A2920%2Fannounce&tr=udp%3A%2F%2Ftracker.opentrackr.org%3A1337&tr=udp%3A%2F%2Ftracker.internetwarriors.net%3A1337%2Fannounce&tr=udp%3A%2F%2Ftracker.leechers-paradise.org%3A6969%2Fannounce&tr=udp%3A%2F%2Ftracker.coppersurfer.tk%3A6969%2Fannounce&tr=udp%3A%2F%2Ftracker.pirateparty.gr%3A6969%2Fannounce&tr=udp%3A%2F%2Ftracker.cyberia.is%3A6969%2Fannounce",
    "seeder": "7",
    "leecher": "0"
}{
    "rank": "34",
    "title": "Mortal Kombat Armageddon [PS2]",
    "link": "magnet:?xt=urn:btih:7C843B0927548E9BFF4D3DA75EC20E3298CE3C4F&dn=Mortal+Kombat+Armageddon+%5BPS2%5D&tr=udp%3A%2F%2Ftracker.coppersurfer.tk%3A6969%2Fannounce&tr=udp%3A%2F%2F9.rarbg.to%3A2920%2Fannounce&tr=udp%3A%2F%2Ftracker.opentrackr.org%3A1337&tr=udp%3A%2F%2Ftracker.internetwarriors.net%3A1337%2Fannounce&tr=udp%3A%2F%2Ftracker.leechers-paradise.org%3A6969%2Fannounce&tr=udp%3A%2F%2Ftracker.coppersurfer.tk%3A6969%2Fannounce&tr=udp%3A%2F%2Ftracker.pirateparty.gr%3A6969%2Fannounce&tr=udp%3A%2F%2Ftracker.cyberia.is%3A6969%2Fannounce",
    "seeder": "7",
    "leecher": "0"
}{
    "rank": "35",
    "title": "Resident Evil 4 (NTSC - PS2)[gamerguuy]",
    "link": "magnet:?xt=urn:btih:E60F50B1FFA7FCEDEB2BF84C887369DFEB6377C9&dn=Resident+Evil+4+%28NTSC+-+PS2%29%5Bgamerguuy%5D&tr=udp%3A%2F%2Ftracker.coppersurfer.tk%3A6969%2Fannounce&tr=udp%3A%2F%2F9.rarbg.to%3A2920%2Fannounce&tr=udp%3A%2F%2Ftracker.opentrackr.org%3A1337&tr=udp%3A%2F%2Ftracker.internetwarriors.net%3A1337%2Fannounce&tr=udp%3A%2F%2Ftracker.leechers-paradise.org%3A6969%2Fannounce&tr=udp%3A%2F%2Ftracker.coppersurfer.tk%3A6969%2Fannounce&tr=udp%3A%2F%2Ftracker.pirateparty.gr%3A6969%2Fannounce&tr=udp%3A%2F%2Ftracker.cyberia.is%3A6969%2Fannounce",
    "seeder": "7",
    "leecher": "0"
}{
    "rank": "36",
    "title": "ratchet and clank up your arsenal (PS2)",
    "link": "magnet:?xt=urn:btih:8EBC4721EBF5C2F57C1A1875DE24B2F602C9EDCE&dn=ratchet+and+clank+up+your+arsenal+%28PS2%29&tr=udp%3A%2F%2Ftracker.coppersurfer.tk%3A6969%2Fannounce&tr=udp%3A%2F%2F9.rarbg.to%3A2920%2Fannounce&tr=udp%3A%2F%2Ftracker.opentrackr.org%3A1337&tr=udp%3A%2F%2Ftracker.internetwarriors.net%3A1337%2Fannounce&tr=udp%3A%2F%2Ftracker.leechers-paradise.org%3A6969%2Fannounce&tr=udp%3A%2F%2Ftracker.coppersurfer.tk%3A6969%2Fannounce&tr=udp%3A%2F%2Ftracker.pirateparty.gr%3A6969%2Fannounce&tr=udp%3A%2F%2Ftracker.cyberia.is%3A6969%2Fannounce",
    "seeder": "7",
    "leecher": "1"
}{
    "rank": "37",
    "title": "Battlefield 4 PS3-iMARS",
    "link": "magnet:?xt=urn:btih:BF72CB0AA117D09AA3C109C7E694BB5BF7FA7085&dn=Battlefield+4+PS3-iMARS&tr=udp%3A%2F%2Ftracker.coppersurfer.tk%3A6969%2Fannounce&tr=udp%3A%2F%2F9.rarbg.to%3A2920%2Fannounce&tr=udp%3A%2F%2Ftracker.opentrackr.org%3A1337&tr=udp%3A%2F%2Ftracker.internetwarriors.net%3A1337%2Fannounce&tr=udp%3A%2F%2Ftracker.leechers-paradise.org%3A6969%2Fannounce&tr=udp%3A%2F%2Ftracker.coppersurfer.tk%3A6969%2Fannounce&tr=udp%3A%2F%2Ftracker.pirateparty.gr%3A6969%2Fannounce&tr=udp%3A%2F%2Ftracker.cyberia.is%3A6969%2Fannounce",
    "seeder": "7",
    "leecher": "0"
}{
    "rank": "38",
    "title": "UFC Undisputed 3 [PS3]",
    "link": "magnet:?xt=urn:btih:AEBF4AF881B2D0168CC8217C2703AACFDD99A9FF&dn=UFC+Undisputed+3+%5BPS3%5D&tr=udp%3A%2F%2Ftracker.coppersurfer.tk%3A6969%2Fannounce&tr=udp%3A%2F%2F9.rarbg.to%3A2920%2Fannounce&tr=udp%3A%2F%2Ftracker.opentrackr.org%3A1337&tr=udp%3A%2F%2Ftracker.internetwarriors.net%3A1337%2Fannounce&tr=udp%3A%2F%2Ftracker.leechers-paradise.org%3A6969%2Fannounce&tr=udp%3A%2F%2Ftracker.coppersurfer.tk%3A6969%2Fannounce&tr=udp%3A%2F%2Ftracker.pirateparty.gr%3A6969%2Fannounce&tr=udp%3A%2F%2Ftracker.cyberia.is%3A6969%2Fannounce",
    "seeder": "7",
    "leecher": "2"
}{
    "rank": "39",
    "title": "Dirt 3 PS3-DUPLEX",
    "link": "magnet:?xt=urn:btih:CD17CE17795B13395692E1076954E03F27EACFA9&dn=Dirt+3+PS3-DUPLEX&tr=udp%3A%2F%2Ftracker.coppersurfer.tk%3A6969%2Fannounce&tr=udp%3A%2F%2F9.rarbg.to%3A2920%2Fannounce&tr=udp%3A%2F%2Ftracker.opentrackr.org%3A1337&tr=udp%3A%2F%2Ftracker.internetwarriors.net%3A1337%2Fannounce&tr=udp%3A%2F%2Ftracker.leechers-paradise.org%3A6969%2Fannounce&tr=udp%3A%2F%2Ftracker.coppersurfer.tk%3A6969%2Fannounce&tr=udp%3A%2F%2Ftracker.pirateparty.gr%3A6969%2Fannounce&tr=udp%3A%2F%2Ftracker.cyberia.is%3A6969%2Fannounce",
    "seeder": "7",
    "leecher": "0"
}{
    "rank": "40",
    "title": "Ratchet and Clank Into the Nexus PS3-DUPLEX",
    "link": "magnet:?xt=urn:btih:7951B53B38FAA9583F09720D5434BE5F847B01FB&dn=Ratchet+and+Clank+Into+the+Nexus+PS3-DUPLEX&tr=udp%3A%2F%2Ftracker.coppersurfer.tk%3A6969%2Fannounce&tr=udp%3A%2F%2F9.rarbg.to%3A2920%2Fannounce&tr=udp%3A%2F%2Ftracker.opentrackr.org%3A1337&tr=udp%3A%2F%2Ftracker.internetwarriors.net%3A1337%2Fannounce&tr=udp%3A%2F%2Ftracker.leechers-paradise.org%3A6969%2Fannounce&tr=udp%3A%2F%2Ftracker.coppersurfer.tk%3A6969%2Fannounce&tr=udp%3A%2F%2Ftracker.pirateparty.gr%3A6969%2Fannounce&tr=udp%3A%2F%2Ftracker.cyberia.is%3A6969%2Fannounce",
    "seeder": "7",
    "leecher": "1"
}{
    "rank": "41",
    "title": "DANTE'S INFERNO - PS3",
    "link": "magnet:?xt=urn:btih:506CE5F4AB3A81C035EB73E53DE13FEF051934B0&dn=DANTE%27S+INFERNO+-+PS3&tr=udp%3A%2F%2Ftracker.coppersurfer.tk%3A6969%2Fannounce&tr=udp%3A%2F%2F9.rarbg.to%3A2920%2Fannounce&tr=udp%3A%2F%2Ftracker.opentrackr.org%3A1337&tr=udp%3A%2F%2Ftracker.internetwarriors.net%3A1337%2Fannounce&tr=udp%3A%2F%2Ftracker.leechers-paradise.org%3A6969%2Fannounce&tr=udp%3A%2F%2Ftracker.coppersurfer.tk%3A6969%2Fannounce&tr=udp%3A%2F%2Ftracker.pirateparty.gr%3A6969%2Fannounce&tr=udp%3A%2F%2Ftracker.cyberia.is%3A6969%2Fannounce",
    "seeder": "6",
    "leecher": "1"
}{
    "rank": "42",
    "title": "Little.Big.Planet.3.PS3.EUR.Multi12-iND",
    "link": "magnet:?xt=urn:btih:E0B1C2960C99A855ACC37AE94B8C516147B1136F&dn=Little.Big.Planet.3.PS3.EUR.Multi12-iND&tr=udp%3A%2F%2Ftracker.coppersurfer.tk%3A6969%2Fannounce&tr=udp%3A%2F%2F9.rarbg.to%3A2920%2Fannounce&tr=udp%3A%2F%2Ftracker.opentrackr.org%3A1337&tr=udp%3A%2F%2Ftracker.internetwarriors.net%3A1337%2Fannounce&tr=udp%3A%2F%2Ftracker.leechers-paradise.org%3A6969%2Fannounce&tr=udp%3A%2F%2Ftracker.coppersurfer.tk%3A6969%2Fannounce&tr=udp%3A%2F%2Ftracker.pirateparty.gr%3A6969%2Fannounce&tr=udp%3A%2F%2Ftracker.cyberia.is%3A6969%2Fannounce",
    "seeder": "6",
    "leecher": "2"
}{
    "rank": "43",
    "title": "PS2 - Burnout 3 Takedown [1 DVD5 - Multi5 PAL] TNT Village",
    "link": "magnet:?xt=urn:btih:BDB6EBEC9E0322C012B93E4B3EF3C4DA5FE85F0A&dn=PS2+-+Burnout+3+Takedown+%5B1+DVD5+-+Multi5+PAL%5D+TNT+Village&tr=udp%3A%2F%2Ftracker.coppersurfer.tk%3A6969%2Fannounce&tr=udp%3A%2F%2F9.rarbg.to%3A2920%2Fannounce&tr=udp%3A%2F%2Ftracker.opentrackr.org%3A1337&tr=udp%3A%2F%2Ftracker.internetwarriors.net%3A1337%2Fannounce&tr=udp%3A%2F%2Ftracker.leechers-paradise.org%3A6969%2Fannounce&tr=udp%3A%2F%2Ftracker.coppersurfer.tk%3A6969%2Fannounce&tr=udp%3A%2F%2Ftracker.pirateparty.gr%3A6969%2Fannounce&tr=udp%3A%2F%2Ftracker.cyberia.is%3A6969%2Fannounce",
    "seeder": "6",
    "leecher": "0"
}{
    "rank": "44",
    "title": "Silent Hill 2 [Ntsc] Ps2",
    "link": "magnet:?xt=urn:btih:15677E7F66D4E24344186CDD21A7657921FC5D15&dn=Silent+Hill+2+%5BNtsc%5D+Ps2&tr=udp%3A%2F%2Ftracker.coppersurfer.tk%3A6969%2Fannounce&tr=udp%3A%2F%2F9.rarbg.to%3A2920%2Fannounce&tr=udp%3A%2F%2Ftracker.opentrackr.org%3A1337&tr=udp%3A%2F%2Ftracker.internetwarriors.net%3A1337%2Fannounce&tr=udp%3A%2F%2Ftracker.leechers-paradise.org%3A6969%2Fannounce&tr=udp%3A%2F%2Ftracker.coppersurfer.tk%3A6969%2Fannounce&tr=udp%3A%2F%2Ftracker.pirateparty.gr%3A6969%2Fannounce&tr=udp%3A%2F%2Ftracker.cyberia.is%3A6969%2Fannounce",
    "seeder": "6",
    "leecher": "0"
}{
    "rank": "45",
    "title": "Marvel.Vs.Capcom.3.PS3.DUPLEX",
    "link": "magnet:?xt=urn:btih:450C637B8246CC18DEBCDDE4B2AE1258888DF38A&dn=Marvel.Vs.Capcom.3.PS3.DUPLEX&tr=udp%3A%2F%2Ftracker.coppersurfer.tk%3A6969%2Fannounce&tr=udp%3A%2F%2F9.rarbg.to%3A2920%2Fannounce&tr=udp%3A%2F%2Ftracker.opentrackr.org%3A1337&tr=udp%3A%2F%2Ftracker.internetwarriors.net%3A1337%2Fannounce&tr=udp%3A%2F%2Ftracker.leechers-paradise.org%3A6969%2Fannounce&tr=udp%3A%2F%2Ftracker.coppersurfer.tk%3A6969%2Fannounce&tr=udp%3A%2F%2Ftracker.pirateparty.gr%3A6969%2Fannounce&tr=udp%3A%2F%2Ftracker.cyberia.is%3A6969%2Fannounce",
    "seeder": "6",
    "leecher": "1"
}{
    "rank": "46",
    "title": "Crash Nitro Kart (ps2, pal, multi6)",
    "link": "magnet:?xt=urn:btih:49FFF0812AF5AD1DDE8A1CA85E091478D87A0B17&dn=Crash+Nitro+Kart+%28ps2%2C+pal%2C+multi6%29&tr=udp%3A%2F%2Ftracker.coppersurfer.tk%3A6969%2Fannounce&tr=udp%3A%2F%2F9.rarbg.to%3A2920%2Fannounce&tr=udp%3A%2F%2Ftracker.opentrackr.org%3A1337&tr=udp%3A%2F%2Ftracker.internetwarriors.net%3A1337%2Fannounce&tr=udp%3A%2F%2Ftracker.leechers-paradise.org%3A6969%2Fannounce&tr=udp%3A%2F%2Ftracker.coppersurfer.tk%3A6969%2Fannounce&tr=udp%3A%2F%2Ftracker.pirateparty.gr%3A6969%2Fannounce&tr=udp%3A%2F%2Ftracker.cyberia.is%3A6969%2Fannounce",
    "seeder": "6",
    "leecher": "0"
}{
    "rank": "47",
    "title": "God Of War: Collection [PS3] [PSJ]",
    "link": "magnet:?xt=urn:btih:40F8AB4B6F6B4895065737272584AB388D385272&dn=God+Of+War%3A+Collection+%5BPS3%5D+%5BPSJ%5D&tr=udp%3A%2F%2Ftracker.coppersurfer.tk%3A6969%2Fannounce&tr=udp%3A%2F%2F9.rarbg.to%3A2920%2Fannounce&tr=udp%3A%2F%2Ftracker.opentrackr.org%3A1337&tr=udp%3A%2F%2Ftracker.internetwarriors.net%3A1337%2Fannounce&tr=udp%3A%2F%2Ftracker.leechers-paradise.org%3A6969%2Fannounce&tr=udp%3A%2F%2Ftracker.coppersurfer.tk%3A6969%2Fannounce&tr=udp%3A%2F%2Ftracker.pirateparty.gr%3A6969%2Fannounce&tr=udp%3A%2F%2Ftracker.cyberia.is%3A6969%2Fannounce",
    "seeder": "6",
    "leecher": "3"
}{
    "rank": "48",
    "title": "Twisted Metal: Black [PS2] [NTSC] [MULTI2]",
    "link": "magnet:?xt=urn:btih:072080CB84239D6E283746A416753602C5EFAD34&dn=Twisted+Metal%3A+Black+%5BPS2%5D+%5BNTSC%5D+%5BMULTI2%5D&tr=udp%3A%2F%2Ftracker.coppersurfer.tk%3A6969%2Fannounce&tr=udp%3A%2F%2F9.rarbg.to%3A2920%2Fannounce&tr=udp%3A%2F%2Ftracker.opentrackr.org%3A1337&tr=udp%3A%2F%2Ftracker.internetwarriors.net%3A1337%2Fannounce&tr=udp%3A%2F%2Ftracker.leechers-paradise.org%3A6969%2Fannounce&tr=udp%3A%2F%2Ftracker.coppersurfer.tk%3A6969%2Fannounce&tr=udp%3A%2F%2Ftracker.pirateparty.gr%3A6969%2Fannounce&tr=udp%3A%2F%2Ftracker.cyberia.is%3A6969%2Fannounce",
    "seeder": "6",
    "leecher": "0"
}{
    "rank": "49",
    "title": "ratchet and clank going commando (PS2)",
    "link": "magnet:?xt=urn:btih:9A5AB2299A7FB74C6DF797105745064DD6124833&dn=ratchet+and+clank+going+commando+%28PS2%29&tr=udp%3A%2F%2Ftracker.coppersurfer.tk%3A6969%2Fannounce&tr=udp%3A%2F%2F9.rarbg.to%3A2920%2Fannounce&tr=udp%3A%2F%2Ftracker.opentrackr.org%3A1337&tr=udp%3A%2F%2Ftracker.internetwarriors.net%3A1337%2Fannounce&tr=udp%3A%2F%2Ftracker.leechers-paradise.org%3A6969%2Fannounce&tr=udp%3A%2F%2Ftracker.coppersurfer.tk%3A6969%2Fannounce&tr=udp%3A%2F%2Ftracker.pirateparty.gr%3A6969%2Fannounce&tr=udp%3A%2F%2Ftracker.cyberia.is%3A6969%2Fannounce",
    "seeder": "6",
    "leecher": "1"
}{
    "rank": "50",
    "title": "PS2 - GTA San Andreas [1 DVD - PAL - MultiLanguage 5] [TNT Villa",
    "link": "magnet:?xt=urn:btih:16DE72E8994743110FECF71DD564E9C806B5CD21&dn=PS2+-+GTA+San+Andreas+%5B1+DVD+-+PAL+-+MultiLanguage+5%5D+%5BTNT+Villa&tr=udp%3A%2F%2Ftracker.coppersurfer.tk%3A6969%2Fannounce&tr=udp%3A%2F%2F9.rarbg.to%3A2920%2Fannounce&tr=udp%3A%2F%2Ftracker.opentrackr.org%3A1337&tr=udp%3A%2F%2Ftracker.internetwarriors.net%3A1337%2Fannounce&tr=udp%3A%2F%2Ftracker.leechers-paradise.org%3A6969%2Fannounce&tr=udp%3A%2F%2Ftracker.coppersurfer.tk%3A6969%2Fannounce&tr=udp%3A%2F%2Ftracker.pirateparty.gr%3A6969%2Fannounce&tr=udp%3A%2F%2Ftracker.cyberia.is%3A6969%2Fannounce",
    "seeder": "5",
    "leecher": "0"
}{
    "rank": "51",
    "title": "Rayman.Legends.PS3-STRiKE",
    "link": "magnet:?xt=urn:btih:3CE0A87B1F4CB68E6702F58662257D8F30EAF150&dn=Rayman.Legends.PS3-STRiKE&tr=udp%3A%2F%2Ftracker.coppersurfer.tk%3A6969%2Fannounce&tr=udp%3A%2F%2F9.rarbg.to%3A2920%2Fannounce&tr=udp%3A%2F%2Ftracker.opentrackr.org%3A1337&tr=udp%3A%2F%2Ftracker.internetwarriors.net%3A1337%2Fannounce&tr=udp%3A%2F%2Ftracker.leechers-paradise.org%3A6969%2Fannounce&tr=udp%3A%2F%2Ftracker.coppersurfer.tk%3A6969%2Fannounce&tr=udp%3A%2F%2Ftracker.pirateparty.gr%3A6969%2Fannounce&tr=udp%3A%2F%2Ftracker.cyberia.is%3A6969%2Fannounce",
    "seeder": "5",
    "leecher": "1"
}{
    "rank": "52",
    "title": "Need.for.Speed.Rivals.PS3-DUPLEX",
    "link": "magnet:?xt=urn:btih:9CECA29681F500EBDD605004664C7DC17011A86E&dn=Need.for.Speed.Rivals.PS3-DUPLEX&tr=udp%3A%2F%2Ftracker.coppersurfer.tk%3A6969%2Fannounce&tr=udp%3A%2F%2F9.rarbg.to%3A2920%2Fannounce&tr=udp%3A%2F%2Ftracker.opentrackr.org%3A1337&tr=udp%3A%2F%2Ftracker.internetwarriors.net%3A1337%2Fannounce&tr=udp%3A%2F%2Ftracker.leechers-paradise.org%3A6969%2Fannounce&tr=udp%3A%2F%2Ftracker.coppersurfer.tk%3A6969%2Fannounce&tr=udp%3A%2F%2Ftracker.pirateparty.gr%3A6969%2Fannounce&tr=udp%3A%2F%2Ftracker.cyberia.is%3A6969%2Fannounce",
    "seeder": "5",
    "leecher": "0"
}{
    "rank": "53",
    "title": "Mortal Kombat PS3-CHARGED-[tracker.BTARENA.org]",
    "link": "magnet:?xt=urn:btih:BF0D058D99B2F33E48B6C66FF68B1971998CDE18&dn=Mortal+Kombat+PS3-CHARGED-%5Btracker.BTARENA.org%5D&tr=udp%3A%2F%2Ftracker.coppersurfer.tk%3A6969%2Fannounce&tr=udp%3A%2F%2F9.rarbg.to%3A2920%2Fannounce&tr=udp%3A%2F%2Ftracker.opentrackr.org%3A1337&tr=udp%3A%2F%2Ftracker.internetwarriors.net%3A1337%2Fannounce&tr=udp%3A%2F%2Ftracker.leechers-paradise.org%3A6969%2Fannounce&tr=udp%3A%2F%2Ftracker.coppersurfer.tk%3A6969%2Fannounce&tr=udp%3A%2F%2Ftracker.pirateparty.gr%3A6969%2Fannounce&tr=udp%3A%2F%2Ftracker.cyberia.is%3A6969%2Fannounce",
    "seeder": "5",
    "leecher": "1"
}{
    "rank": "54",
    "title": "Need_for_Speed_Most_Wanted_PS3-ACCiDENT",
    "link": "magnet:?xt=urn:btih:BCEAE97D6B88F125FAE57C3FD6525BF7EB986B73&dn=Need_for_Speed_Most_Wanted_PS3-ACCiDENT&tr=udp%3A%2F%2Ftracker.coppersurfer.tk%3A6969%2Fannounce&tr=udp%3A%2F%2F9.rarbg.to%3A2920%2Fannounce&tr=udp%3A%2F%2Ftracker.opentrackr.org%3A1337&tr=udp%3A%2F%2Ftracker.internetwarriors.net%3A1337%2Fannounce&tr=udp%3A%2F%2Ftracker.leechers-paradise.org%3A6969%2Fannounce&tr=udp%3A%2F%2Ftracker.coppersurfer.tk%3A6969%2Fannounce&tr=udp%3A%2F%2Ftracker.pirateparty.gr%3A6969%2Fannounce&tr=udp%3A%2F%2Ftracker.cyberia.is%3A6969%2Fannounce",
    "seeder": "5",
    "leecher": "2"
}{
    "rank": "55",
    "title": "[PSX] Tekken 3 [1CD Eng] TNT Village",
    "link": "magnet:?xt=urn:btih:0576D55B7BC161EB23C7D6237AE751B4C7D620BB&dn=%5BPSX%5D+Tekken+3+%5B1CD+Eng%5D+TNT+Village&tr=udp%3A%2F%2Ftracker.coppersurfer.tk%3A6969%2Fannounce&tr=udp%3A%2F%2F9.rarbg.to%3A2920%2Fannounce&tr=udp%3A%2F%2Ftracker.opentrackr.org%3A1337&tr=udp%3A%2F%2Ftracker.internetwarriors.net%3A1337%2Fannounce&tr=udp%3A%2F%2Ftracker.leechers-paradise.org%3A6969%2Fannounce&tr=udp%3A%2F%2Ftracker.coppersurfer.tk%3A6969%2Fannounce&tr=udp%3A%2F%2Ftracker.pirateparty.gr%3A6969%2Fannounce&tr=udp%3A%2F%2Ftracker.cyberia.is%3A6969%2Fannounce",
    "seeder": "5",
    "leecher": "0"
}{
    "rank": "56",
    "title": "God.of.War.Ascension.PS3-DUPLEX",
    "link": "magnet:?xt=urn:btih:11030E9BFC5AD3B5E0E383D29ACD837545C27FEA&dn=God.of.War.Ascension.PS3-DUPLEX&tr=udp%3A%2F%2Ftracker.coppersurfer.tk%3A6969%2Fannounce&tr=udp%3A%2F%2F9.rarbg.to%3A2920%2Fannounce&tr=udp%3A%2F%2Ftracker.opentrackr.org%3A1337&tr=udp%3A%2F%2Ftracker.internetwarriors.net%3A1337%2Fannounce&tr=udp%3A%2F%2Ftracker.leechers-paradise.org%3A6969%2Fannounce&tr=udp%3A%2F%2Ftracker.coppersurfer.tk%3A6969%2Fannounce&tr=udp%3A%2F%2Ftracker.pirateparty.gr%3A6969%2Fannounce&tr=udp%3A%2F%2Ftracker.cyberia.is%3A6969%2Fannounce",
    "seeder": "5",
    "leecher": "2"
}{
    "rank": "57",
    "title": "FIFA 17 (PS3)",
    "link": "magnet:?xt=urn:btih:C071673E1BF8A5D57EBBC8D96FA6B35122088810&dn=FIFA+17+%28PS3%29&tr=udp%3A%2F%2Ftracker.coppersurfer.tk%3A6969%2Fannounce&tr=udp%3A%2F%2F9.rarbg.to%3A2920%2Fannounce&tr=udp%3A%2F%2Ftracker.opentrackr.org%3A1337&tr=udp%3A%2F%2Ftracker.internetwarriors.net%3A1337%2Fannounce&tr=udp%3A%2F%2Ftracker.leechers-paradise.org%3A6969%2Fannounce&tr=udp%3A%2F%2Ftracker.coppersurfer.tk%3A6969%2Fannounce&tr=udp%3A%2F%2Ftracker.pirateparty.gr%3A6969%2Fannounce&tr=udp%3A%2F%2Ftracker.cyberia.is%3A6969%2Fannounce",
    "seeder": "5",
    "leecher": "0"
}{
    "rank": "58",
    "title": "Lego Pirates of the Caribbean (2011) [Ps3][EUR][MULTi5]",
    "link": "magnet:?xt=urn:btih:F72826A17364FDBB22FA53E9114DE41350FD07CC&dn=Lego+Pirates+of+the+Caribbean+%282011%29+%5BPs3%5D%5BEUR%5D%5BMULTi5%5D&tr=udp%3A%2F%2Ftracker.coppersurfer.tk%3A6969%2Fannounce&tr=udp%3A%2F%2F9.rarbg.to%3A2920%2Fannounce&tr=udp%3A%2F%2Ftracker.opentrackr.org%3A1337&tr=udp%3A%2F%2Ftracker.internetwarriors.net%3A1337%2Fannounce&tr=udp%3A%2F%2Ftracker.leechers-paradise.org%3A6969%2Fannounce&tr=udp%3A%2F%2Ftracker.coppersurfer.tk%3A6969%2Fannounce&tr=udp%3A%2F%2Ftracker.pirateparty.gr%3A6969%2Fannounce&tr=udp%3A%2F%2Ftracker.cyberia.is%3A6969%2Fannounce",
    "seeder": "5",
    "leecher": "3"
}{
    "rank": "59",
    "title": "FIFA 14 PS2 PAL [MULTI 4] .ISO",
    "link": "magnet:?xt=urn:btih:C789E60EB75C3578C80C558074B11FC1930BBD59&dn=FIFA+14+PS2+PAL+%5BMULTI+4%5D+.ISO&tr=udp%3A%2F%2Ftracker.coppersurfer.tk%3A6969%2Fannounce&tr=udp%3A%2F%2F9.rarbg.to%3A2920%2Fannounce&tr=udp%3A%2F%2Ftracker.opentrackr.org%3A1337&tr=udp%3A%2F%2Ftracker.internetwarriors.net%3A1337%2Fannounce&tr=udp%3A%2F%2Ftracker.leechers-paradise.org%3A6969%2Fannounce&tr=udp%3A%2F%2Ftracker.coppersurfer.tk%3A6969%2Fannounce&tr=udp%3A%2F%2Ftracker.pirateparty.gr%3A6969%2Fannounce&tr=udp%3A%2F%2Ftracker.cyberia.is%3A6969%2Fannounce",
    "seeder": "5",
    "leecher": "0"
}{
    "rank": "60",
    "title": "Tomb.Raider.PS3-DUPLEX",
    "link": "magnet:?xt=urn:btih:599D65908202306E3D8CFADDA089DA98EA528CCA&dn=Tomb.Raider.PS3-DUPLEX&tr=udp%3A%2F%2Ftracker.coppersurfer.tk%3A6969%2Fannounce&tr=udp%3A%2F%2F9.rarbg.to%3A2920%2Fannounce&tr=udp%3A%2F%2Ftracker.opentrackr.org%3A1337&tr=udp%3A%2F%2Ftracker.internetwarriors.net%3A1337%2Fannounce&tr=udp%3A%2F%2Ftracker.leechers-paradise.org%3A6969%2Fannounce&tr=udp%3A%2F%2Ftracker.coppersurfer.tk%3A6969%2Fannounce&tr=udp%3A%2F%2Ftracker.pirateparty.gr%3A6969%2Fannounce&tr=udp%3A%2F%2Ftracker.cyberia.is%3A6969%2Fannounce",
    "seeder": "5",
    "leecher": "1"
}{
    "rank": "61",
    "title": "Resident Evil: The Umbrella Chronicles HD [PS3]",
    "link": "magnet:?xt=urn:btih:64FF3903AFEFD9D31553AD0FFAD441E49F9CECA6&dn=Resident+Evil%3A+The+Umbrella+Chronicles+HD+%5BPS3%5D&tr=udp%3A%2F%2Ftracker.coppersurfer.tk%3A6969%2Fannounce&tr=udp%3A%2F%2F9.rarbg.to%3A2920%2Fannounce&tr=udp%3A%2F%2Ftracker.opentrackr.org%3A1337&tr=udp%3A%2F%2Ftracker.internetwarriors.net%3A1337%2Fannounce&tr=udp%3A%2F%2Ftracker.leechers-paradise.org%3A6969%2Fannounce&tr=udp%3A%2F%2Ftracker.coppersurfer.tk%3A6969%2Fannounce&tr=udp%3A%2F%2Ftracker.pirateparty.gr%3A6969%2Fannounce&tr=udp%3A%2F%2Ftracker.cyberia.is%3A6969%2Fannounce",
    "seeder": "5",
    "leecher": "1"
}{
    "rank": "62",
    "title": "Infamous.2.PS3-CHARGED-[tracker.BTARENA.org]",
    "link": "magnet:?xt=urn:btih:908C292510B830D89099026CC42A7BFB1591887D&dn=Infamous.2.PS3-CHARGED-%5Btracker.BTARENA.org%5D&tr=udp%3A%2F%2Ftracker.coppersurfer.tk%3A6969%2Fannounce&tr=udp%3A%2F%2F9.rarbg.to%3A2920%2Fannounce&tr=udp%3A%2F%2Ftracker.opentrackr.org%3A1337&tr=udp%3A%2F%2Ftracker.internetwarriors.net%3A1337%2Fannounce&tr=udp%3A%2F%2Ftracker.leechers-paradise.org%3A6969%2Fannounce&tr=udp%3A%2F%2Ftracker.coppersurfer.tk%3A6969%2Fannounce&tr=udp%3A%2F%2Ftracker.pirateparty.gr%3A6969%2Fannounce&tr=udp%3A%2F%2Ftracker.cyberia.is%3A6969%2Fannounce",
    "seeder": "5",
    "leecher": "2"
}{
    "rank": "63",
    "title": "Gran Turismo 5 (2010) [Ps3][USA][MULTi5][PSJ-PSG]",
    "link": "magnet:?xt=urn:btih:BAA121D1AA831B30B266B73DAA7A17918072CFA7&dn=Gran+Turismo+5+%282010%29+%5BPs3%5D%5BUSA%5D%5BMULTi5%5D%5BPSJ-PSG%5D&tr=udp%3A%2F%2Ftracker.coppersurfer.tk%3A6969%2Fannounce&tr=udp%3A%2F%2F9.rarbg.to%3A2920%2Fannounce&tr=udp%3A%2F%2Ftracker.opentrackr.org%3A1337&tr=udp%3A%2F%2Ftracker.internetwarriors.net%3A1337%2Fannounce&tr=udp%3A%2F%2Ftracker.leechers-paradise.org%3A6969%2Fannounce&tr=udp%3A%2F%2Ftracker.coppersurfer.tk%3A6969%2Fannounce&tr=udp%3A%2F%2Ftracker.pirateparty.gr%3A6969%2Fannounce&tr=udp%3A%2F%2Ftracker.cyberia.is%3A6969%2Fannounce",
    "seeder": "5",
    "leecher": "3"
}{
    "rank": "64",
    "title": "Sly.Cooper.Thieves.in.Time.PS3-DUPLEX",
    "link": "magnet:?xt=urn:btih:DBD83F0955B271E04622905493F723895C157231&dn=Sly.Cooper.Thieves.in.Time.PS3-DUPLEX&tr=udp%3A%2F%2Ftracker.coppersurfer.tk%3A6969%2Fannounce&tr=udp%3A%2F%2F9.rarbg.to%3A2920%2Fannounce&tr=udp%3A%2F%2Ftracker.opentrackr.org%3A1337&tr=udp%3A%2F%2Ftracker.internetwarriors.net%3A1337%2Fannounce&tr=udp%3A%2F%2Ftracker.leechers-paradise.org%3A6969%2Fannounce&tr=udp%3A%2F%2Ftracker.coppersurfer.tk%3A6969%2Fannounce&tr=udp%3A%2F%2Ftracker.pirateparty.gr%3A6969%2Fannounce&tr=udp%3A%2F%2Ftracker.cyberia.is%3A6969%2Fannounce",
    "seeder": "5",
    "leecher": "1"
}{
    "rank": "65",
    "title": "Harry Potter And The Chamber Of Secrets [PS2] [NTSC]",
    "link": "magnet:?xt=urn:btih:D475BEAB50951AEDBA8840C098A2B1CC5A24AA8E&dn=Harry+Potter+And+The+Chamber+Of+Secrets+%5BPS2%5D+%5BNTSC%5D&tr=udp%3A%2F%2Ftracker.coppersurfer.tk%3A6969%2Fannounce&tr=udp%3A%2F%2F9.rarbg.to%3A2920%2Fannounce&tr=udp%3A%2F%2Ftracker.opentrackr.org%3A1337&tr=udp%3A%2F%2Ftracker.internetwarriors.net%3A1337%2Fannounce&tr=udp%3A%2F%2Ftracker.leechers-paradise.org%3A6969%2Fannounce&tr=udp%3A%2F%2Ftracker.coppersurfer.tk%3A6969%2Fannounce&tr=udp%3A%2F%2Ftracker.pirateparty.gr%3A6969%2Fannounce&tr=udp%3A%2F%2Ftracker.cyberia.is%3A6969%2Fannounce",
    "seeder": "4",
    "leecher": "0"
}{
    "rank": "66",
    "title": "Red Dead Revolver [PS2] [NTSC]",
    "link": "magnet:?xt=urn:btih:71A7CE2574461FB4CBAEFD9AC96620346E0DBD60&dn=Red+Dead+Revolver+%5BPS2%5D+%5BNTSC%5D&tr=udp%3A%2F%2Ftracker.coppersurfer.tk%3A6969%2Fannounce&tr=udp%3A%2F%2F9.rarbg.to%3A2920%2Fannounce&tr=udp%3A%2F%2Ftracker.opentrackr.org%3A1337&tr=udp%3A%2F%2Ftracker.internetwarriors.net%3A1337%2Fannounce&tr=udp%3A%2F%2Ftracker.leechers-paradise.org%3A6969%2Fannounce&tr=udp%3A%2F%2Ftracker.coppersurfer.tk%3A6969%2Fannounce&tr=udp%3A%2F%2Ftracker.pirateparty.gr%3A6969%2Fannounce&tr=udp%3A%2F%2Ftracker.cyberia.is%3A6969%2Fannounce",
    "seeder": "4",
    "leecher": "1"
}{
    "rank": "67",
    "title": "Duke.Nukem.Forever.PS3-DUPLEX",
    "link": "magnet:?xt=urn:btih:7F5FD01C42D9C4CFCD10AD624511A222BEADC0BF&dn=Duke.Nukem.Forever.PS3-DUPLEX&tr=udp%3A%2F%2Ftracker.coppersurfer.tk%3A6969%2Fannounce&tr=udp%3A%2F%2F9.rarbg.to%3A2920%2Fannounce&tr=udp%3A%2F%2Ftracker.opentrackr.org%3A1337&tr=udp%3A%2F%2Ftracker.internetwarriors.net%3A1337%2Fannounce&tr=udp%3A%2F%2Ftracker.leechers-paradise.org%3A6969%2Fannounce&tr=udp%3A%2F%2Ftracker.coppersurfer.tk%3A6969%2Fannounce&tr=udp%3A%2F%2Ftracker.pirateparty.gr%3A6969%2Fannounce&tr=udp%3A%2F%2Ftracker.cyberia.is%3A6969%2Fannounce",
    "seeder": "4",
    "leecher": "1"
}{
    "rank": "68",
    "title": "Counter-Strike: Global Offensive (CS:GO) [PS3]",
    "link": "magnet:?xt=urn:btih:F6F2CFD256E213089F51206309F44F17E8D57B98&dn=Counter-Strike%3A+Global+Offensive+%28CS%3AGO%29+%5BPS3%5D&tr=udp%3A%2F%2Ftracker.coppersurfer.tk%3A6969%2Fannounce&tr=udp%3A%2F%2F9.rarbg.to%3A2920%2Fannounce&tr=udp%3A%2F%2Ftracker.opentrackr.org%3A1337&tr=udp%3A%2F%2Ftracker.internetwarriors.net%3A1337%2Fannounce&tr=udp%3A%2F%2Ftracker.leechers-paradise.org%3A6969%2Fannounce&tr=udp%3A%2F%2Ftracker.coppersurfer.tk%3A6969%2Fannounce&tr=udp%3A%2F%2Ftracker.pirateparty.gr%3A6969%2Fannounce&tr=udp%3A%2F%2Ftracker.cyberia.is%3A6969%2Fannounce",
    "seeder": "4",
    "leecher": "0"
}{
    "rank": "69",
    "title": "PS2 - Metal Gear Solid 2 Sons Of Liberty [PAL Multi5] TNT Villag",
    "link": "magnet:?xt=urn:btih:6F1DE4086E1C9BC8E5F06CC6E13BD260D8385908&dn=PS2+-+Metal+Gear+Solid+2+Sons+Of+Liberty+%5BPAL+Multi5%5D+TNT+Villag&tr=udp%3A%2F%2Ftracker.coppersurfer.tk%3A6969%2Fannounce&tr=udp%3A%2F%2F9.rarbg.to%3A2920%2Fannounce&tr=udp%3A%2F%2Ftracker.opentrackr.org%3A1337&tr=udp%3A%2F%2Ftracker.internetwarriors.net%3A1337%2Fannounce&tr=udp%3A%2F%2Ftracker.leechers-paradise.org%3A6969%2Fannounce&tr=udp%3A%2F%2Ftracker.coppersurfer.tk%3A6969%2Fannounce&tr=udp%3A%2F%2Ftracker.pirateparty.gr%3A6969%2Fannounce&tr=udp%3A%2F%2Ftracker.cyberia.is%3A6969%2Fannounce",
    "seeder": "4",
    "leecher": "0"
}{
    "rank": "70",
    "title": "Ratchet  Clank Future Quest for Booty [PS3]",
    "link": "magnet:?xt=urn:btih:66007C32A201416E7CBFA1C780923B5AB3A9B456&dn=Ratchet++Clank+Future+Quest+for+Booty+%5BPS3%5D&tr=udp%3A%2F%2Ftracker.coppersurfer.tk%3A6969%2Fannounce&tr=udp%3A%2F%2F9.rarbg.to%3A2920%2Fannounce&tr=udp%3A%2F%2Ftracker.opentrackr.org%3A1337&tr=udp%3A%2F%2Ftracker.internetwarriors.net%3A1337%2Fannounce&tr=udp%3A%2F%2Ftracker.leechers-paradise.org%3A6969%2Fannounce&tr=udp%3A%2F%2Ftracker.coppersurfer.tk%3A6969%2Fannounce&tr=udp%3A%2F%2Ftracker.pirateparty.gr%3A6969%2Fannounce&tr=udp%3A%2F%2Ftracker.cyberia.is%3A6969%2Fannounce",
    "seeder": "4",
    "leecher": "0"
}{
    "rank": "71",
    "title": "Dark Cloud 1 & 2 [Ntsc], Ps2",
    "link": "magnet:?xt=urn:btih:8B591A935BDDEE50F649DEA24CFD2AB0247E510E&dn=Dark+Cloud+1+%26+2+%5BNtsc%5D%2C+Ps2&tr=udp%3A%2F%2Ftracker.coppersurfer.tk%3A6969%2Fannounce&tr=udp%3A%2F%2F9.rarbg.to%3A2920%2Fannounce&tr=udp%3A%2F%2Ftracker.opentrackr.org%3A1337&tr=udp%3A%2F%2Ftracker.internetwarriors.net%3A1337%2Fannounce&tr=udp%3A%2F%2Ftracker.leechers-paradise.org%3A6969%2Fannounce&tr=udp%3A%2F%2Ftracker.coppersurfer.tk%3A6969%2Fannounce&tr=udp%3A%2F%2Ftracker.pirateparty.gr%3A6969%2Fannounce&tr=udp%3A%2F%2Ftracker.cyberia.is%3A6969%2Fannounce",
    "seeder": "4",
    "leecher": "0"
}{
    "rank": "72",
    "title": "Resident Evil 4 HD [PS3]",
    "link": "magnet:?xt=urn:btih:F3D248143BF167EFCC4A1D06BEF249F6CDDF41DA&dn=Resident+Evil+4+HD+%5BPS3%5D&tr=udp%3A%2F%2Ftracker.coppersurfer.tk%3A6969%2Fannounce&tr=udp%3A%2F%2F9.rarbg.to%3A2920%2Fannounce&tr=udp%3A%2F%2Ftracker.opentrackr.org%3A1337&tr=udp%3A%2F%2Ftracker.internetwarriors.net%3A1337%2Fannounce&tr=udp%3A%2F%2Ftracker.leechers-paradise.org%3A6969%2Fannounce&tr=udp%3A%2F%2Ftracker.coppersurfer.tk%3A6969%2Fannounce&tr=udp%3A%2F%2Ftracker.pirateparty.gr%3A6969%2Fannounce&tr=udp%3A%2F%2Ftracker.cyberia.is%3A6969%2Fannounce",
    "seeder": "4",
    "leecher": "1"
}{
    "rank": "73",
    "title": "PSX PS1 PSOne Resident Evil 3",
    "link": "magnet:?xt=urn:btih:2D44DD75B00CCAC01D85043469E8DD99862A95FA&dn=PSX+PS1+PSOne+Resident+Evil+3&tr=udp%3A%2F%2Ftracker.coppersurfer.tk%3A6969%2Fannounce&tr=udp%3A%2F%2F9.rarbg.to%3A2920%2Fannounce&tr=udp%3A%2F%2Ftracker.opentrackr.org%3A1337&tr=udp%3A%2F%2Ftracker.internetwarriors.net%3A1337%2Fannounce&tr=udp%3A%2F%2Ftracker.leechers-paradise.org%3A6969%2Fannounce&tr=udp%3A%2F%2Ftracker.coppersurfer.tk%3A6969%2Fannounce&tr=udp%3A%2F%2Ftracker.pirateparty.gr%3A6969%2Fannounce&tr=udp%3A%2F%2Ftracker.cyberia.is%3A6969%2Fannounce",
    "seeder": "4",
    "leecher": "0"
}{
    "rank": "74",
    "title": "Mortal Kombat: Deception PS2 NTSC .ISO",
    "link": "magnet:?xt=urn:btih:5901FE41F6E18EEED9533A15C20ECB66BF36BD7C&dn=Mortal+Kombat%3A+Deception+PS2+NTSC+.ISO&tr=udp%3A%2F%2Ftracker.coppersurfer.tk%3A6969%2Fannounce&tr=udp%3A%2F%2F9.rarbg.to%3A2920%2Fannounce&tr=udp%3A%2F%2Ftracker.opentrackr.org%3A1337&tr=udp%3A%2F%2Ftracker.internetwarriors.net%3A1337%2Fannounce&tr=udp%3A%2F%2Ftracker.leechers-paradise.org%3A6969%2Fannounce&tr=udp%3A%2F%2Ftracker.coppersurfer.tk%3A6969%2Fannounce&tr=udp%3A%2F%2Ftracker.pirateparty.gr%3A6969%2Fannounce&tr=udp%3A%2F%2Ftracker.cyberia.is%3A6969%2Fannounce",
    "seeder": "4",
    "leecher": "0"
}{
    "rank": "75",
    "title": "Far.Cry.3.PS3-DUPLEX",
    "link": "magnet:?xt=urn:btih:7611737E6786013DC2FF2AF9E3C2C6B54E474A68&dn=Far.Cry.3.PS3-DUPLEX&tr=udp%3A%2F%2Ftracker.coppersurfer.tk%3A6969%2Fannounce&tr=udp%3A%2F%2F9.rarbg.to%3A2920%2Fannounce&tr=udp%3A%2F%2Ftracker.opentrackr.org%3A1337&tr=udp%3A%2F%2Ftracker.internetwarriors.net%3A1337%2Fannounce&tr=udp%3A%2F%2Ftracker.leechers-paradise.org%3A6969%2Fannounce&tr=udp%3A%2F%2Ftracker.coppersurfer.tk%3A6969%2Fannounce&tr=udp%3A%2F%2Ftracker.pirateparty.gr%3A6969%2Fannounce&tr=udp%3A%2F%2Ftracker.cyberia.is%3A6969%2Fannounce",
    "seeder": "4",
    "leecher": "0"
}{
    "rank": "76",
    "title": "Drakengard 1 & 2 [Ntsc], Ps2",
    "link": "magnet:?xt=urn:btih:EB2C75F6D1FC4987018681C35E2D8AE1C1835E23&dn=Drakengard+1+%26+2+%5BNtsc%5D%2C+Ps2&tr=udp%3A%2F%2Ftracker.coppersurfer.tk%3A6969%2Fannounce&tr=udp%3A%2F%2F9.rarbg.to%3A2920%2Fannounce&tr=udp%3A%2F%2Ftracker.opentrackr.org%3A1337&tr=udp%3A%2F%2Ftracker.internetwarriors.net%3A1337%2Fannounce&tr=udp%3A%2F%2Ftracker.leechers-paradise.org%3A6969%2Fannounce&tr=udp%3A%2F%2Ftracker.coppersurfer.tk%3A6969%2Fannounce&tr=udp%3A%2F%2Ftracker.pirateparty.gr%3A6969%2Fannounce&tr=udp%3A%2F%2Ftracker.cyberia.is%3A6969%2Fannounce",
    "seeder": "4",
    "leecher": "1"
}{
    "rank": "77",
    "title": "Far.Cry.4.PS3-iMARS",
    "link": "magnet:?xt=urn:btih:ADF374B8F1D3DAE3C611F696EB6E49CA8E5A7C78&dn=Far.Cry.4.PS3-iMARS&tr=udp%3A%2F%2Ftracker.coppersurfer.tk%3A6969%2Fannounce&tr=udp%3A%2F%2F9.rarbg.to%3A2920%2Fannounce&tr=udp%3A%2F%2Ftracker.opentrackr.org%3A1337&tr=udp%3A%2F%2Ftracker.internetwarriors.net%3A1337%2Fannounce&tr=udp%3A%2F%2Ftracker.leechers-paradise.org%3A6969%2Fannounce&tr=udp%3A%2F%2Ftracker.coppersurfer.tk%3A6969%2Fannounce&tr=udp%3A%2F%2Ftracker.pirateparty.gr%3A6969%2Fannounce&tr=udp%3A%2F%2Ftracker.cyberia.is%3A6969%2Fannounce",
    "seeder": "4",
    "leecher": "2"
}{
    "rank": "78",
    "title": "God of War III (2010) [Ps3[EUR][MULTi11]",
    "link": "magnet:?xt=urn:btih:DA01A25E3BDCF0207AD27FBB2744463651A7C433&dn=God+of+War+III+%282010%29+%5BPs3%5BEUR%5D%5BMULTi11%5D&tr=udp%3A%2F%2Ftracker.coppersurfer.tk%3A6969%2Fannounce&tr=udp%3A%2F%2F9.rarbg.to%3A2920%2Fannounce&tr=udp%3A%2F%2Ftracker.opentrackr.org%3A1337&tr=udp%3A%2F%2Ftracker.internetwarriors.net%3A1337%2Fannounce&tr=udp%3A%2F%2Ftracker.leechers-paradise.org%3A6969%2Fannounce&tr=udp%3A%2F%2Ftracker.coppersurfer.tk%3A6969%2Fannounce&tr=udp%3A%2F%2Ftracker.pirateparty.gr%3A6969%2Fannounce&tr=udp%3A%2F%2Ftracker.cyberia.is%3A6969%2Fannounce",
    "seeder": "4",
    "leecher": "4"
}{
    "rank": "79",
    "title": "The.Amazing.Spider-Man.2.PS3-DUPLEX",
    "link": "magnet:?xt=urn:btih:1024A7C8F2D1C02E03C02EE958E2B5A5EACD2BF7&dn=The.Amazing.Spider-Man.2.PS3-DUPLEX&tr=udp%3A%2F%2Ftracker.coppersurfer.tk%3A6969%2Fannounce&tr=udp%3A%2F%2F9.rarbg.to%3A2920%2Fannounce&tr=udp%3A%2F%2Ftracker.opentrackr.org%3A1337&tr=udp%3A%2F%2Ftracker.internetwarriors.net%3A1337%2Fannounce&tr=udp%3A%2F%2Ftracker.leechers-paradise.org%3A6969%2Fannounce&tr=udp%3A%2F%2Ftracker.coppersurfer.tk%3A6969%2Fannounce&tr=udp%3A%2F%2Ftracker.pirateparty.gr%3A6969%2Fannounce&tr=udp%3A%2F%2Ftracker.cyberia.is%3A6969%2Fannounce",
    "seeder": "4",
    "leecher": "2"
}{
    "rank": "80",
    "title": "PS2 - Baldur's Gate Dark Alliance II [PAL ENG ESP ITA] TNT Vill",
    "link": "magnet:?xt=urn:btih:E2402AEA583CE124F0314D0A68C9A424DA6BEBFB&dn=PS2+-+Baldur%27s+Gate+Dark+Alliance+II+%5BPAL+ENG+ESP+ITA%5D+TNT+Vill&tr=udp%3A%2F%2Ftracker.coppersurfer.tk%3A6969%2Fannounce&tr=udp%3A%2F%2F9.rarbg.to%3A2920%2Fannounce&tr=udp%3A%2F%2Ftracker.opentrackr.org%3A1337&tr=udp%3A%2F%2Ftracker.internetwarriors.net%3A1337%2Fannounce&tr=udp%3A%2F%2Ftracker.leechers-paradise.org%3A6969%2Fannounce&tr=udp%3A%2F%2Ftracker.coppersurfer.tk%3A6969%2Fannounce&tr=udp%3A%2F%2Ftracker.pirateparty.gr%3A6969%2Fannounce&tr=udp%3A%2F%2Ftracker.cyberia.is%3A6969%2Fannounce",
    "seeder": "4",
    "leecher": "0"
}{
    "rank": "81",
    "title": "Army.of.Two.The.Devils.Cartel.PS3-DUPLEX",
    "link": "magnet:?xt=urn:btih:BFC6EE1385C1F0F0295ED46831A1FA6FD5124F9C&dn=Army.of.Two.The.Devils.Cartel.PS3-DUPLEX&tr=udp%3A%2F%2Ftracker.coppersurfer.tk%3A6969%2Fannounce&tr=udp%3A%2F%2F9.rarbg.to%3A2920%2Fannounce&tr=udp%3A%2F%2Ftracker.opentrackr.org%3A1337&tr=udp%3A%2F%2Ftracker.internetwarriors.net%3A1337%2Fannounce&tr=udp%3A%2F%2Ftracker.leechers-paradise.org%3A6969%2Fannounce&tr=udp%3A%2F%2Ftracker.coppersurfer.tk%3A6969%2Fannounce&tr=udp%3A%2F%2Ftracker.pirateparty.gr%3A6969%2Fannounce&tr=udp%3A%2F%2Ftracker.cyberia.is%3A6969%2Fannounce",
    "seeder": "4",
    "leecher": "3"
}{
    "rank": "82",
    "title": "Need for Speed Underground 2 [Ntsc] Ps2",
    "link": "magnet:?xt=urn:btih:67C265034AB70A86427302D45A5E6C1E52034310&dn=Need+for+Speed+Underground+2+%5BNtsc%5D+Ps2&tr=udp%3A%2F%2Ftracker.coppersurfer.tk%3A6969%2Fannounce&tr=udp%3A%2F%2F9.rarbg.to%3A2920%2Fannounce&tr=udp%3A%2F%2Ftracker.opentrackr.org%3A1337&tr=udp%3A%2F%2Ftracker.internetwarriors.net%3A1337%2Fannounce&tr=udp%3A%2F%2Ftracker.leechers-paradise.org%3A6969%2Fannounce&tr=udp%3A%2F%2Ftracker.coppersurfer.tk%3A6969%2Fannounce&tr=udp%3A%2F%2Ftracker.pirateparty.gr%3A6969%2Fannounce&tr=udp%3A%2F%2Ftracker.cyberia.is%3A6969%2Fannounce",
    "seeder": "4",
    "leecher": "0"
}{
    "rank": "83",
    "title": "Jojo_no_Kimyou_na_Bouken_All_Star_Battle_JPN_PS3-Caravan",
    "link": "magnet:?xt=urn:btih:99B10D08827136FCF14FD96940053618C285CFF7&dn=Jojo_no_Kimyou_na_Bouken_All_Star_Battle_JPN_PS3-Caravan&tr=udp%3A%2F%2Ftracker.coppersurfer.tk%3A6969%2Fannounce&tr=udp%3A%2F%2F9.rarbg.to%3A2920%2Fannounce&tr=udp%3A%2F%2Ftracker.opentrackr.org%3A1337&tr=udp%3A%2F%2Ftracker.internetwarriors.net%3A1337%2Fannounce&tr=udp%3A%2F%2Ftracker.leechers-paradise.org%3A6969%2Fannounce&tr=udp%3A%2F%2Ftracker.coppersurfer.tk%3A6969%2Fannounce&tr=udp%3A%2F%2Ftracker.pirateparty.gr%3A6969%2Fannounce&tr=udp%3A%2F%2Ftracker.cyberia.is%3A6969%2Fannounce",
    "seeder": "4",
    "leecher": "0"
}{
    "rank": "84",
    "title": "PS2 - God hand [PAL Multi5] TNT Village",
    "link": "magnet:?xt=urn:btih:BEB335635ED58F9B59B3D9DCF79B7952807F7BBA&dn=PS2+-+God+hand+%5BPAL+Multi5%5D+TNT+Village&tr=udp%3A%2F%2Ftracker.coppersurfer.tk%3A6969%2Fannounce&tr=udp%3A%2F%2F9.rarbg.to%3A2920%2Fannounce&tr=udp%3A%2F%2Ftracker.opentrackr.org%3A1337&tr=udp%3A%2F%2Ftracker.internetwarriors.net%3A1337%2Fannounce&tr=udp%3A%2F%2Ftracker.leechers-paradise.org%3A6969%2Fannounce&tr=udp%3A%2F%2Ftracker.coppersurfer.tk%3A6969%2Fannounce&tr=udp%3A%2F%2Ftracker.pirateparty.gr%3A6969%2Fannounce&tr=udp%3A%2F%2Ftracker.cyberia.is%3A6969%2Fannounce",
    "seeder": "4",
    "leecher": "0"
}{
    "rank": "85",
    "title": "Need For Speed: Shift [PS3] [PSJ]",
    "link": "magnet:?xt=urn:btih:61EFDE2B3D4F786C7B465CF451CD24792648C678&dn=Need+For+Speed%3A+Shift+%5BPS3%5D+%5BPSJ%5D&tr=udp%3A%2F%2Ftracker.coppersurfer.tk%3A6969%2Fannounce&tr=udp%3A%2F%2F9.rarbg.to%3A2920%2Fannounce&tr=udp%3A%2F%2Ftracker.opentrackr.org%3A1337&tr=udp%3A%2F%2Ftracker.internetwarriors.net%3A1337%2Fannounce&tr=udp%3A%2F%2Ftracker.leechers-paradise.org%3A6969%2Fannounce&tr=udp%3A%2F%2Ftracker.coppersurfer.tk%3A6969%2Fannounce&tr=udp%3A%2F%2Ftracker.pirateparty.gr%3A6969%2Fannounce&tr=udp%3A%2F%2Ftracker.cyberia.is%3A6969%2Fannounce",
    "seeder": "4",
    "leecher": "1"
}{
    "rank": "86",
    "title": "Watch Dogs PS3-DUPLEX",
    "link": "magnet:?xt=urn:btih:3DA742650CE132252057213BD03E552C4A4B35EB&dn=Watch+Dogs+PS3-DUPLEX&tr=udp%3A%2F%2Ftracker.coppersurfer.tk%3A6969%2Fannounce&tr=udp%3A%2F%2F9.rarbg.to%3A2920%2Fannounce&tr=udp%3A%2F%2Ftracker.opentrackr.org%3A1337&tr=udp%3A%2F%2Ftracker.internetwarriors.net%3A1337%2Fannounce&tr=udp%3A%2F%2Ftracker.leechers-paradise.org%3A6969%2Fannounce&tr=udp%3A%2F%2Ftracker.coppersurfer.tk%3A6969%2Fannounce&tr=udp%3A%2F%2Ftracker.pirateparty.gr%3A6969%2Fannounce&tr=udp%3A%2F%2Ftracker.cyberia.is%3A6969%2Fannounce",
    "seeder": "4",
    "leecher": "2"
}{
    "rank": "87",
    "title": "Half-Life [PS2]",
    "link": "magnet:?xt=urn:btih:ACAE358A1E3C1F15E4E3AAEB3A8E6A09E46E3C26&dn=Half-Life+%5BPS2%5D&tr=udp%3A%2F%2Ftracker.coppersurfer.tk%3A6969%2Fannounce&tr=udp%3A%2F%2F9.rarbg.to%3A2920%2Fannounce&tr=udp%3A%2F%2Ftracker.opentrackr.org%3A1337&tr=udp%3A%2F%2Ftracker.internetwarriors.net%3A1337%2Fannounce&tr=udp%3A%2F%2Ftracker.leechers-paradise.org%3A6969%2Fannounce&tr=udp%3A%2F%2Ftracker.coppersurfer.tk%3A6969%2Fannounce&tr=udp%3A%2F%2Ftracker.pirateparty.gr%3A6969%2Fannounce&tr=udp%3A%2F%2Ftracker.cyberia.is%3A6969%2Fannounce",
    "seeder": "4",
    "leecher": "0"
}{
    "rank": "88",
    "title": "Metal Slug 3D ps2 jap",
    "link": "magnet:?xt=urn:btih:0305BB45200DB9DEAD2D478D067218454713E816&dn=Metal+Slug+3D+ps2+jap&tr=udp%3A%2F%2Ftracker.coppersurfer.tk%3A6969%2Fannounce&tr=udp%3A%2F%2F9.rarbg.to%3A2920%2Fannounce&tr=udp%3A%2F%2Ftracker.opentrackr.org%3A1337&tr=udp%3A%2F%2Ftracker.internetwarriors.net%3A1337%2Fannounce&tr=udp%3A%2F%2Ftracker.leechers-paradise.org%3A6969%2Fannounce&tr=udp%3A%2F%2Ftracker.coppersurfer.tk%3A6969%2Fannounce&tr=udp%3A%2F%2Ftracker.pirateparty.gr%3A6969%2Fannounce&tr=udp%3A%2F%2Ftracker.cyberia.is%3A6969%2Fannounce",
    "seeder": "4",
    "leecher": "0"
}{
    "rank": "89",
    "title": "SWAT: Global Strike Team [PS2] [NTSC]",
    "link": "magnet:?xt=urn:btih:1C740344FA17732401E281E2F5E141E6B20262F1&dn=SWAT%3A+Global+Strike+Team+%5BPS2%5D+%5BNTSC%5D&tr=udp%3A%2F%2Ftracker.coppersurfer.tk%3A6969%2Fannounce&tr=udp%3A%2F%2F9.rarbg.to%3A2920%2Fannounce&tr=udp%3A%2F%2Ftracker.opentrackr.org%3A1337&tr=udp%3A%2F%2Ftracker.internetwarriors.net%3A1337%2Fannounce&tr=udp%3A%2F%2Ftracker.leechers-paradise.org%3A6969%2Fannounce&tr=udp%3A%2F%2Ftracker.coppersurfer.tk%3A6969%2Fannounce&tr=udp%3A%2F%2Ftracker.pirateparty.gr%3A6969%2Fannounce&tr=udp%3A%2F%2Ftracker.cyberia.is%3A6969%2Fannounce",
    "seeder": "4",
    "leecher": "0"
}{
    "rank": "90",
    "title": "The.Elder.Scrolls.V.Skyrim.Legendary.Edition.MULTi4.PS3-UNLiMiTE",
    "link": "magnet:?xt=urn:btih:BF0F952346C6CA8C21DC2820CEF5E25A4109546D&dn=The.Elder.Scrolls.V.Skyrim.Legendary.Edition.MULTi4.PS3-UNLiMiTE&tr=udp%3A%2F%2Ftracker.coppersurfer.tk%3A6969%2Fannounce&tr=udp%3A%2F%2F9.rarbg.to%3A2920%2Fannounce&tr=udp%3A%2F%2Ftracker.opentrackr.org%3A1337&tr=udp%3A%2F%2Ftracker.internetwarriors.net%3A1337%2Fannounce&tr=udp%3A%2F%2Ftracker.leechers-paradise.org%3A6969%2Fannounce&tr=udp%3A%2F%2Ftracker.coppersurfer.tk%3A6969%2Fannounce&tr=udp%3A%2F%2Ftracker.pirateparty.gr%3A6969%2Fannounce&tr=udp%3A%2F%2Ftracker.cyberia.is%3A6969%2Fannounce",
    "seeder": "3",
    "leecher": "0"
}{
    "rank": "91",
    "title": "Dot Hack Collection [PS2] [NTSC]",
    "link": "magnet:?xt=urn:btih:278E3B9C2E76C255061B6C36D2C8BDE7CBDBA4F9&dn=Dot+Hack+Collection+%5BPS2%5D+%5BNTSC%5D&tr=udp%3A%2F%2Ftracker.coppersurfer.tk%3A6969%2Fannounce&tr=udp%3A%2F%2F9.rarbg.to%3A2920%2Fannounce&tr=udp%3A%2F%2Ftracker.opentrackr.org%3A1337&tr=udp%3A%2F%2Ftracker.internetwarriors.net%3A1337%2Fannounce&tr=udp%3A%2F%2Ftracker.leechers-paradise.org%3A6969%2Fannounce&tr=udp%3A%2F%2Ftracker.coppersurfer.tk%3A6969%2Fannounce&tr=udp%3A%2F%2Ftracker.pirateparty.gr%3A6969%2Fannounce&tr=udp%3A%2F%2Ftracker.cyberia.is%3A6969%2Fannounce",
    "seeder": "3",
    "leecher": "1"
}{
    "rank": "92",
    "title": "Need For Speed ProStreet [MULTI2][PS2DVD][gamerguuy]",
    "link": "magnet:?xt=urn:btih:A3D8A209FE9DD2CED5BBBCFC0F4D4FC72DB0A600&dn=Need+For+Speed+ProStreet+%5BMULTI2%5D%5BPS2DVD%5D%5Bgamerguuy%5D&tr=udp%3A%2F%2Ftracker.coppersurfer.tk%3A6969%2Fannounce&tr=udp%3A%2F%2F9.rarbg.to%3A2920%2Fannounce&tr=udp%3A%2F%2Ftracker.opentrackr.org%3A1337&tr=udp%3A%2F%2Ftracker.internetwarriors.net%3A1337%2Fannounce&tr=udp%3A%2F%2Ftracker.leechers-paradise.org%3A6969%2Fannounce&tr=udp%3A%2F%2Ftracker.coppersurfer.tk%3A6969%2Fannounce&tr=udp%3A%2F%2Ftracker.pirateparty.gr%3A6969%2Fannounce&tr=udp%3A%2F%2Ftracker.cyberia.is%3A6969%2Fannounce",
    "seeder": "3",
    "leecher": "0"
}{
    "rank": "93",
    "title": "Plants.vs.Zombies.Garden.Warfare.PS3-iMARS",
    "link": "magnet:?xt=urn:btih:CD985227C369737479D2B26E25A02EFBCDE9F486&dn=Plants.vs.Zombies.Garden.Warfare.PS3-iMARS&tr=udp%3A%2F%2Ftracker.coppersurfer.tk%3A6969%2Fannounce&tr=udp%3A%2F%2F9.rarbg.to%3A2920%2Fannounce&tr=udp%3A%2F%2Ftracker.opentrackr.org%3A1337&tr=udp%3A%2F%2Ftracker.internetwarriors.net%3A1337%2Fannounce&tr=udp%3A%2F%2Ftracker.leechers-paradise.org%3A6969%2Fannounce&tr=udp%3A%2F%2Ftracker.coppersurfer.tk%3A6969%2Fannounce&tr=udp%3A%2F%2Ftracker.pirateparty.gr%3A6969%2Fannounce&tr=udp%3A%2F%2Ftracker.cyberia.is%3A6969%2Fannounce",
    "seeder": "3",
    "leecher": "0"
}{
    "rank": "94",
    "title": "The Lord Of The Rings: The Third Age [PS2] [MULTI2]",
    "link": "magnet:?xt=urn:btih:4BD0479FF471588BCD8B97E2DEAF93B21B2B3384&dn=The+Lord+Of+The+Rings%3A+The+Third+Age+%5BPS2%5D+%5BMULTI2%5D&tr=udp%3A%2F%2Ftracker.coppersurfer.tk%3A6969%2Fannounce&tr=udp%3A%2F%2F9.rarbg.to%3A2920%2Fannounce&tr=udp%3A%2F%2Ftracker.opentrackr.org%3A1337&tr=udp%3A%2F%2Ftracker.internetwarriors.net%3A1337%2Fannounce&tr=udp%3A%2F%2Ftracker.leechers-paradise.org%3A6969%2Fannounce&tr=udp%3A%2F%2Ftracker.coppersurfer.tk%3A6969%2Fannounce&tr=udp%3A%2F%2Ftracker.pirateparty.gr%3A6969%2Fannounce&tr=udp%3A%2F%2Ftracker.cyberia.is%3A6969%2Fannounce",
    "seeder": "3",
    "leecher": "0"
}{
    "rank": "95",
    "title": "Tom Clancys Hawx 2 (2010) [Ps3][MULTi5][Region Free]",
    "link": "magnet:?xt=urn:btih:A682082D09BCFE0626454171F81E77A35D1E921B&dn=Tom+Clancys+Hawx+2+%282010%29+%5BPs3%5D%5BMULTi5%5D%5BRegion+Free%5D&tr=udp%3A%2F%2Ftracker.coppersurfer.tk%3A6969%2Fannounce&tr=udp%3A%2F%2F9.rarbg.to%3A2920%2Fannounce&tr=udp%3A%2F%2Ftracker.opentrackr.org%3A1337&tr=udp%3A%2F%2Ftracker.internetwarriors.net%3A1337%2Fannounce&tr=udp%3A%2F%2Ftracker.leechers-paradise.org%3A6969%2Fannounce&tr=udp%3A%2F%2Ftracker.coppersurfer.tk%3A6969%2Fannounce&tr=udp%3A%2F%2Ftracker.pirateparty.gr%3A6969%2Fannounce&tr=udp%3A%2F%2Ftracker.cyberia.is%3A6969%2Fannounce",
    "seeder": "3",
    "leecher": "1"
}{
    "rank": "96",
    "title": "Assassins_Creed_IV_Black_Flag-PS3-RiOT",
    "link": "magnet:?xt=urn:btih:ED099380EF28A32668F6803BCAF91DAE127CE686&dn=Assassins_Creed_IV_Black_Flag-PS3-RiOT&tr=udp%3A%2F%2Ftracker.coppersurfer.tk%3A6969%2Fannounce&tr=udp%3A%2F%2F9.rarbg.to%3A2920%2Fannounce&tr=udp%3A%2F%2Ftracker.opentrackr.org%3A1337&tr=udp%3A%2F%2Ftracker.internetwarriors.net%3A1337%2Fannounce&tr=udp%3A%2F%2Ftracker.leechers-paradise.org%3A6969%2Fannounce&tr=udp%3A%2F%2Ftracker.coppersurfer.tk%3A6969%2Fannounce&tr=udp%3A%2F%2Ftracker.pirateparty.gr%3A6969%2Fannounce&tr=udp%3A%2F%2Ftracker.cyberia.is%3A6969%2Fannounce",
    "seeder": "3",
    "leecher": "0"
}{
    "rank": "97",
    "title": "Kingdom.Hearts.HD.2.5.ReMIX.PS3-DUPLEX",
    "link": "magnet:?xt=urn:btih:C1F21B1B6A6D87BEA3A66887402E7ECC5000A004&dn=Kingdom.Hearts.HD.2.5.ReMIX.PS3-DUPLEX&tr=udp%3A%2F%2Ftracker.coppersurfer.tk%3A6969%2Fannounce&tr=udp%3A%2F%2F9.rarbg.to%3A2920%2Fannounce&tr=udp%3A%2F%2Ftracker.opentrackr.org%3A1337&tr=udp%3A%2F%2Ftracker.internetwarriors.net%3A1337%2Fannounce&tr=udp%3A%2F%2Ftracker.leechers-paradise.org%3A6969%2Fannounce&tr=udp%3A%2F%2Ftracker.coppersurfer.tk%3A6969%2Fannounce&tr=udp%3A%2F%2Ftracker.pirateparty.gr%3A6969%2Fannounce&tr=udp%3A%2F%2Ftracker.cyberia.is%3A6969%2Fannounce",
    "seeder": "3",
    "leecher": "4"
}{
    "rank": "98",
    "title": "Call.of.Duty.4.Modern.Warfare.2.EUR.PS3-STRiKE.[TrackerTDX.com]",
    "link": "magnet:?xt=urn:btih:F2508B866C506B6D281B5500798E3F156E6FCA4F&dn=Call.of.Duty.4.Modern.Warfare.2.EUR.PS3-STRiKE.%5BTrackerTDX.com%5D&tr=udp%3A%2F%2Ftracker.coppersurfer.tk%3A6969%2Fannounce&tr=udp%3A%2F%2F9.rarbg.to%3A2920%2Fannounce&tr=udp%3A%2F%2Ftracker.opentrackr.org%3A1337&tr=udp%3A%2F%2Ftracker.internetwarriors.net%3A1337%2Fannounce&tr=udp%3A%2F%2Ftracker.leechers-paradise.org%3A6969%2Fannounce&tr=udp%3A%2F%2Ftracker.coppersurfer.tk%3A6969%2Fannounce&tr=udp%3A%2F%2Ftracker.pirateparty.gr%3A6969%2Fannounce&tr=udp%3A%2F%2Ftracker.cyberia.is%3A6969%2Fannounce",
    "seeder": "3",
    "leecher": "3"
}{
    "rank": "99",
    "title": "Little_Big_Planet_2_Extras_Edition_PS3-STRiKE",
    "link": "magnet:?xt=urn:btih:5414886C8CF86BA9372A0B489B7BAD53C930ADE5&dn=Little_Big_Planet_2_Extras_Edition_PS3-STRiKE&tr=udp%3A%2F%2Ftracker.coppersurfer.tk%3A6969%2Fannounce&tr=udp%3A%2F%2F9.rarbg.to%3A2920%2Fannounce&tr=udp%3A%2F%2Ftracker.opentrackr.org%3A1337&tr=udp%3A%2F%2Ftracker.internetwarriors.net%3A1337%2Fannounce&tr=udp%3A%2F%2Ftracker.leechers-paradise.org%3A6969%2Fannounce&tr=udp%3A%2F%2Ftracker.coppersurfer.tk%3A6969%2Fannounce&tr=udp%3A%2F%2Ftracker.pirateparty.gr%3A6969%2Fannounce&tr=udp%3A%2F%2Ftracker.cyberia.is%3A6969%2Fannounce",
    "seeder": "3",
    "leecher": "0"
}{
    "rank": "100",
    "title": "FIFA Soccer 2005 [Ntsc], Ps2",
    "link": "magnet:?xt=urn:btih:E9E8DF87434BAC867CF07532B19AA0C4D4328262&dn=FIFA+Soccer+2005+%5BNtsc%5D%2C+Ps2&tr=udp%3A%2F%2Ftracker.coppersurfer.tk%3A6969%2Fannounce&tr=udp%3A%2F%2F9.rarbg.to%3A2920%2Fannounce&tr=udp%3A%2F%2Ftracker.opentrackr.org%3A1337&tr=udp%3A%2F%2Ftracker.internetwarriors.net%3A1337%2Fannounce&tr=udp%3A%2F%2Ftracker.leechers-paradise.org%3A6969%2Fannounce&tr=udp%3A%2F%2Ftracker.coppersurfer.tk%3A6969%2Fannounce&tr=udp%3A%2F%2Ftracker.pirateparty.gr%3A6969%2Fannounce&tr=udp%3A%2F%2Ftracker.cyberia.is%3A6969%2Fannounce",
    "seeder": "3",
    "leecher": "0"
}