{
    "rank": "1",
    "title": "Age of Empires II (2): HD Edition [Mac] [Wineskin]",
    "link": "magnet:?xt=urn:btih:F5007E41B0E76235F997E007A8D271E80C46726A&dn=Age+of+Empires+II+%282%29%3A+HD+Edition+%5BMac%5D+%5BWineskin%5D&tr=udp%3A%2F%2Ftracker.coppersurfer.tk%3A6969%2Fannounce&tr=udp%3A%2F%2F9.rarbg.to%3A2920%2Fannounce&tr=udp%3A%2F%2Ftracker.opentrackr.org%3A1337&tr=udp%3A%2F%2Ftracker.internetwarriors.net%3A1337%2Fannounce&tr=udp%3A%2F%2Ftracker.leechers-paradise.org%3A6969%2Fannounce&tr=udp%3A%2F%2Ftracker.coppersurfer.tk%3A6969%2Fannounce&tr=udp%3A%2F%2Ftracker.pirateparty.gr%3A6969%2Fannounce&tr=udp%3A%2F%2Ftracker.cyberia.is%3A6969%2Fannounce",
    "seeder": "11",
    "leecher": "1"
}{
    "rank": "2",
    "title": "Civilization.V.Campaign.Edition.v1.3.3.Multilingual.Incl.DLC.Mac",
    "link": "magnet:?xt=urn:btih:79FD45C9505838628062C1DFBFC3E2A654A32341&dn=Civilization.V.Campaign.Edition.v1.3.3.Multilingual.Incl.DLC.Mac&tr=udp%3A%2F%2Ftracker.coppersurfer.tk%3A6969%2Fannounce&tr=udp%3A%2F%2F9.rarbg.to%3A2920%2Fannounce&tr=udp%3A%2F%2Ftracker.opentrackr.org%3A1337&tr=udp%3A%2F%2Ftracker.internetwarriors.net%3A1337%2Fannounce&tr=udp%3A%2F%2Ftracker.leechers-paradise.org%3A6969%2Fannounce&tr=udp%3A%2F%2Ftracker.coppersurfer.tk%3A6969%2Fannounce&tr=udp%3A%2F%2Ftracker.pirateparty.gr%3A6969%2Fannounce&tr=udp%3A%2F%2Ftracker.cyberia.is%3A6969%2Fannounce",
    "seeder": "10",
    "leecher": "1"
}{
    "rank": "3",
    "title": "Need for Speed Underground 2 [Cider Port]+ GAMEFIX[MAC-GAME-ENG]",
    "link": "magnet:?xt=urn:btih:C540F30782379B841042DC4F7DE674D29415DFE8&dn=Need+for+Speed+Underground+2+%5BCider+Port%5D%2B+GAMEFIX%5BMAC-GAME-ENG%5D&tr=udp%3A%2F%2Ftracker.coppersurfer.tk%3A6969%2Fannounce&tr=udp%3A%2F%2F9.rarbg.to%3A2920%2Fannounce&tr=udp%3A%2F%2Ftracker.opentrackr.org%3A1337&tr=udp%3A%2F%2Ftracker.internetwarriors.net%3A1337%2Fannounce&tr=udp%3A%2F%2Ftracker.leechers-paradise.org%3A6969%2Fannounce&tr=udp%3A%2F%2Ftracker.coppersurfer.tk%3A6969%2Fannounce&tr=udp%3A%2F%2Ftracker.pirateparty.gr%3A6969%2Fannounce&tr=udp%3A%2F%2Ftracker.cyberia.is%3A6969%2Fannounce",
    "seeder": "8",
    "leecher": "1"
}{
    "rank": "4",
    "title": "Mafia II: Director's Cut [Mac]",
    "link": "magnet:?xt=urn:btih:09DC784811166DB44523CDBF9F27DAD3F501BE3B&dn=Mafia+II%3A+Director%27s+Cut+%5BMac%5D&tr=udp%3A%2F%2Ftracker.coppersurfer.tk%3A6969%2Fannounce&tr=udp%3A%2F%2F9.rarbg.to%3A2920%2Fannounce&tr=udp%3A%2F%2Ftracker.opentrackr.org%3A1337&tr=udp%3A%2F%2Ftracker.internetwarriors.net%3A1337%2Fannounce&tr=udp%3A%2F%2Ftracker.leechers-paradise.org%3A6969%2Fannounce&tr=udp%3A%2F%2Ftracker.coppersurfer.tk%3A6969%2Fannounce&tr=udp%3A%2F%2Ftracker.pirateparty.gr%3A6969%2Fannounce&tr=udp%3A%2F%2Ftracker.cyberia.is%3A6969%2Fannounce",
    "seeder": "7",
    "leecher": "2"
}{
    "rank": "5",
    "title": "Grand Theft Auto 4 (GTA IV) [English][MACOSX] - Rjaa",
    "link": "magnet:?xt=urn:btih:ABB9B9989F7CE607D4E140F5BB8AA7A2202B0C5C&dn=Grand+Theft+Auto+4+%28GTA+IV%29+%5BEnglish%5D%5BMACOSX%5D+-+Rjaa&tr=udp%3A%2F%2Ftracker.coppersurfer.tk%3A6969%2Fannounce&tr=udp%3A%2F%2F9.rarbg.to%3A2920%2Fannounce&tr=udp%3A%2F%2Ftracker.opentrackr.org%3A1337&tr=udp%3A%2F%2Ftracker.internetwarriors.net%3A1337%2Fannounce&tr=udp%3A%2F%2Ftracker.leechers-paradise.org%3A6969%2Fannounce&tr=udp%3A%2F%2Ftracker.coppersurfer.tk%3A6969%2Fannounce&tr=udp%3A%2F%2Ftracker.pirateparty.gr%3A6969%2Fannounce&tr=udp%3A%2F%2Ftracker.cyberia.is%3A6969%2Fannounce",
    "seeder": "6",
    "leecher": "3"
}{
    "rank": "6",
    "title": "Samorost 1 & 2 for Mac & Windows",
    "link": "magnet:?xt=urn:btih:B38FFA0F2CE39CBFAB4F90ACD745B06EEECC458B&dn=Samorost+1+%26+2+for+Mac+%26+Windows&tr=udp%3A%2F%2Ftracker.coppersurfer.tk%3A6969%2Fannounce&tr=udp%3A%2F%2F9.rarbg.to%3A2920%2Fannounce&tr=udp%3A%2F%2Ftracker.opentrackr.org%3A1337&tr=udp%3A%2F%2Ftracker.internetwarriors.net%3A1337%2Fannounce&tr=udp%3A%2F%2Ftracker.leechers-paradise.org%3A6969%2Fannounce&tr=udp%3A%2F%2Ftracker.coppersurfer.tk%3A6969%2Fannounce&tr=udp%3A%2F%2Ftracker.pirateparty.gr%3A6969%2Fannounce&tr=udp%3A%2F%2Ftracker.cyberia.is%3A6969%2Fannounce",
    "seeder": "6",
    "leecher": "0"
}{
    "rank": "7",
    "title": "Call of Duty 4: Modern Warfare,+ FIXGAME [MAC-GAME-ENG][TNTVilla",
    "link": "magnet:?xt=urn:btih:B34587773321A345B43E1F0C1EA25DB480EEDC1D&dn=Call+of+Duty+4%3A+Modern+Warfare%2C%2B+FIXGAME+%5BMAC-GAME-ENG%5D%5BTNTVilla&tr=udp%3A%2F%2Ftracker.coppersurfer.tk%3A6969%2Fannounce&tr=udp%3A%2F%2F9.rarbg.to%3A2920%2Fannounce&tr=udp%3A%2F%2Ftracker.opentrackr.org%3A1337&tr=udp%3A%2F%2Ftracker.internetwarriors.net%3A1337%2Fannounce&tr=udp%3A%2F%2Ftracker.leechers-paradise.org%3A6969%2Fannounce&tr=udp%3A%2F%2Ftracker.coppersurfer.tk%3A6969%2Fannounce&tr=udp%3A%2F%2Ftracker.pirateparty.gr%3A6969%2Fannounce&tr=udp%3A%2F%2Ftracker.cyberia.is%3A6969%2Fannounce",
    "seeder": "5",
    "leecher": "2"
}{
    "rank": "8",
    "title": "Empire: Total War - Gold Edition [Mac] [Native]",
    "link": "magnet:?xt=urn:btih:ADD7B79E103C51F40D8C8BEAA0A2EDA96316C5E5&dn=Empire%3A+Total+War+-+Gold+Edition+%5BMac%5D+%5BNative%5D&tr=udp%3A%2F%2Ftracker.coppersurfer.tk%3A6969%2Fannounce&tr=udp%3A%2F%2F9.rarbg.to%3A2920%2Fannounce&tr=udp%3A%2F%2Ftracker.opentrackr.org%3A1337&tr=udp%3A%2F%2Ftracker.internetwarriors.net%3A1337%2Fannounce&tr=udp%3A%2F%2Ftracker.leechers-paradise.org%3A6969%2Fannounce&tr=udp%3A%2F%2Ftracker.coppersurfer.tk%3A6969%2Fannounce&tr=udp%3A%2F%2Ftracker.pirateparty.gr%3A6969%2Fannounce&tr=udp%3A%2F%2Ftracker.cyberia.is%3A6969%2Fannounce",
    "seeder": "5",
    "leecher": "0"
}{
    "rank": "9",
    "title": "Rollercoaster Tycoon 3 Platinum [Native MAS]",
    "link": "magnet:?xt=urn:btih:3A553E17666E864BC5DBF324F103CBA9FFEC7228&dn=Rollercoaster+Tycoon+3+Platinum+%5BNative+MAS%5D&tr=udp%3A%2F%2Ftracker.coppersurfer.tk%3A6969%2Fannounce&tr=udp%3A%2F%2F9.rarbg.to%3A2920%2Fannounce&tr=udp%3A%2F%2Ftracker.opentrackr.org%3A1337&tr=udp%3A%2F%2Ftracker.internetwarriors.net%3A1337%2Fannounce&tr=udp%3A%2F%2Ftracker.leechers-paradise.org%3A6969%2Fannounce&tr=udp%3A%2F%2Ftracker.coppersurfer.tk%3A6969%2Fannounce&tr=udp%3A%2F%2Ftracker.pirateparty.gr%3A6969%2Fannounce&tr=udp%3A%2F%2Ftracker.cyberia.is%3A6969%2Fannounce",
    "seeder": "3",
    "leecher": "0"
}{
    "rank": "10",
    "title": "Monkey Island 2 Special Edition: LeChuck's Revenge [Mac]",
    "link": "magnet:?xt=urn:btih:A11596B81922B199B124EB214FD9F4FA638AB8F0&dn=Monkey+Island+2+Special+Edition%3A+LeChuck%27s+Revenge+%5BMac%5D&tr=udp%3A%2F%2Ftracker.coppersurfer.tk%3A6969%2Fannounce&tr=udp%3A%2F%2F9.rarbg.to%3A2920%2Fannounce&tr=udp%3A%2F%2Ftracker.opentrackr.org%3A1337&tr=udp%3A%2F%2Ftracker.internetwarriors.net%3A1337%2Fannounce&tr=udp%3A%2F%2Ftracker.leechers-paradise.org%3A6969%2Fannounce&tr=udp%3A%2F%2Ftracker.coppersurfer.tk%3A6969%2Fannounce&tr=udp%3A%2F%2Ftracker.pirateparty.gr%3A6969%2Fannounce&tr=udp%3A%2F%2Ftracker.cyberia.is%3A6969%2Fannounce",
    "seeder": "3",
    "leecher": "1"
}{
    "rank": "11",
    "title": "Tomb Raider MACOSX-MONEY",
    "link": "magnet:?xt=urn:btih:CEF13B631DC2ACB428E23C17933AA109804E8C76&dn=Tomb+Raider+MACOSX-MONEY&tr=udp%3A%2F%2Ftracker.coppersurfer.tk%3A6969%2Fannounce&tr=udp%3A%2F%2F9.rarbg.to%3A2920%2Fannounce&tr=udp%3A%2F%2Ftracker.opentrackr.org%3A1337&tr=udp%3A%2F%2Ftracker.internetwarriors.net%3A1337%2Fannounce&tr=udp%3A%2F%2Ftracker.leechers-paradise.org%3A6969%2Fannounce&tr=udp%3A%2F%2Ftracker.coppersurfer.tk%3A6969%2Fannounce&tr=udp%3A%2F%2Ftracker.pirateparty.gr%3A6969%2Fannounce&tr=udp%3A%2F%2Ftracker.cyberia.is%3A6969%2Fannounce",
    "seeder": "3",
    "leecher": "0"
}{
    "rank": "12",
    "title": "SimCity 2000 Special Edition GOG Classic MacOSX-RAiN",
    "link": "magnet:?xt=urn:btih:DA043F2494C3CAC2F401DA98CC0F306A3FAC74C1&dn=SimCity+2000+Special+Edition+GOG+Classic+MacOSX-RAiN&tr=udp%3A%2F%2Ftracker.coppersurfer.tk%3A6969%2Fannounce&tr=udp%3A%2F%2F9.rarbg.to%3A2920%2Fannounce&tr=udp%3A%2F%2Ftracker.opentrackr.org%3A1337&tr=udp%3A%2F%2Ftracker.internetwarriors.net%3A1337%2Fannounce&tr=udp%3A%2F%2Ftracker.leechers-paradise.org%3A6969%2Fannounce&tr=udp%3A%2F%2Ftracker.coppersurfer.tk%3A6969%2Fannounce&tr=udp%3A%2F%2Ftracker.pirateparty.gr%3A6969%2Fannounce&tr=udp%3A%2F%2Ftracker.cyberia.is%3A6969%2Fannounce",
    "seeder": "3",
    "leecher": "0"
}{
    "rank": "13",
    "title": "Assassins Creed [MAC] [Cider]",
    "link": "magnet:?xt=urn:btih:AEDB837B5256CC880ABAB319F4ECC89ED1D11E27&dn=Assassins+Creed+%5BMAC%5D+%5BCider%5D&tr=udp%3A%2F%2Ftracker.coppersurfer.tk%3A6969%2Fannounce&tr=udp%3A%2F%2F9.rarbg.to%3A2920%2Fannounce&tr=udp%3A%2F%2Ftracker.opentrackr.org%3A1337&tr=udp%3A%2F%2Ftracker.internetwarriors.net%3A1337%2Fannounce&tr=udp%3A%2F%2Ftracker.leechers-paradise.org%3A6969%2Fannounce&tr=udp%3A%2F%2Ftracker.coppersurfer.tk%3A6969%2Fannounce&tr=udp%3A%2F%2Ftracker.pirateparty.gr%3A6969%2Fannounce&tr=udp%3A%2F%2Ftracker.cyberia.is%3A6969%2Fannounce",
    "seeder": "3",
    "leecher": "0"
}{
    "rank": "14",
    "title": "Just Cause [MAC] [Intel only]",
    "link": "magnet:?xt=urn:btih:6DC68B7D9A7FB59A56F2140E115BEBC7D66265CB&dn=Just+Cause+%5BMAC%5D+%5BIntel+only%5D&tr=udp%3A%2F%2Ftracker.coppersurfer.tk%3A6969%2Fannounce&tr=udp%3A%2F%2F9.rarbg.to%3A2920%2Fannounce&tr=udp%3A%2F%2Ftracker.opentrackr.org%3A1337&tr=udp%3A%2F%2Ftracker.internetwarriors.net%3A1337%2Fannounce&tr=udp%3A%2F%2Ftracker.leechers-paradise.org%3A6969%2Fannounce&tr=udp%3A%2F%2Ftracker.coppersurfer.tk%3A6969%2Fannounce&tr=udp%3A%2F%2Ftracker.pirateparty.gr%3A6969%2Fannounce&tr=udp%3A%2F%2Ftracker.cyberia.is%3A6969%2Fannounce",
    "seeder": "3",
    "leecher": "0"
}{
    "rank": "15",
    "title": "Baldurs Gate: Enhanced Edition [MAC] [Wineskin]",
    "link": "magnet:?xt=urn:btih:9B9032225A878FEEE929A868C7B64B510E389E41&dn=Baldurs+Gate%3A+Enhanced+Edition+%5BMAC%5D+%5BWineskin%5D&tr=udp%3A%2F%2Ftracker.coppersurfer.tk%3A6969%2Fannounce&tr=udp%3A%2F%2F9.rarbg.to%3A2920%2Fannounce&tr=udp%3A%2F%2Ftracker.opentrackr.org%3A1337&tr=udp%3A%2F%2Ftracker.internetwarriors.net%3A1337%2Fannounce&tr=udp%3A%2F%2Ftracker.leechers-paradise.org%3A6969%2Fannounce&tr=udp%3A%2F%2Ftracker.coppersurfer.tk%3A6969%2Fannounce&tr=udp%3A%2F%2Ftracker.pirateparty.gr%3A6969%2Fannounce&tr=udp%3A%2F%2Ftracker.cyberia.is%3A6969%2Fannounce",
    "seeder": "2",
    "leecher": "0"
}{
    "rank": "16",
    "title": "Medal of Honor: Airborne [MAC] [Wineskin]",
    "link": "magnet:?xt=urn:btih:EE13E7345182512812C0B9BB7ECEBC33370A5428&dn=Medal+of+Honor%3A+Airborne+%5BMAC%5D+%5BWineskin%5D&tr=udp%3A%2F%2Ftracker.coppersurfer.tk%3A6969%2Fannounce&tr=udp%3A%2F%2F9.rarbg.to%3A2920%2Fannounce&tr=udp%3A%2F%2Ftracker.opentrackr.org%3A1337&tr=udp%3A%2F%2Ftracker.internetwarriors.net%3A1337%2Fannounce&tr=udp%3A%2F%2Ftracker.leechers-paradise.org%3A6969%2Fannounce&tr=udp%3A%2F%2Ftracker.coppersurfer.tk%3A6969%2Fannounce&tr=udp%3A%2F%2Ftracker.pirateparty.gr%3A6969%2Fannounce&tr=udp%3A%2F%2Ftracker.cyberia.is%3A6969%2Fannounce",
    "seeder": "2",
    "leecher": "1"
}{
    "rank": "17",
    "title": "Angry.Birds.Space.v1.0.0.MacOSX.Cracked-CORE",
    "link": "magnet:?xt=urn:btih:2BC25678BC971F1C6561E181261BC04A4DB25148&dn=Angry.Birds.Space.v1.0.0.MacOSX.Cracked-CORE&tr=udp%3A%2F%2Ftracker.coppersurfer.tk%3A6969%2Fannounce&tr=udp%3A%2F%2F9.rarbg.to%3A2920%2Fannounce&tr=udp%3A%2F%2Ftracker.opentrackr.org%3A1337&tr=udp%3A%2F%2Ftracker.internetwarriors.net%3A1337%2Fannounce&tr=udp%3A%2F%2Ftracker.leechers-paradise.org%3A6969%2Fannounce&tr=udp%3A%2F%2Ftracker.coppersurfer.tk%3A6969%2Fannounce&tr=udp%3A%2F%2Ftracker.pirateparty.gr%3A6969%2Fannounce&tr=udp%3A%2F%2Ftracker.cyberia.is%3A6969%2Fannounce",
    "seeder": "2",
    "leecher": "0"
}{
    "rank": "18",
    "title": "Duke Nukem 1, 2, 3D, Manhattan Project (MAC OS X - GOG)",
    "link": "magnet:?xt=urn:btih:4C0060D9BCE881628754BC781FBF9931F5EDF87D&dn=Duke+Nukem+1%2C+2%2C+3D%2C+Manhattan+Project+%28MAC+OS+X+-+GOG%29&tr=udp%3A%2F%2Ftracker.coppersurfer.tk%3A6969%2Fannounce&tr=udp%3A%2F%2F9.rarbg.to%3A2920%2Fannounce&tr=udp%3A%2F%2Ftracker.opentrackr.org%3A1337&tr=udp%3A%2F%2Ftracker.internetwarriors.net%3A1337%2Fannounce&tr=udp%3A%2F%2Ftracker.leechers-paradise.org%3A6969%2Fannounce&tr=udp%3A%2F%2Ftracker.coppersurfer.tk%3A6969%2Fannounce&tr=udp%3A%2F%2Ftracker.pirateparty.gr%3A6969%2Fannounce&tr=udp%3A%2F%2Ftracker.cyberia.is%3A6969%2Fannounce",
    "seeder": "2",
    "leecher": "0"
}{
    "rank": "19",
    "title": "City of Secrets",
    "link": "magnet:?xt=urn:btih:13189BFF4949E6A9ACDB2B4E4322F2E9EA1B0D6E&dn=City+of+Secrets&tr=udp%3A%2F%2Ftracker.coppersurfer.tk%3A6969%2Fannounce&tr=udp%3A%2F%2F9.rarbg.to%3A2920%2Fannounce&tr=udp%3A%2F%2Ftracker.opentrackr.org%3A1337&tr=udp%3A%2F%2Ftracker.internetwarriors.net%3A1337%2Fannounce&tr=udp%3A%2F%2Ftracker.leechers-paradise.org%3A6969%2Fannounce&tr=udp%3A%2F%2Ftracker.coppersurfer.tk%3A6969%2Fannounce&tr=udp%3A%2F%2Ftracker.pirateparty.gr%3A6969%2Fannounce&tr=udp%3A%2F%2Ftracker.cyberia.is%3A6969%2Fannounce",
    "seeder": "2",
    "leecher": "0"
}{
    "rank": "20",
    "title": "Half-Life 2 Collection [Mac Native, Non-Steam]",
    "link": "magnet:?xt=urn:btih:8CEB768683DD2174236FD22DCB14062E0A2DBFAB&dn=Half-Life+2+Collection+%5BMac+Native%2C+Non-Steam%5D&tr=udp%3A%2F%2Ftracker.coppersurfer.tk%3A6969%2Fannounce&tr=udp%3A%2F%2F9.rarbg.to%3A2920%2Fannounce&tr=udp%3A%2F%2Ftracker.opentrackr.org%3A1337&tr=udp%3A%2F%2Ftracker.internetwarriors.net%3A1337%2Fannounce&tr=udp%3A%2F%2Ftracker.leechers-paradise.org%3A6969%2Fannounce&tr=udp%3A%2F%2Ftracker.coppersurfer.tk%3A6969%2Fannounce&tr=udp%3A%2F%2Ftracker.pirateparty.gr%3A6969%2Fannounce&tr=udp%3A%2F%2Ftracker.cyberia.is%3A6969%2Fannounce",
    "seeder": "2",
    "leecher": "0"
}{
    "rank": "21",
    "title": "EaseUS MobiSaver 5.0 Build 2014.12.08 With Key For Mac Seven7i",
    "link": "magnet:?xt=urn:btih:C89834FF65D76064F40A679A9D2165F156A34305&dn=EaseUS+MobiSaver+5.0+Build+2014.12.08+With+Key+For+Mac+Seven7i&tr=udp%3A%2F%2Ftracker.coppersurfer.tk%3A6969%2Fannounce&tr=udp%3A%2F%2F9.rarbg.to%3A2920%2Fannounce&tr=udp%3A%2F%2Ftracker.opentrackr.org%3A1337&tr=udp%3A%2F%2Ftracker.internetwarriors.net%3A1337%2Fannounce&tr=udp%3A%2F%2Ftracker.leechers-paradise.org%3A6969%2Fannounce&tr=udp%3A%2F%2Ftracker.coppersurfer.tk%3A6969%2Fannounce&tr=udp%3A%2F%2Ftracker.pirateparty.gr%3A6969%2Fannounce&tr=udp%3A%2F%2Ftracker.cyberia.is%3A6969%2Fannounce",
    "seeder": "2",
    "leecher": "0"
}{
    "rank": "22",
    "title": "Need for Speed: Hot Pursuit 2 [MAC] [Cider]",
    "link": "magnet:?xt=urn:btih:F6AFB6056E353F9C1737ABAC42F2BE6F28E2B8E6&dn=Need+for+Speed%3A+Hot+Pursuit+2+%5BMAC%5D+%5BCider%5D&tr=udp%3A%2F%2Ftracker.coppersurfer.tk%3A6969%2Fannounce&tr=udp%3A%2F%2F9.rarbg.to%3A2920%2Fannounce&tr=udp%3A%2F%2Ftracker.opentrackr.org%3A1337&tr=udp%3A%2F%2Ftracker.internetwarriors.net%3A1337%2Fannounce&tr=udp%3A%2F%2Ftracker.leechers-paradise.org%3A6969%2Fannounce&tr=udp%3A%2F%2Ftracker.coppersurfer.tk%3A6969%2Fannounce&tr=udp%3A%2F%2Ftracker.pirateparty.gr%3A6969%2Fannounce&tr=udp%3A%2F%2Ftracker.cyberia.is%3A6969%2Fannounce",
    "seeder": "2",
    "leecher": "0"
}{
    "rank": "23",
    "title": "Amadeus Pro 2.8.2.2456 macOS.dmg",
    "link": "magnet:?xt=urn:btih:6639531DB0D5DAD57A14E1EC9ABB35965F6BC73C&dn=Amadeus+Pro+2.8.2.2456+macOS.dmg&tr=udp%3A%2F%2Ftracker.coppersurfer.tk%3A6969%2Fannounce&tr=udp%3A%2F%2F9.rarbg.to%3A2920%2Fannounce&tr=udp%3A%2F%2Ftracker.opentrackr.org%3A1337&tr=udp%3A%2F%2Ftracker.internetwarriors.net%3A1337%2Fannounce&tr=udp%3A%2F%2Ftracker.leechers-paradise.org%3A6969%2Fannounce&tr=udp%3A%2F%2Ftracker.coppersurfer.tk%3A6969%2Fannounce&tr=udp%3A%2F%2Ftracker.pirateparty.gr%3A6969%2Fannounce&tr=udp%3A%2F%2Ftracker.cyberia.is%3A6969%2Fannounce",
    "seeder": "2",
    "leecher": "1"
}{
    "rank": "24",
    "title": "Need for Speed: Shift [Mac] [Intel]",
    "link": "magnet:?xt=urn:btih:F7455A356D443B3BEAC6ED0EEADC620F321FF57F&dn=Need+for+Speed%3A+Shift+%5BMac%5D+%5BIntel%5D&tr=udp%3A%2F%2Ftracker.coppersurfer.tk%3A6969%2Fannounce&tr=udp%3A%2F%2F9.rarbg.to%3A2920%2Fannounce&tr=udp%3A%2F%2Ftracker.opentrackr.org%3A1337&tr=udp%3A%2F%2Ftracker.internetwarriors.net%3A1337%2Fannounce&tr=udp%3A%2F%2Ftracker.leechers-paradise.org%3A6969%2Fannounce&tr=udp%3A%2F%2Ftracker.coppersurfer.tk%3A6969%2Fannounce&tr=udp%3A%2F%2Ftracker.pirateparty.gr%3A6969%2Fannounce&tr=udp%3A%2F%2Ftracker.cyberia.is%3A6969%2Fannounce",
    "seeder": "2",
    "leecher": "0"
}{
    "rank": "25",
    "title": "Star Wars Battlefront 2 [MAC] [Intel-Cider]",
    "link": "magnet:?xt=urn:btih:A3B42C4B655E507C022D14C5AE1FBEB34F77CCBA&dn=Star+Wars+Battlefront+2+%5BMAC%5D+%5BIntel-Cider%5D&tr=udp%3A%2F%2Ftracker.coppersurfer.tk%3A6969%2Fannounce&tr=udp%3A%2F%2F9.rarbg.to%3A2920%2Fannounce&tr=udp%3A%2F%2Ftracker.opentrackr.org%3A1337&tr=udp%3A%2F%2Ftracker.internetwarriors.net%3A1337%2Fannounce&tr=udp%3A%2F%2Ftracker.leechers-paradise.org%3A6969%2Fannounce&tr=udp%3A%2F%2Ftracker.coppersurfer.tk%3A6969%2Fannounce&tr=udp%3A%2F%2Ftracker.pirateparty.gr%3A6969%2Fannounce&tr=udp%3A%2F%2Ftracker.cyberia.is%3A6969%2Fannounce",
    "seeder": "2",
    "leecher": "0"
}{
    "rank": "26",
    "title": "Left 4 Dead 2 [CXZ] [MAC]",
    "link": "magnet:?xt=urn:btih:1F5F2F4194486B3DB2781F5132638F0A6EF234F2&dn=Left+4+Dead+2+%5BCXZ%5D+%5BMAC%5D&tr=udp%3A%2F%2Ftracker.coppersurfer.tk%3A6969%2Fannounce&tr=udp%3A%2F%2F9.rarbg.to%3A2920%2Fannounce&tr=udp%3A%2F%2Ftracker.opentrackr.org%3A1337&tr=udp%3A%2F%2Ftracker.internetwarriors.net%3A1337%2Fannounce&tr=udp%3A%2F%2Ftracker.leechers-paradise.org%3A6969%2Fannounce&tr=udp%3A%2F%2Ftracker.coppersurfer.tk%3A6969%2Fannounce&tr=udp%3A%2F%2Ftracker.pirateparty.gr%3A6969%2Fannounce&tr=udp%3A%2F%2Ftracker.cyberia.is%3A6969%2Fannounce",
    "seeder": "2",
    "leecher": "0"
}{
    "rank": "27",
    "title": "Borderlands 2 [MAC] [Native]",
    "link": "magnet:?xt=urn:btih:99DA6A3470230546E8AA5C1981221FB812851F8A&dn=Borderlands+2+%5BMAC%5D+%5BNative%5D&tr=udp%3A%2F%2Ftracker.coppersurfer.tk%3A6969%2Fannounce&tr=udp%3A%2F%2F9.rarbg.to%3A2920%2Fannounce&tr=udp%3A%2F%2Ftracker.opentrackr.org%3A1337&tr=udp%3A%2F%2Ftracker.internetwarriors.net%3A1337%2Fannounce&tr=udp%3A%2F%2Ftracker.leechers-paradise.org%3A6969%2Fannounce&tr=udp%3A%2F%2Ftracker.coppersurfer.tk%3A6969%2Fannounce&tr=udp%3A%2F%2Ftracker.pirateparty.gr%3A6969%2Fannounce&tr=udp%3A%2F%2Ftracker.cyberia.is%3A6969%2Fannounce",
    "seeder": "2",
    "leecher": "0"
}{
    "rank": "28",
    "title": "LEGO Pirates Of The Caribbean: The Video Game [MAC] [Native]",
    "link": "magnet:?xt=urn:btih:2F4F3BAEB90985544E86446CB1FAD84DB0FC3F61&dn=LEGO+Pirates+Of+The+Caribbean%3A+The+Video+Game+%5BMAC%5D+%5BNative%5D&tr=udp%3A%2F%2Ftracker.coppersurfer.tk%3A6969%2Fannounce&tr=udp%3A%2F%2F9.rarbg.to%3A2920%2Fannounce&tr=udp%3A%2F%2Ftracker.opentrackr.org%3A1337&tr=udp%3A%2F%2Ftracker.internetwarriors.net%3A1337%2Fannounce&tr=udp%3A%2F%2Ftracker.leechers-paradise.org%3A6969%2Fannounce&tr=udp%3A%2F%2Ftracker.coppersurfer.tk%3A6969%2Fannounce&tr=udp%3A%2F%2Ftracker.pirateparty.gr%3A6969%2Fannounce&tr=udp%3A%2F%2Ftracker.cyberia.is%3A6969%2Fannounce",
    "seeder": "2",
    "leecher": "0"
}{
    "rank": "29",
    "title": "DLC Quest",
    "link": "magnet:?xt=urn:btih:265A7F5DBACBD82608FA47F72B81A72888978E20&dn=DLC+Quest&tr=udp%3A%2F%2Ftracker.coppersurfer.tk%3A6969%2Fannounce&tr=udp%3A%2F%2F9.rarbg.to%3A2920%2Fannounce&tr=udp%3A%2F%2Ftracker.opentrackr.org%3A1337&tr=udp%3A%2F%2Ftracker.internetwarriors.net%3A1337%2Fannounce&tr=udp%3A%2F%2Ftracker.leechers-paradise.org%3A6969%2Fannounce&tr=udp%3A%2F%2Ftracker.coppersurfer.tk%3A6969%2Fannounce&tr=udp%3A%2F%2Ftracker.pirateparty.gr%3A6969%2Fannounce&tr=udp%3A%2F%2Ftracker.cyberia.is%3A6969%2Fannounce",
    "seeder": "2",
    "leecher": "0"
}{
    "rank": "30",
    "title": "Mass Effect 3 [MAC] [Cider]",
    "link": "magnet:?xt=urn:btih:B986698A6382FEDD59AF78F338FFE993EA39196B&dn=Mass+Effect+3+%5BMAC%5D+%5BCider%5D&tr=udp%3A%2F%2Ftracker.coppersurfer.tk%3A6969%2Fannounce&tr=udp%3A%2F%2F9.rarbg.to%3A2920%2Fannounce&tr=udp%3A%2F%2Ftracker.opentrackr.org%3A1337&tr=udp%3A%2F%2Ftracker.internetwarriors.net%3A1337%2Fannounce&tr=udp%3A%2F%2Ftracker.leechers-paradise.org%3A6969%2Fannounce&tr=udp%3A%2F%2Ftracker.coppersurfer.tk%3A6969%2Fannounce&tr=udp%3A%2F%2Ftracker.pirateparty.gr%3A6969%2Fannounce&tr=udp%3A%2F%2Ftracker.cyberia.is%3A6969%2Fannounce",
    "seeder": "2",
    "leecher": "0"
}{
    "rank": "31",
    "title": "The Incident",
    "link": "magnet:?xt=urn:btih:537E65604E093B1EA47347E5889EDD41F3EAA104&dn=The+Incident&tr=udp%3A%2F%2Ftracker.coppersurfer.tk%3A6969%2Fannounce&tr=udp%3A%2F%2F9.rarbg.to%3A2920%2Fannounce&tr=udp%3A%2F%2Ftracker.opentrackr.org%3A1337&tr=udp%3A%2F%2Ftracker.internetwarriors.net%3A1337%2Fannounce&tr=udp%3A%2F%2Ftracker.leechers-paradise.org%3A6969%2Fannounce&tr=udp%3A%2F%2Ftracker.coppersurfer.tk%3A6969%2Fannounce&tr=udp%3A%2F%2Ftracker.pirateparty.gr%3A6969%2Fannounce&tr=udp%3A%2F%2Ftracker.cyberia.is%3A6969%2Fannounce",
    "seeder": "2",
    "leecher": "0"
}{
    "rank": "32",
    "title": "TRAUMA",
    "link": "magnet:?xt=urn:btih:AB9785623840488C36F91FFFFC01E9742932F457&dn=TRAUMA&tr=udp%3A%2F%2Ftracker.coppersurfer.tk%3A6969%2Fannounce&tr=udp%3A%2F%2F9.rarbg.to%3A2920%2Fannounce&tr=udp%3A%2F%2Ftracker.opentrackr.org%3A1337&tr=udp%3A%2F%2Ftracker.internetwarriors.net%3A1337%2Fannounce&tr=udp%3A%2F%2Ftracker.leechers-paradise.org%3A6969%2Fannounce&tr=udp%3A%2F%2Ftracker.coppersurfer.tk%3A6969%2Fannounce&tr=udp%3A%2F%2Ftracker.pirateparty.gr%3A6969%2Fannounce&tr=udp%3A%2F%2Ftracker.cyberia.is%3A6969%2Fannounce",
    "seeder": "2",
    "leecher": "0"
}{
    "rank": "33",
    "title": "Silent Hill Homecoming [MAC] [Wineskin]",
    "link": "magnet:?xt=urn:btih:574FC5A3D568AF46D67BE06CBF83E3A19CC39AAC&dn=Silent+Hill+Homecoming+%5BMAC%5D+%5BWineskin%5D&tr=udp%3A%2F%2Ftracker.coppersurfer.tk%3A6969%2Fannounce&tr=udp%3A%2F%2F9.rarbg.to%3A2920%2Fannounce&tr=udp%3A%2F%2Ftracker.opentrackr.org%3A1337&tr=udp%3A%2F%2Ftracker.internetwarriors.net%3A1337%2Fannounce&tr=udp%3A%2F%2Ftracker.leechers-paradise.org%3A6969%2Fannounce&tr=udp%3A%2F%2Ftracker.coppersurfer.tk%3A6969%2Fannounce&tr=udp%3A%2F%2Ftracker.pirateparty.gr%3A6969%2Fannounce&tr=udp%3A%2F%2Ftracker.cyberia.is%3A6969%2Fannounce",
    "seeder": "2",
    "leecher": "0"
}{
    "rank": "34",
    "title": "The Walking Dead Episode 5 MACOSX-MONEY",
    "link": "magnet:?xt=urn:btih:29E324D00955060997FE115F1D0A8AD4FFE9F4BD&dn=The+Walking+Dead+Episode+5+MACOSX-MONEY&tr=udp%3A%2F%2Ftracker.coppersurfer.tk%3A6969%2Fannounce&tr=udp%3A%2F%2F9.rarbg.to%3A2920%2Fannounce&tr=udp%3A%2F%2Ftracker.opentrackr.org%3A1337&tr=udp%3A%2F%2Ftracker.internetwarriors.net%3A1337%2Fannounce&tr=udp%3A%2F%2Ftracker.leechers-paradise.org%3A6969%2Fannounce&tr=udp%3A%2F%2Ftracker.coppersurfer.tk%3A6969%2Fannounce&tr=udp%3A%2F%2Ftracker.pirateparty.gr%3A6969%2Fannounce&tr=udp%3A%2F%2Ftracker.cyberia.is%3A6969%2Fannounce",
    "seeder": "1",
    "leecher": "0"
}{
    "rank": "35",
    "title": "Tomb Raider Underworld [MACOSX ~ ENG ITA DEU FRA ESP][MONEY][Col",
    "link": "magnet:?xt=urn:btih:709DD3B191C54B5E856663466E55FAFFE899C0D6&dn=Tomb+Raider+Underworld+%5BMACOSX+%7E+ENG+ITA+DEU+FRA+ESP%5D%5BMONEY%5D%5BCol&tr=udp%3A%2F%2Ftracker.coppersurfer.tk%3A6969%2Fannounce&tr=udp%3A%2F%2F9.rarbg.to%3A2920%2Fannounce&tr=udp%3A%2F%2Ftracker.opentrackr.org%3A1337&tr=udp%3A%2F%2Ftracker.internetwarriors.net%3A1337%2Fannounce&tr=udp%3A%2F%2Ftracker.leechers-paradise.org%3A6969%2Fannounce&tr=udp%3A%2F%2Ftracker.coppersurfer.tk%3A6969%2Fannounce&tr=udp%3A%2F%2Ftracker.pirateparty.gr%3A6969%2Fannounce&tr=udp%3A%2F%2Ftracker.cyberia.is%3A6969%2Fannounce",
    "seeder": "1",
    "leecher": "0"
}{
    "rank": "36",
    "title": "Mirrors Edge [MAC] [Wineskin]",
    "link": "magnet:?xt=urn:btih:5C9FB944957C0EEC609D63503745C51DBFEB47D0&dn=Mirrors+Edge+%5BMAC%5D+%5BWineskin%5D&tr=udp%3A%2F%2Ftracker.coppersurfer.tk%3A6969%2Fannounce&tr=udp%3A%2F%2F9.rarbg.to%3A2920%2Fannounce&tr=udp%3A%2F%2Ftracker.opentrackr.org%3A1337&tr=udp%3A%2F%2Ftracker.internetwarriors.net%3A1337%2Fannounce&tr=udp%3A%2F%2Ftracker.leechers-paradise.org%3A6969%2Fannounce&tr=udp%3A%2F%2Ftracker.coppersurfer.tk%3A6969%2Fannounce&tr=udp%3A%2F%2Ftracker.pirateparty.gr%3A6969%2Fannounce&tr=udp%3A%2F%2Ftracker.cyberia.is%3A6969%2Fannounce",
    "seeder": "1",
    "leecher": "0"
}{
    "rank": "37",
    "title": "The Walking Dead: Survival Instinct [Mac][Wineskin]",
    "link": "magnet:?xt=urn:btih:E9895A75769718891CC1119B8835076A4147AF90&dn=The+Walking+Dead%3A+Survival+Instinct+%5BMac%5D%5BWineskin%5D&tr=udp%3A%2F%2Ftracker.coppersurfer.tk%3A6969%2Fannounce&tr=udp%3A%2F%2F9.rarbg.to%3A2920%2Fannounce&tr=udp%3A%2F%2Ftracker.opentrackr.org%3A1337&tr=udp%3A%2F%2Ftracker.internetwarriors.net%3A1337%2Fannounce&tr=udp%3A%2F%2Ftracker.leechers-paradise.org%3A6969%2Fannounce&tr=udp%3A%2F%2Ftracker.coppersurfer.tk%3A6969%2Fannounce&tr=udp%3A%2F%2Ftracker.pirateparty.gr%3A6969%2Fannounce&tr=udp%3A%2F%2Ftracker.cyberia.is%3A6969%2Fannounce",
    "seeder": "1",
    "leecher": "0"
}{
    "rank": "38",
    "title": "Selknam_Defense_v1.2_MacOSX-SPLATTER",
    "link": "magnet:?xt=urn:btih:E818D3DABC1F8AB4A62DB2E9FC4A57965F4BA0DA&dn=Selknam_Defense_v1.2_MacOSX-SPLATTER&tr=udp%3A%2F%2Ftracker.coppersurfer.tk%3A6969%2Fannounce&tr=udp%3A%2F%2F9.rarbg.to%3A2920%2Fannounce&tr=udp%3A%2F%2Ftracker.opentrackr.org%3A1337&tr=udp%3A%2F%2Ftracker.internetwarriors.net%3A1337%2Fannounce&tr=udp%3A%2F%2Ftracker.leechers-paradise.org%3A6969%2Fannounce&tr=udp%3A%2F%2Ftracker.coppersurfer.tk%3A6969%2Fannounce&tr=udp%3A%2F%2Ftracker.pirateparty.gr%3A6969%2Fannounce&tr=udp%3A%2F%2Ftracker.cyberia.is%3A6969%2Fannounce",
    "seeder": "1",
    "leecher": "0"
}{
    "rank": "39",
    "title": "Carmageddon 2: Carpocalypse Now [Mac] [Intel-Cider]",
    "link": "magnet:?xt=urn:btih:547F8CB1EDF3753BC8354815C8DE060E06C2DA5B&dn=Carmageddon+2%3A+Carpocalypse+Now+%5BMac%5D+%5BIntel-Cider%5D&tr=udp%3A%2F%2Ftracker.coppersurfer.tk%3A6969%2Fannounce&tr=udp%3A%2F%2F9.rarbg.to%3A2920%2Fannounce&tr=udp%3A%2F%2Ftracker.opentrackr.org%3A1337&tr=udp%3A%2F%2Ftracker.internetwarriors.net%3A1337%2Fannounce&tr=udp%3A%2F%2Ftracker.leechers-paradise.org%3A6969%2Fannounce&tr=udp%3A%2F%2Ftracker.coppersurfer.tk%3A6969%2Fannounce&tr=udp%3A%2F%2Ftracker.pirateparty.gr%3A6969%2Fannounce&tr=udp%3A%2F%2Ftracker.cyberia.is%3A6969%2Fannounce",
    "seeder": "1",
    "leecher": "0"
}{
    "rank": "40",
    "title": "Lemmings for Mac OS X",
    "link": "magnet:?xt=urn:btih:6CD660D3BD0970F73326E2C543982A93FBEF6A1C&dn=Lemmings+for+Mac+OS+X&tr=udp%3A%2F%2Ftracker.coppersurfer.tk%3A6969%2Fannounce&tr=udp%3A%2F%2F9.rarbg.to%3A2920%2Fannounce&tr=udp%3A%2F%2Ftracker.opentrackr.org%3A1337&tr=udp%3A%2F%2Ftracker.internetwarriors.net%3A1337%2Fannounce&tr=udp%3A%2F%2Ftracker.leechers-paradise.org%3A6969%2Fannounce&tr=udp%3A%2F%2Ftracker.coppersurfer.tk%3A6969%2Fannounce&tr=udp%3A%2F%2Ftracker.pirateparty.gr%3A6969%2Fannounce&tr=udp%3A%2F%2Ftracker.cyberia.is%3A6969%2Fannounce",
    "seeder": "1",
    "leecher": "0"
}{
    "rank": "41",
    "title": "Borderlands: Game of the year edition v1.0 - [D]IP",
    "link": "magnet:?xt=urn:btih:E7D36AA1E308BFA0831623B7860AB676CD02C1C1&dn=Borderlands%3A+Game+of+the+year+edition+v1.0+-+%5BD%5DIP&tr=udp%3A%2F%2Ftracker.coppersurfer.tk%3A6969%2Fannounce&tr=udp%3A%2F%2F9.rarbg.to%3A2920%2Fannounce&tr=udp%3A%2F%2Ftracker.opentrackr.org%3A1337&tr=udp%3A%2F%2Ftracker.internetwarriors.net%3A1337%2Fannounce&tr=udp%3A%2F%2Ftracker.leechers-paradise.org%3A6969%2Fannounce&tr=udp%3A%2F%2Ftracker.coppersurfer.tk%3A6969%2Fannounce&tr=udp%3A%2F%2Ftracker.pirateparty.gr%3A6969%2Fannounce&tr=udp%3A%2F%2Ftracker.cyberia.is%3A6969%2Fannounce",
    "seeder": "1",
    "leecher": "0"
}{
    "rank": "42",
    "title": "Command & Conquer 3: Tiberium Wars and Kane's Wrath",
    "link": "magnet:?xt=urn:btih:DC23C0E7C94C171033275F7B95DEBCBA08BB4CBE&dn=Command+%26+Conquer+3%3A+Tiberium+Wars+and+Kane%27s+Wrath&tr=udp%3A%2F%2Ftracker.coppersurfer.tk%3A6969%2Fannounce&tr=udp%3A%2F%2F9.rarbg.to%3A2920%2Fannounce&tr=udp%3A%2F%2Ftracker.opentrackr.org%3A1337&tr=udp%3A%2F%2Ftracker.internetwarriors.net%3A1337%2Fannounce&tr=udp%3A%2F%2Ftracker.leechers-paradise.org%3A6969%2Fannounce&tr=udp%3A%2F%2Ftracker.coppersurfer.tk%3A6969%2Fannounce&tr=udp%3A%2F%2Ftracker.pirateparty.gr%3A6969%2Fannounce&tr=udp%3A%2F%2Ftracker.cyberia.is%3A6969%2Fannounce",
    "seeder": "1",
    "leecher": "1"
}{
    "rank": "43",
    "title": "Bioshock Infinite 1.0 MACOSX-MONEY",
    "link": "magnet:?xt=urn:btih:77B5C19879413462AF1983895F5F3E4D4BE33503&dn=Bioshock+Infinite+1.0+MACOSX-MONEY&tr=udp%3A%2F%2Ftracker.coppersurfer.tk%3A6969%2Fannounce&tr=udp%3A%2F%2F9.rarbg.to%3A2920%2Fannounce&tr=udp%3A%2F%2Ftracker.opentrackr.org%3A1337&tr=udp%3A%2F%2Ftracker.internetwarriors.net%3A1337%2Fannounce&tr=udp%3A%2F%2Ftracker.leechers-paradise.org%3A6969%2Fannounce&tr=udp%3A%2F%2Ftracker.coppersurfer.tk%3A6969%2Fannounce&tr=udp%3A%2F%2Ftracker.pirateparty.gr%3A6969%2Fannounce&tr=udp%3A%2F%2Ftracker.cyberia.is%3A6969%2Fannounce",
    "seeder": "1",
    "leecher": "0"
}{
    "rank": "44",
    "title": "Spacecom (Mac) (GOG)",
    "link": "magnet:?xt=urn:btih:6207E391E55AFF4C5317A3CC3D129B7E5264AC0F&dn=Spacecom+%28Mac%29+%28GOG%29&tr=udp%3A%2F%2Ftracker.coppersurfer.tk%3A6969%2Fannounce&tr=udp%3A%2F%2F9.rarbg.to%3A2920%2Fannounce&tr=udp%3A%2F%2Ftracker.opentrackr.org%3A1337&tr=udp%3A%2F%2Ftracker.internetwarriors.net%3A1337%2Fannounce&tr=udp%3A%2F%2Ftracker.leechers-paradise.org%3A6969%2Fannounce&tr=udp%3A%2F%2Ftracker.coppersurfer.tk%3A6969%2Fannounce&tr=udp%3A%2F%2Ftracker.pirateparty.gr%3A6969%2Fannounce&tr=udp%3A%2F%2Ftracker.cyberia.is%3A6969%2Fannounce",
    "seeder": "1",
    "leecher": "0"
}{
    "rank": "45",
    "title": "Mortal Kombat 1+2+3 (Mac) (GOG)",
    "link": "magnet:?xt=urn:btih:D45E4164502D4C19BE8B51069B221386D5A4E235&dn=Mortal+Kombat+1%2B2%2B3+%28Mac%29+%28GOG%29&tr=udp%3A%2F%2Ftracker.coppersurfer.tk%3A6969%2Fannounce&tr=udp%3A%2F%2F9.rarbg.to%3A2920%2Fannounce&tr=udp%3A%2F%2Ftracker.opentrackr.org%3A1337&tr=udp%3A%2F%2Ftracker.internetwarriors.net%3A1337%2Fannounce&tr=udp%3A%2F%2Ftracker.leechers-paradise.org%3A6969%2Fannounce&tr=udp%3A%2F%2Ftracker.coppersurfer.tk%3A6969%2Fannounce&tr=udp%3A%2F%2Ftracker.pirateparty.gr%3A6969%2Fannounce&tr=udp%3A%2F%2Ftracker.cyberia.is%3A6969%2Fannounce",
    "seeder": "1",
    "leecher": "0"
}{
    "rank": "46",
    "title": "Men of War: Assault Squad [Mac] [Intel-Wineskin]",
    "link": "magnet:?xt=urn:btih:EDB1E106379DFCC68D26E9ED377CBC4F1ADB733F&dn=Men+of+War%3A+Assault+Squad+%5BMac%5D+%5BIntel-Wineskin%5D&tr=udp%3A%2F%2Ftracker.coppersurfer.tk%3A6969%2Fannounce&tr=udp%3A%2F%2F9.rarbg.to%3A2920%2Fannounce&tr=udp%3A%2F%2Ftracker.opentrackr.org%3A1337&tr=udp%3A%2F%2Ftracker.internetwarriors.net%3A1337%2Fannounce&tr=udp%3A%2F%2Ftracker.leechers-paradise.org%3A6969%2Fannounce&tr=udp%3A%2F%2Ftracker.coppersurfer.tk%3A6969%2Fannounce&tr=udp%3A%2F%2Ftracker.pirateparty.gr%3A6969%2Fannounce&tr=udp%3A%2F%2Ftracker.cyberia.is%3A6969%2Fannounce",
    "seeder": "1",
    "leecher": "0"
}{
    "rank": "47",
    "title": "Metro: Last Light [Mac] [Native]",
    "link": "magnet:?xt=urn:btih:9A73C648611FADB0B639311F8C7C688FB0835953&dn=Metro%3A+Last+Light+%5BMac%5D+%5BNative%5D&tr=udp%3A%2F%2Ftracker.coppersurfer.tk%3A6969%2Fannounce&tr=udp%3A%2F%2F9.rarbg.to%3A2920%2Fannounce&tr=udp%3A%2F%2Ftracker.opentrackr.org%3A1337&tr=udp%3A%2F%2Ftracker.internetwarriors.net%3A1337%2Fannounce&tr=udp%3A%2F%2Ftracker.leechers-paradise.org%3A6969%2Fannounce&tr=udp%3A%2F%2Ftracker.coppersurfer.tk%3A6969%2Fannounce&tr=udp%3A%2F%2Ftracker.pirateparty.gr%3A6969%2Fannounce&tr=udp%3A%2F%2Ftracker.cyberia.is%3A6969%2Fannounce",
    "seeder": "1",
    "leecher": "0"
}{
    "rank": "48",
    "title": "Governor of Poker",
    "link": "magnet:?xt=urn:btih:A8C5308183321CE094B388BE56BE9D2C83F8F626&dn=Governor+of+Poker&tr=udp%3A%2F%2Ftracker.coppersurfer.tk%3A6969%2Fannounce&tr=udp%3A%2F%2F9.rarbg.to%3A2920%2Fannounce&tr=udp%3A%2F%2Ftracker.opentrackr.org%3A1337&tr=udp%3A%2F%2Ftracker.internetwarriors.net%3A1337%2Fannounce&tr=udp%3A%2F%2Ftracker.leechers-paradise.org%3A6969%2Fannounce&tr=udp%3A%2F%2Ftracker.coppersurfer.tk%3A6969%2Fannounce&tr=udp%3A%2F%2Ftracker.pirateparty.gr%3A6969%2Fannounce&tr=udp%3A%2F%2Ftracker.cyberia.is%3A6969%2Fannounce",
    "seeder": "1",
    "leecher": "0"
}{
    "rank": "49",
    "title": "A New Beginning [MAC] [Intel] [Wineskin]",
    "link": "magnet:?xt=urn:btih:7C3FB8026EA892658B90319CFD2377BA96F553ED&dn=A+New+Beginning+%5BMAC%5D+%5BIntel%5D+%5BWineskin%5D&tr=udp%3A%2F%2Ftracker.coppersurfer.tk%3A6969%2Fannounce&tr=udp%3A%2F%2F9.rarbg.to%3A2920%2Fannounce&tr=udp%3A%2F%2Ftracker.opentrackr.org%3A1337&tr=udp%3A%2F%2Ftracker.internetwarriors.net%3A1337%2Fannounce&tr=udp%3A%2F%2Ftracker.leechers-paradise.org%3A6969%2Fannounce&tr=udp%3A%2F%2Ftracker.coppersurfer.tk%3A6969%2Fannounce&tr=udp%3A%2F%2Ftracker.pirateparty.gr%3A6969%2Fannounce&tr=udp%3A%2F%2Ftracker.cyberia.is%3A6969%2Fannounce",
    "seeder": "1",
    "leecher": "0"
}{
    "rank": "50",
    "title": "Grid_MACOSX-MONEY [Mac]",
    "link": "magnet:?xt=urn:btih:DADF386A23EAB55507E9BDA6F31AB71117FD574F&dn=Grid_MACOSX-MONEY+%5BMac%5D&tr=udp%3A%2F%2Ftracker.coppersurfer.tk%3A6969%2Fannounce&tr=udp%3A%2F%2F9.rarbg.to%3A2920%2Fannounce&tr=udp%3A%2F%2Ftracker.opentrackr.org%3A1337&tr=udp%3A%2F%2Ftracker.internetwarriors.net%3A1337%2Fannounce&tr=udp%3A%2F%2Ftracker.leechers-paradise.org%3A6969%2Fannounce&tr=udp%3A%2F%2Ftracker.coppersurfer.tk%3A6969%2Fannounce&tr=udp%3A%2F%2Ftracker.pirateparty.gr%3A6969%2Fannounce&tr=udp%3A%2F%2Ftracker.cyberia.is%3A6969%2Fannounce",
    "seeder": "1",
    "leecher": "0"
}{
    "rank": "51",
    "title": "Youda Marna",
    "link": "magnet:?xt=urn:btih:6547FD88752EAA68C60B20766E766936DCC5C9FF&dn=Youda+Marna&tr=udp%3A%2F%2Ftracker.coppersurfer.tk%3A6969%2Fannounce&tr=udp%3A%2F%2F9.rarbg.to%3A2920%2Fannounce&tr=udp%3A%2F%2Ftracker.opentrackr.org%3A1337&tr=udp%3A%2F%2Ftracker.internetwarriors.net%3A1337%2Fannounce&tr=udp%3A%2F%2Ftracker.leechers-paradise.org%3A6969%2Fannounce&tr=udp%3A%2F%2Ftracker.coppersurfer.tk%3A6969%2Fannounce&tr=udp%3A%2F%2Ftracker.pirateparty.gr%3A6969%2Fannounce&tr=udp%3A%2F%2Ftracker.cyberia.is%3A6969%2Fannounce",
    "seeder": "1",
    "leecher": "0"
}{
    "rank": "52",
    "title": "Heroes_Of_A_Broken_Land_v1.2_MacOSX-SPLATTER",
    "link": "magnet:?xt=urn:btih:58685C5B69820C099492534C7E4FB4B04889D6CE&dn=Heroes_Of_A_Broken_Land_v1.2_MacOSX-SPLATTER&tr=udp%3A%2F%2Ftracker.coppersurfer.tk%3A6969%2Fannounce&tr=udp%3A%2F%2F9.rarbg.to%3A2920%2Fannounce&tr=udp%3A%2F%2Ftracker.opentrackr.org%3A1337&tr=udp%3A%2F%2Ftracker.internetwarriors.net%3A1337%2Fannounce&tr=udp%3A%2F%2Ftracker.leechers-paradise.org%3A6969%2Fannounce&tr=udp%3A%2F%2Ftracker.coppersurfer.tk%3A6969%2Fannounce&tr=udp%3A%2F%2Ftracker.pirateparty.gr%3A6969%2Fannounce&tr=udp%3A%2F%2Ftracker.cyberia.is%3A6969%2Fannounce",
    "seeder": "1",
    "leecher": "0"
}{
    "rank": "53",
    "title": "Shovel Knight (Mac Native) (GOG)",
    "link": "magnet:?xt=urn:btih:C3608E3B1D4B72F83C77F6BAC53DF4C66B52466F&dn=Shovel+Knight+%28Mac+Native%29+%28GOG%29&tr=udp%3A%2F%2Ftracker.coppersurfer.tk%3A6969%2Fannounce&tr=udp%3A%2F%2F9.rarbg.to%3A2920%2Fannounce&tr=udp%3A%2F%2Ftracker.opentrackr.org%3A1337&tr=udp%3A%2F%2Ftracker.internetwarriors.net%3A1337%2Fannounce&tr=udp%3A%2F%2Ftracker.leechers-paradise.org%3A6969%2Fannounce&tr=udp%3A%2F%2Ftracker.coppersurfer.tk%3A6969%2Fannounce&tr=udp%3A%2F%2Ftracker.pirateparty.gr%3A6969%2Fannounce&tr=udp%3A%2F%2Ftracker.cyberia.is%3A6969%2Fannounce",
    "seeder": "1",
    "leecher": "0"
}{
    "rank": "54",
    "title": "Papers Please v1 1 65 MacOSX-SPLATTER",
    "link": "magnet:?xt=urn:btih:3156500E4B58111DDB61187BD58881E845D87EF8&dn=Papers+Please+v1+1+65+MacOSX-SPLATTER&tr=udp%3A%2F%2Ftracker.coppersurfer.tk%3A6969%2Fannounce&tr=udp%3A%2F%2F9.rarbg.to%3A2920%2Fannounce&tr=udp%3A%2F%2Ftracker.opentrackr.org%3A1337&tr=udp%3A%2F%2Ftracker.internetwarriors.net%3A1337%2Fannounce&tr=udp%3A%2F%2Ftracker.leechers-paradise.org%3A6969%2Fannounce&tr=udp%3A%2F%2Ftracker.coppersurfer.tk%3A6969%2Fannounce&tr=udp%3A%2F%2Ftracker.pirateparty.gr%3A6969%2Fannounce&tr=udp%3A%2F%2Ftracker.cyberia.is%3A6969%2Fannounce",
    "seeder": "1",
    "leecher": "0"
}{
    "rank": "55",
    "title": "MailTags 4.1.3 MacOSX-CORE [ATOM]",
    "link": "magnet:?xt=urn:btih:FD8920CA609C497BB45E188741F3C7EDF61D5A66&dn=MailTags+4.1.3+MacOSX-CORE+%5BATOM%5D&tr=udp%3A%2F%2Ftracker.coppersurfer.tk%3A6969%2Fannounce&tr=udp%3A%2F%2F9.rarbg.to%3A2920%2Fannounce&tr=udp%3A%2F%2Ftracker.opentrackr.org%3A1337&tr=udp%3A%2F%2Ftracker.internetwarriors.net%3A1337%2Fannounce&tr=udp%3A%2F%2Ftracker.leechers-paradise.org%3A6969%2Fannounce&tr=udp%3A%2F%2Ftracker.coppersurfer.tk%3A6969%2Fannounce&tr=udp%3A%2F%2Ftracker.pirateparty.gr%3A6969%2Fannounce&tr=udp%3A%2F%2Ftracker.cyberia.is%3A6969%2Fannounce",
    "seeder": "1",
    "leecher": "0"
}{
    "rank": "56",
    "title": "XCOM: Enemy Unknown - Elite Edition [Mac] [Native]",
    "link": "magnet:?xt=urn:btih:A4A4EEC2D99EE7A88B61C14F53FEC21B11FD701B&dn=XCOM%3A+Enemy+Unknown+-+Elite+Edition+%5BMac%5D+%5BNative%5D&tr=udp%3A%2F%2Ftracker.coppersurfer.tk%3A6969%2Fannounce&tr=udp%3A%2F%2F9.rarbg.to%3A2920%2Fannounce&tr=udp%3A%2F%2Ftracker.opentrackr.org%3A1337&tr=udp%3A%2F%2Ftracker.internetwarriors.net%3A1337%2Fannounce&tr=udp%3A%2F%2Ftracker.leechers-paradise.org%3A6969%2Fannounce&tr=udp%3A%2F%2Ftracker.coppersurfer.tk%3A6969%2Fannounce&tr=udp%3A%2F%2Ftracker.pirateparty.gr%3A6969%2Fannounce&tr=udp%3A%2F%2Ftracker.cyberia.is%3A6969%2Fannounce",
    "seeder": "1",
    "leecher": "3"
}{
    "rank": "57",
    "title": "Rayman Origins [MAC] [Wineskin]",
    "link": "magnet:?xt=urn:btih:8432C4871D9910CBEE72DD2F4DAE5896C81C4CC6&dn=Rayman+Origins+%5BMAC%5D+%5BWineskin%5D&tr=udp%3A%2F%2Ftracker.coppersurfer.tk%3A6969%2Fannounce&tr=udp%3A%2F%2F9.rarbg.to%3A2920%2Fannounce&tr=udp%3A%2F%2Ftracker.opentrackr.org%3A1337&tr=udp%3A%2F%2Ftracker.internetwarriors.net%3A1337%2Fannounce&tr=udp%3A%2F%2Ftracker.leechers-paradise.org%3A6969%2Fannounce&tr=udp%3A%2F%2Ftracker.coppersurfer.tk%3A6969%2Fannounce&tr=udp%3A%2F%2Ftracker.pirateparty.gr%3A6969%2Fannounce&tr=udp%3A%2F%2Ftracker.cyberia.is%3A6969%2Fannounce",
    "seeder": "1",
    "leecher": "0"
}{
    "rank": "58",
    "title": "GTA San Andreas for Intel Mac Everyting working perfect",
    "link": "magnet:?xt=urn:btih:D98C2FF2B758D087742D6284406C02B86AB92E4D&dn=GTA+San+Andreas+for+Intel+Mac+Everyting+working+perfect&tr=udp%3A%2F%2Ftracker.coppersurfer.tk%3A6969%2Fannounce&tr=udp%3A%2F%2F9.rarbg.to%3A2920%2Fannounce&tr=udp%3A%2F%2Ftracker.opentrackr.org%3A1337&tr=udp%3A%2F%2Ftracker.internetwarriors.net%3A1337%2Fannounce&tr=udp%3A%2F%2Ftracker.leechers-paradise.org%3A6969%2Fannounce&tr=udp%3A%2F%2Ftracker.coppersurfer.tk%3A6969%2Fannounce&tr=udp%3A%2F%2Ftracker.pirateparty.gr%3A6969%2Fannounce&tr=udp%3A%2F%2Ftracker.cyberia.is%3A6969%2Fannounce",
    "seeder": "1",
    "leecher": "0"
}{
    "rank": "59",
    "title": "LEGO Star Wars 3: The Clone Wars   -   Fixed for Mac",
    "link": "magnet:?xt=urn:btih:61DA0B81BE10B6B2A19CBD1AA223EB2C4608447A&dn=LEGO+Star+Wars+3%3A+The+Clone+Wars+++-+++Fixed+for+Mac&tr=udp%3A%2F%2Ftracker.coppersurfer.tk%3A6969%2Fannounce&tr=udp%3A%2F%2F9.rarbg.to%3A2920%2Fannounce&tr=udp%3A%2F%2Ftracker.opentrackr.org%3A1337&tr=udp%3A%2F%2Ftracker.internetwarriors.net%3A1337%2Fannounce&tr=udp%3A%2F%2Ftracker.leechers-paradise.org%3A6969%2Fannounce&tr=udp%3A%2F%2Ftracker.coppersurfer.tk%3A6969%2Fannounce&tr=udp%3A%2F%2Ftracker.pirateparty.gr%3A6969%2Fannounce&tr=udp%3A%2F%2Ftracker.cyberia.is%3A6969%2Fannounce",
    "seeder": "1",
    "leecher": "0"
}{
    "rank": "60",
    "title": "The_Walking_Dead_Season_2_Episode_1_MACOSX-MONEY",
    "link": "magnet:?xt=urn:btih:08E652D83561AA623968C9B1CD6B225500469F7B&dn=The_Walking_Dead_Season_2_Episode_1_MACOSX-MONEY&tr=udp%3A%2F%2Ftracker.coppersurfer.tk%3A6969%2Fannounce&tr=udp%3A%2F%2F9.rarbg.to%3A2920%2Fannounce&tr=udp%3A%2F%2Ftracker.opentrackr.org%3A1337&tr=udp%3A%2F%2Ftracker.internetwarriors.net%3A1337%2Fannounce&tr=udp%3A%2F%2Ftracker.leechers-paradise.org%3A6969%2Fannounce&tr=udp%3A%2F%2Ftracker.coppersurfer.tk%3A6969%2Fannounce&tr=udp%3A%2F%2Ftracker.pirateparty.gr%3A6969%2Fannounce&tr=udp%3A%2F%2Ftracker.cyberia.is%3A6969%2Fannounce",
    "seeder": "1",
    "leecher": "0"
}{
    "rank": "61",
    "title": "The Lord Of The Rings: The Return Of The King [MAC]",
    "link": "magnet:?xt=urn:btih:4991DD519C524F3BADF9EAF49911E0E2EC01A01D&dn=The+Lord+Of+The+Rings%3A+The+Return+Of+The+King+%5BMAC%5D&tr=udp%3A%2F%2Ftracker.coppersurfer.tk%3A6969%2Fannounce&tr=udp%3A%2F%2F9.rarbg.to%3A2920%2Fannounce&tr=udp%3A%2F%2Ftracker.opentrackr.org%3A1337&tr=udp%3A%2F%2Ftracker.internetwarriors.net%3A1337%2Fannounce&tr=udp%3A%2F%2Ftracker.leechers-paradise.org%3A6969%2Fannounce&tr=udp%3A%2F%2Ftracker.coppersurfer.tk%3A6969%2Fannounce&tr=udp%3A%2F%2Ftracker.pirateparty.gr%3A6969%2Fannounce&tr=udp%3A%2F%2Ftracker.cyberia.is%3A6969%2Fannounce",
    "seeder": "1",
    "leecher": "0"
}{
    "rank": "62",
    "title": "The Walking Dead Episode 4 MACOSX-MONEY",
    "link": "magnet:?xt=urn:btih:F023A20C7C74959F8C791BF9C3A17B39A9CD6928&dn=The+Walking+Dead+Episode+4+MACOSX-MONEY&tr=udp%3A%2F%2Ftracker.coppersurfer.tk%3A6969%2Fannounce&tr=udp%3A%2F%2F9.rarbg.to%3A2920%2Fannounce&tr=udp%3A%2F%2Ftracker.opentrackr.org%3A1337&tr=udp%3A%2F%2Ftracker.internetwarriors.net%3A1337%2Fannounce&tr=udp%3A%2F%2Ftracker.leechers-paradise.org%3A6969%2Fannounce&tr=udp%3A%2F%2Ftracker.coppersurfer.tk%3A6969%2Fannounce&tr=udp%3A%2F%2Ftracker.pirateparty.gr%3A6969%2Fannounce&tr=udp%3A%2F%2Ftracker.cyberia.is%3A6969%2Fannounce",
    "seeder": "1",
    "leecher": "0"
}{
    "rank": "63",
    "title": "Dracula Origin [Mac] [Intel-Wineskin]",
    "link": "magnet:?xt=urn:btih:8976AD12ED18012E888C8AA70F3B708D3DBA3E8D&dn=Dracula+Origin+%5BMac%5D+%5BIntel-Wineskin%5D&tr=udp%3A%2F%2Ftracker.coppersurfer.tk%3A6969%2Fannounce&tr=udp%3A%2F%2F9.rarbg.to%3A2920%2Fannounce&tr=udp%3A%2F%2Ftracker.opentrackr.org%3A1337&tr=udp%3A%2F%2Ftracker.internetwarriors.net%3A1337%2Fannounce&tr=udp%3A%2F%2Ftracker.leechers-paradise.org%3A6969%2Fannounce&tr=udp%3A%2F%2Ftracker.coppersurfer.tk%3A6969%2Fannounce&tr=udp%3A%2F%2Ftracker.pirateparty.gr%3A6969%2Fannounce&tr=udp%3A%2F%2Ftracker.cyberia.is%3A6969%2Fannounce",
    "seeder": "1",
    "leecher": "0"
}{
    "rank": "64",
    "title": "Lego Indiana Jones: The Original Adventures [MAC] [Intel]",
    "link": "magnet:?xt=urn:btih:A49FFB7EFF0598363F701EE1A7E4661B28F922B7&dn=Lego+Indiana+Jones%3A+The+Original+Adventures+%5BMAC%5D+%5BIntel%5D&tr=udp%3A%2F%2Ftracker.coppersurfer.tk%3A6969%2Fannounce&tr=udp%3A%2F%2F9.rarbg.to%3A2920%2Fannounce&tr=udp%3A%2F%2Ftracker.opentrackr.org%3A1337&tr=udp%3A%2F%2Ftracker.internetwarriors.net%3A1337%2Fannounce&tr=udp%3A%2F%2Ftracker.leechers-paradise.org%3A6969%2Fannounce&tr=udp%3A%2F%2Ftracker.coppersurfer.tk%3A6969%2Fannounce&tr=udp%3A%2F%2Ftracker.pirateparty.gr%3A6969%2Fannounce&tr=udp%3A%2F%2Ftracker.cyberia.is%3A6969%2Fannounce",
    "seeder": "1",
    "leecher": "0"
}{
    "rank": "65",
    "title": "Pillars Of Eternity (Mac) (Latest With 1.05 Patch) (GOG)",
    "link": "magnet:?xt=urn:btih:57EBF8D54665A545E1E8AFE6A7AFF32038ACBD06&dn=Pillars+Of+Eternity+%28Mac%29+%28Latest+With+1.05+Patch%29+%28GOG%29&tr=udp%3A%2F%2Ftracker.coppersurfer.tk%3A6969%2Fannounce&tr=udp%3A%2F%2F9.rarbg.to%3A2920%2Fannounce&tr=udp%3A%2F%2Ftracker.opentrackr.org%3A1337&tr=udp%3A%2F%2Ftracker.internetwarriors.net%3A1337%2Fannounce&tr=udp%3A%2F%2Ftracker.leechers-paradise.org%3A6969%2Fannounce&tr=udp%3A%2F%2Ftracker.coppersurfer.tk%3A6969%2Fannounce&tr=udp%3A%2F%2Ftracker.pirateparty.gr%3A6969%2Fannounce&tr=udp%3A%2F%2Ftracker.cyberia.is%3A6969%2Fannounce",
    "seeder": "1",
    "leecher": "0"
}{
    "rank": "66",
    "title": "LEGO The Lord of the Rings MACOSX-MONEY",
    "link": "magnet:?xt=urn:btih:37AFF39F660287CD49F02E43A296F43A68AD21FE&dn=LEGO+The+Lord+of+the+Rings+MACOSX-MONEY&tr=udp%3A%2F%2Ftracker.coppersurfer.tk%3A6969%2Fannounce&tr=udp%3A%2F%2F9.rarbg.to%3A2920%2Fannounce&tr=udp%3A%2F%2Ftracker.opentrackr.org%3A1337&tr=udp%3A%2F%2Ftracker.internetwarriors.net%3A1337%2Fannounce&tr=udp%3A%2F%2Ftracker.leechers-paradise.org%3A6969%2Fannounce&tr=udp%3A%2F%2Ftracker.coppersurfer.tk%3A6969%2Fannounce&tr=udp%3A%2F%2Ftracker.pirateparty.gr%3A6969%2Fannounce&tr=udp%3A%2F%2Ftracker.cyberia.is%3A6969%2Fannounce",
    "seeder": "1",
    "leecher": "1"
}{
    "rank": "67",
    "title": "Sir You Are Being Hunted (Mac Native) (GOG)",
    "link": "magnet:?xt=urn:btih:8250BFF6D75B6824AEDD283E5A9ABFE7E9C0826B&dn=Sir+You+Are+Being+Hunted+%28Mac+Native%29+%28GOG%29&tr=udp%3A%2F%2Ftracker.coppersurfer.tk%3A6969%2Fannounce&tr=udp%3A%2F%2F9.rarbg.to%3A2920%2Fannounce&tr=udp%3A%2F%2Ftracker.opentrackr.org%3A1337&tr=udp%3A%2F%2Ftracker.internetwarriors.net%3A1337%2Fannounce&tr=udp%3A%2F%2Ftracker.leechers-paradise.org%3A6969%2Fannounce&tr=udp%3A%2F%2Ftracker.coppersurfer.tk%3A6969%2Fannounce&tr=udp%3A%2F%2Ftracker.pirateparty.gr%3A6969%2Fannounce&tr=udp%3A%2F%2Ftracker.cyberia.is%3A6969%2Fannounce",
    "seeder": "1",
    "leecher": "0"
}{
    "rank": "68",
    "title": "Prince of Persia Warrior Within [Mac] [Wineskin]",
    "link": "magnet:?xt=urn:btih:5173575CECCDE871A2119B9A7E9125C2A19643EF&dn=Prince+of+Persia+Warrior+Within+%5BMac%5D+%5BWineskin%5D&tr=udp%3A%2F%2Ftracker.coppersurfer.tk%3A6969%2Fannounce&tr=udp%3A%2F%2F9.rarbg.to%3A2920%2Fannounce&tr=udp%3A%2F%2Ftracker.opentrackr.org%3A1337&tr=udp%3A%2F%2Ftracker.internetwarriors.net%3A1337%2Fannounce&tr=udp%3A%2F%2Ftracker.leechers-paradise.org%3A6969%2Fannounce&tr=udp%3A%2F%2Ftracker.coppersurfer.tk%3A6969%2Fannounce&tr=udp%3A%2F%2Ftracker.pirateparty.gr%3A6969%2Fannounce&tr=udp%3A%2F%2Ftracker.cyberia.is%3A6969%2Fannounce",
    "seeder": "1",
    "leecher": "0"
}{
    "rank": "69",
    "title": "Botanicula",
    "link": "magnet:?xt=urn:btih:C94D1DB25AA8593DF10ED94B861F04D06751FE1C&dn=Botanicula&tr=udp%3A%2F%2Ftracker.coppersurfer.tk%3A6969%2Fannounce&tr=udp%3A%2F%2F9.rarbg.to%3A2920%2Fannounce&tr=udp%3A%2F%2Ftracker.opentrackr.org%3A1337&tr=udp%3A%2F%2Ftracker.internetwarriors.net%3A1337%2Fannounce&tr=udp%3A%2F%2Ftracker.leechers-paradise.org%3A6969%2Fannounce&tr=udp%3A%2F%2Ftracker.coppersurfer.tk%3A6969%2Fannounce&tr=udp%3A%2F%2Ftracker.pirateparty.gr%3A6969%2Fannounce&tr=udp%3A%2F%2Ftracker.cyberia.is%3A6969%2Fannounce",
    "seeder": "1",
    "leecher": "0"
}{
    "rank": "70",
    "title": "[ctang] Call Of Duty Modern Warfare 2 Wrapper for ATI [Mac]",
    "link": "magnet:?xt=urn:btih:52B71CFA62DE73D9775821C1671E48A184A5675D&dn=%5Bctang%5D+Call+Of+Duty+Modern+Warfare+2+Wrapper+for+ATI+%5BMac%5D&tr=udp%3A%2F%2Ftracker.coppersurfer.tk%3A6969%2Fannounce&tr=udp%3A%2F%2F9.rarbg.to%3A2920%2Fannounce&tr=udp%3A%2F%2Ftracker.opentrackr.org%3A1337&tr=udp%3A%2F%2Ftracker.internetwarriors.net%3A1337%2Fannounce&tr=udp%3A%2F%2Ftracker.leechers-paradise.org%3A6969%2Fannounce&tr=udp%3A%2F%2Ftracker.coppersurfer.tk%3A6969%2Fannounce&tr=udp%3A%2F%2Ftracker.pirateparty.gr%3A6969%2Fannounce&tr=udp%3A%2F%2Ftracker.cyberia.is%3A6969%2Fannounce",
    "seeder": "1",
    "leecher": "0"
}{
    "rank": "71",
    "title": "Drive_To_Hell_v1.1_MacOSX-SPLATTER",
    "link": "magnet:?xt=urn:btih:BD29323CB16A3C9AE51F071BD85A95DFB0B0993C&dn=Drive_To_Hell_v1.1_MacOSX-SPLATTER&tr=udp%3A%2F%2Ftracker.coppersurfer.tk%3A6969%2Fannounce&tr=udp%3A%2F%2F9.rarbg.to%3A2920%2Fannounce&tr=udp%3A%2F%2Ftracker.opentrackr.org%3A1337&tr=udp%3A%2F%2Ftracker.internetwarriors.net%3A1337%2Fannounce&tr=udp%3A%2F%2Ftracker.leechers-paradise.org%3A6969%2Fannounce&tr=udp%3A%2F%2Ftracker.coppersurfer.tk%3A6969%2Fannounce&tr=udp%3A%2F%2Ftracker.pirateparty.gr%3A6969%2Fannounce&tr=udp%3A%2F%2Ftracker.cyberia.is%3A6969%2Fannounce",
    "seeder": "1",
    "leecher": "0"
}{
    "rank": "72",
    "title": "LEGO Batman 3: Beyond Gotham [Mac]",
    "link": "magnet:?xt=urn:btih:5FCF9488B27F0048201468D29E0805384C044F1A&dn=LEGO+Batman+3%3A+Beyond+Gotham+%5BMac%5D&tr=udp%3A%2F%2Ftracker.coppersurfer.tk%3A6969%2Fannounce&tr=udp%3A%2F%2F9.rarbg.to%3A2920%2Fannounce&tr=udp%3A%2F%2Ftracker.opentrackr.org%3A1337&tr=udp%3A%2F%2Ftracker.internetwarriors.net%3A1337%2Fannounce&tr=udp%3A%2F%2Ftracker.leechers-paradise.org%3A6969%2Fannounce&tr=udp%3A%2F%2Ftracker.coppersurfer.tk%3A6969%2Fannounce&tr=udp%3A%2F%2Ftracker.pirateparty.gr%3A6969%2Fannounce&tr=udp%3A%2F%2Ftracker.cyberia.is%3A6969%2Fannounce",
    "seeder": "1",
    "leecher": "0"
}{
    "rank": "73",
    "title": "Adobe AIR 19.0.0.241 en_US Mac Final Nov2015 Seven7i",
    "link": "magnet:?xt=urn:btih:304529FC9E150E8E032BCFA241262BAA11E10B57&dn=Adobe+AIR+19.0.0.241+en_US+Mac+Final+Nov2015+Seven7i&tr=udp%3A%2F%2Ftracker.coppersurfer.tk%3A6969%2Fannounce&tr=udp%3A%2F%2F9.rarbg.to%3A2920%2Fannounce&tr=udp%3A%2F%2Ftracker.opentrackr.org%3A1337&tr=udp%3A%2F%2Ftracker.internetwarriors.net%3A1337%2Fannounce&tr=udp%3A%2F%2Ftracker.leechers-paradise.org%3A6969%2Fannounce&tr=udp%3A%2F%2Ftracker.coppersurfer.tk%3A6969%2Fannounce&tr=udp%3A%2F%2Ftracker.pirateparty.gr%3A6969%2Fannounce&tr=udp%3A%2F%2Ftracker.cyberia.is%3A6969%2Fannounce",
    "seeder": "1",
    "leecher": "0"
}{
    "rank": "74",
    "title": "The Walking Dead Episode 1 (MAC Native)",
    "link": "magnet:?xt=urn:btih:05F9262ACCBF7A7F7CD0B004DD6D35D46F392D98&dn=The+Walking+Dead+Episode+1+%28MAC+Native%29&tr=udp%3A%2F%2Ftracker.coppersurfer.tk%3A6969%2Fannounce&tr=udp%3A%2F%2F9.rarbg.to%3A2920%2Fannounce&tr=udp%3A%2F%2Ftracker.opentrackr.org%3A1337&tr=udp%3A%2F%2Ftracker.internetwarriors.net%3A1337%2Fannounce&tr=udp%3A%2F%2Ftracker.leechers-paradise.org%3A6969%2Fannounce&tr=udp%3A%2F%2Ftracker.coppersurfer.tk%3A6969%2Fannounce&tr=udp%3A%2F%2Ftracker.pirateparty.gr%3A6969%2Fannounce&tr=udp%3A%2F%2Ftracker.cyberia.is%3A6969%2Fannounce",
    "seeder": "1",
    "leecher": "0"
}{
    "rank": "75",
    "title": "Farm Frenzy 2 - Pizza Party",
    "link": "magnet:?xt=urn:btih:2F2EA720F818386FAA27EB00745F7AACF4148F4A&dn=Farm+Frenzy+2+-+Pizza+Party&tr=udp%3A%2F%2Ftracker.coppersurfer.tk%3A6969%2Fannounce&tr=udp%3A%2F%2F9.rarbg.to%3A2920%2Fannounce&tr=udp%3A%2F%2Ftracker.opentrackr.org%3A1337&tr=udp%3A%2F%2Ftracker.internetwarriors.net%3A1337%2Fannounce&tr=udp%3A%2F%2Ftracker.leechers-paradise.org%3A6969%2Fannounce&tr=udp%3A%2F%2Ftracker.coppersurfer.tk%3A6969%2Fannounce&tr=udp%3A%2F%2Ftracker.pirateparty.gr%3A6969%2Fannounce&tr=udp%3A%2F%2Ftracker.cyberia.is%3A6969%2Fannounce",
    "seeder": "1",
    "leecher": "0"
}{
    "rank": "76",
    "title": "Dreamfall Chapters (Mac) (Book One) (Patch1.1.1) (GOG)",
    "link": "magnet:?xt=urn:btih:DF8BF789ACE0887ECAAD1F2AD428DFC4CCA22DD0&dn=Dreamfall+Chapters+%28Mac%29+%28Book+One%29+%28Patch1.1.1%29+%28GOG%29&tr=udp%3A%2F%2Ftracker.coppersurfer.tk%3A6969%2Fannounce&tr=udp%3A%2F%2F9.rarbg.to%3A2920%2Fannounce&tr=udp%3A%2F%2Ftracker.opentrackr.org%3A1337&tr=udp%3A%2F%2Ftracker.internetwarriors.net%3A1337%2Fannounce&tr=udp%3A%2F%2Ftracker.leechers-paradise.org%3A6969%2Fannounce&tr=udp%3A%2F%2Ftracker.coppersurfer.tk%3A6969%2Fannounce&tr=udp%3A%2F%2Ftracker.pirateparty.gr%3A6969%2Fannounce&tr=udp%3A%2F%2Ftracker.cyberia.is%3A6969%2Fannounce",
    "seeder": "1",
    "leecher": "0"
}{
    "rank": "77",
    "title": "Baldur's Gate The Original Saga - MAC OS X - GOG",
    "link": "magnet:?xt=urn:btih:DCD54CB5300D7532DE965C1B259A7078B6E1517A&dn=Baldur%27s+Gate+The+Original+Saga+-+MAC+OS+X+-+GOG&tr=udp%3A%2F%2Ftracker.coppersurfer.tk%3A6969%2Fannounce&tr=udp%3A%2F%2F9.rarbg.to%3A2920%2Fannounce&tr=udp%3A%2F%2Ftracker.opentrackr.org%3A1337&tr=udp%3A%2F%2Ftracker.internetwarriors.net%3A1337%2Fannounce&tr=udp%3A%2F%2Ftracker.leechers-paradise.org%3A6969%2Fannounce&tr=udp%3A%2F%2Ftracker.coppersurfer.tk%3A6969%2Fannounce&tr=udp%3A%2F%2Ftracker.pirateparty.gr%3A6969%2Fannounce&tr=udp%3A%2F%2Ftracker.cyberia.is%3A6969%2Fannounce",
    "seeder": "1",
    "leecher": "0"
}{
    "rank": "78",
    "title": "Pinball.HD [Mac] - DroidIP",
    "link": "magnet:?xt=urn:btih:89174892AADD74CCC64EF479265A871730615B09&dn=Pinball.HD+%5BMac%5D+-+DroidIP&tr=udp%3A%2F%2Ftracker.coppersurfer.tk%3A6969%2Fannounce&tr=udp%3A%2F%2F9.rarbg.to%3A2920%2Fannounce&tr=udp%3A%2F%2Ftracker.opentrackr.org%3A1337&tr=udp%3A%2F%2Ftracker.internetwarriors.net%3A1337%2Fannounce&tr=udp%3A%2F%2Ftracker.leechers-paradise.org%3A6969%2Fannounce&tr=udp%3A%2F%2Ftracker.coppersurfer.tk%3A6969%2Fannounce&tr=udp%3A%2F%2Ftracker.pirateparty.gr%3A6969%2Fannounce&tr=udp%3A%2F%2Ftracker.cyberia.is%3A6969%2Fannounce",
    "seeder": "1",
    "leecher": "0"
}{
    "rank": "79",
    "title": "Machinarium Collector Edition (Mac) (GOG)",
    "link": "magnet:?xt=urn:btih:F58E0087249B0B2E9C5408CE16EBE5113BC614BE&dn=Machinarium+Collector+Edition+%28Mac%29+%28GOG%29&tr=udp%3A%2F%2Ftracker.coppersurfer.tk%3A6969%2Fannounce&tr=udp%3A%2F%2F9.rarbg.to%3A2920%2Fannounce&tr=udp%3A%2F%2Ftracker.opentrackr.org%3A1337&tr=udp%3A%2F%2Ftracker.internetwarriors.net%3A1337%2Fannounce&tr=udp%3A%2F%2Ftracker.leechers-paradise.org%3A6969%2Fannounce&tr=udp%3A%2F%2Ftracker.coppersurfer.tk%3A6969%2Fannounce&tr=udp%3A%2F%2Ftracker.pirateparty.gr%3A6969%2Fannounce&tr=udp%3A%2F%2Ftracker.cyberia.is%3A6969%2Fannounce",
    "seeder": "1",
    "leecher": "0"
}{
    "rank": "80",
    "title": "King.Oddball.v1.2.3.MacOSX.Retail-CORE",
    "link": "magnet:?xt=urn:btih:0A3ED33E2CF10569F9FEEF4B9E20ED203F5A215E&dn=King.Oddball.v1.2.3.MacOSX.Retail-CORE&tr=udp%3A%2F%2Ftracker.coppersurfer.tk%3A6969%2Fannounce&tr=udp%3A%2F%2F9.rarbg.to%3A2920%2Fannounce&tr=udp%3A%2F%2Ftracker.opentrackr.org%3A1337&tr=udp%3A%2F%2Ftracker.internetwarriors.net%3A1337%2Fannounce&tr=udp%3A%2F%2Ftracker.leechers-paradise.org%3A6969%2Fannounce&tr=udp%3A%2F%2Ftracker.coppersurfer.tk%3A6969%2Fannounce&tr=udp%3A%2F%2Ftracker.pirateparty.gr%3A6969%2Fannounce&tr=udp%3A%2F%2Ftracker.cyberia.is%3A6969%2Fannounce",
    "seeder": "1",
    "leecher": "0"
}{
    "rank": "81",
    "title": "Motorbike 5.1.1 [MAC] [Native]",
    "link": "magnet:?xt=urn:btih:57C5B5B5AEC57ED3582FA0D4A30E7665DA86AF58&dn=Motorbike+5.1.1+%5BMAC%5D+%5BNative%5D&tr=udp%3A%2F%2Ftracker.coppersurfer.tk%3A6969%2Fannounce&tr=udp%3A%2F%2F9.rarbg.to%3A2920%2Fannounce&tr=udp%3A%2F%2Ftracker.opentrackr.org%3A1337&tr=udp%3A%2F%2Ftracker.internetwarriors.net%3A1337%2Fannounce&tr=udp%3A%2F%2Ftracker.leechers-paradise.org%3A6969%2Fannounce&tr=udp%3A%2F%2Ftracker.coppersurfer.tk%3A6969%2Fannounce&tr=udp%3A%2F%2Ftracker.pirateparty.gr%3A6969%2Fannounce&tr=udp%3A%2F%2Ftracker.cyberia.is%3A6969%2Fannounce",
    "seeder": "1",
    "leecher": "0"
}{
    "rank": "82",
    "title": "Majesty: The Fantasy Kingdom Sim Gold Edition [Mac]",
    "link": "magnet:?xt=urn:btih:F9BD146CC6888E6DEC3562762B962F9E0AA248BB&dn=Majesty%3A+The+Fantasy+Kingdom+Sim+Gold+Edition+%5BMac%5D&tr=udp%3A%2F%2Ftracker.coppersurfer.tk%3A6969%2Fannounce&tr=udp%3A%2F%2F9.rarbg.to%3A2920%2Fannounce&tr=udp%3A%2F%2Ftracker.opentrackr.org%3A1337&tr=udp%3A%2F%2Ftracker.internetwarriors.net%3A1337%2Fannounce&tr=udp%3A%2F%2Ftracker.leechers-paradise.org%3A6969%2Fannounce&tr=udp%3A%2F%2Ftracker.coppersurfer.tk%3A6969%2Fannounce&tr=udp%3A%2F%2Ftracker.pirateparty.gr%3A6969%2Fannounce&tr=udp%3A%2F%2Ftracker.cyberia.is%3A6969%2Fannounce",
    "seeder": "1",
    "leecher": "0"
}{
    "rank": "83",
    "title": "Papers, Please - 1.0.41 [Intel]",
    "link": "magnet:?xt=urn:btih:133623D878D77DFF6A3F388069181319BA6788F9&dn=Papers%2C+Please+-+1.0.41+%5BIntel%5D&tr=udp%3A%2F%2Ftracker.coppersurfer.tk%3A6969%2Fannounce&tr=udp%3A%2F%2F9.rarbg.to%3A2920%2Fannounce&tr=udp%3A%2F%2Ftracker.opentrackr.org%3A1337&tr=udp%3A%2F%2Ftracker.internetwarriors.net%3A1337%2Fannounce&tr=udp%3A%2F%2Ftracker.leechers-paradise.org%3A6969%2Fannounce&tr=udp%3A%2F%2Ftracker.coppersurfer.tk%3A6969%2Fannounce&tr=udp%3A%2F%2Ftracker.pirateparty.gr%3A6969%2Fannounce&tr=udp%3A%2F%2Ftracker.cyberia.is%3A6969%2Fannounce",
    "seeder": "1",
    "leecher": "0"
}{
    "rank": "84",
    "title": "Strata.v1.0.MacOSX.Cracked-CORE",
    "link": "magnet:?xt=urn:btih:9A5ABC9DDFAFB3B06BE1816DAB403E704399F274&dn=Strata.v1.0.MacOSX.Cracked-CORE&tr=udp%3A%2F%2Ftracker.coppersurfer.tk%3A6969%2Fannounce&tr=udp%3A%2F%2F9.rarbg.to%3A2920%2Fannounce&tr=udp%3A%2F%2Ftracker.opentrackr.org%3A1337&tr=udp%3A%2F%2Ftracker.internetwarriors.net%3A1337%2Fannounce&tr=udp%3A%2F%2Ftracker.leechers-paradise.org%3A6969%2Fannounce&tr=udp%3A%2F%2Ftracker.coppersurfer.tk%3A6969%2Fannounce&tr=udp%3A%2F%2Ftracker.pirateparty.gr%3A6969%2Fannounce&tr=udp%3A%2F%2Ftracker.cyberia.is%3A6969%2Fannounce",
    "seeder": "1",
    "leecher": "0"
}{
    "rank": "85",
    "title": "Zuma Mac Pack",
    "link": "magnet:?xt=urn:btih:E8F2DBAABE04E1CC893043380F00D2FC139FBC7E&dn=Zuma+Mac+Pack&tr=udp%3A%2F%2Ftracker.coppersurfer.tk%3A6969%2Fannounce&tr=udp%3A%2F%2F9.rarbg.to%3A2920%2Fannounce&tr=udp%3A%2F%2Ftracker.opentrackr.org%3A1337&tr=udp%3A%2F%2Ftracker.internetwarriors.net%3A1337%2Fannounce&tr=udp%3A%2F%2Ftracker.leechers-paradise.org%3A6969%2Fannounce&tr=udp%3A%2F%2Ftracker.coppersurfer.tk%3A6969%2Fannounce&tr=udp%3A%2F%2Ftracker.pirateparty.gr%3A6969%2Fannounce&tr=udp%3A%2F%2Ftracker.cyberia.is%3A6969%2Fannounce",
    "seeder": "1",
    "leecher": "0"
}{
    "rank": "86",
    "title": "Game_of_Thrones_Episode_1_CRACKFIX_MACOSX-MONEY",
    "link": "magnet:?xt=urn:btih:F916F2C3183B6BF97FC9DD69373EE3C1807E32B6&dn=Game_of_Thrones_Episode_1_CRACKFIX_MACOSX-MONEY&tr=udp%3A%2F%2Ftracker.coppersurfer.tk%3A6969%2Fannounce&tr=udp%3A%2F%2F9.rarbg.to%3A2920%2Fannounce&tr=udp%3A%2F%2Ftracker.opentrackr.org%3A1337&tr=udp%3A%2F%2Ftracker.internetwarriors.net%3A1337%2Fannounce&tr=udp%3A%2F%2Ftracker.leechers-paradise.org%3A6969%2Fannounce&tr=udp%3A%2F%2Ftracker.coppersurfer.tk%3A6969%2Fannounce&tr=udp%3A%2F%2Ftracker.pirateparty.gr%3A6969%2Fannounce&tr=udp%3A%2F%2Ftracker.cyberia.is%3A6969%2Fannounce",
    "seeder": "1",
    "leecher": "0"
}{
    "rank": "87",
    "title": "Borderlands 2 + Tiny Tina's Assault DLC 1.5.0 [Mac][Native]",
    "link": "magnet:?xt=urn:btih:DD4D02D47972A4995CCC94006476A8C9B187216F&dn=Borderlands+2+%2B+Tiny+Tina%27s+Assault+DLC+1.5.0+%5BMac%5D%5BNative%5D&tr=udp%3A%2F%2Ftracker.coppersurfer.tk%3A6969%2Fannounce&tr=udp%3A%2F%2F9.rarbg.to%3A2920%2Fannounce&tr=udp%3A%2F%2Ftracker.opentrackr.org%3A1337&tr=udp%3A%2F%2Ftracker.internetwarriors.net%3A1337%2Fannounce&tr=udp%3A%2F%2Ftracker.leechers-paradise.org%3A6969%2Fannounce&tr=udp%3A%2F%2Ftracker.coppersurfer.tk%3A6969%2Fannounce&tr=udp%3A%2F%2Ftracker.pirateparty.gr%3A6969%2Fannounce&tr=udp%3A%2F%2Ftracker.cyberia.is%3A6969%2Fannounce",
    "seeder": "1",
    "leecher": "0"
}{
    "rank": "88",
    "title": "Baldur's Gate 2 Complete - MAC OS X - GOG",
    "link": "magnet:?xt=urn:btih:9F9ACDBA2D6CAE94BFDC8788CD0AB5AE64C94486&dn=Baldur%27s+Gate+2+Complete+-+MAC+OS+X+-+GOG&tr=udp%3A%2F%2Ftracker.coppersurfer.tk%3A6969%2Fannounce&tr=udp%3A%2F%2F9.rarbg.to%3A2920%2Fannounce&tr=udp%3A%2F%2Ftracker.opentrackr.org%3A1337&tr=udp%3A%2F%2Ftracker.internetwarriors.net%3A1337%2Fannounce&tr=udp%3A%2F%2Ftracker.leechers-paradise.org%3A6969%2Fannounce&tr=udp%3A%2F%2Ftracker.coppersurfer.tk%3A6969%2Fannounce&tr=udp%3A%2F%2Ftracker.pirateparty.gr%3A6969%2Fannounce&tr=udp%3A%2F%2Ftracker.cyberia.is%3A6969%2Fannounce",
    "seeder": "1",
    "leecher": "1"
}{
    "rank": "89",
    "title": "World.of.Warcraft.Cataclysm.v4.0.6a.Complete-HR",
    "link": "magnet:?xt=urn:btih:78AED1AA772A2FC0A8CF0236EA44AD3C23BE381C&dn=World.of.Warcraft.Cataclysm.v4.0.6a.Complete-HR&tr=udp%3A%2F%2Ftracker.coppersurfer.tk%3A6969%2Fannounce&tr=udp%3A%2F%2F9.rarbg.to%3A2920%2Fannounce&tr=udp%3A%2F%2Ftracker.opentrackr.org%3A1337&tr=udp%3A%2F%2Ftracker.internetwarriors.net%3A1337%2Fannounce&tr=udp%3A%2F%2Ftracker.leechers-paradise.org%3A6969%2Fannounce&tr=udp%3A%2F%2Ftracker.coppersurfer.tk%3A6969%2Fannounce&tr=udp%3A%2F%2Ftracker.pirateparty.gr%3A6969%2Fannounce&tr=udp%3A%2F%2Ftracker.cyberia.is%3A6969%2Fannounce",
    "seeder": "1",
    "leecher": "0"
}{
    "rank": "90",
    "title": "Euro Truck Simulator 2 [MAC] [Cider]",
    "link": "magnet:?xt=urn:btih:F258724453C007F1DC938171586BB56F8F7CB992&dn=Euro+Truck+Simulator+2+%5BMAC%5D+%5BCider%5D&tr=udp%3A%2F%2Ftracker.coppersurfer.tk%3A6969%2Fannounce&tr=udp%3A%2F%2F9.rarbg.to%3A2920%2Fannounce&tr=udp%3A%2F%2Ftracker.opentrackr.org%3A1337&tr=udp%3A%2F%2Ftracker.internetwarriors.net%3A1337%2Fannounce&tr=udp%3A%2F%2Ftracker.leechers-paradise.org%3A6969%2Fannounce&tr=udp%3A%2F%2Ftracker.coppersurfer.tk%3A6969%2Fannounce&tr=udp%3A%2F%2Ftracker.pirateparty.gr%3A6969%2Fannounce&tr=udp%3A%2F%2Ftracker.cyberia.is%3A6969%2Fannounce",
    "seeder": "1",
    "leecher": "0"
}{
    "rank": "91",
    "title": "Broken Sword 5 The Serpent Curse (Episode 1 And 2 /GOG/ Mac)",
    "link": "magnet:?xt=urn:btih:17AA9E67E590716AD879AA8CAD774B0627C4E705&dn=Broken+Sword+5+The+Serpent+Curse+%28Episode+1+And+2+%2FGOG%2F+Mac%29&tr=udp%3A%2F%2Ftracker.coppersurfer.tk%3A6969%2Fannounce&tr=udp%3A%2F%2F9.rarbg.to%3A2920%2Fannounce&tr=udp%3A%2F%2Ftracker.opentrackr.org%3A1337&tr=udp%3A%2F%2Ftracker.internetwarriors.net%3A1337%2Fannounce&tr=udp%3A%2F%2Ftracker.leechers-paradise.org%3A6969%2Fannounce&tr=udp%3A%2F%2Ftracker.coppersurfer.tk%3A6969%2Fannounce&tr=udp%3A%2F%2Ftracker.pirateparty.gr%3A6969%2Fannounce&tr=udp%3A%2F%2Ftracker.cyberia.is%3A6969%2Fannounce",
    "seeder": "1",
    "leecher": "0"
}{
    "rank": "92",
    "title": "Farming Simulator 2013 [Mac] [Native]",
    "link": "magnet:?xt=urn:btih:3983089B1DF4A14859538DEB3E962C9E55E8674B&dn=Farming+Simulator+2013+%5BMac%5D+%5BNative%5D&tr=udp%3A%2F%2Ftracker.coppersurfer.tk%3A6969%2Fannounce&tr=udp%3A%2F%2F9.rarbg.to%3A2920%2Fannounce&tr=udp%3A%2F%2Ftracker.opentrackr.org%3A1337&tr=udp%3A%2F%2Ftracker.internetwarriors.net%3A1337%2Fannounce&tr=udp%3A%2F%2Ftracker.leechers-paradise.org%3A6969%2Fannounce&tr=udp%3A%2F%2Ftracker.coppersurfer.tk%3A6969%2Fannounce&tr=udp%3A%2F%2Ftracker.pirateparty.gr%3A6969%2Fannounce&tr=udp%3A%2F%2Ftracker.cyberia.is%3A6969%2Fannounce",
    "seeder": "1",
    "leecher": "0"
}{
    "rank": "93",
    "title": "Star Wars Galactic Battlegrounds Saga",
    "link": "magnet:?xt=urn:btih:6C2118F47E1CE5DC977C998A7478FE7904EC3DC4&dn=Star+Wars+Galactic+Battlegrounds+Saga&tr=udp%3A%2F%2Ftracker.coppersurfer.tk%3A6969%2Fannounce&tr=udp%3A%2F%2F9.rarbg.to%3A2920%2Fannounce&tr=udp%3A%2F%2Ftracker.opentrackr.org%3A1337&tr=udp%3A%2F%2Ftracker.internetwarriors.net%3A1337%2Fannounce&tr=udp%3A%2F%2Ftracker.leechers-paradise.org%3A6969%2Fannounce&tr=udp%3A%2F%2Ftracker.coppersurfer.tk%3A6969%2Fannounce&tr=udp%3A%2F%2Ftracker.pirateparty.gr%3A6969%2Fannounce&tr=udp%3A%2F%2Ftracker.cyberia.is%3A6969%2Fannounce",
    "seeder": "1",
    "leecher": "0"
}{
    "rank": "94",
    "title": "Star Wars: Knights Of The Old Republic II - The Sith Lords [Mac]",
    "link": "magnet:?xt=urn:btih:D8C29DE509F8D46FC1810DFE1110552551488CB0&dn=Star+Wars%3A+Knights+Of+The+Old+Republic+II+-+The+Sith+Lords+%5BMac%5D&tr=udp%3A%2F%2Ftracker.coppersurfer.tk%3A6969%2Fannounce&tr=udp%3A%2F%2F9.rarbg.to%3A2920%2Fannounce&tr=udp%3A%2F%2Ftracker.opentrackr.org%3A1337&tr=udp%3A%2F%2Ftracker.internetwarriors.net%3A1337%2Fannounce&tr=udp%3A%2F%2Ftracker.leechers-paradise.org%3A6969%2Fannounce&tr=udp%3A%2F%2Ftracker.coppersurfer.tk%3A6969%2Fannounce&tr=udp%3A%2F%2Ftracker.pirateparty.gr%3A6969%2Fannounce&tr=udp%3A%2F%2Ftracker.cyberia.is%3A6969%2Fannounce",
    "seeder": "1",
    "leecher": "0"
}{
    "rank": "95",
    "title": "Peggle Mac Pack",
    "link": "magnet:?xt=urn:btih:0F2986CE2E3E63E0565DAE2C919FD92DADB6E08D&dn=Peggle+Mac+Pack&tr=udp%3A%2F%2Ftracker.coppersurfer.tk%3A6969%2Fannounce&tr=udp%3A%2F%2F9.rarbg.to%3A2920%2Fannounce&tr=udp%3A%2F%2Ftracker.opentrackr.org%3A1337&tr=udp%3A%2F%2Ftracker.internetwarriors.net%3A1337%2Fannounce&tr=udp%3A%2F%2Ftracker.leechers-paradise.org%3A6969%2Fannounce&tr=udp%3A%2F%2Ftracker.coppersurfer.tk%3A6969%2Fannounce&tr=udp%3A%2F%2Ftracker.pirateparty.gr%3A6969%2Fannounce&tr=udp%3A%2F%2Ftracker.cyberia.is%3A6969%2Fannounce",
    "seeder": "1",
    "leecher": "0"
}{
    "rank": "96",
    "title": "AR-K.Episode.1.and.2.MacOSX-ACTiVATED [Mac]",
    "link": "magnet:?xt=urn:btih:20B2E1656E38DFCF3079114FA46495BC7F17EA5D&dn=AR-K.Episode.1.and.2.MacOSX-ACTiVATED+%5BMac%5D&tr=udp%3A%2F%2Ftracker.coppersurfer.tk%3A6969%2Fannounce&tr=udp%3A%2F%2F9.rarbg.to%3A2920%2Fannounce&tr=udp%3A%2F%2Ftracker.opentrackr.org%3A1337&tr=udp%3A%2F%2Ftracker.internetwarriors.net%3A1337%2Fannounce&tr=udp%3A%2F%2Ftracker.leechers-paradise.org%3A6969%2Fannounce&tr=udp%3A%2F%2Ftracker.coppersurfer.tk%3A6969%2Fannounce&tr=udp%3A%2F%2Ftracker.pirateparty.gr%3A6969%2Fannounce&tr=udp%3A%2F%2Ftracker.cyberia.is%3A6969%2Fannounce",
    "seeder": "1",
    "leecher": "0"
}{
    "rank": "97",
    "title": "Scania Truck Driving Simulator - The Game [Mac] [App Store]",
    "link": "magnet:?xt=urn:btih:7E57B04AFC86A6A1642EB4F31AA670784A4F642D&dn=Scania+Truck+Driving+Simulator+-+The+Game+%5BMac%5D+%5BApp+Store%5D&tr=udp%3A%2F%2Ftracker.coppersurfer.tk%3A6969%2Fannounce&tr=udp%3A%2F%2F9.rarbg.to%3A2920%2Fannounce&tr=udp%3A%2F%2Ftracker.opentrackr.org%3A1337&tr=udp%3A%2F%2Ftracker.internetwarriors.net%3A1337%2Fannounce&tr=udp%3A%2F%2Ftracker.leechers-paradise.org%3A6969%2Fannounce&tr=udp%3A%2F%2Ftracker.coppersurfer.tk%3A6969%2Fannounce&tr=udp%3A%2F%2Ftracker.pirateparty.gr%3A6969%2Fannounce&tr=udp%3A%2F%2Ftracker.cyberia.is%3A6969%2Fannounce",
    "seeder": "1",
    "leecher": "0"
}{
    "rank": "98",
    "title": "Roads of Rome 2",
    "link": "magnet:?xt=urn:btih:BA8A136D06246EC840B1C907F7D7130F71F87C0E&dn=Roads+of+Rome+2&tr=udp%3A%2F%2Ftracker.coppersurfer.tk%3A6969%2Fannounce&tr=udp%3A%2F%2F9.rarbg.to%3A2920%2Fannounce&tr=udp%3A%2F%2Ftracker.opentrackr.org%3A1337&tr=udp%3A%2F%2Ftracker.internetwarriors.net%3A1337%2Fannounce&tr=udp%3A%2F%2Ftracker.leechers-paradise.org%3A6969%2Fannounce&tr=udp%3A%2F%2Ftracker.coppersurfer.tk%3A6969%2Fannounce&tr=udp%3A%2F%2Ftracker.pirateparty.gr%3A6969%2Fannounce&tr=udp%3A%2F%2Ftracker.cyberia.is%3A6969%2Fannounce",
    "seeder": "1",
    "leecher": "0"
}{
    "rank": "99",
    "title": "Wasteland 2 (Mac) (Patch 2) (GOG)",
    "link": "magnet:?xt=urn:btih:EC2C378C567A9D36529F1DD24083EFC8CE02DF42&dn=Wasteland+2+%28Mac%29+%28Patch+2%29+%28GOG%29&tr=udp%3A%2F%2Ftracker.coppersurfer.tk%3A6969%2Fannounce&tr=udp%3A%2F%2F9.rarbg.to%3A2920%2Fannounce&tr=udp%3A%2F%2Ftracker.opentrackr.org%3A1337&tr=udp%3A%2F%2Ftracker.internetwarriors.net%3A1337%2Fannounce&tr=udp%3A%2F%2Ftracker.leechers-paradise.org%3A6969%2Fannounce&tr=udp%3A%2F%2Ftracker.coppersurfer.tk%3A6969%2Fannounce&tr=udp%3A%2F%2Ftracker.pirateparty.gr%3A6969%2Fannounce&tr=udp%3A%2F%2Ftracker.cyberia.is%3A6969%2Fannounce",
    "seeder": "1",
    "leecher": "0"
}{
    "rank": "100",
    "title": "Battle.Worlds.Kronos.v1.2.1.MacOSX.Retail-CORE",
    "link": "magnet:?xt=urn:btih:1EECEEC875F79D598D4324F7866DAAA506B96CAB&dn=Battle.Worlds.Kronos.v1.2.1.MacOSX.Retail-CORE&tr=udp%3A%2F%2Ftracker.coppersurfer.tk%3A6969%2Fannounce&tr=udp%3A%2F%2F9.rarbg.to%3A2920%2Fannounce&tr=udp%3A%2F%2Ftracker.opentrackr.org%3A1337&tr=udp%3A%2F%2Ftracker.internetwarriors.net%3A1337%2Fannounce&tr=udp%3A%2F%2Ftracker.leechers-paradise.org%3A6969%2Fannounce&tr=udp%3A%2F%2Ftracker.coppersurfer.tk%3A6969%2Fannounce&tr=udp%3A%2F%2Ftracker.pirateparty.gr%3A6969%2Fannounce&tr=udp%3A%2F%2Ftracker.cyberia.is%3A6969%2Fannounce",
    "seeder": "1",
    "leecher": "0"
}