[
    {
        "rank": "1",
        "title": "Pink Floyd - Discography [EAC - FLAC] (oan)",
        "link": "magnet:?xt=urn:btih:6C9826BBED2E8483D8719AF2A905983F2A78D060&dn=Pink+Floyd+-+Discography+%5BEAC+-+FLAC%5D+%28oan%29&tr=udp%3A%2F%2Ftracker.coppersurfer.tk%3A6969%2Fannounce&tr=udp%3A%2F%2F9.rarbg.to%3A2920%2Fannounce&tr=udp%3A%2F%2Ftracker.opentrackr.org%3A1337&tr=udp%3A%2F%2Ftracker.internetwarriors.net%3A1337%2Fannounce&tr=udp%3A%2F%2Ftracker.leechers-paradise.org%3A6969%2Fannounce&tr=udp%3A%2F%2Ftracker.coppersurfer.tk%3A6969%2Fannounce&tr=udp%3A%2F%2Ftracker.pirateparty.gr%3A6969%2Fannounce&tr=udp%3A%2F%2Ftracker.cyberia.is%3A6969%2Fannounce",
        "seeder": "91",
        "leecher": "30"
    },
    {
        "rank": "2",
        "title": "Lou Reed - Transformer (1972) [EAC-FLAC]",
        "link": "magnet:?xt=urn:btih:1ECB2AD54E88E55E19521E5A16C9F57FB61F0837&dn=Lou+Reed+-+Transformer+%281972%29+%5BEAC-FLAC%5D&tr=udp%3A%2F%2Ftracker.coppersurfer.tk%3A6969%2Fannounce&tr=udp%3A%2F%2F9.rarbg.to%3A2920%2Fannounce&tr=udp%3A%2F%2Ftracker.opentrackr.org%3A1337&tr=udp%3A%2F%2Ftracker.internetwarriors.net%3A1337%2Fannounce&tr=udp%3A%2F%2Ftracker.leechers-paradise.org%3A6969%2Fannounce&tr=udp%3A%2F%2Ftracker.coppersurfer.tk%3A6969%2Fannounce&tr=udp%3A%2F%2Ftracker.pirateparty.gr%3A6969%2Fannounce&tr=udp%3A%2F%2Ftracker.cyberia.is%3A6969%2Fannounce",
        "seeder": "88",
        "leecher": "12"
    },
    {
        "rank": "3",
        "title": "Stevie Wonder - The Original Musiquarium 1 (1982) LP 24-96 FLAC",
        "link": "magnet:?xt=urn:btih:825B7FBD3009150A1CFB43EC8A888A49FF78CA09&dn=Stevie+Wonder+-+The+Original+Musiquarium+1+%281982%29+LP+24-96+FLAC&tr=udp%3A%2F%2Ftracker.coppersurfer.tk%3A6969%2Fannounce&tr=udp%3A%2F%2F9.rarbg.to%3A2920%2Fannounce&tr=udp%3A%2F%2Ftracker.opentrackr.org%3A1337&tr=udp%3A%2F%2Ftracker.internetwarriors.net%3A1337%2Fannounce&tr=udp%3A%2F%2Ftracker.leechers-paradise.org%3A6969%2Fannounce&tr=udp%3A%2F%2Ftracker.coppersurfer.tk%3A6969%2Fannounce&tr=udp%3A%2F%2Ftracker.pirateparty.gr%3A6969%2Fannounce&tr=udp%3A%2F%2Ftracker.cyberia.is%3A6969%2Fannounce",
        "seeder": "81",
        "leecher": "25"
    },
    {
        "rank": "4",
        "title": "Lou Reed - Lou Reed (1972) [EAC-FLAC]",
        "link": "magnet:?xt=urn:btih:B38FBDFF64940B17756FE3D4C66DB7C85456AA91&dn=Lou+Reed+-+Lou+Reed+%281972%29+%5BEAC-FLAC%5D&tr=udp%3A%2F%2Ftracker.coppersurfer.tk%3A6969%2Fannounce&tr=udp%3A%2F%2F9.rarbg.to%3A2920%2Fannounce&tr=udp%3A%2F%2Ftracker.opentrackr.org%3A1337&tr=udp%3A%2F%2Ftracker.internetwarriors.net%3A1337%2Fannounce&tr=udp%3A%2F%2Ftracker.leechers-paradise.org%3A6969%2Fannounce&tr=udp%3A%2F%2Ftracker.coppersurfer.tk%3A6969%2Fannounce&tr=udp%3A%2F%2Ftracker.pirateparty.gr%3A6969%2Fannounce&tr=udp%3A%2F%2Ftracker.cyberia.is%3A6969%2Fannounce",
        "seeder": "62",
        "leecher": "10"
    },
    {
        "rank": "5",
        "title": "ACDC - The Very Best Of AC/DC  2CD (2016) [FLAC] vtwin88cube",
        "link": "magnet:?xt=urn:btih:CDDF0FA1932301D9D14F34E81DD065D13D9717F8&dn=ACDC+-+The+Very+Best+Of+AC%2FDC++2CD+%282016%29+%5BFLAC%5D+vtwin88cube&tr=udp%3A%2F%2Ftracker.coppersurfer.tk%3A6969%2Fannounce&tr=udp%3A%2F%2F9.rarbg.to%3A2920%2Fannounce&tr=udp%3A%2F%2Ftracker.opentrackr.org%3A1337&tr=udp%3A%2F%2Ftracker.internetwarriors.net%3A1337%2Fannounce&tr=udp%3A%2F%2Ftracker.leechers-paradise.org%3A6969%2Fannounce&tr=udp%3A%2F%2Ftracker.coppersurfer.tk%3A6969%2Fannounce&tr=udp%3A%2F%2Ftracker.pirateparty.gr%3A6969%2Fannounce&tr=udp%3A%2F%2Ftracker.cyberia.is%3A6969%2Fannounce",
        "seeder": "58",
        "leecher": "5"
    },
    {
        "rank": "6",
        "title": "Daft Punk - Random Access Memories [FLAC]",
        "link": "magnet:?xt=urn:btih:69BB78DD9FDFC4A5AEF6A137CE96B85601356902&dn=Daft+Punk+-+Random+Access+Memories+%5BFLAC%5D&tr=udp%3A%2F%2Ftracker.coppersurfer.tk%3A6969%2Fannounce&tr=udp%3A%2F%2F9.rarbg.to%3A2920%2Fannounce&tr=udp%3A%2F%2Ftracker.opentrackr.org%3A1337&tr=udp%3A%2F%2Ftracker.internetwarriors.net%3A1337%2Fannounce&tr=udp%3A%2F%2Ftracker.leechers-paradise.org%3A6969%2Fannounce&tr=udp%3A%2F%2Ftracker.coppersurfer.tk%3A6969%2Fannounce&tr=udp%3A%2F%2Ftracker.pirateparty.gr%3A6969%2Fannounce&tr=udp%3A%2F%2Ftracker.cyberia.is%3A6969%2Fannounce",
        "seeder": "58",
        "leecher": "1"
    },
    {
        "rank": "7",
        "title": "Dire Straits Discography STUDiO 6 CD [00602508391361]-FLAC",
        "link": "magnet:?xt=urn:btih:EEFAF72B87E56564FB9A13AFE5F4B5A1554C2EE2&dn=Dire+Straits+Discography+STUDiO+6+CD+%5B00602508391361%5D-FLAC&tr=udp%3A%2F%2Ftracker.coppersurfer.tk%3A6969%2Fannounce&tr=udp%3A%2F%2F9.rarbg.to%3A2920%2Fannounce&tr=udp%3A%2F%2Ftracker.opentrackr.org%3A1337&tr=udp%3A%2F%2Ftracker.internetwarriors.net%3A1337%2Fannounce&tr=udp%3A%2F%2Ftracker.leechers-paradise.org%3A6969%2Fannounce&tr=udp%3A%2F%2Ftracker.coppersurfer.tk%3A6969%2Fannounce&tr=udp%3A%2F%2Ftracker.pirateparty.gr%3A6969%2Fannounce&tr=udp%3A%2F%2Ftracker.cyberia.is%3A6969%2Fannounce",
        "seeder": "53",
        "leecher": "1"
    },
    {
        "rank": "8",
        "title": "The Best Of Contemporary Smooth Jazz (2007) {FLAC} vtwin88cube",
        "link": "magnet:?xt=urn:btih:3C49C9E1A6996FD2620F97E4A928AA6DA73EA234&dn=The+Best+Of+Contemporary+Smooth+Jazz+%282007%29+%7BFLAC%7D+vtwin88cube&tr=udp%3A%2F%2Ftracker.coppersurfer.tk%3A6969%2Fannounce&tr=udp%3A%2F%2F9.rarbg.to%3A2920%2Fannounce&tr=udp%3A%2F%2Ftracker.opentrackr.org%3A1337&tr=udp%3A%2F%2Ftracker.internetwarriors.net%3A1337%2Fannounce&tr=udp%3A%2F%2Ftracker.leechers-paradise.org%3A6969%2Fannounce&tr=udp%3A%2F%2Ftracker.coppersurfer.tk%3A6969%2Fannounce&tr=udp%3A%2F%2Ftracker.pirateparty.gr%3A6969%2Fannounce&tr=udp%3A%2F%2Ftracker.cyberia.is%3A6969%2Fannounce",
        "seeder": "51",
        "leecher": "2"
    },
    {
        "rank": "9",
        "title": "George Harrison - All Things Must Pass (1970) (PBTHAL LP 24-96)",
        "link": "magnet:?xt=urn:btih:9544776A645DD3F3AC0FB11D9773BB3FCE284CBE&dn=George+Harrison+-+All+Things+Must+Pass+%281970%29+%28PBTHAL+LP+24-96%29&tr=udp%3A%2F%2Ftracker.coppersurfer.tk%3A6969%2Fannounce&tr=udp%3A%2F%2F9.rarbg.to%3A2920%2Fannounce&tr=udp%3A%2F%2Ftracker.opentrackr.org%3A1337&tr=udp%3A%2F%2Ftracker.internetwarriors.net%3A1337%2Fannounce&tr=udp%3A%2F%2Ftracker.leechers-paradise.org%3A6969%2Fannounce&tr=udp%3A%2F%2Ftracker.coppersurfer.tk%3A6969%2Fannounce&tr=udp%3A%2F%2Ftracker.pirateparty.gr%3A6969%2Fannounce&tr=udp%3A%2F%2Ftracker.cyberia.is%3A6969%2Fannounce",
        "seeder": "50",
        "leecher": "9"
    },
    {
        "rank": "10",
        "title": "Billie Eilish - 100% Billie Eilish (2020) [FLAC] vtwin88cube",
        "link": "magnet:?xt=urn:btih:BA434F1ADBD993EC533555E85213F66DE64C9715&dn=Billie+Eilish+-+100%25+Billie+Eilish+%282020%29+%5BFLAC%5D+vtwin88cube&tr=udp%3A%2F%2Ftracker.coppersurfer.tk%3A6969%2Fannounce&tr=udp%3A%2F%2F9.rarbg.to%3A2920%2Fannounce&tr=udp%3A%2F%2Ftracker.opentrackr.org%3A1337&tr=udp%3A%2F%2Ftracker.internetwarriors.net%3A1337%2Fannounce&tr=udp%3A%2F%2Ftracker.leechers-paradise.org%3A6969%2Fannounce&tr=udp%3A%2F%2Ftracker.coppersurfer.tk%3A6969%2Fannounce&tr=udp%3A%2F%2Ftracker.pirateparty.gr%3A6969%2Fannounce&tr=udp%3A%2F%2Ftracker.cyberia.is%3A6969%2Fannounce",
        "seeder": "49",
        "leecher": "2"
    },
    {
        "rank": "11",
        "title": "Nirvana - Nevermind (2011) Remastered FLAC Soup",
        "link": "magnet:?xt=urn:btih:E9C94D2FDF2096FF17BB09232D12D00C366A2A4B&dn=Nirvana+-+Nevermind+%282011%29+Remastered+FLAC+Soup&tr=udp%3A%2F%2Ftracker.coppersurfer.tk%3A6969%2Fannounce&tr=udp%3A%2F%2F9.rarbg.to%3A2920%2Fannounce&tr=udp%3A%2F%2Ftracker.opentrackr.org%3A1337&tr=udp%3A%2F%2Ftracker.internetwarriors.net%3A1337%2Fannounce&tr=udp%3A%2F%2Ftracker.leechers-paradise.org%3A6969%2Fannounce&tr=udp%3A%2F%2Ftracker.coppersurfer.tk%3A6969%2Fannounce&tr=udp%3A%2F%2Ftracker.pirateparty.gr%3A6969%2Fannounce&tr=udp%3A%2F%2Ftracker.cyberia.is%3A6969%2Fannounce",
        "seeder": "46",
        "leecher": "1"
    },
    {
        "rank": "12",
        "title": "VA - Classic Rock Audiophile Collection [DR14 FLAC] vtwin88cube",
        "link": "magnet:?xt=urn:btih:0DEB127806E9D70443CFAC5F92AB10AA23D49992&dn=VA+-+Classic+Rock+Audiophile+Collection+%5BDR14+FLAC%5D+vtwin88cube&tr=udp%3A%2F%2Ftracker.coppersurfer.tk%3A6969%2Fannounce&tr=udp%3A%2F%2F9.rarbg.to%3A2920%2Fannounce&tr=udp%3A%2F%2Ftracker.opentrackr.org%3A1337&tr=udp%3A%2F%2Ftracker.internetwarriors.net%3A1337%2Fannounce&tr=udp%3A%2F%2Ftracker.leechers-paradise.org%3A6969%2Fannounce&tr=udp%3A%2F%2Ftracker.coppersurfer.tk%3A6969%2Fannounce&tr=udp%3A%2F%2Ftracker.pirateparty.gr%3A6969%2Fannounce&tr=udp%3A%2F%2Ftracker.cyberia.is%3A6969%2Fannounce",
        "seeder": "45",
        "leecher": "2"
    },
    {
        "rank": "13",
        "title": "Pink Floyd - The Wall (1979) (2012 PBTHAL 24-96 FLAC)",
        "link": "magnet:?xt=urn:btih:E0B73F063186AFC228F0FB3413BF18D2513A30A0&dn=Pink+Floyd+-+The+Wall+%281979%29+%282012+PBTHAL+24-96+FLAC%29&tr=udp%3A%2F%2Ftracker.coppersurfer.tk%3A6969%2Fannounce&tr=udp%3A%2F%2F9.rarbg.to%3A2920%2Fannounce&tr=udp%3A%2F%2Ftracker.opentrackr.org%3A1337&tr=udp%3A%2F%2Ftracker.internetwarriors.net%3A1337%2Fannounce&tr=udp%3A%2F%2Ftracker.leechers-paradise.org%3A6969%2Fannounce&tr=udp%3A%2F%2Ftracker.coppersurfer.tk%3A6969%2Fannounce&tr=udp%3A%2F%2Ftracker.pirateparty.gr%3A6969%2Fannounce&tr=udp%3A%2F%2Ftracker.cyberia.is%3A6969%2Fannounce",
        "seeder": "44",
        "leecher": "5"
    },
    {
        "rank": "14",
        "title": "Black Pumas Black Pumas [2020] FLAC CD",
        "link": "magnet:?xt=urn:btih:79C73DF5B56397727C61F1B4D548E3D706916B7C&dn=Black+Pumas+Black+Pumas+%5B2020%5D+FLAC+CD&tr=udp%3A%2F%2Ftracker.coppersurfer.tk%3A6969%2Fannounce&tr=udp%3A%2F%2F9.rarbg.to%3A2920%2Fannounce&tr=udp%3A%2F%2Ftracker.opentrackr.org%3A1337&tr=udp%3A%2F%2Ftracker.internetwarriors.net%3A1337%2Fannounce&tr=udp%3A%2F%2Ftracker.leechers-paradise.org%3A6969%2Fannounce&tr=udp%3A%2F%2Ftracker.coppersurfer.tk%3A6969%2Fannounce&tr=udp%3A%2F%2Ftracker.pirateparty.gr%3A6969%2Fannounce&tr=udp%3A%2F%2Ftracker.cyberia.is%3A6969%2Fannounce",
        "seeder": "43",
        "leecher": "3"
    },
    {
        "rank": "15",
        "title": "VA - Dynamic Audiophile Jazz Vol.1 2019 [DR15 FLAC] vtwin88cube",
        "link": "magnet:?xt=urn:btih:16D299A57F58BBB2591059E3284DE35B27F48223&dn=VA+-+Dynamic+Audiophile+Jazz+Vol.1+2019+%5BDR15+FLAC%5D+vtwin88cube&tr=udp%3A%2F%2Ftracker.coppersurfer.tk%3A6969%2Fannounce&tr=udp%3A%2F%2F9.rarbg.to%3A2920%2Fannounce&tr=udp%3A%2F%2Ftracker.opentrackr.org%3A1337&tr=udp%3A%2F%2Ftracker.internetwarriors.net%3A1337%2Fannounce&tr=udp%3A%2F%2Ftracker.leechers-paradise.org%3A6969%2Fannounce&tr=udp%3A%2F%2Ftracker.coppersurfer.tk%3A6969%2Fannounce&tr=udp%3A%2F%2Ftracker.pirateparty.gr%3A6969%2Fannounce&tr=udp%3A%2F%2Ftracker.cyberia.is%3A6969%2Fannounce",
        "seeder": "43",
        "leecher": "1"
    },
    {
        "rank": "16",
        "title": "The Rolling Stones - Flowers (1967) (PBTHAL LP 24-44) [FLAC]",
        "link": "magnet:?xt=urn:btih:CC7F950B4CFE601DBCFD6CC4FE4CA8C60F90F893&dn=The+Rolling+Stones+-+Flowers+%281967%29+%28PBTHAL+LP+24-44%29+%5BFLAC%5D&tr=udp%3A%2F%2Ftracker.coppersurfer.tk%3A6969%2Fannounce&tr=udp%3A%2F%2F9.rarbg.to%3A2920%2Fannounce&tr=udp%3A%2F%2Ftracker.opentrackr.org%3A1337&tr=udp%3A%2F%2Ftracker.internetwarriors.net%3A1337%2Fannounce&tr=udp%3A%2F%2Ftracker.leechers-paradise.org%3A6969%2Fannounce&tr=udp%3A%2F%2Ftracker.coppersurfer.tk%3A6969%2Fannounce&tr=udp%3A%2F%2Ftracker.pirateparty.gr%3A6969%2Fannounce&tr=udp%3A%2F%2Ftracker.cyberia.is%3A6969%2Fannounce",
        "seeder": "42",
        "leecher": "0"
    },
    {
        "rank": "17",
        "title": "The Rolling Stones - Studio Discography [FLAC] vtwin88cube",
        "link": "magnet:?xt=urn:btih:7819F53C4B8764CE1E7528FC4DDC1436B62FE3A1&dn=The+Rolling+Stones+-+Studio+Discography+%5BFLAC%5D+vtwin88cube&tr=udp%3A%2F%2Ftracker.coppersurfer.tk%3A6969%2Fannounce&tr=udp%3A%2F%2F9.rarbg.to%3A2920%2Fannounce&tr=udp%3A%2F%2Ftracker.opentrackr.org%3A1337&tr=udp%3A%2F%2Ftracker.internetwarriors.net%3A1337%2Fannounce&tr=udp%3A%2F%2Ftracker.leechers-paradise.org%3A6969%2Fannounce&tr=udp%3A%2F%2Ftracker.coppersurfer.tk%3A6969%2Fannounce&tr=udp%3A%2F%2Ftracker.pirateparty.gr%3A6969%2Fannounce&tr=udp%3A%2F%2Ftracker.cyberia.is%3A6969%2Fannounce",
        "seeder": "42",
        "leecher": "5"
    },
    {
        "rank": "18",
        "title": "Led Zeppelin - Discography 1969 - 1982 [FLAC] - Kitlope",
        "link": "magnet:?xt=urn:btih:8B27F6959406A3AC10BA469172364A3F9057336B&dn=Led+Zeppelin+-+Discography+1969+-+1982+%5BFLAC%5D+-+Kitlope&tr=udp%3A%2F%2Ftracker.coppersurfer.tk%3A6969%2Fannounce&tr=udp%3A%2F%2F9.rarbg.to%3A2920%2Fannounce&tr=udp%3A%2F%2Ftracker.opentrackr.org%3A1337&tr=udp%3A%2F%2Ftracker.internetwarriors.net%3A1337%2Fannounce&tr=udp%3A%2F%2Ftracker.leechers-paradise.org%3A6969%2Fannounce&tr=udp%3A%2F%2Ftracker.coppersurfer.tk%3A6969%2Fannounce&tr=udp%3A%2F%2Ftracker.pirateparty.gr%3A6969%2Fannounce&tr=udp%3A%2F%2Ftracker.cyberia.is%3A6969%2Fannounce",
        "seeder": "42",
        "leecher": "4"
    },
    {
        "rank": "19",
        "title": "Fleetwood Mac - Rumours (1977) (2020 PBTHAL LP 24-96) [FLAC]",
        "link": "magnet:?xt=urn:btih:F6BB3820A85F5471C3F5ED4E7A6A7A929351CA35&dn=Fleetwood+Mac+-+Rumours+%281977%29+%282020+PBTHAL+LP+24-96%29+%5BFLAC%5D&tr=udp%3A%2F%2Ftracker.coppersurfer.tk%3A6969%2Fannounce&tr=udp%3A%2F%2F9.rarbg.to%3A2920%2Fannounce&tr=udp%3A%2F%2Ftracker.opentrackr.org%3A1337&tr=udp%3A%2F%2Ftracker.internetwarriors.net%3A1337%2Fannounce&tr=udp%3A%2F%2Ftracker.leechers-paradise.org%3A6969%2Fannounce&tr=udp%3A%2F%2Ftracker.coppersurfer.tk%3A6969%2Fannounce&tr=udp%3A%2F%2Ftracker.pirateparty.gr%3A6969%2Fannounce&tr=udp%3A%2F%2Ftracker.cyberia.is%3A6969%2Fannounce",
        "seeder": "40",
        "leecher": "4"
    },
    {
        "rank": "20",
        "title": "The Who - Who's Next (1971) (PBTHAL LP 24-96) [FLAC] vtwin88cube",
        "link": "magnet:?xt=urn:btih:F8B8343A495C953D8551D87ECC7C0D72A2314CE4&dn=The+Who+-+Who%27s+Next+%281971%29+%28PBTHAL+LP+24-96%29+%5BFLAC%5D+vtwin88cube&tr=udp%3A%2F%2Ftracker.coppersurfer.tk%3A6969%2Fannounce&tr=udp%3A%2F%2F9.rarbg.to%3A2920%2Fannounce&tr=udp%3A%2F%2Ftracker.opentrackr.org%3A1337&tr=udp%3A%2F%2Ftracker.internetwarriors.net%3A1337%2Fannounce&tr=udp%3A%2F%2Ftracker.leechers-paradise.org%3A6969%2Fannounce&tr=udp%3A%2F%2Ftracker.coppersurfer.tk%3A6969%2Fannounce&tr=udp%3A%2F%2Ftracker.pirateparty.gr%3A6969%2Fannounce&tr=udp%3A%2F%2Ftracker.cyberia.is%3A6969%2Fannounce",
        "seeder": "39",
        "leecher": "3"
    },
    {
        "rank": "21",
        "title": "Pink Floyd - The Dark Side of the Moon [24 bit FLAC] vinyl",
        "link": "magnet:?xt=urn:btih:C21EA3E7CF348ABADF6EA5BCFA31847AEC55FCBA&dn=Pink+Floyd+-+The+Dark+Side+of+the+Moon+%5B24+bit+FLAC%5D+vinyl&tr=udp%3A%2F%2Ftracker.coppersurfer.tk%3A6969%2Fannounce&tr=udp%3A%2F%2F9.rarbg.to%3A2920%2Fannounce&tr=udp%3A%2F%2Ftracker.opentrackr.org%3A1337&tr=udp%3A%2F%2Ftracker.internetwarriors.net%3A1337%2Fannounce&tr=udp%3A%2F%2Ftracker.leechers-paradise.org%3A6969%2Fannounce&tr=udp%3A%2F%2Ftracker.coppersurfer.tk%3A6969%2Fannounce&tr=udp%3A%2F%2Ftracker.pirateparty.gr%3A6969%2Fannounce&tr=udp%3A%2F%2Ftracker.cyberia.is%3A6969%2Fannounce",
        "seeder": "38",
        "leecher": "1"
    },
    {
        "rank": "22",
        "title": "The Kinks - Face To Face (Mono) (1966) (PBTHAL LP 24-96) [FLAC]",
        "link": "magnet:?xt=urn:btih:E7AA77869EAB5F19EDC0B7FCF9FFC747F6D85052&dn=The+Kinks+-+Face+To+Face+%28Mono%29+%281966%29+%28PBTHAL+LP+24-96%29+%5BFLAC%5D&tr=udp%3A%2F%2Ftracker.coppersurfer.tk%3A6969%2Fannounce&tr=udp%3A%2F%2F9.rarbg.to%3A2920%2Fannounce&tr=udp%3A%2F%2Ftracker.opentrackr.org%3A1337&tr=udp%3A%2F%2Ftracker.internetwarriors.net%3A1337%2Fannounce&tr=udp%3A%2F%2Ftracker.leechers-paradise.org%3A6969%2Fannounce&tr=udp%3A%2F%2Ftracker.coppersurfer.tk%3A6969%2Fannounce&tr=udp%3A%2F%2Ftracker.pirateparty.gr%3A6969%2Fannounce&tr=udp%3A%2F%2Ftracker.cyberia.is%3A6969%2Fannounce",
        "seeder": "37",
        "leecher": "3"
    },
    {
        "rank": "23",
        "title": "Michael Jackson - Bad + Dangerous (24bit-96kHz) [FLAC]",
        "link": "magnet:?xt=urn:btih:C0B2F7AD861ED84FE9553518F88AA33CF576D683&dn=Michael+Jackson+-+Bad+%2B+Dangerous+%2824bit-96kHz%29+%5BFLAC%5D&tr=udp%3A%2F%2Ftracker.coppersurfer.tk%3A6969%2Fannounce&tr=udp%3A%2F%2F9.rarbg.to%3A2920%2Fannounce&tr=udp%3A%2F%2Ftracker.opentrackr.org%3A1337&tr=udp%3A%2F%2Ftracker.internetwarriors.net%3A1337%2Fannounce&tr=udp%3A%2F%2Ftracker.leechers-paradise.org%3A6969%2Fannounce&tr=udp%3A%2F%2Ftracker.coppersurfer.tk%3A6969%2Fannounce&tr=udp%3A%2F%2Ftracker.pirateparty.gr%3A6969%2Fannounce&tr=udp%3A%2F%2Ftracker.cyberia.is%3A6969%2Fannounce",
        "seeder": "37",
        "leecher": "1"
    },
    {
        "rank": "24",
        "title": "TOOL - Fear Inoculum (Deluxe) (2019) [FLAC]",
        "link": "magnet:?xt=urn:btih:820B034593AD69FE259F4401A7817AE01719E636&dn=TOOL+-+Fear+Inoculum+%28Deluxe%29+%282019%29+%5BFLAC%5D&tr=udp%3A%2F%2Ftracker.coppersurfer.tk%3A6969%2Fannounce&tr=udp%3A%2F%2F9.rarbg.to%3A2920%2Fannounce&tr=udp%3A%2F%2Ftracker.opentrackr.org%3A1337&tr=udp%3A%2F%2Ftracker.internetwarriors.net%3A1337%2Fannounce&tr=udp%3A%2F%2Ftracker.leechers-paradise.org%3A6969%2Fannounce&tr=udp%3A%2F%2Ftracker.coppersurfer.tk%3A6969%2Fannounce&tr=udp%3A%2F%2Ftracker.pirateparty.gr%3A6969%2Fannounce&tr=udp%3A%2F%2Ftracker.cyberia.is%3A6969%2Fannounce",
        "seeder": "37",
        "leecher": "0"
    },
    {
        "rank": "25",
        "title": "Green Day - Greatest Hits: God's Favorite Band (2017) FLAC",
        "link": "magnet:?xt=urn:btih:04694E6129740C229560A6CE4637BD26C8B11DE9&dn=Green+Day+-+Greatest+Hits%3A+God%27s+Favorite+Band+%282017%29+FLAC&tr=udp%3A%2F%2Ftracker.coppersurfer.tk%3A6969%2Fannounce&tr=udp%3A%2F%2F9.rarbg.to%3A2920%2Fannounce&tr=udp%3A%2F%2Ftracker.opentrackr.org%3A1337&tr=udp%3A%2F%2Ftracker.internetwarriors.net%3A1337%2Fannounce&tr=udp%3A%2F%2Ftracker.leechers-paradise.org%3A6969%2Fannounce&tr=udp%3A%2F%2Ftracker.coppersurfer.tk%3A6969%2Fannounce&tr=udp%3A%2F%2Ftracker.pirateparty.gr%3A6969%2Fannounce&tr=udp%3A%2F%2Ftracker.cyberia.is%3A6969%2Fannounce",
        "seeder": "36",
        "leecher": "3"
    },
    {
        "rank": "26",
        "title": "Justin Bieber - Justice (2021) FLAC [Hunter]",
        "link": "magnet:?xt=urn:btih:4D5FC250B88AFEC9B0334790E0BE436A69E8F824&dn=Justin+Bieber+-+Justice+%282021%29+FLAC+%5BHunter%5D&tr=udp%3A%2F%2Ftracker.coppersurfer.tk%3A6969%2Fannounce&tr=udp%3A%2F%2F9.rarbg.to%3A2920%2Fannounce&tr=udp%3A%2F%2Ftracker.opentrackr.org%3A1337&tr=udp%3A%2F%2Ftracker.internetwarriors.net%3A1337%2Fannounce&tr=udp%3A%2F%2Ftracker.leechers-paradise.org%3A6969%2Fannounce&tr=udp%3A%2F%2Ftracker.coppersurfer.tk%3A6969%2Fannounce&tr=udp%3A%2F%2Ftracker.pirateparty.gr%3A6969%2Fannounce&tr=udp%3A%2F%2Ftracker.cyberia.is%3A6969%2Fannounce",
        "seeder": "35",
        "leecher": "2"
    },
    {
        "rank": "27",
        "title": "TOOL DISCOGRAPHY FLAC CD",
        "link": "magnet:?xt=urn:btih:7F061A499A1E5B70F3F612FF7736F534890D9465&dn=TOOL+DISCOGRAPHY+FLAC+CD&tr=udp%3A%2F%2Ftracker.coppersurfer.tk%3A6969%2Fannounce&tr=udp%3A%2F%2F9.rarbg.to%3A2920%2Fannounce&tr=udp%3A%2F%2Ftracker.opentrackr.org%3A1337&tr=udp%3A%2F%2Ftracker.internetwarriors.net%3A1337%2Fannounce&tr=udp%3A%2F%2Ftracker.leechers-paradise.org%3A6969%2Fannounce&tr=udp%3A%2F%2Ftracker.coppersurfer.tk%3A6969%2Fannounce&tr=udp%3A%2F%2Ftracker.pirateparty.gr%3A6969%2Fannounce&tr=udp%3A%2F%2Ftracker.cyberia.is%3A6969%2Fannounce",
        "seeder": "35",
        "leecher": "2"
    },
    {
        "rank": "28",
        "title": "Imagine Dragons - 50 Greatest Hits (2020) [FLAC] vtwin88cube",
        "link": "magnet:?xt=urn:btih:20E6B37CB7F79F1CF2E4909761CB6A598C190D41&dn=Imagine+Dragons+-+50+Greatest+Hits+%282020%29+%5BFLAC%5D+vtwin88cube&tr=udp%3A%2F%2Ftracker.coppersurfer.tk%3A6969%2Fannounce&tr=udp%3A%2F%2F9.rarbg.to%3A2920%2Fannounce&tr=udp%3A%2F%2Ftracker.opentrackr.org%3A1337&tr=udp%3A%2F%2Ftracker.internetwarriors.net%3A1337%2Fannounce&tr=udp%3A%2F%2Ftracker.leechers-paradise.org%3A6969%2Fannounce&tr=udp%3A%2F%2Ftracker.coppersurfer.tk%3A6969%2Fannounce&tr=udp%3A%2F%2Ftracker.pirateparty.gr%3A6969%2Fannounce&tr=udp%3A%2F%2Ftracker.cyberia.is%3A6969%2Fannounce",
        "seeder": "34",
        "leecher": "2"
    },
    {
        "rank": "29",
        "title": "Eric Clapton - The Best Of - [FLAC]-[TFM]",
        "link": "magnet:?xt=urn:btih:A71EEDF0AE5E49BCCC233D62E39165D8EEA43BB1&dn=Eric+Clapton+-+The+Best+Of+-+%5BFLAC%5D-%5BTFM%5D&tr=udp%3A%2F%2Ftracker.coppersurfer.tk%3A6969%2Fannounce&tr=udp%3A%2F%2F9.rarbg.to%3A2920%2Fannounce&tr=udp%3A%2F%2Ftracker.opentrackr.org%3A1337&tr=udp%3A%2F%2Ftracker.internetwarriors.net%3A1337%2Fannounce&tr=udp%3A%2F%2Ftracker.leechers-paradise.org%3A6969%2Fannounce&tr=udp%3A%2F%2Ftracker.coppersurfer.tk%3A6969%2Fannounce&tr=udp%3A%2F%2Ftracker.pirateparty.gr%3A6969%2Fannounce&tr=udp%3A%2F%2Ftracker.cyberia.is%3A6969%2Fannounce",
        "seeder": "34",
        "leecher": "2"
    },
    {
        "rank": "30",
        "title": "Metallica Discography STUDiO [2018] 10 CD FLAC",
        "link": "magnet:?xt=urn:btih:65052085E372D80C9ADDC08D46DFC24A65BE63A6&dn=Metallica+Discography+STUDiO+%5B2018%5D+10+CD+FLAC&tr=udp%3A%2F%2Ftracker.coppersurfer.tk%3A6969%2Fannounce&tr=udp%3A%2F%2F9.rarbg.to%3A2920%2Fannounce&tr=udp%3A%2F%2Ftracker.opentrackr.org%3A1337&tr=udp%3A%2F%2Ftracker.internetwarriors.net%3A1337%2Fannounce&tr=udp%3A%2F%2Ftracker.leechers-paradise.org%3A6969%2Fannounce&tr=udp%3A%2F%2Ftracker.coppersurfer.tk%3A6969%2Fannounce&tr=udp%3A%2F%2Ftracker.pirateparty.gr%3A6969%2Fannounce&tr=udp%3A%2F%2Ftracker.cyberia.is%3A6969%2Fannounce",
        "seeder": "33",
        "leecher": "9"
    },
    {
        "rank": "31",
        "title": "Blood, Sweat And Tears - Blood, Sweat And Tears LP 24-96 FLAC",
        "link": "magnet:?xt=urn:btih:E8AD163377C29BF29712621C3C659CF809609309&dn=Blood%2C+Sweat+And+Tears+-+Blood%2C+Sweat+And+Tears+LP+24-96+FLAC&tr=udp%3A%2F%2Ftracker.coppersurfer.tk%3A6969%2Fannounce&tr=udp%3A%2F%2F9.rarbg.to%3A2920%2Fannounce&tr=udp%3A%2F%2Ftracker.opentrackr.org%3A1337&tr=udp%3A%2F%2Ftracker.internetwarriors.net%3A1337%2Fannounce&tr=udp%3A%2F%2Ftracker.leechers-paradise.org%3A6969%2Fannounce&tr=udp%3A%2F%2Ftracker.coppersurfer.tk%3A6969%2Fannounce&tr=udp%3A%2F%2Ftracker.pirateparty.gr%3A6969%2Fannounce&tr=udp%3A%2F%2Ftracker.cyberia.is%3A6969%2Fannounce",
        "seeder": "32",
        "leecher": "3"
    },
    {
        "rank": "32",
        "title": "Neil Young with Crazy Horse - Way Down in the R... (2021) [FLAC]",
        "link": "magnet:?xt=urn:btih:AF1C5645EB185423F09DA935EBAF17E654349507&dn=Neil+Young+with+Crazy+Horse+-+Way+Down+in+the+R...+%282021%29+%5BFLAC%5D&tr=udp%3A%2F%2Ftracker.coppersurfer.tk%3A6969%2Fannounce&tr=udp%3A%2F%2F9.rarbg.to%3A2920%2Fannounce&tr=udp%3A%2F%2Ftracker.opentrackr.org%3A1337&tr=udp%3A%2F%2Ftracker.internetwarriors.net%3A1337%2Fannounce&tr=udp%3A%2F%2Ftracker.leechers-paradise.org%3A6969%2Fannounce&tr=udp%3A%2F%2Ftracker.coppersurfer.tk%3A6969%2Fannounce&tr=udp%3A%2F%2Ftracker.pirateparty.gr%3A6969%2Fannounce&tr=udp%3A%2F%2Ftracker.cyberia.is%3A6969%2Fannounce",
        "seeder": "32",
        "leecher": "2"
    },
    {
        "rank": "33",
        "title": "Whitney Houston - The Preacher's Wife (OST) - [FLAC]-[TFM]",
        "link": "magnet:?xt=urn:btih:ECC6045C0D41E776DE11D6D4692D5F95813AE069&dn=Whitney+Houston+-+The+Preacher%27s+Wife+%28OST%29+-+%5BFLAC%5D-%5BTFM%5D&tr=udp%3A%2F%2Ftracker.coppersurfer.tk%3A6969%2Fannounce&tr=udp%3A%2F%2F9.rarbg.to%3A2920%2Fannounce&tr=udp%3A%2F%2Ftracker.opentrackr.org%3A1337&tr=udp%3A%2F%2Ftracker.internetwarriors.net%3A1337%2Fannounce&tr=udp%3A%2F%2Ftracker.leechers-paradise.org%3A6969%2Fannounce&tr=udp%3A%2F%2Ftracker.coppersurfer.tk%3A6969%2Fannounce&tr=udp%3A%2F%2Ftracker.pirateparty.gr%3A6969%2Fannounce&tr=udp%3A%2F%2Ftracker.cyberia.is%3A6969%2Fannounce",
        "seeder": "31",
        "leecher": "2"
    },
    {
        "rank": "34",
        "title": "Phoebe Bridgers - Punisher (2020) [FLAC]",
        "link": "magnet:?xt=urn:btih:780CD56C53D8BC9B66357E13076DCD0F7807A0F4&dn=Phoebe+Bridgers+-+Punisher+%282020%29+%5BFLAC%5D&tr=udp%3A%2F%2Ftracker.coppersurfer.tk%3A6969%2Fannounce&tr=udp%3A%2F%2F9.rarbg.to%3A2920%2Fannounce&tr=udp%3A%2F%2Ftracker.opentrackr.org%3A1337&tr=udp%3A%2F%2Ftracker.internetwarriors.net%3A1337%2Fannounce&tr=udp%3A%2F%2Ftracker.leechers-paradise.org%3A6969%2Fannounce&tr=udp%3A%2F%2Ftracker.coppersurfer.tk%3A6969%2Fannounce&tr=udp%3A%2F%2Ftracker.pirateparty.gr%3A6969%2Fannounce&tr=udp%3A%2F%2Ftracker.cyberia.is%3A6969%2Fannounce",
        "seeder": "31",
        "leecher": "0"
    },
    {
        "rank": "35",
        "title": "Pink Floyd  - Wish You Were Here (1975) (2014 PBTHAL 24-96 FLAC)",
        "link": "magnet:?xt=urn:btih:30135DDE7287B00792444319B76A7EE67C43FD77&dn=Pink+Floyd++-+Wish+You+Were+Here+%281975%29+%282014+PBTHAL+24-96+FLAC%29&tr=udp%3A%2F%2Ftracker.coppersurfer.tk%3A6969%2Fannounce&tr=udp%3A%2F%2F9.rarbg.to%3A2920%2Fannounce&tr=udp%3A%2F%2Ftracker.opentrackr.org%3A1337&tr=udp%3A%2F%2Ftracker.internetwarriors.net%3A1337%2Fannounce&tr=udp%3A%2F%2Ftracker.leechers-paradise.org%3A6969%2Fannounce&tr=udp%3A%2F%2Ftracker.coppersurfer.tk%3A6969%2Fannounce&tr=udp%3A%2F%2Ftracker.pirateparty.gr%3A6969%2Fannounce&tr=udp%3A%2F%2Ftracker.cyberia.is%3A6969%2Fannounce",
        "seeder": "30",
        "leecher": "0"
    },
    {
        "rank": "36",
        "title": "Michael Jackson - Off The Wall + Thriller (24bit-96kHz) [FLAC]",
        "link": "magnet:?xt=urn:btih:08EC3817A279C9765919CEB7AFA24B47FCD1F4BF&dn=Michael+Jackson+-+Off+The+Wall+%2B+Thriller+%2824bit-96kHz%29+%5BFLAC%5D&tr=udp%3A%2F%2Ftracker.coppersurfer.tk%3A6969%2Fannounce&tr=udp%3A%2F%2F9.rarbg.to%3A2920%2Fannounce&tr=udp%3A%2F%2Ftracker.opentrackr.org%3A1337&tr=udp%3A%2F%2Ftracker.internetwarriors.net%3A1337%2Fannounce&tr=udp%3A%2F%2Ftracker.leechers-paradise.org%3A6969%2Fannounce&tr=udp%3A%2F%2Ftracker.coppersurfer.tk%3A6969%2Fannounce&tr=udp%3A%2F%2Ftracker.pirateparty.gr%3A6969%2Fannounce&tr=udp%3A%2F%2Ftracker.cyberia.is%3A6969%2Fannounce",
        "seeder": "30",
        "leecher": "3"
    },
    {
        "rank": "37",
        "title": "London Philharmonic Orchestra 50 Greatest Classical 4CD {FLAC}",
        "link": "magnet:?xt=urn:btih:C0ED79B8A42F9A22B40C64755595DF38A022FEBC&dn=London+Philharmonic+Orchestra+50+Greatest+Classical+4CD+%7BFLAC%7D&tr=udp%3A%2F%2Ftracker.coppersurfer.tk%3A6969%2Fannounce&tr=udp%3A%2F%2F9.rarbg.to%3A2920%2Fannounce&tr=udp%3A%2F%2Ftracker.opentrackr.org%3A1337&tr=udp%3A%2F%2Ftracker.internetwarriors.net%3A1337%2Fannounce&tr=udp%3A%2F%2Ftracker.leechers-paradise.org%3A6969%2Fannounce&tr=udp%3A%2F%2Ftracker.coppersurfer.tk%3A6969%2Fannounce&tr=udp%3A%2F%2Ftracker.pirateparty.gr%3A6969%2Fannounce&tr=udp%3A%2F%2Ftracker.cyberia.is%3A6969%2Fannounce",
        "seeder": "30",
        "leecher": "0"
    },
    {
        "rank": "38",
        "title": "Daft Punk Albums [FLAC,Tracks] {100.XY}",
        "link": "magnet:?xt=urn:btih:0C9A2F78CA1A4FF171C4C7B04FE592C7F802DAD3&dn=Daft+Punk+Albums+%5BFLAC%2CTracks%5D+%7B100.XY%7D&tr=udp%3A%2F%2Ftracker.coppersurfer.tk%3A6969%2Fannounce&tr=udp%3A%2F%2F9.rarbg.to%3A2920%2Fannounce&tr=udp%3A%2F%2Ftracker.opentrackr.org%3A1337&tr=udp%3A%2F%2Ftracker.internetwarriors.net%3A1337%2Fannounce&tr=udp%3A%2F%2Ftracker.leechers-paradise.org%3A6969%2Fannounce&tr=udp%3A%2F%2Ftracker.coppersurfer.tk%3A6969%2Fannounce&tr=udp%3A%2F%2Ftracker.pirateparty.gr%3A6969%2Fannounce&tr=udp%3A%2F%2Ftracker.cyberia.is%3A6969%2Fannounce",
        "seeder": "30",
        "leecher": "3"
    },
    {
        "rank": "39",
        "title": "Michael Jackson - The Essential (2005) [24-96 HD FLAC]",
        "link": "magnet:?xt=urn:btih:13D4B971523B640A37F5C6475E89C5BAC3A0ECC8&dn=Michael+Jackson+-+The+Essential+%282005%29+%5B24-96+HD+FLAC%5D&tr=udp%3A%2F%2Ftracker.coppersurfer.tk%3A6969%2Fannounce&tr=udp%3A%2F%2F9.rarbg.to%3A2920%2Fannounce&tr=udp%3A%2F%2Ftracker.opentrackr.org%3A1337&tr=udp%3A%2F%2Ftracker.internetwarriors.net%3A1337%2Fannounce&tr=udp%3A%2F%2Ftracker.leechers-paradise.org%3A6969%2Fannounce&tr=udp%3A%2F%2Ftracker.coppersurfer.tk%3A6969%2Fannounce&tr=udp%3A%2F%2Ftracker.pirateparty.gr%3A6969%2Fannounce&tr=udp%3A%2F%2Ftracker.cyberia.is%3A6969%2Fannounce",
        "seeder": "30",
        "leecher": "1"
    },
    {
        "rank": "40",
        "title": "DAVID BOWIE Studio Discography FLAC",
        "link": "magnet:?xt=urn:btih:B295A4C3EE10172DFFDD7BF3E832845EDE22C26B&dn=DAVID+BOWIE+Studio+Discography+FLAC&tr=udp%3A%2F%2Ftracker.coppersurfer.tk%3A6969%2Fannounce&tr=udp%3A%2F%2F9.rarbg.to%3A2920%2Fannounce&tr=udp%3A%2F%2Ftracker.opentrackr.org%3A1337&tr=udp%3A%2F%2Ftracker.internetwarriors.net%3A1337%2Fannounce&tr=udp%3A%2F%2Ftracker.leechers-paradise.org%3A6969%2Fannounce&tr=udp%3A%2F%2Ftracker.coppersurfer.tk%3A6969%2Fannounce&tr=udp%3A%2F%2Ftracker.pirateparty.gr%3A6969%2Fannounce&tr=udp%3A%2F%2Ftracker.cyberia.is%3A6969%2Fannounce",
        "seeder": "30",
        "leecher": "8"
    },
    {
        "rank": "41",
        "title": "Chicago - Chicago Transit Authority (1969) PBTHAL LP 24-96 FLAC",
        "link": "magnet:?xt=urn:btih:2D32E8A108F949A7E632AA996138DEFC95D3CCF8&dn=Chicago+-+Chicago+Transit+Authority+%281969%29+PBTHAL+LP+24-96+FLAC&tr=udp%3A%2F%2Ftracker.coppersurfer.tk%3A6969%2Fannounce&tr=udp%3A%2F%2F9.rarbg.to%3A2920%2Fannounce&tr=udp%3A%2F%2Ftracker.opentrackr.org%3A1337&tr=udp%3A%2F%2Ftracker.internetwarriors.net%3A1337%2Fannounce&tr=udp%3A%2F%2Ftracker.leechers-paradise.org%3A6969%2Fannounce&tr=udp%3A%2F%2Ftracker.coppersurfer.tk%3A6969%2Fannounce&tr=udp%3A%2F%2Ftracker.pirateparty.gr%3A6969%2Fannounce&tr=udp%3A%2F%2Ftracker.cyberia.is%3A6969%2Fannounce",
        "seeder": "29",
        "leecher": "7"
    },
    {
        "rank": "42",
        "title": "Van Morrison - Moondance (1970) Original Master (2013) FLAC",
        "link": "magnet:?xt=urn:btih:40E83834D6774C7AAB28B3127D638230DC18AB14&dn=Van+Morrison+-+Moondance+%281970%29+Original+Master+%282013%29+FLAC&tr=udp%3A%2F%2Ftracker.coppersurfer.tk%3A6969%2Fannounce&tr=udp%3A%2F%2F9.rarbg.to%3A2920%2Fannounce&tr=udp%3A%2F%2Ftracker.opentrackr.org%3A1337&tr=udp%3A%2F%2Ftracker.internetwarriors.net%3A1337%2Fannounce&tr=udp%3A%2F%2Ftracker.leechers-paradise.org%3A6969%2Fannounce&tr=udp%3A%2F%2Ftracker.coppersurfer.tk%3A6969%2Fannounce&tr=udp%3A%2F%2Ftracker.pirateparty.gr%3A6969%2Fannounce&tr=udp%3A%2F%2Ftracker.cyberia.is%3A6969%2Fannounce",
        "seeder": "29",
        "leecher": "0"
    },
    {
        "rank": "43",
        "title": "Ella Fitzgerald - The Complete Piano Duets (2020) [2CD]",
        "link": "magnet:?xt=urn:btih:2F160F31FCC0A7BA5513A86BEBF8633CBAC811BB&dn=Ella+Fitzgerald+-+The+Complete+Piano+Duets+%282020%29+%5B2CD%5D&tr=udp%3A%2F%2Ftracker.coppersurfer.tk%3A6969%2Fannounce&tr=udp%3A%2F%2F9.rarbg.to%3A2920%2Fannounce&tr=udp%3A%2F%2Ftracker.opentrackr.org%3A1337&tr=udp%3A%2F%2Ftracker.internetwarriors.net%3A1337%2Fannounce&tr=udp%3A%2F%2Ftracker.leechers-paradise.org%3A6969%2Fannounce&tr=udp%3A%2F%2Ftracker.coppersurfer.tk%3A6969%2Fannounce&tr=udp%3A%2F%2Ftracker.pirateparty.gr%3A6969%2Fannounce&tr=udp%3A%2F%2Ftracker.cyberia.is%3A6969%2Fannounce",
        "seeder": "29",
        "leecher": "1"
    },
    {
        "rank": "44",
        "title": "Led Zeppelin - Led Zeppelin IV (1971) (PBTHAL LP 24-96) [FLAC]",
        "link": "magnet:?xt=urn:btih:4D1750F36217237598E048025820EE32FE7605E6&dn=Led+Zeppelin+-+Led+Zeppelin+IV+%281971%29+%28PBTHAL+LP+24-96%29+%5BFLAC%5D&tr=udp%3A%2F%2Ftracker.coppersurfer.tk%3A6969%2Fannounce&tr=udp%3A%2F%2F9.rarbg.to%3A2920%2Fannounce&tr=udp%3A%2F%2Ftracker.opentrackr.org%3A1337&tr=udp%3A%2F%2Ftracker.internetwarriors.net%3A1337%2Fannounce&tr=udp%3A%2F%2Ftracker.leechers-paradise.org%3A6969%2Fannounce&tr=udp%3A%2F%2Ftracker.coppersurfer.tk%3A6969%2Fannounce&tr=udp%3A%2F%2Ftracker.pirateparty.gr%3A6969%2Fannounce&tr=udp%3A%2F%2Ftracker.cyberia.is%3A6969%2Fannounce",
        "seeder": "29",
        "leecher": "0"
    },
    {
        "rank": "45",
        "title": "Van Halen - Audiophile Collection [24-96] [FLAC] vtwin88cube",
        "link": "magnet:?xt=urn:btih:92D43FEE72885D8A690290C05245A471BCA43A45&dn=Van+Halen+-+Audiophile+Collection+%5B24-96%5D+%5BFLAC%5D+vtwin88cube&tr=udp%3A%2F%2Ftracker.coppersurfer.tk%3A6969%2Fannounce&tr=udp%3A%2F%2F9.rarbg.to%3A2920%2Fannounce&tr=udp%3A%2F%2Ftracker.opentrackr.org%3A1337&tr=udp%3A%2F%2Ftracker.internetwarriors.net%3A1337%2Fannounce&tr=udp%3A%2F%2Ftracker.leechers-paradise.org%3A6969%2Fannounce&tr=udp%3A%2F%2Ftracker.coppersurfer.tk%3A6969%2Fannounce&tr=udp%3A%2F%2Ftracker.pirateparty.gr%3A6969%2Fannounce&tr=udp%3A%2F%2Ftracker.cyberia.is%3A6969%2Fannounce",
        "seeder": "29",
        "leecher": "0"
    },
    {
        "rank": "46",
        "title": "The Rascals - Greatest Hits (1968) (PBTHAL LP 24-96) [FLAC]",
        "link": "magnet:?xt=urn:btih:D909874F139E845A98E7FD83CB521E7F27CC0D4A&dn=The+Rascals+-+Greatest+Hits+%281968%29+%28PBTHAL+LP+24-96%29+%5BFLAC%5D&tr=udp%3A%2F%2Ftracker.coppersurfer.tk%3A6969%2Fannounce&tr=udp%3A%2F%2F9.rarbg.to%3A2920%2Fannounce&tr=udp%3A%2F%2Ftracker.opentrackr.org%3A1337&tr=udp%3A%2F%2Ftracker.internetwarriors.net%3A1337%2Fannounce&tr=udp%3A%2F%2Ftracker.leechers-paradise.org%3A6969%2Fannounce&tr=udp%3A%2F%2Ftracker.coppersurfer.tk%3A6969%2Fannounce&tr=udp%3A%2F%2Ftracker.pirateparty.gr%3A6969%2Fannounce&tr=udp%3A%2F%2Ftracker.cyberia.is%3A6969%2Fannounce",
        "seeder": "28",
        "leecher": "2"
    },
    {
        "rank": "47",
        "title": "Metallica - ... And Justice For All (1988) (PBTHAL 24-96) [FLAC]",
        "link": "magnet:?xt=urn:btih:01594C640B895FCDA5C1730F1675A191B186CFE2&dn=Metallica+-+...+And+Justice+For+All+%281988%29+%28PBTHAL+24-96%29+%5BFLAC%5D&tr=udp%3A%2F%2Ftracker.coppersurfer.tk%3A6969%2Fannounce&tr=udp%3A%2F%2F9.rarbg.to%3A2920%2Fannounce&tr=udp%3A%2F%2Ftracker.opentrackr.org%3A1337&tr=udp%3A%2F%2Ftracker.internetwarriors.net%3A1337%2Fannounce&tr=udp%3A%2F%2Ftracker.leechers-paradise.org%3A6969%2Fannounce&tr=udp%3A%2F%2Ftracker.coppersurfer.tk%3A6969%2Fannounce&tr=udp%3A%2F%2Ftracker.pirateparty.gr%3A6969%2Fannounce&tr=udp%3A%2F%2Ftracker.cyberia.is%3A6969%2Fannounce",
        "seeder": "28",
        "leecher": "1"
    },
    {
        "rank": "48",
        "title": "Eminem - The Slim Shady LP (1999) (PBTHAL LP 24-96) [FLAC]",
        "link": "magnet:?xt=urn:btih:FC11D1CEE8A180A87213380A2403C279CD037BE0&dn=Eminem+-+The+Slim+Shady+LP+%281999%29+%28PBTHAL+LP+24-96%29+%5BFLAC%5D&tr=udp%3A%2F%2Ftracker.coppersurfer.tk%3A6969%2Fannounce&tr=udp%3A%2F%2F9.rarbg.to%3A2920%2Fannounce&tr=udp%3A%2F%2Ftracker.opentrackr.org%3A1337&tr=udp%3A%2F%2Ftracker.internetwarriors.net%3A1337%2Fannounce&tr=udp%3A%2F%2Ftracker.leechers-paradise.org%3A6969%2Fannounce&tr=udp%3A%2F%2Ftracker.coppersurfer.tk%3A6969%2Fannounce&tr=udp%3A%2F%2Ftracker.pirateparty.gr%3A6969%2Fannounce&tr=udp%3A%2F%2Ftracker.cyberia.is%3A6969%2Fannounce",
        "seeder": "28",
        "leecher": "1"
    },
    {
        "rank": "49",
        "title": "Red Hot Chili Peppers - Californication (1999) 24-96 FLAC",
        "link": "magnet:?xt=urn:btih:9B73C04D4B7063A7636E3BE423DB483D45FF4054&dn=Red+Hot+Chili+Peppers+-+Californication+%281999%29+24-96+FLAC&tr=udp%3A%2F%2Ftracker.coppersurfer.tk%3A6969%2Fannounce&tr=udp%3A%2F%2F9.rarbg.to%3A2920%2Fannounce&tr=udp%3A%2F%2Ftracker.opentrackr.org%3A1337&tr=udp%3A%2F%2Ftracker.internetwarriors.net%3A1337%2Fannounce&tr=udp%3A%2F%2Ftracker.leechers-paradise.org%3A6969%2Fannounce&tr=udp%3A%2F%2Ftracker.coppersurfer.tk%3A6969%2Fannounce&tr=udp%3A%2F%2Ftracker.pirateparty.gr%3A6969%2Fannounce&tr=udp%3A%2F%2Ftracker.cyberia.is%3A6969%2Fannounce",
        "seeder": "28",
        "leecher": "3"
    },
    {
        "rank": "50",
        "title": "VA - Real Audiophile Jazz (2019) [DR16 FLAC] vtwin88cube",
        "link": "magnet:?xt=urn:btih:9EA1C73E9CBD95D9F9A0EECD261C2B851F945EC2&dn=VA+-+Real+Audiophile+Jazz+%282019%29+%5BDR16+FLAC%5D+vtwin88cube&tr=udp%3A%2F%2Ftracker.coppersurfer.tk%3A6969%2Fannounce&tr=udp%3A%2F%2F9.rarbg.to%3A2920%2Fannounce&tr=udp%3A%2F%2Ftracker.opentrackr.org%3A1337&tr=udp%3A%2F%2Ftracker.internetwarriors.net%3A1337%2Fannounce&tr=udp%3A%2F%2Ftracker.leechers-paradise.org%3A6969%2Fannounce&tr=udp%3A%2F%2Ftracker.coppersurfer.tk%3A6969%2Fannounce&tr=udp%3A%2F%2Ftracker.pirateparty.gr%3A6969%2Fannounce&tr=udp%3A%2F%2Ftracker.cyberia.is%3A6969%2Fannounce",
        "seeder": "28",
        "leecher": "2"
    },
    {
        "rank": "51",
        "title": "Rage Against The Machine - Discography [Vinyl] [FLAC]-aksman",
        "link": "magnet:?xt=urn:btih:327B76A738A4CF9E4F15C6D2A34031AFD66DB8B9&dn=Rage+Against+The+Machine+-+Discography+%5BVinyl%5D+%5BFLAC%5D-aksman&tr=udp%3A%2F%2Ftracker.coppersurfer.tk%3A6969%2Fannounce&tr=udp%3A%2F%2F9.rarbg.to%3A2920%2Fannounce&tr=udp%3A%2F%2Ftracker.opentrackr.org%3A1337&tr=udp%3A%2F%2Ftracker.internetwarriors.net%3A1337%2Fannounce&tr=udp%3A%2F%2Ftracker.leechers-paradise.org%3A6969%2Fannounce&tr=udp%3A%2F%2Ftracker.coppersurfer.tk%3A6969%2Fannounce&tr=udp%3A%2F%2Ftracker.pirateparty.gr%3A6969%2Fannounce&tr=udp%3A%2F%2Ftracker.cyberia.is%3A6969%2Fannounce",
        "seeder": "28",
        "leecher": "1"
    },
    {
        "rank": "52",
        "title": "The Hollies - Hollies' Greatest (Mono) (1968) LP 24-96 FLAC",
        "link": "magnet:?xt=urn:btih:AC60C540CF93D67102E5DF0ED909D4726BA151FE&dn=The+Hollies+-+Hollies%27+Greatest+%28Mono%29+%281968%29+LP+24-96+FLAC&tr=udp%3A%2F%2Ftracker.coppersurfer.tk%3A6969%2Fannounce&tr=udp%3A%2F%2F9.rarbg.to%3A2920%2Fannounce&tr=udp%3A%2F%2Ftracker.opentrackr.org%3A1337&tr=udp%3A%2F%2Ftracker.internetwarriors.net%3A1337%2Fannounce&tr=udp%3A%2F%2Ftracker.leechers-paradise.org%3A6969%2Fannounce&tr=udp%3A%2F%2Ftracker.coppersurfer.tk%3A6969%2Fannounce&tr=udp%3A%2F%2Ftracker.pirateparty.gr%3A6969%2Fannounce&tr=udp%3A%2F%2Ftracker.cyberia.is%3A6969%2Fannounce",
        "seeder": "27",
        "leecher": "4"
    },
    {
        "rank": "53",
        "title": "Pink Floyd - Animals (1977) (PBTHAL Vinyl 24-96) [FLAC]",
        "link": "magnet:?xt=urn:btih:894624AC68D6C9A85DEE09148448F7BD40DB60D4&dn=Pink+Floyd+-+Animals+%281977%29+%28PBTHAL+Vinyl+24-96%29+%5BFLAC%5D&tr=udp%3A%2F%2Ftracker.coppersurfer.tk%3A6969%2Fannounce&tr=udp%3A%2F%2F9.rarbg.to%3A2920%2Fannounce&tr=udp%3A%2F%2Ftracker.opentrackr.org%3A1337&tr=udp%3A%2F%2Ftracker.internetwarriors.net%3A1337%2Fannounce&tr=udp%3A%2F%2Ftracker.leechers-paradise.org%3A6969%2Fannounce&tr=udp%3A%2F%2Ftracker.coppersurfer.tk%3A6969%2Fannounce&tr=udp%3A%2F%2Ftracker.pirateparty.gr%3A6969%2Fannounce&tr=udp%3A%2F%2Ftracker.cyberia.is%3A6969%2Fannounce",
        "seeder": "27",
        "leecher": "1"
    },
    {
        "rank": "54",
        "title": "Aretha Franklin - Queen Of Soul Collection [FLAC] [24bit-96kHz]",
        "link": "magnet:?xt=urn:btih:073C18D1F89469B0D1DDF569327EEDC2BA241A04&dn=Aretha+Franklin+-+Queen+Of+Soul+Collection+%5BFLAC%5D+%5B24bit-96kHz%5D&tr=udp%3A%2F%2Ftracker.coppersurfer.tk%3A6969%2Fannounce&tr=udp%3A%2F%2F9.rarbg.to%3A2920%2Fannounce&tr=udp%3A%2F%2Ftracker.opentrackr.org%3A1337&tr=udp%3A%2F%2Ftracker.internetwarriors.net%3A1337%2Fannounce&tr=udp%3A%2F%2Ftracker.leechers-paradise.org%3A6969%2Fannounce&tr=udp%3A%2F%2Ftracker.coppersurfer.tk%3A6969%2Fannounce&tr=udp%3A%2F%2Ftracker.pirateparty.gr%3A6969%2Fannounce&tr=udp%3A%2F%2Ftracker.cyberia.is%3A6969%2Fannounce",
        "seeder": "27",
        "leecher": "1"
    },
    {
        "rank": "55",
        "title": "Taylor Swift - folklore (2020) [FLAC]",
        "link": "magnet:?xt=urn:btih:582ABB5AFF9D3F9CC6C014B9A9D09B456587F991&dn=Taylor+Swift+-+folklore+%282020%29+%5BFLAC%5D&tr=udp%3A%2F%2Ftracker.coppersurfer.tk%3A6969%2Fannounce&tr=udp%3A%2F%2F9.rarbg.to%3A2920%2Fannounce&tr=udp%3A%2F%2Ftracker.opentrackr.org%3A1337&tr=udp%3A%2F%2Ftracker.internetwarriors.net%3A1337%2Fannounce&tr=udp%3A%2F%2Ftracker.leechers-paradise.org%3A6969%2Fannounce&tr=udp%3A%2F%2Ftracker.coppersurfer.tk%3A6969%2Fannounce&tr=udp%3A%2F%2Ftracker.pirateparty.gr%3A6969%2Fannounce&tr=udp%3A%2F%2Ftracker.cyberia.is%3A6969%2Fannounce",
        "seeder": "27",
        "leecher": "1"
    },
    {
        "rank": "56",
        "title": "Neil Young And Crazy Horse - Zuma (1975) LP 24-96 FLAC",
        "link": "magnet:?xt=urn:btih:972F701F80659E9F13848C020981D291E7766870&dn=Neil+Young+And+Crazy+Horse+-+Zuma+%281975%29+LP+24-96+FLAC&tr=udp%3A%2F%2Ftracker.coppersurfer.tk%3A6969%2Fannounce&tr=udp%3A%2F%2F9.rarbg.to%3A2920%2Fannounce&tr=udp%3A%2F%2Ftracker.opentrackr.org%3A1337&tr=udp%3A%2F%2Ftracker.internetwarriors.net%3A1337%2Fannounce&tr=udp%3A%2F%2Ftracker.leechers-paradise.org%3A6969%2Fannounce&tr=udp%3A%2F%2Ftracker.coppersurfer.tk%3A6969%2Fannounce&tr=udp%3A%2F%2Ftracker.pirateparty.gr%3A6969%2Fannounce&tr=udp%3A%2F%2Ftracker.cyberia.is%3A6969%2Fannounce",
        "seeder": "26",
        "leecher": "0"
    },
    {
        "rank": "57",
        "title": "Jimi Hendrix - Blues (1994) (PBTHAL LP 24-96) [FLAC] vtwin88cube",
        "link": "magnet:?xt=urn:btih:1DB273D281957BB227D322A7D89A3FDB5CF3F16C&dn=Jimi+Hendrix+-+Blues+%281994%29+%28PBTHAL+LP+24-96%29+%5BFLAC%5D+vtwin88cube&tr=udp%3A%2F%2Ftracker.coppersurfer.tk%3A6969%2Fannounce&tr=udp%3A%2F%2F9.rarbg.to%3A2920%2Fannounce&tr=udp%3A%2F%2Ftracker.opentrackr.org%3A1337&tr=udp%3A%2F%2Ftracker.internetwarriors.net%3A1337%2Fannounce&tr=udp%3A%2F%2Ftracker.leechers-paradise.org%3A6969%2Fannounce&tr=udp%3A%2F%2Ftracker.coppersurfer.tk%3A6969%2Fannounce&tr=udp%3A%2F%2Ftracker.pirateparty.gr%3A6969%2Fannounce&tr=udp%3A%2F%2Ftracker.cyberia.is%3A6969%2Fannounce",
        "seeder": "26",
        "leecher": "1"
    },
    {
        "rank": "58",
        "title": "Led Zeppelin - In Through The Out Door (1979) PBTHAL 24-96 FLAC",
        "link": "magnet:?xt=urn:btih:BD77B2711AA299A6C41A426ED308EA6DB6668FB2&dn=Led+Zeppelin+-+In+Through+The+Out+Door+%281979%29+PBTHAL+24-96+FLAC&tr=udp%3A%2F%2Ftracker.coppersurfer.tk%3A6969%2Fannounce&tr=udp%3A%2F%2F9.rarbg.to%3A2920%2Fannounce&tr=udp%3A%2F%2Ftracker.opentrackr.org%3A1337&tr=udp%3A%2F%2Ftracker.internetwarriors.net%3A1337%2Fannounce&tr=udp%3A%2F%2Ftracker.leechers-paradise.org%3A6969%2Fannounce&tr=udp%3A%2F%2Ftracker.coppersurfer.tk%3A6969%2Fannounce&tr=udp%3A%2F%2Ftracker.pirateparty.gr%3A6969%2Fannounce&tr=udp%3A%2F%2Ftracker.cyberia.is%3A6969%2Fannounce",
        "seeder": "26",
        "leecher": "1"
    },
    {
        "rank": "59",
        "title": "Gorillaz - The Now Now (2018) FLAC CD",
        "link": "magnet:?xt=urn:btih:826F7A3E0F430BDE9B701FFFA75E13B2B1A071AF&dn=Gorillaz+-+The+Now+Now+%282018%29+FLAC+CD&tr=udp%3A%2F%2Ftracker.coppersurfer.tk%3A6969%2Fannounce&tr=udp%3A%2F%2F9.rarbg.to%3A2920%2Fannounce&tr=udp%3A%2F%2Ftracker.opentrackr.org%3A1337&tr=udp%3A%2F%2Ftracker.internetwarriors.net%3A1337%2Fannounce&tr=udp%3A%2F%2Ftracker.leechers-paradise.org%3A6969%2Fannounce&tr=udp%3A%2F%2Ftracker.coppersurfer.tk%3A6969%2Fannounce&tr=udp%3A%2F%2Ftracker.pirateparty.gr%3A6969%2Fannounce&tr=udp%3A%2F%2Ftracker.cyberia.is%3A6969%2Fannounce",
        "seeder": "26",
        "leecher": "0"
    },
    {
        "rank": "60",
        "title": "Sade - The Ultimate Collection (2011) [FLAC] vtwin88cube",
        "link": "magnet:?xt=urn:btih:D26B1E3D61CB981DA59E0648BD5D99D9CC518BD8&dn=Sade+-+The+Ultimate+Collection+%282011%29+%5BFLAC%5D+vtwin88cube&tr=udp%3A%2F%2Ftracker.coppersurfer.tk%3A6969%2Fannounce&tr=udp%3A%2F%2F9.rarbg.to%3A2920%2Fannounce&tr=udp%3A%2F%2Ftracker.opentrackr.org%3A1337&tr=udp%3A%2F%2Ftracker.internetwarriors.net%3A1337%2Fannounce&tr=udp%3A%2F%2Ftracker.leechers-paradise.org%3A6969%2Fannounce&tr=udp%3A%2F%2Ftracker.coppersurfer.tk%3A6969%2Fannounce&tr=udp%3A%2F%2Ftracker.pirateparty.gr%3A6969%2Fannounce&tr=udp%3A%2F%2Ftracker.cyberia.is%3A6969%2Fannounce",
        "seeder": "26",
        "leecher": "0"
    },
    {
        "rank": "61",
        "title": "Blondie - Greatest Hits (2006) [FLAC] vtwin88cube",
        "link": "magnet:?xt=urn:btih:E473281553C42E795007F1C31C46F6F79727B2A4&dn=Blondie+-+Greatest+Hits+%282006%29+%5BFLAC%5D+vtwin88cube&tr=udp%3A%2F%2Ftracker.coppersurfer.tk%3A6969%2Fannounce&tr=udp%3A%2F%2F9.rarbg.to%3A2920%2Fannounce&tr=udp%3A%2F%2Ftracker.opentrackr.org%3A1337&tr=udp%3A%2F%2Ftracker.internetwarriors.net%3A1337%2Fannounce&tr=udp%3A%2F%2Ftracker.leechers-paradise.org%3A6969%2Fannounce&tr=udp%3A%2F%2Ftracker.coppersurfer.tk%3A6969%2Fannounce&tr=udp%3A%2F%2Ftracker.pirateparty.gr%3A6969%2Fannounce&tr=udp%3A%2F%2Ftracker.cyberia.is%3A6969%2Fannounce",
        "seeder": "26",
        "leecher": "1"
    },
    {
        "rank": "62",
        "title": "VA Guardians Of The Galaxy VOL. 1 and 2 [OST FLAC CD] 1914",
        "link": "magnet:?xt=urn:btih:82471E73E485DF0ECF7EFF93EC2573A1A854F2FB&dn=VA+Guardians+Of+The+Galaxy+VOL.+1+and+2+%5BOST+FLAC+CD%5D+1914&tr=udp%3A%2F%2Ftracker.coppersurfer.tk%3A6969%2Fannounce&tr=udp%3A%2F%2F9.rarbg.to%3A2920%2Fannounce&tr=udp%3A%2F%2Ftracker.opentrackr.org%3A1337&tr=udp%3A%2F%2Ftracker.internetwarriors.net%3A1337%2Fannounce&tr=udp%3A%2F%2Ftracker.leechers-paradise.org%3A6969%2Fannounce&tr=udp%3A%2F%2Ftracker.coppersurfer.tk%3A6969%2Fannounce&tr=udp%3A%2F%2Ftracker.pirateparty.gr%3A6969%2Fannounce&tr=udp%3A%2F%2Ftracker.cyberia.is%3A6969%2Fannounce",
        "seeder": "26",
        "leecher": "1"
    },
    {
        "rank": "63",
        "title": "Beethoven - The Very Best Of Beethoven (2005) [FLAC] dussin",
        "link": "magnet:?xt=urn:btih:D1EB2B5CF80E286A7F848AB0C31638856DB102D4&dn=Beethoven+-+The+Very+Best+Of+Beethoven+%282005%29+%5BFLAC%5D+dussin&tr=udp%3A%2F%2Ftracker.coppersurfer.tk%3A6969%2Fannounce&tr=udp%3A%2F%2F9.rarbg.to%3A2920%2Fannounce&tr=udp%3A%2F%2Ftracker.opentrackr.org%3A1337&tr=udp%3A%2F%2Ftracker.internetwarriors.net%3A1337%2Fannounce&tr=udp%3A%2F%2Ftracker.leechers-paradise.org%3A6969%2Fannounce&tr=udp%3A%2F%2Ftracker.coppersurfer.tk%3A6969%2Fannounce&tr=udp%3A%2F%2Ftracker.pirateparty.gr%3A6969%2Fannounce&tr=udp%3A%2F%2Ftracker.cyberia.is%3A6969%2Fannounce",
        "seeder": "26",
        "leecher": "0"
    },
    {
        "rank": "64",
        "title": "Cat Stevens - Teaser And The Firecat (1971) (PBTHAL 24-96) FLAC",
        "link": "magnet:?xt=urn:btih:B2EA72412B4270ABF92EE1208DC14F52E34F87BA&dn=Cat+Stevens+-+Teaser+And+The+Firecat+%281971%29+%28PBTHAL+24-96%29+FLAC&tr=udp%3A%2F%2Ftracker.coppersurfer.tk%3A6969%2Fannounce&tr=udp%3A%2F%2F9.rarbg.to%3A2920%2Fannounce&tr=udp%3A%2F%2Ftracker.opentrackr.org%3A1337&tr=udp%3A%2F%2Ftracker.internetwarriors.net%3A1337%2Fannounce&tr=udp%3A%2F%2Ftracker.leechers-paradise.org%3A6969%2Fannounce&tr=udp%3A%2F%2Ftracker.coppersurfer.tk%3A6969%2Fannounce&tr=udp%3A%2F%2Ftracker.pirateparty.gr%3A6969%2Fannounce&tr=udp%3A%2F%2Ftracker.cyberia.is%3A6969%2Fannounce",
        "seeder": "25",
        "leecher": "2"
    },
    {
        "rank": "65",
        "title": "Peter Frampton - Frampton Comes Alive (1976) (PBTHAL 24-96) FLAC",
        "link": "magnet:?xt=urn:btih:0621955A7BB686C1BEBCA7142B49ED7D9D69D256&dn=Peter+Frampton+-+Frampton+Comes+Alive+%281976%29+%28PBTHAL+24-96%29+FLAC&tr=udp%3A%2F%2Ftracker.coppersurfer.tk%3A6969%2Fannounce&tr=udp%3A%2F%2F9.rarbg.to%3A2920%2Fannounce&tr=udp%3A%2F%2Ftracker.opentrackr.org%3A1337&tr=udp%3A%2F%2Ftracker.internetwarriors.net%3A1337%2Fannounce&tr=udp%3A%2F%2Ftracker.leechers-paradise.org%3A6969%2Fannounce&tr=udp%3A%2F%2Ftracker.coppersurfer.tk%3A6969%2Fannounce&tr=udp%3A%2F%2Ftracker.pirateparty.gr%3A6969%2Fannounce&tr=udp%3A%2F%2Ftracker.cyberia.is%3A6969%2Fannounce",
        "seeder": "25",
        "leecher": "3"
    },
    {
        "rank": "66",
        "title": "Fleetwood Mac - Tusk (1979) (24-96 Vinyl) [FLAC] vtwin88cube",
        "link": "magnet:?xt=urn:btih:79E06FC1CA8D67C2B58A2414EE3EC8FF897847BA&dn=Fleetwood+Mac+-+Tusk+%281979%29+%2824-96+Vinyl%29+%5BFLAC%5D+vtwin88cube&tr=udp%3A%2F%2Ftracker.coppersurfer.tk%3A6969%2Fannounce&tr=udp%3A%2F%2F9.rarbg.to%3A2920%2Fannounce&tr=udp%3A%2F%2Ftracker.opentrackr.org%3A1337&tr=udp%3A%2F%2Ftracker.internetwarriors.net%3A1337%2Fannounce&tr=udp%3A%2F%2Ftracker.leechers-paradise.org%3A6969%2Fannounce&tr=udp%3A%2F%2Ftracker.coppersurfer.tk%3A6969%2Fannounce&tr=udp%3A%2F%2Ftracker.pirateparty.gr%3A6969%2Fannounce&tr=udp%3A%2F%2Ftracker.cyberia.is%3A6969%2Fannounce",
        "seeder": "25",
        "leecher": "2"
    },
    {
        "rank": "67",
        "title": "Eagles - Hotel California (1976) (2014 PBTHAL LP 24-96) [FLAC]",
        "link": "magnet:?xt=urn:btih:196D25C001B7843E34EB0E246EBB774A3704500E&dn=Eagles+-+Hotel+California+%281976%29+%282014+PBTHAL+LP+24-96%29+%5BFLAC%5D&tr=udp%3A%2F%2Ftracker.coppersurfer.tk%3A6969%2Fannounce&tr=udp%3A%2F%2F9.rarbg.to%3A2920%2Fannounce&tr=udp%3A%2F%2Ftracker.opentrackr.org%3A1337&tr=udp%3A%2F%2Ftracker.internetwarriors.net%3A1337%2Fannounce&tr=udp%3A%2F%2Ftracker.leechers-paradise.org%3A6969%2Fannounce&tr=udp%3A%2F%2Ftracker.coppersurfer.tk%3A6969%2Fannounce&tr=udp%3A%2F%2Ftracker.pirateparty.gr%3A6969%2Fannounce&tr=udp%3A%2F%2Ftracker.cyberia.is%3A6969%2Fannounce",
        "seeder": "25",
        "leecher": "0"
    },
    {
        "rank": "68",
        "title": "The Strokes The New Abnormal [2020] FLAC",
        "link": "magnet:?xt=urn:btih:5E7E509BF822D6BD5E48C6D71D704F4082F03BD5&dn=The+Strokes+The+New+Abnormal+%5B2020%5D+FLAC&tr=udp%3A%2F%2Ftracker.coppersurfer.tk%3A6969%2Fannounce&tr=udp%3A%2F%2F9.rarbg.to%3A2920%2Fannounce&tr=udp%3A%2F%2Ftracker.opentrackr.org%3A1337&tr=udp%3A%2F%2Ftracker.internetwarriors.net%3A1337%2Fannounce&tr=udp%3A%2F%2Ftracker.leechers-paradise.org%3A6969%2Fannounce&tr=udp%3A%2F%2Ftracker.coppersurfer.tk%3A6969%2Fannounce&tr=udp%3A%2F%2Ftracker.pirateparty.gr%3A6969%2Fannounce&tr=udp%3A%2F%2Ftracker.cyberia.is%3A6969%2Fannounce",
        "seeder": "25",
        "leecher": "0"
    },
    {
        "rank": "69",
        "title": "VA-The Very Best Of Blues Guitar-3CD-FLAC-1996-DeVOiD-JKoop",
        "link": "magnet:?xt=urn:btih:350881DF329B96598626CA33FF5C61C6A55FEBC7&dn=VA-The+Very+Best+Of+Blues+Guitar-3CD-FLAC-1996-DeVOiD-JKoop&tr=udp%3A%2F%2Ftracker.coppersurfer.tk%3A6969%2Fannounce&tr=udp%3A%2F%2F9.rarbg.to%3A2920%2Fannounce&tr=udp%3A%2F%2Ftracker.opentrackr.org%3A1337&tr=udp%3A%2F%2Ftracker.internetwarriors.net%3A1337%2Fannounce&tr=udp%3A%2F%2Ftracker.leechers-paradise.org%3A6969%2Fannounce&tr=udp%3A%2F%2Ftracker.coppersurfer.tk%3A6969%2Fannounce&tr=udp%3A%2F%2Ftracker.pirateparty.gr%3A6969%2Fannounce&tr=udp%3A%2F%2Ftracker.cyberia.is%3A6969%2Fannounce",
        "seeder": "25",
        "leecher": "1"
    },
    {
        "rank": "70",
        "title": "Dire Straits Discography [FLAC] Nlt-Release",
        "link": "magnet:?xt=urn:btih:11074F46C61676F212BC0E6BDCA5F18DDD956256&dn=Dire+Straits+Discography+%5BFLAC%5D+Nlt-Release&tr=udp%3A%2F%2Ftracker.coppersurfer.tk%3A6969%2Fannounce&tr=udp%3A%2F%2F9.rarbg.to%3A2920%2Fannounce&tr=udp%3A%2F%2Ftracker.opentrackr.org%3A1337&tr=udp%3A%2F%2Ftracker.internetwarriors.net%3A1337%2Fannounce&tr=udp%3A%2F%2Ftracker.leechers-paradise.org%3A6969%2Fannounce&tr=udp%3A%2F%2Ftracker.coppersurfer.tk%3A6969%2Fannounce&tr=udp%3A%2F%2Ftracker.pirateparty.gr%3A6969%2Fannounce&tr=udp%3A%2F%2Ftracker.cyberia.is%3A6969%2Fannounce",
        "seeder": "25",
        "leecher": "4"
    },
    {
        "rank": "71",
        "title": "U2 - Under A Blood Red Sky (1983) (PBTHAL LP 24-96) [FLAC]",
        "link": "magnet:?xt=urn:btih:AA05294B70E1BB13F49908DAEEF3CBCCB4AC2089&dn=U2+-+Under+A+Blood+Red+Sky+%281983%29+%28PBTHAL+LP+24-96%29+%5BFLAC%5D&tr=udp%3A%2F%2Ftracker.coppersurfer.tk%3A6969%2Fannounce&tr=udp%3A%2F%2F9.rarbg.to%3A2920%2Fannounce&tr=udp%3A%2F%2Ftracker.opentrackr.org%3A1337&tr=udp%3A%2F%2Ftracker.internetwarriors.net%3A1337%2Fannounce&tr=udp%3A%2F%2Ftracker.leechers-paradise.org%3A6969%2Fannounce&tr=udp%3A%2F%2Ftracker.coppersurfer.tk%3A6969%2Fannounce&tr=udp%3A%2F%2Ftracker.pirateparty.gr%3A6969%2Fannounce&tr=udp%3A%2F%2Ftracker.cyberia.is%3A6969%2Fannounce",
        "seeder": "24",
        "leecher": "0"
    },
    {
        "rank": "72",
        "title": "Duran Duran - Rio (1982) (PBTHAL LP 24-96) [FLAC] vtwin88cube",
        "link": "magnet:?xt=urn:btih:3278E0EFBF3AE7478398BB44F5C2879C9FF0B25B&dn=Duran+Duran+-+Rio+%281982%29+%28PBTHAL+LP+24-96%29+%5BFLAC%5D+vtwin88cube&tr=udp%3A%2F%2Ftracker.coppersurfer.tk%3A6969%2Fannounce&tr=udp%3A%2F%2F9.rarbg.to%3A2920%2Fannounce&tr=udp%3A%2F%2Ftracker.opentrackr.org%3A1337&tr=udp%3A%2F%2Ftracker.internetwarriors.net%3A1337%2Fannounce&tr=udp%3A%2F%2Ftracker.leechers-paradise.org%3A6969%2Fannounce&tr=udp%3A%2F%2Ftracker.coppersurfer.tk%3A6969%2Fannounce&tr=udp%3A%2F%2Ftracker.pirateparty.gr%3A6969%2Fannounce&tr=udp%3A%2F%2Ftracker.cyberia.is%3A6969%2Fannounce",
        "seeder": "24",
        "leecher": "1"
    },
    {
        "rank": "73",
        "title": "Accept - Too Mean to Die (2021)",
        "link": "magnet:?xt=urn:btih:19AFACD3893E90B585E75A8F5D5FDB47152D1B82&dn=Accept+-+Too+Mean+to+Die+%282021%29&tr=udp%3A%2F%2Ftracker.coppersurfer.tk%3A6969%2Fannounce&tr=udp%3A%2F%2F9.rarbg.to%3A2920%2Fannounce&tr=udp%3A%2F%2Ftracker.opentrackr.org%3A1337&tr=udp%3A%2F%2Ftracker.internetwarriors.net%3A1337%2Fannounce&tr=udp%3A%2F%2Ftracker.leechers-paradise.org%3A6969%2Fannounce&tr=udp%3A%2F%2Ftracker.coppersurfer.tk%3A6969%2Fannounce&tr=udp%3A%2F%2Ftracker.pirateparty.gr%3A6969%2Fannounce&tr=udp%3A%2F%2Ftracker.cyberia.is%3A6969%2Fannounce",
        "seeder": "24",
        "leecher": "0"
    },
    {
        "rank": "74",
        "title": "Disturbed - Discography 2000-2019 [FLAC] vtwin88cube",
        "link": "magnet:?xt=urn:btih:46EF7BEB8C2BD706501664C770FF8C2120A98B8A&dn=Disturbed+-+Discography+2000-2019+%5BFLAC%5D+vtwin88cube&tr=udp%3A%2F%2Ftracker.coppersurfer.tk%3A6969%2Fannounce&tr=udp%3A%2F%2F9.rarbg.to%3A2920%2Fannounce&tr=udp%3A%2F%2Ftracker.opentrackr.org%3A1337&tr=udp%3A%2F%2Ftracker.internetwarriors.net%3A1337%2Fannounce&tr=udp%3A%2F%2Ftracker.leechers-paradise.org%3A6969%2Fannounce&tr=udp%3A%2F%2Ftracker.coppersurfer.tk%3A6969%2Fannounce&tr=udp%3A%2F%2Ftracker.pirateparty.gr%3A6969%2Fannounce&tr=udp%3A%2F%2Ftracker.cyberia.is%3A6969%2Fannounce",
        "seeder": "24",
        "leecher": "1"
    },
    {
        "rank": "75",
        "title": "Leonard Cohen Thanks For The Dance [MCMXIV] FLAC",
        "link": "magnet:?xt=urn:btih:8609536912E8AA392ABA7E4140CCDE3E5476C1D6&dn=Leonard+Cohen+Thanks+For+The+Dance+%5BMCMXIV%5D+FLAC&tr=udp%3A%2F%2Ftracker.coppersurfer.tk%3A6969%2Fannounce&tr=udp%3A%2F%2F9.rarbg.to%3A2920%2Fannounce&tr=udp%3A%2F%2Ftracker.opentrackr.org%3A1337&tr=udp%3A%2F%2Ftracker.internetwarriors.net%3A1337%2Fannounce&tr=udp%3A%2F%2Ftracker.leechers-paradise.org%3A6969%2Fannounce&tr=udp%3A%2F%2Ftracker.coppersurfer.tk%3A6969%2Fannounce&tr=udp%3A%2F%2Ftracker.pirateparty.gr%3A6969%2Fannounce&tr=udp%3A%2F%2Ftracker.cyberia.is%3A6969%2Fannounce",
        "seeder": "24",
        "leecher": "2"
    },
    {
        "rank": "76",
        "title": "Dire Straits - The Very Best Of Dire Straits - [FLAC]-[TFM]",
        "link": "magnet:?xt=urn:btih:311C895B86FB299A9B460A95CC0B6585F9423108&dn=Dire+Straits+-+The+Very+Best+Of+Dire+Straits+-+%5BFLAC%5D-%5BTFM%5D&tr=udp%3A%2F%2Ftracker.coppersurfer.tk%3A6969%2Fannounce&tr=udp%3A%2F%2F9.rarbg.to%3A2920%2Fannounce&tr=udp%3A%2F%2Ftracker.opentrackr.org%3A1337&tr=udp%3A%2F%2Ftracker.internetwarriors.net%3A1337%2Fannounce&tr=udp%3A%2F%2Ftracker.leechers-paradise.org%3A6969%2Fannounce&tr=udp%3A%2F%2Ftracker.coppersurfer.tk%3A6969%2Fannounce&tr=udp%3A%2F%2Ftracker.pirateparty.gr%3A6969%2Fannounce&tr=udp%3A%2F%2Ftracker.cyberia.is%3A6969%2Fannounce",
        "seeder": "24",
        "leecher": "0"
    },
    {
        "rank": "77",
        "title": "Big Brother And The Holding Company -Cheap Thrills 24-96 LP FLAC",
        "link": "magnet:?xt=urn:btih:9702930DDD1FB4CB4A36CD904D78508D439E26C7&dn=Big+Brother+And+The+Holding+Company+-Cheap+Thrills+24-96+LP+FLAC&tr=udp%3A%2F%2Ftracker.coppersurfer.tk%3A6969%2Fannounce&tr=udp%3A%2F%2F9.rarbg.to%3A2920%2Fannounce&tr=udp%3A%2F%2Ftracker.opentrackr.org%3A1337&tr=udp%3A%2F%2Ftracker.internetwarriors.net%3A1337%2Fannounce&tr=udp%3A%2F%2Ftracker.leechers-paradise.org%3A6969%2Fannounce&tr=udp%3A%2F%2Ftracker.coppersurfer.tk%3A6969%2Fannounce&tr=udp%3A%2F%2Ftracker.pirateparty.gr%3A6969%2Fannounce&tr=udp%3A%2F%2Ftracker.cyberia.is%3A6969%2Fannounce",
        "seeder": "23",
        "leecher": "0"
    },
    {
        "rank": "78",
        "title": "Mogwai - As The Love Continues - (2021) {WEB - FLAC}",
        "link": "magnet:?xt=urn:btih:C02EA61715E1E75791A6ABFD5DC7620CAB7D7FCE&dn=Mogwai+-+As+The+Love+Continues+-+%282021%29+%7BWEB+-+FLAC%7D&tr=udp%3A%2F%2Ftracker.coppersurfer.tk%3A6969%2Fannounce&tr=udp%3A%2F%2F9.rarbg.to%3A2920%2Fannounce&tr=udp%3A%2F%2Ftracker.opentrackr.org%3A1337&tr=udp%3A%2F%2Ftracker.internetwarriors.net%3A1337%2Fannounce&tr=udp%3A%2F%2Ftracker.leechers-paradise.org%3A6969%2Fannounce&tr=udp%3A%2F%2Ftracker.coppersurfer.tk%3A6969%2Fannounce&tr=udp%3A%2F%2Ftracker.pirateparty.gr%3A6969%2Fannounce&tr=udp%3A%2F%2Ftracker.cyberia.is%3A6969%2Fannounce",
        "seeder": "23",
        "leecher": "2"
    },
    {
        "rank": "79",
        "title": "U2 - October (1981) (PBTHAL LP 24-96) [FLAC] vtwin88cube",
        "link": "magnet:?xt=urn:btih:19CC8353FEBB327A700B9E5560A5B0631CF3BBF5&dn=U2+-+October+%281981%29+%28PBTHAL+LP+24-96%29+%5BFLAC%5D+vtwin88cube&tr=udp%3A%2F%2Ftracker.coppersurfer.tk%3A6969%2Fannounce&tr=udp%3A%2F%2F9.rarbg.to%3A2920%2Fannounce&tr=udp%3A%2F%2Ftracker.opentrackr.org%3A1337&tr=udp%3A%2F%2Ftracker.internetwarriors.net%3A1337%2Fannounce&tr=udp%3A%2F%2Ftracker.leechers-paradise.org%3A6969%2Fannounce&tr=udp%3A%2F%2Ftracker.coppersurfer.tk%3A6969%2Fannounce&tr=udp%3A%2F%2Ftracker.pirateparty.gr%3A6969%2Fannounce&tr=udp%3A%2F%2Ftracker.cyberia.is%3A6969%2Fannounce",
        "seeder": "23",
        "leecher": "2"
    },
    {
        "rank": "80",
        "title": "Eric Clapton - Slowhand (1977) (PBTHAL LP 24-96) [FLAC]",
        "link": "magnet:?xt=urn:btih:A52277D81B74D496A883C046F4958A320D78F097&dn=Eric+Clapton+-+Slowhand+%281977%29+%28PBTHAL+LP+24-96%29+%5BFLAC%5D&tr=udp%3A%2F%2Ftracker.coppersurfer.tk%3A6969%2Fannounce&tr=udp%3A%2F%2F9.rarbg.to%3A2920%2Fannounce&tr=udp%3A%2F%2Ftracker.opentrackr.org%3A1337&tr=udp%3A%2F%2Ftracker.internetwarriors.net%3A1337%2Fannounce&tr=udp%3A%2F%2Ftracker.leechers-paradise.org%3A6969%2Fannounce&tr=udp%3A%2F%2Ftracker.coppersurfer.tk%3A6969%2Fannounce&tr=udp%3A%2F%2Ftracker.pirateparty.gr%3A6969%2Fannounce&tr=udp%3A%2F%2Ftracker.cyberia.is%3A6969%2Fannounce",
        "seeder": "23",
        "leecher": "1"
    },
    {
        "rank": "81",
        "title": "Pink Floyd The Dark Side Of The Moon [SACD] DODSKORPEN",
        "link": "magnet:?xt=urn:btih:CA5117CBA1D667B6AA9928A6D593AA338F8D5225&dn=Pink+Floyd+The+Dark+Side+Of+The+Moon+%5BSACD%5D+DODSKORPEN&tr=udp%3A%2F%2Ftracker.coppersurfer.tk%3A6969%2Fannounce&tr=udp%3A%2F%2F9.rarbg.to%3A2920%2Fannounce&tr=udp%3A%2F%2Ftracker.opentrackr.org%3A1337&tr=udp%3A%2F%2Ftracker.internetwarriors.net%3A1337%2Fannounce&tr=udp%3A%2F%2Ftracker.leechers-paradise.org%3A6969%2Fannounce&tr=udp%3A%2F%2Ftracker.coppersurfer.tk%3A6969%2Fannounce&tr=udp%3A%2F%2Ftracker.pirateparty.gr%3A6969%2Fannounce&tr=udp%3A%2F%2Ftracker.cyberia.is%3A6969%2Fannounce",
        "seeder": "23",
        "leecher": "0"
    },
    {
        "rank": "82",
        "title": "Pink Floyd - The Dark Side Of The Moon (2012 PBTHAL 24-96 FLAC)",
        "link": "magnet:?xt=urn:btih:E96CDE79B1727DD68ED06BCDAAAE23288FFAEEE5&dn=Pink+Floyd+-+The+Dark+Side+Of+The+Moon+%282012+PBTHAL+24-96+FLAC%29&tr=udp%3A%2F%2Ftracker.coppersurfer.tk%3A6969%2Fannounce&tr=udp%3A%2F%2F9.rarbg.to%3A2920%2Fannounce&tr=udp%3A%2F%2Ftracker.opentrackr.org%3A1337&tr=udp%3A%2F%2Ftracker.internetwarriors.net%3A1337%2Fannounce&tr=udp%3A%2F%2Ftracker.leechers-paradise.org%3A6969%2Fannounce&tr=udp%3A%2F%2Ftracker.coppersurfer.tk%3A6969%2Fannounce&tr=udp%3A%2F%2Ftracker.pirateparty.gr%3A6969%2Fannounce&tr=udp%3A%2F%2Ftracker.cyberia.is%3A6969%2Fannounce",
        "seeder": "23",
        "leecher": "0"
    },
    {
        "rank": "83",
        "title": "The Beatles - Red + Blue Albums 1962-1970 [FLAC] vtwin88cube",
        "link": "magnet:?xt=urn:btih:25BB162CA38C0140BCBE30A158C632B2CF0F68DD&dn=The+Beatles+-+Red+%2B+Blue+Albums+1962-1970+%5BFLAC%5D+vtwin88cube&tr=udp%3A%2F%2Ftracker.coppersurfer.tk%3A6969%2Fannounce&tr=udp%3A%2F%2F9.rarbg.to%3A2920%2Fannounce&tr=udp%3A%2F%2Ftracker.opentrackr.org%3A1337&tr=udp%3A%2F%2Ftracker.internetwarriors.net%3A1337%2Fannounce&tr=udp%3A%2F%2Ftracker.leechers-paradise.org%3A6969%2Fannounce&tr=udp%3A%2F%2Ftracker.coppersurfer.tk%3A6969%2Fannounce&tr=udp%3A%2F%2Ftracker.pirateparty.gr%3A6969%2Fannounce&tr=udp%3A%2F%2Ftracker.cyberia.is%3A6969%2Fannounce",
        "seeder": "23",
        "leecher": "0"
    },
    {
        "rank": "84",
        "title": "Pearl Jam GIGATON 2020 FLAC CD",
        "link": "magnet:?xt=urn:btih:C14924219B01F315365A26FEBCC906C04BBD5D7F&dn=Pearl+Jam+GIGATON+2020+FLAC+CD&tr=udp%3A%2F%2Ftracker.coppersurfer.tk%3A6969%2Fannounce&tr=udp%3A%2F%2F9.rarbg.to%3A2920%2Fannounce&tr=udp%3A%2F%2Ftracker.opentrackr.org%3A1337&tr=udp%3A%2F%2Ftracker.internetwarriors.net%3A1337%2Fannounce&tr=udp%3A%2F%2Ftracker.leechers-paradise.org%3A6969%2Fannounce&tr=udp%3A%2F%2Ftracker.coppersurfer.tk%3A6969%2Fannounce&tr=udp%3A%2F%2Ftracker.pirateparty.gr%3A6969%2Fannounce&tr=udp%3A%2F%2Ftracker.cyberia.is%3A6969%2Fannounce",
        "seeder": "23",
        "leecher": "2"
    },
    {
        "rank": "85",
        "title": "The Doors Discography [expanded] 10 CD Paper Sleeve Collection",
        "link": "magnet:?xt=urn:btih:F5AA441F77BE1906784D6AA3DBAF58E61DA9523F&dn=The+Doors+Discography+%5Bexpanded%5D+10+CD+Paper+Sleeve+Collection&tr=udp%3A%2F%2Ftracker.coppersurfer.tk%3A6969%2Fannounce&tr=udp%3A%2F%2F9.rarbg.to%3A2920%2Fannounce&tr=udp%3A%2F%2Ftracker.opentrackr.org%3A1337&tr=udp%3A%2F%2Ftracker.internetwarriors.net%3A1337%2Fannounce&tr=udp%3A%2F%2Ftracker.leechers-paradise.org%3A6969%2Fannounce&tr=udp%3A%2F%2Ftracker.coppersurfer.tk%3A6969%2Fannounce&tr=udp%3A%2F%2Ftracker.pirateparty.gr%3A6969%2Fannounce&tr=udp%3A%2F%2Ftracker.cyberia.is%3A6969%2Fannounce",
        "seeder": "23",
        "leecher": "1"
    },
    {
        "rank": "86",
        "title": "Rammstein - (2019)Rammstein (Special Edition)[FLAC]eNJoY-iT",
        "link": "magnet:?xt=urn:btih:AB154884103525A69927B97A40589B15DDA36514&dn=Rammstein+-+%282019%29Rammstein+%28Special+Edition%29%5BFLAC%5DeNJoY-iT&tr=udp%3A%2F%2Ftracker.coppersurfer.tk%3A6969%2Fannounce&tr=udp%3A%2F%2F9.rarbg.to%3A2920%2Fannounce&tr=udp%3A%2F%2Ftracker.opentrackr.org%3A1337&tr=udp%3A%2F%2Ftracker.internetwarriors.net%3A1337%2Fannounce&tr=udp%3A%2F%2Ftracker.leechers-paradise.org%3A6969%2Fannounce&tr=udp%3A%2F%2Ftracker.coppersurfer.tk%3A6969%2Fannounce&tr=udp%3A%2F%2Ftracker.pirateparty.gr%3A6969%2Fannounce&tr=udp%3A%2F%2Ftracker.cyberia.is%3A6969%2Fannounce",
        "seeder": "23",
        "leecher": "0"
    },
    {
        "rank": "87",
        "title": "Kendrick Lamar - DAMN (2017) FLAC",
        "link": "magnet:?xt=urn:btih:CCE242B973F1EBA7831BD7146AE806C5D9504F65&dn=Kendrick+Lamar+-+DAMN+%282017%29+FLAC&tr=udp%3A%2F%2Ftracker.coppersurfer.tk%3A6969%2Fannounce&tr=udp%3A%2F%2F9.rarbg.to%3A2920%2Fannounce&tr=udp%3A%2F%2Ftracker.opentrackr.org%3A1337&tr=udp%3A%2F%2Ftracker.internetwarriors.net%3A1337%2Fannounce&tr=udp%3A%2F%2Ftracker.leechers-paradise.org%3A6969%2Fannounce&tr=udp%3A%2F%2Ftracker.coppersurfer.tk%3A6969%2Fannounce&tr=udp%3A%2F%2Ftracker.pirateparty.gr%3A6969%2Fannounce&tr=udp%3A%2F%2Ftracker.cyberia.is%3A6969%2Fannounce",
        "seeder": "23",
        "leecher": "1"
    },
    {
        "rank": "88",
        "title": "Bob Marley And The Wailers - Legend (Deluxe Edition) 2CD(2002)FL",
        "link": "magnet:?xt=urn:btih:13E932367CC5A29099D44BA504618E54F9F94062&dn=Bob+Marley+And+The+Wailers+-+Legend+%28Deluxe+Edition%29+2CD%282002%29FL&tr=udp%3A%2F%2Ftracker.coppersurfer.tk%3A6969%2Fannounce&tr=udp%3A%2F%2F9.rarbg.to%3A2920%2Fannounce&tr=udp%3A%2F%2Ftracker.opentrackr.org%3A1337&tr=udp%3A%2F%2Ftracker.internetwarriors.net%3A1337%2Fannounce&tr=udp%3A%2F%2Ftracker.leechers-paradise.org%3A6969%2Fannounce&tr=udp%3A%2F%2Ftracker.coppersurfer.tk%3A6969%2Fannounce&tr=udp%3A%2F%2Ftracker.pirateparty.gr%3A6969%2Fannounce&tr=udp%3A%2F%2Ftracker.cyberia.is%3A6969%2Fannounce",
        "seeder": "23",
        "leecher": "1"
    },
    {
        "rank": "89",
        "title": "Depeche Mode - Best Of (Greatest Hits) 2006 [FLAC] - Kitlope",
        "link": "magnet:?xt=urn:btih:50E1B85EFFC7BB7FB5722E5E3D345AC74E17FEAB&dn=Depeche+Mode+-+Best+Of+%28Greatest+Hits%29+2006+%5BFLAC%5D+-+Kitlope&tr=udp%3A%2F%2Ftracker.coppersurfer.tk%3A6969%2Fannounce&tr=udp%3A%2F%2F9.rarbg.to%3A2920%2Fannounce&tr=udp%3A%2F%2Ftracker.opentrackr.org%3A1337&tr=udp%3A%2F%2Ftracker.internetwarriors.net%3A1337%2Fannounce&tr=udp%3A%2F%2Ftracker.leechers-paradise.org%3A6969%2Fannounce&tr=udp%3A%2F%2Ftracker.coppersurfer.tk%3A6969%2Fannounce&tr=udp%3A%2F%2Ftracker.pirateparty.gr%3A6969%2Fannounce&tr=udp%3A%2F%2Ftracker.cyberia.is%3A6969%2Fannounce",
        "seeder": "23",
        "leecher": "1"
    },
    {
        "rank": "90",
        "title": "Tom Jones - The Complete Decca Studio Albums Collection (2020)",
        "link": "magnet:?xt=urn:btih:95B4B7BF3BC27FBEC2F5409CB1582EF7DAE07036&dn=Tom+Jones+-+The+Complete+Decca+Studio+Albums+Collection+%282020%29&tr=udp%3A%2F%2Ftracker.coppersurfer.tk%3A6969%2Fannounce&tr=udp%3A%2F%2F9.rarbg.to%3A2920%2Fannounce&tr=udp%3A%2F%2Ftracker.opentrackr.org%3A1337&tr=udp%3A%2F%2Ftracker.internetwarriors.net%3A1337%2Fannounce&tr=udp%3A%2F%2Ftracker.leechers-paradise.org%3A6969%2Fannounce&tr=udp%3A%2F%2Ftracker.coppersurfer.tk%3A6969%2Fannounce&tr=udp%3A%2F%2Ftracker.pirateparty.gr%3A6969%2Fannounce&tr=udp%3A%2F%2Ftracker.cyberia.is%3A6969%2Fannounce",
        "seeder": "22",
        "leecher": "7"
    },
    {
        "rank": "91",
        "title": "David Crosby - If I Could Only Remember My Name LP 24-96 FLAC",
        "link": "magnet:?xt=urn:btih:906B8E383A5C73BB7D2B4C367F3531B97BBA2E2D&dn=David+Crosby+-+If+I+Could+Only+Remember+My+Name+LP+24-96+FLAC&tr=udp%3A%2F%2Ftracker.coppersurfer.tk%3A6969%2Fannounce&tr=udp%3A%2F%2F9.rarbg.to%3A2920%2Fannounce&tr=udp%3A%2F%2Ftracker.opentrackr.org%3A1337&tr=udp%3A%2F%2Ftracker.internetwarriors.net%3A1337%2Fannounce&tr=udp%3A%2F%2Ftracker.leechers-paradise.org%3A6969%2Fannounce&tr=udp%3A%2F%2Ftracker.coppersurfer.tk%3A6969%2Fannounce&tr=udp%3A%2F%2Ftracker.pirateparty.gr%3A6969%2Fannounce&tr=udp%3A%2F%2Ftracker.cyberia.is%3A6969%2Fannounce",
        "seeder": "22",
        "leecher": "1"
    },
    {
        "rank": "92",
        "title": "Rob Zombie The Lunar Injection Kool Aid Eclipse Conspiracy 2021",
        "link": "magnet:?xt=urn:btih:6E4493A571E7F9A490353EFEDC128F79FC58A6FB&dn=Rob+Zombie+The+Lunar+Injection+Kool+Aid+Eclipse+Conspiracy+2021&tr=udp%3A%2F%2Ftracker.coppersurfer.tk%3A6969%2Fannounce&tr=udp%3A%2F%2F9.rarbg.to%3A2920%2Fannounce&tr=udp%3A%2F%2Ftracker.opentrackr.org%3A1337&tr=udp%3A%2F%2Ftracker.internetwarriors.net%3A1337%2Fannounce&tr=udp%3A%2F%2Ftracker.leechers-paradise.org%3A6969%2Fannounce&tr=udp%3A%2F%2Ftracker.coppersurfer.tk%3A6969%2Fannounce&tr=udp%3A%2F%2Ftracker.pirateparty.gr%3A6969%2Fannounce&tr=udp%3A%2F%2Ftracker.cyberia.is%3A6969%2Fannounce",
        "seeder": "22",
        "leecher": "2"
    },
    {
        "rank": "93",
        "title": "Rod Stewart - Every Picture Tells A Story (1971) (LP 24-96) FLAC",
        "link": "magnet:?xt=urn:btih:55966713F7BC083C4A5393A0CD93AA8271FD6D53&dn=Rod+Stewart+-+Every+Picture+Tells+A+Story+%281971%29+%28LP+24-96%29+FLAC&tr=udp%3A%2F%2Ftracker.coppersurfer.tk%3A6969%2Fannounce&tr=udp%3A%2F%2F9.rarbg.to%3A2920%2Fannounce&tr=udp%3A%2F%2Ftracker.opentrackr.org%3A1337&tr=udp%3A%2F%2Ftracker.internetwarriors.net%3A1337%2Fannounce&tr=udp%3A%2F%2Ftracker.leechers-paradise.org%3A6969%2Fannounce&tr=udp%3A%2F%2Ftracker.coppersurfer.tk%3A6969%2Fannounce&tr=udp%3A%2F%2Ftracker.pirateparty.gr%3A6969%2Fannounce&tr=udp%3A%2F%2Ftracker.cyberia.is%3A6969%2Fannounce",
        "seeder": "22",
        "leecher": "1"
    },
    {
        "rank": "94",
        "title": "Dire Straits - Brothers In Arms (1985) (PBTHAL LP 24-96) [FLAC]",
        "link": "magnet:?xt=urn:btih:E2AD7FBECD2F85CD4E22E81AB2284FF4B803EB5A&dn=Dire+Straits+-+Brothers+In+Arms+%281985%29+%28PBTHAL+LP+24-96%29+%5BFLAC%5D&tr=udp%3A%2F%2Ftracker.coppersurfer.tk%3A6969%2Fannounce&tr=udp%3A%2F%2F9.rarbg.to%3A2920%2Fannounce&tr=udp%3A%2F%2Ftracker.opentrackr.org%3A1337&tr=udp%3A%2F%2Ftracker.internetwarriors.net%3A1337%2Fannounce&tr=udp%3A%2F%2Ftracker.leechers-paradise.org%3A6969%2Fannounce&tr=udp%3A%2F%2Ftracker.coppersurfer.tk%3A6969%2Fannounce&tr=udp%3A%2F%2Ftracker.pirateparty.gr%3A6969%2Fannounce&tr=udp%3A%2F%2Ftracker.cyberia.is%3A6969%2Fannounce",
        "seeder": "22",
        "leecher": "1"
    },
    {
        "rank": "95",
        "title": "VA - Titans Of Smooth Jazz 100 Tracks (2016) [FLAC] vtwin88cube",
        "link": "magnet:?xt=urn:btih:EAF9ACA3DEDE9EF51E0CB72BBAFCC5C24040E7DA&dn=VA+-+Titans+Of+Smooth+Jazz+100+Tracks+%282016%29+%5BFLAC%5D+vtwin88cube&tr=udp%3A%2F%2Ftracker.coppersurfer.tk%3A6969%2Fannounce&tr=udp%3A%2F%2F9.rarbg.to%3A2920%2Fannounce&tr=udp%3A%2F%2Ftracker.opentrackr.org%3A1337&tr=udp%3A%2F%2Ftracker.internetwarriors.net%3A1337%2Fannounce&tr=udp%3A%2F%2Ftracker.leechers-paradise.org%3A6969%2Fannounce&tr=udp%3A%2F%2Ftracker.coppersurfer.tk%3A6969%2Fannounce&tr=udp%3A%2F%2Ftracker.pirateparty.gr%3A6969%2Fannounce&tr=udp%3A%2F%2Ftracker.cyberia.is%3A6969%2Fannounce",
        "seeder": "22",
        "leecher": "0"
    },
    {
        "rank": "96",
        "title": "Coldplay - Everyday Life (2019) FLAC",
        "link": "magnet:?xt=urn:btih:92B949656C10C378630610377656539434587ABD&dn=Coldplay+-+Everyday+Life+%282019%29+FLAC&tr=udp%3A%2F%2Ftracker.coppersurfer.tk%3A6969%2Fannounce&tr=udp%3A%2F%2F9.rarbg.to%3A2920%2Fannounce&tr=udp%3A%2F%2Ftracker.opentrackr.org%3A1337&tr=udp%3A%2F%2Ftracker.internetwarriors.net%3A1337%2Fannounce&tr=udp%3A%2F%2Ftracker.leechers-paradise.org%3A6969%2Fannounce&tr=udp%3A%2F%2Ftracker.coppersurfer.tk%3A6969%2Fannounce&tr=udp%3A%2F%2Ftracker.pirateparty.gr%3A6969%2Fannounce&tr=udp%3A%2F%2Ftracker.cyberia.is%3A6969%2Fannounce",
        "seeder": "22",
        "leecher": "0"
    },
    {
        "rank": "97",
        "title": "Marvin Gaye - The Master 4CD (1995) [FLAC] vtwin88cube",
        "link": "magnet:?xt=urn:btih:86AC4B8C570616F4B9073C262B4FA75189639596&dn=Marvin+Gaye+-+The+Master+4CD+%281995%29+%5BFLAC%5D+vtwin88cube&tr=udp%3A%2F%2Ftracker.coppersurfer.tk%3A6969%2Fannounce&tr=udp%3A%2F%2F9.rarbg.to%3A2920%2Fannounce&tr=udp%3A%2F%2Ftracker.opentrackr.org%3A1337&tr=udp%3A%2F%2Ftracker.internetwarriors.net%3A1337%2Fannounce&tr=udp%3A%2F%2Ftracker.leechers-paradise.org%3A6969%2Fannounce&tr=udp%3A%2F%2Ftracker.coppersurfer.tk%3A6969%2Fannounce&tr=udp%3A%2F%2Ftracker.pirateparty.gr%3A6969%2Fannounce&tr=udp%3A%2F%2Ftracker.cyberia.is%3A6969%2Fannounce",
        "seeder": "22",
        "leecher": "1"
    },
    {
        "rank": "98",
        "title": "The Very Best Of Guns N' Roses (2009) FLAC vtwin88cube",
        "link": "magnet:?xt=urn:btih:208F84DC19CBDE3C59C1C609E2E09CB14EAAF670&dn=The+Very+Best+Of+Guns+N%27+Roses+%282009%29+FLAC+vtwin88cube&tr=udp%3A%2F%2Ftracker.coppersurfer.tk%3A6969%2Fannounce&tr=udp%3A%2F%2F9.rarbg.to%3A2920%2Fannounce&tr=udp%3A%2F%2Ftracker.opentrackr.org%3A1337&tr=udp%3A%2F%2Ftracker.internetwarriors.net%3A1337%2Fannounce&tr=udp%3A%2F%2Ftracker.leechers-paradise.org%3A6969%2Fannounce&tr=udp%3A%2F%2Ftracker.coppersurfer.tk%3A6969%2Fannounce&tr=udp%3A%2F%2Ftracker.pirateparty.gr%3A6969%2Fannounce&tr=udp%3A%2F%2Ftracker.cyberia.is%3A6969%2Fannounce",
        "seeder": "22",
        "leecher": "5"
    },
    {
        "rank": "99",
        "title": "VA - Ultimate Disco - 4-CD-(2018)-[FLAC]-[TFM]",
        "link": "magnet:?xt=urn:btih:5F54524C4AD1E285AD424606D2625888F1DB8D80&dn=VA+-+Ultimate+Disco+-+4-CD-%282018%29-%5BFLAC%5D-%5BTFM%5D&tr=udp%3A%2F%2Ftracker.coppersurfer.tk%3A6969%2Fannounce&tr=udp%3A%2F%2F9.rarbg.to%3A2920%2Fannounce&tr=udp%3A%2F%2Ftracker.opentrackr.org%3A1337&tr=udp%3A%2F%2Ftracker.internetwarriors.net%3A1337%2Fannounce&tr=udp%3A%2F%2Ftracker.leechers-paradise.org%3A6969%2Fannounce&tr=udp%3A%2F%2Ftracker.coppersurfer.tk%3A6969%2Fannounce&tr=udp%3A%2F%2Ftracker.pirateparty.gr%3A6969%2Fannounce&tr=udp%3A%2F%2Ftracker.cyberia.is%3A6969%2Fannounce",
        "seeder": "22",
        "leecher": "0"
    },
    {
        "rank": "100",
        "title": "Atlanta Rhythm Section - Are You Ready! Live (1979) FLAC (2012)",
        "link": "magnet:?xt=urn:btih:1EA4FE1F0D78A757AA6076589D46C1ECD263637E&dn=Atlanta+Rhythm+Section+-+Are+You+Ready%21+Live+%281979%29+FLAC+%282012%29&tr=udp%3A%2F%2Ftracker.coppersurfer.tk%3A6969%2Fannounce&tr=udp%3A%2F%2F9.rarbg.to%3A2920%2Fannounce&tr=udp%3A%2F%2Ftracker.opentrackr.org%3A1337&tr=udp%3A%2F%2Ftracker.internetwarriors.net%3A1337%2Fannounce&tr=udp%3A%2F%2Ftracker.leechers-paradise.org%3A6969%2Fannounce&tr=udp%3A%2F%2Ftracker.coppersurfer.tk%3A6969%2Fannounce&tr=udp%3A%2F%2Ftracker.pirateparty.gr%3A6969%2Fannounce&tr=udp%3A%2F%2Ftracker.cyberia.is%3A6969%2Fannounce",
        "seeder": "21",
        "leecher": "4"
    }
]
