[
    {
        "rank": "1",
        "title": "Kira\u2606Kira(eng) ipod.ipad.iphone",
        "link": "magnet:?xt=urn:btih:2740C75D4C9EDB752FA25F795339A88CDAAA2B56&dn=Kira%E2%98%86Kira%28eng%29+ipod.ipad.iphone&tr=udp%3A%2F%2Ftracker.coppersurfer.tk%3A6969%2Fannounce&tr=udp%3A%2F%2F9.rarbg.to%3A2920%2Fannounce&tr=udp%3A%2F%2Ftracker.opentrackr.org%3A1337&tr=udp%3A%2F%2Ftracker.internetwarriors.net%3A1337%2Fannounce&tr=udp%3A%2F%2Ftracker.leechers-paradise.org%3A6969%2Fannounce&tr=udp%3A%2F%2Ftracker.coppersurfer.tk%3A6969%2Fannounce&tr=udp%3A%2F%2Ftracker.pirateparty.gr%3A6969%2Fannounce&tr=udp%3A%2F%2Ftracker.cyberia.is%3A6969%2Fannounce",
        "seeder": "2",
        "leecher": "0"
    },
    {
        "rank": "2",
        "title": "DARIUSBURST -SP- ipod.ipad.iphone",
        "link": "magnet:?xt=urn:btih:A5026FAFFD3C46741B4F043E7B43D443D7E5D30E&dn=DARIUSBURST+-SP-+ipod.ipad.iphone&tr=udp%3A%2F%2Ftracker.coppersurfer.tk%3A6969%2Fannounce&tr=udp%3A%2F%2F9.rarbg.to%3A2920%2Fannounce&tr=udp%3A%2F%2Ftracker.opentrackr.org%3A1337&tr=udp%3A%2F%2Ftracker.internetwarriors.net%3A1337%2Fannounce&tr=udp%3A%2F%2Ftracker.leechers-paradise.org%3A6969%2Fannounce&tr=udp%3A%2F%2Ftracker.coppersurfer.tk%3A6969%2Fannounce&tr=udp%3A%2F%2Ftracker.pirateparty.gr%3A6969%2Fannounce&tr=udp%3A%2F%2Ftracker.cyberia.is%3A6969%2Fannounce",
        "seeder": "2",
        "leecher": "0"
    },
    {
        "rank": "3",
        "title": "MegaPack.31,8 Go.290.Games iPhone.iPodTouch.iPad",
        "link": "magnet:?xt=urn:btih:A932083D1BA27B2D526D6AEF3C5450FFF05E91C3&dn=MegaPack.31%2C8+Go.290.Games+iPhone.iPodTouch.iPad&tr=udp%3A%2F%2Ftracker.coppersurfer.tk%3A6969%2Fannounce&tr=udp%3A%2F%2F9.rarbg.to%3A2920%2Fannounce&tr=udp%3A%2F%2Ftracker.opentrackr.org%3A1337&tr=udp%3A%2F%2Ftracker.internetwarriors.net%3A1337%2Fannounce&tr=udp%3A%2F%2Ftracker.leechers-paradise.org%3A6969%2Fannounce&tr=udp%3A%2F%2Ftracker.coppersurfer.tk%3A6969%2Fannounce&tr=udp%3A%2F%2Ftracker.pirateparty.gr%3A6969%2Fannounce&tr=udp%3A%2F%2Ftracker.cyberia.is%3A6969%2Fannounce",
        "seeder": "2",
        "leecher": "0"
    },
    {
        "rank": "4",
        "title": "RPM: Gymkhana Racing ipad.ipod.iphone",
        "link": "magnet:?xt=urn:btih:49B166CC9B7A680E450B15E8EBD410BFEA7EBD64&dn=RPM%3A+Gymkhana+Racing+ipad.ipod.iphone&tr=udp%3A%2F%2Ftracker.coppersurfer.tk%3A6969%2Fannounce&tr=udp%3A%2F%2F9.rarbg.to%3A2920%2Fannounce&tr=udp%3A%2F%2Ftracker.opentrackr.org%3A1337&tr=udp%3A%2F%2Ftracker.internetwarriors.net%3A1337%2Fannounce&tr=udp%3A%2F%2Ftracker.leechers-paradise.org%3A6969%2Fannounce&tr=udp%3A%2F%2Ftracker.coppersurfer.tk%3A6969%2Fannounce&tr=udp%3A%2F%2Ftracker.pirateparty.gr%3A6969%2Fannounce&tr=udp%3A%2F%2Ftracker.cyberia.is%3A6969%2Fannounce",
        "seeder": "2",
        "leecher": "0"
    },
    {
        "rank": "5",
        "title": "Avengers Initiative ipad,ipod,iphone",
        "link": "magnet:?xt=urn:btih:5E7259ABCA76B69689F5D6E217CD91F43E0ABEED&dn=Avengers+Initiative+ipad%2Cipod%2Ciphone&tr=udp%3A%2F%2Ftracker.coppersurfer.tk%3A6969%2Fannounce&tr=udp%3A%2F%2F9.rarbg.to%3A2920%2Fannounce&tr=udp%3A%2F%2Ftracker.opentrackr.org%3A1337&tr=udp%3A%2F%2Ftracker.internetwarriors.net%3A1337%2Fannounce&tr=udp%3A%2F%2Ftracker.leechers-paradise.org%3A6969%2Fannounce&tr=udp%3A%2F%2Ftracker.coppersurfer.tk%3A6969%2Fannounce&tr=udp%3A%2F%2Ftracker.pirateparty.gr%3A6969%2Fannounce&tr=udp%3A%2F%2Ftracker.cyberia.is%3A6969%2Fannounce",
        "seeder": "2",
        "leecher": "0"
    },
    {
        "rank": "6",
        "title": "Order & Chaos\u00a9 Online Version 1.1.1 ipad.ipod.iphone",
        "link": "magnet:?xt=urn:btih:C2495E4826EF87FFBA0D19059A157C71583C764C&dn=Order+%26amp%3B+Chaos%26copy%3B+Online+Version+1.1.1+ipad.ipod.iphone&tr=udp%3A%2F%2Ftracker.coppersurfer.tk%3A6969%2Fannounce&tr=udp%3A%2F%2F9.rarbg.to%3A2920%2Fannounce&tr=udp%3A%2F%2Ftracker.opentrackr.org%3A1337&tr=udp%3A%2F%2Ftracker.internetwarriors.net%3A1337%2Fannounce&tr=udp%3A%2F%2Ftracker.leechers-paradise.org%3A6969%2Fannounce&tr=udp%3A%2F%2Ftracker.coppersurfer.tk%3A6969%2Fannounce&tr=udp%3A%2F%2Ftracker.pirateparty.gr%3A6969%2Fannounce&tr=udp%3A%2F%2Ftracker.cyberia.is%3A6969%2Fannounce",
        "seeder": "2",
        "leecher": "0"
    },
    {
        "rank": "7",
        "title": "N.O.V.A. 3 - Near Orbit Vanguard Alliance ipod.ipad.iphone",
        "link": "magnet:?xt=urn:btih:9632BA32ACD703A1F32B71ED919578F4640215A6&dn=N.O.V.A.+3+-+Near+Orbit+Vanguard+Alliance+ipod.ipad.iphone&tr=udp%3A%2F%2Ftracker.coppersurfer.tk%3A6969%2Fannounce&tr=udp%3A%2F%2F9.rarbg.to%3A2920%2Fannounce&tr=udp%3A%2F%2Ftracker.opentrackr.org%3A1337&tr=udp%3A%2F%2Ftracker.internetwarriors.net%3A1337%2Fannounce&tr=udp%3A%2F%2Ftracker.leechers-paradise.org%3A6969%2Fannounce&tr=udp%3A%2F%2Ftracker.coppersurfer.tk%3A6969%2Fannounce&tr=udp%3A%2F%2Ftracker.pirateparty.gr%3A6969%2Fannounce&tr=udp%3A%2F%2Ftracker.cyberia.is%3A6969%2Fannounce",
        "seeder": "2",
        "leecher": "0"
    },
    {
        "rank": "8",
        "title": "Dwarfs vs Orcs iphone.ipad.ipod",
        "link": "magnet:?xt=urn:btih:8AB5C913B33CC85469AF4196285ABAFE439312C3&dn=Dwarfs+vs+Orcs+iphone.ipad.ipod&tr=udp%3A%2F%2Ftracker.coppersurfer.tk%3A6969%2Fannounce&tr=udp%3A%2F%2F9.rarbg.to%3A2920%2Fannounce&tr=udp%3A%2F%2Ftracker.opentrackr.org%3A1337&tr=udp%3A%2F%2Ftracker.internetwarriors.net%3A1337%2Fannounce&tr=udp%3A%2F%2Ftracker.leechers-paradise.org%3A6969%2Fannounce&tr=udp%3A%2F%2Ftracker.coppersurfer.tk%3A6969%2Fannounce&tr=udp%3A%2F%2Ftracker.pirateparty.gr%3A6969%2Fannounce&tr=udp%3A%2F%2Ftracker.cyberia.is%3A6969%2Fannounce",
        "seeder": "2",
        "leecher": "0"
    },
    {
        "rank": "9",
        "title": "Candy Shoot HD [Chance] v1.1.0",
        "link": "magnet:?xt=urn:btih:7EC2DC4F28650C65154E49190A2372F99ACFCE78&dn=Candy+Shoot+HD+%5BChance%5D+v1.1.0&tr=udp%3A%2F%2Ftracker.coppersurfer.tk%3A6969%2Fannounce&tr=udp%3A%2F%2F9.rarbg.to%3A2920%2Fannounce&tr=udp%3A%2F%2Ftracker.opentrackr.org%3A1337&tr=udp%3A%2F%2Ftracker.internetwarriors.net%3A1337%2Fannounce&tr=udp%3A%2F%2Ftracker.leechers-paradise.org%3A6969%2Fannounce&tr=udp%3A%2F%2Ftracker.coppersurfer.tk%3A6969%2Fannounce&tr=udp%3A%2F%2Ftracker.pirateparty.gr%3A6969%2Fannounce&tr=udp%3A%2F%2Ftracker.cyberia.is%3A6969%2Fannounce",
        "seeder": "2",
        "leecher": "0"
    },
    {
        "rank": "10",
        "title": "The World Ends with You: Solo Remix ipad.ipod.iphone",
        "link": "magnet:?xt=urn:btih:B96200211DC29A111E31FD1638D855DC8F83A822&dn=The+World+Ends+with+You%3A+Solo+Remix+ipad.ipod.iphone&tr=udp%3A%2F%2Ftracker.coppersurfer.tk%3A6969%2Fannounce&tr=udp%3A%2F%2F9.rarbg.to%3A2920%2Fannounce&tr=udp%3A%2F%2Ftracker.opentrackr.org%3A1337&tr=udp%3A%2F%2Ftracker.internetwarriors.net%3A1337%2Fannounce&tr=udp%3A%2F%2Ftracker.leechers-paradise.org%3A6969%2Fannounce&tr=udp%3A%2F%2Ftracker.coppersurfer.tk%3A6969%2Fannounce&tr=udp%3A%2F%2Ftracker.pirateparty.gr%3A6969%2Fannounce&tr=udp%3A%2F%2Ftracker.cyberia.is%3A6969%2Fannounce",
        "seeder": "2",
        "leecher": "0"
    },
    {
        "rank": "11",
        "title": "Kinectimals ipod.ipad.iphone",
        "link": "magnet:?xt=urn:btih:A6E4D0C449C5C8BDE3BB73B188DCAC64E0974228&dn=Kinectimals+ipod.ipad.iphone&tr=udp%3A%2F%2Ftracker.coppersurfer.tk%3A6969%2Fannounce&tr=udp%3A%2F%2F9.rarbg.to%3A2920%2Fannounce&tr=udp%3A%2F%2Ftracker.opentrackr.org%3A1337&tr=udp%3A%2F%2Ftracker.internetwarriors.net%3A1337%2Fannounce&tr=udp%3A%2F%2Ftracker.leechers-paradise.org%3A6969%2Fannounce&tr=udp%3A%2F%2Ftracker.coppersurfer.tk%3A6969%2Fannounce&tr=udp%3A%2F%2Ftracker.pirateparty.gr%3A6969%2Fannounce&tr=udp%3A%2F%2Ftracker.cyberia.is%3A6969%2Fannounce",
        "seeder": "2",
        "leecher": "0"
    },
    {
        "rank": "12",
        "title": "iBackgammon [Intent Software] v2.0",
        "link": "magnet:?xt=urn:btih:115971B3FA190B331B628971962D68D87CBEEEEB&dn=iBackgammon+%5BIntent+Software%5D+v2.0&tr=udp%3A%2F%2Ftracker.coppersurfer.tk%3A6969%2Fannounce&tr=udp%3A%2F%2F9.rarbg.to%3A2920%2Fannounce&tr=udp%3A%2F%2Ftracker.opentrackr.org%3A1337&tr=udp%3A%2F%2Ftracker.internetwarriors.net%3A1337%2Fannounce&tr=udp%3A%2F%2Ftracker.leechers-paradise.org%3A6969%2Fannounce&tr=udp%3A%2F%2Ftracker.coppersurfer.tk%3A6969%2Fannounce&tr=udp%3A%2F%2Ftracker.pirateparty.gr%3A6969%2Fannounce&tr=udp%3A%2F%2Ftracker.cyberia.is%3A6969%2Fannounce",
        "seeder": "2",
        "leecher": "0"
    },
    {
        "rank": "13",
        "title": "Go Ninja HDipod.ipad.iphone",
        "link": "magnet:?xt=urn:btih:50CE88C7BC50BDC801DED7000FCABDD670CC0EBA&dn=Go+Ninja+HDipod.ipad.iphone&tr=udp%3A%2F%2Ftracker.coppersurfer.tk%3A6969%2Fannounce&tr=udp%3A%2F%2F9.rarbg.to%3A2920%2Fannounce&tr=udp%3A%2F%2Ftracker.opentrackr.org%3A1337&tr=udp%3A%2F%2Ftracker.internetwarriors.net%3A1337%2Fannounce&tr=udp%3A%2F%2Ftracker.leechers-paradise.org%3A6969%2Fannounce&tr=udp%3A%2F%2Ftracker.coppersurfer.tk%3A6969%2Fannounce&tr=udp%3A%2F%2Ftracker.pirateparty.gr%3A6969%2Fannounce&tr=udp%3A%2F%2Ftracker.cyberia.is%3A6969%2Fannounce",
        "seeder": "2",
        "leecher": "0"
    },
    {
        "rank": "14",
        "title": "Lep's World 2 Plus [nerByte GmbH] v1.8",
        "link": "magnet:?xt=urn:btih:97FC9A0867BE40D0CA07E50D2D5FBB2124B23BD2&dn=Lep%27s+World+2+Plus+%5BnerByte+GmbH%5D+v1.8&tr=udp%3A%2F%2Ftracker.coppersurfer.tk%3A6969%2Fannounce&tr=udp%3A%2F%2F9.rarbg.to%3A2920%2Fannounce&tr=udp%3A%2F%2Ftracker.opentrackr.org%3A1337&tr=udp%3A%2F%2Ftracker.internetwarriors.net%3A1337%2Fannounce&tr=udp%3A%2F%2Ftracker.leechers-paradise.org%3A6969%2Fannounce&tr=udp%3A%2F%2Ftracker.coppersurfer.tk%3A6969%2Fannounce&tr=udp%3A%2F%2Ftracker.pirateparty.gr%3A6969%2Fannounce&tr=udp%3A%2F%2Ftracker.cyberia.is%3A6969%2Fannounce",
        "seeder": "2",
        "leecher": "0"
    },
    {
        "rank": "15",
        "title": "Roads of Rome iphone.ipod,ipad",
        "link": "magnet:?xt=urn:btih:60B3F5344566F62EBDD074DB3A364FBD93A0A88C&dn=Roads+of+Rome+iphone.ipod%2Cipad&tr=udp%3A%2F%2Ftracker.coppersurfer.tk%3A6969%2Fannounce&tr=udp%3A%2F%2F9.rarbg.to%3A2920%2Fannounce&tr=udp%3A%2F%2Ftracker.opentrackr.org%3A1337&tr=udp%3A%2F%2Ftracker.internetwarriors.net%3A1337%2Fannounce&tr=udp%3A%2F%2Ftracker.leechers-paradise.org%3A6969%2Fannounce&tr=udp%3A%2F%2Ftracker.coppersurfer.tk%3A6969%2Fannounce&tr=udp%3A%2F%2Ftracker.pirateparty.gr%3A6969%2Fannounce&tr=udp%3A%2F%2Ftracker.cyberia.is%3A6969%2Fannounce",
        "seeder": "2",
        "leecher": "0"
    },
    {
        "rank": "16",
        "title": "Order And Chaos Online N.Ver 1.1.2 ipod,ipad,iphone",
        "link": "magnet:?xt=urn:btih:C77AF0193EBB78A238D06A5A11A7BF2050D4F5DF&dn=Order+And+Chaos+Online+N.Ver+1.1.2+ipod%2Cipad%2Ciphone&tr=udp%3A%2F%2Ftracker.coppersurfer.tk%3A6969%2Fannounce&tr=udp%3A%2F%2F9.rarbg.to%3A2920%2Fannounce&tr=udp%3A%2F%2Ftracker.opentrackr.org%3A1337&tr=udp%3A%2F%2Ftracker.internetwarriors.net%3A1337%2Fannounce&tr=udp%3A%2F%2Ftracker.leechers-paradise.org%3A6969%2Fannounce&tr=udp%3A%2F%2Ftracker.coppersurfer.tk%3A6969%2Fannounce&tr=udp%3A%2F%2Ftracker.pirateparty.gr%3A6969%2Fannounce&tr=udp%3A%2F%2Ftracker.cyberia.is%3A6969%2Fannounce",
        "seeder": "2",
        "leecher": "0"
    },
    {
        "rank": "17",
        "title": "Final Fantasy IV 1.3.0.ipa",
        "link": "magnet:?xt=urn:btih:6FC4E228B378404D6545A51D0BFA60EEC9D2AB55&dn=Final+Fantasy+IV+1.3.0.ipa&tr=udp%3A%2F%2Ftracker.coppersurfer.tk%3A6969%2Fannounce&tr=udp%3A%2F%2F9.rarbg.to%3A2920%2Fannounce&tr=udp%3A%2F%2Ftracker.opentrackr.org%3A1337&tr=udp%3A%2F%2Ftracker.internetwarriors.net%3A1337%2Fannounce&tr=udp%3A%2F%2Ftracker.leechers-paradise.org%3A6969%2Fannounce&tr=udp%3A%2F%2Ftracker.coppersurfer.tk%3A6969%2Fannounce&tr=udp%3A%2F%2Ftracker.pirateparty.gr%3A6969%2Fannounce&tr=udp%3A%2F%2Ftracker.cyberia.is%3A6969%2Fannounce",
        "seeder": "2",
        "leecher": "0"
    },
    {
        "rank": "18",
        "title": "3D Bomb ipod.ipad.iphone",
        "link": "magnet:?xt=urn:btih:2AC54CB3C0A3C8019252B4CC096E647318104FBA&dn=3D+Bomb+ipod.ipad.iphone&tr=udp%3A%2F%2Ftracker.coppersurfer.tk%3A6969%2Fannounce&tr=udp%3A%2F%2F9.rarbg.to%3A2920%2Fannounce&tr=udp%3A%2F%2Ftracker.opentrackr.org%3A1337&tr=udp%3A%2F%2Ftracker.internetwarriors.net%3A1337%2Fannounce&tr=udp%3A%2F%2Ftracker.leechers-paradise.org%3A6969%2Fannounce&tr=udp%3A%2F%2Ftracker.coppersurfer.tk%3A6969%2Fannounce&tr=udp%3A%2F%2Ftracker.pirateparty.gr%3A6969%2Fannounce&tr=udp%3A%2F%2Ftracker.cyberia.is%3A6969%2Fannounce",
        "seeder": "2",
        "leecher": "0"
    },
    {
        "rank": "19",
        "title": "Gangstar Rio City of Saints ipod.ipad.iphone",
        "link": "magnet:?xt=urn:btih:51BAC2A95FF6C0E53BE88EC8F3698BF291B4F66B&dn=Gangstar+Rio+City+of+Saints+ipod.ipad.iphone&tr=udp%3A%2F%2Ftracker.coppersurfer.tk%3A6969%2Fannounce&tr=udp%3A%2F%2F9.rarbg.to%3A2920%2Fannounce&tr=udp%3A%2F%2Ftracker.opentrackr.org%3A1337&tr=udp%3A%2F%2Ftracker.internetwarriors.net%3A1337%2Fannounce&tr=udp%3A%2F%2Ftracker.leechers-paradise.org%3A6969%2Fannounce&tr=udp%3A%2F%2Ftracker.coppersurfer.tk%3A6969%2Fannounce&tr=udp%3A%2F%2Ftracker.pirateparty.gr%3A6969%2Fannounce&tr=udp%3A%2F%2Ftracker.cyberia.is%3A6969%2Fannounce",
        "seeder": "2",
        "leecher": "0"
    },
    {
        "rank": "20",
        "title": "Rome and Egypt HD Slot Machine ipod.ipad.iphone",
        "link": "magnet:?xt=urn:btih:502370A083FD447781E9937580F9D0013076FEDB&dn=Rome+and+Egypt+HD+Slot+Machine+ipod.ipad.iphone&tr=udp%3A%2F%2Ftracker.coppersurfer.tk%3A6969%2Fannounce&tr=udp%3A%2F%2F9.rarbg.to%3A2920%2Fannounce&tr=udp%3A%2F%2Ftracker.opentrackr.org%3A1337&tr=udp%3A%2F%2Ftracker.internetwarriors.net%3A1337%2Fannounce&tr=udp%3A%2F%2Ftracker.leechers-paradise.org%3A6969%2Fannounce&tr=udp%3A%2F%2Ftracker.coppersurfer.tk%3A6969%2Fannounce&tr=udp%3A%2F%2Ftracker.pirateparty.gr%3A6969%2Fannounce&tr=udp%3A%2F%2Ftracker.cyberia.is%3A6969%2Fannounce",
        "seeder": "2",
        "leecher": "0"
    },
    {
        "rank": "21",
        "title": "Throne on Fire ipod.ipad.iphone",
        "link": "magnet:?xt=urn:btih:97D04719C553A72625100D6E3A0FC5F248BE6411&dn=Throne+on+Fire+ipod.ipad.iphone&tr=udp%3A%2F%2Ftracker.coppersurfer.tk%3A6969%2Fannounce&tr=udp%3A%2F%2F9.rarbg.to%3A2920%2Fannounce&tr=udp%3A%2F%2Ftracker.opentrackr.org%3A1337&tr=udp%3A%2F%2Ftracker.internetwarriors.net%3A1337%2Fannounce&tr=udp%3A%2F%2Ftracker.leechers-paradise.org%3A6969%2Fannounce&tr=udp%3A%2F%2Ftracker.coppersurfer.tk%3A6969%2Fannounce&tr=udp%3A%2F%2Ftracker.pirateparty.gr%3A6969%2Fannounce&tr=udp%3A%2F%2Ftracker.cyberia.is%3A6969%2Fannounce",
        "seeder": "2",
        "leecher": "0"
    },
    {
        "rank": "22",
        "title": "Zuma's Revenge! HD ipod.ipad.iphone",
        "link": "magnet:?xt=urn:btih:FD5ED39B6E0EC6A868DA861A779ED88767160682&dn=Zuma%27s+Revenge%21+HD+ipod.ipad.iphone&tr=udp%3A%2F%2Ftracker.coppersurfer.tk%3A6969%2Fannounce&tr=udp%3A%2F%2F9.rarbg.to%3A2920%2Fannounce&tr=udp%3A%2F%2Ftracker.opentrackr.org%3A1337&tr=udp%3A%2F%2Ftracker.internetwarriors.net%3A1337%2Fannounce&tr=udp%3A%2F%2Ftracker.leechers-paradise.org%3A6969%2Fannounce&tr=udp%3A%2F%2Ftracker.coppersurfer.tk%3A6969%2Fannounce&tr=udp%3A%2F%2Ftracker.pirateparty.gr%3A6969%2Fannounce&tr=udp%3A%2F%2Ftracker.cyberia.is%3A6969%2Fannounce",
        "seeder": "1",
        "leecher": "0"
    },
    {
        "rank": "23",
        "title": "Spore Origins ipod.ipad.iphone",
        "link": "magnet:?xt=urn:btih:620DFD8DB22A98AF6A4B9CA8FA8221C9EDABF08D&dn=Spore+Origins+ipod.ipad.iphone&tr=udp%3A%2F%2Ftracker.coppersurfer.tk%3A6969%2Fannounce&tr=udp%3A%2F%2F9.rarbg.to%3A2920%2Fannounce&tr=udp%3A%2F%2Ftracker.opentrackr.org%3A1337&tr=udp%3A%2F%2Ftracker.internetwarriors.net%3A1337%2Fannounce&tr=udp%3A%2F%2Ftracker.leechers-paradise.org%3A6969%2Fannounce&tr=udp%3A%2F%2Ftracker.coppersurfer.tk%3A6969%2Fannounce&tr=udp%3A%2F%2Ftracker.pirateparty.gr%3A6969%2Fannounce&tr=udp%3A%2F%2Ftracker.cyberia.is%3A6969%2Fannounce",
        "seeder": "1",
        "leecher": "0"
    },
    {
        "rank": "24",
        "title": "Angry Birds Space ipod,ipad,iphone",
        "link": "magnet:?xt=urn:btih:D0393C907AEEAE8511B0994BAE43DD3AE2901FD9&dn=Angry+Birds+Space+ipod%2Cipad%2Ciphone&tr=udp%3A%2F%2Ftracker.coppersurfer.tk%3A6969%2Fannounce&tr=udp%3A%2F%2F9.rarbg.to%3A2920%2Fannounce&tr=udp%3A%2F%2Ftracker.opentrackr.org%3A1337&tr=udp%3A%2F%2Ftracker.internetwarriors.net%3A1337%2Fannounce&tr=udp%3A%2F%2Ftracker.leechers-paradise.org%3A6969%2Fannounce&tr=udp%3A%2F%2Ftracker.coppersurfer.tk%3A6969%2Fannounce&tr=udp%3A%2F%2Ftracker.pirateparty.gr%3A6969%2Fannounce&tr=udp%3A%2F%2Ftracker.cyberia.is%3A6969%2Fannounce",
        "seeder": "1",
        "leecher": "0"
    },
    {
        "rank": "25",
        "title": "Dragon Ball ZX ipod.ipad.iphone",
        "link": "magnet:?xt=urn:btih:92F128E45845320B2608E44412B0F87A7A339671&dn=Dragon+Ball+ZX+ipod.ipad.iphone&tr=udp%3A%2F%2Ftracker.coppersurfer.tk%3A6969%2Fannounce&tr=udp%3A%2F%2F9.rarbg.to%3A2920%2Fannounce&tr=udp%3A%2F%2Ftracker.opentrackr.org%3A1337&tr=udp%3A%2F%2Ftracker.internetwarriors.net%3A1337%2Fannounce&tr=udp%3A%2F%2Ftracker.leechers-paradise.org%3A6969%2Fannounce&tr=udp%3A%2F%2Ftracker.coppersurfer.tk%3A6969%2Fannounce&tr=udp%3A%2F%2Ftracker.pirateparty.gr%3A6969%2Fannounce&tr=udp%3A%2F%2Ftracker.cyberia.is%3A6969%2Fannounce",
        "seeder": "1",
        "leecher": "0"
    },
    {
        "rank": "26",
        "title": "Race illegal: High Speed 3D ipod.iphone.ipad",
        "link": "magnet:?xt=urn:btih:AB05797FA4E56C4679C934A65718AA5DAB585AB8&dn=Race+illegal%3A+High+Speed+3D+ipod.iphone.ipad&tr=udp%3A%2F%2Ftracker.coppersurfer.tk%3A6969%2Fannounce&tr=udp%3A%2F%2F9.rarbg.to%3A2920%2Fannounce&tr=udp%3A%2F%2Ftracker.opentrackr.org%3A1337&tr=udp%3A%2F%2Ftracker.internetwarriors.net%3A1337%2Fannounce&tr=udp%3A%2F%2Ftracker.leechers-paradise.org%3A6969%2Fannounce&tr=udp%3A%2F%2Ftracker.coppersurfer.tk%3A6969%2Fannounce&tr=udp%3A%2F%2Ftracker.pirateparty.gr%3A6969%2Fannounce&tr=udp%3A%2F%2Ftracker.cyberia.is%3A6969%2Fannounce",
        "seeder": "1",
        "leecher": "0"
    },
    {
        "rank": "27",
        "title": "Fibble for iPhone/iPod Touch",
        "link": "magnet:?xt=urn:btih:1FEDA318BD00E2441DD7BA5E6ED95808FED41CEC&dn=Fibble+for+iPhone%2FiPod+Touch&tr=udp%3A%2F%2Ftracker.coppersurfer.tk%3A6969%2Fannounce&tr=udp%3A%2F%2F9.rarbg.to%3A2920%2Fannounce&tr=udp%3A%2F%2Ftracker.opentrackr.org%3A1337&tr=udp%3A%2F%2Ftracker.internetwarriors.net%3A1337%2Fannounce&tr=udp%3A%2F%2Ftracker.leechers-paradise.org%3A6969%2Fannounce&tr=udp%3A%2F%2Ftracker.coppersurfer.tk%3A6969%2Fannounce&tr=udp%3A%2F%2Ftracker.pirateparty.gr%3A6969%2Fannounce&tr=udp%3A%2F%2Ftracker.cyberia.is%3A6969%2Fannounce",
        "seeder": "1",
        "leecher": "0"
    },
    {
        "rank": "28",
        "title": "IDOL TOWER HD ipod.ipad.iphone",
        "link": "magnet:?xt=urn:btih:73EAB43A1A960DADC2C6DEA492609B0443F80A59&dn=IDOL+TOWER+HD+ipod.ipad.iphone&tr=udp%3A%2F%2Ftracker.coppersurfer.tk%3A6969%2Fannounce&tr=udp%3A%2F%2F9.rarbg.to%3A2920%2Fannounce&tr=udp%3A%2F%2Ftracker.opentrackr.org%3A1337&tr=udp%3A%2F%2Ftracker.internetwarriors.net%3A1337%2Fannounce&tr=udp%3A%2F%2Ftracker.leechers-paradise.org%3A6969%2Fannounce&tr=udp%3A%2F%2Ftracker.coppersurfer.tk%3A6969%2Fannounce&tr=udp%3A%2F%2Ftracker.pirateparty.gr%3A6969%2Fannounce&tr=udp%3A%2F%2Ftracker.cyberia.is%3A6969%2Fannounce",
        "seeder": "1",
        "leecher": "0"
    },
    {
        "rank": "29",
        "title": "Final Fantasy III ipod.ipad.iphone",
        "link": "magnet:?xt=urn:btih:F7B3D0F1EF7A1841290EB0BE54EB5E6616C5CA97&dn=Final+Fantasy+III+ipod.ipad.iphone&tr=udp%3A%2F%2Ftracker.coppersurfer.tk%3A6969%2Fannounce&tr=udp%3A%2F%2F9.rarbg.to%3A2920%2Fannounce&tr=udp%3A%2F%2Ftracker.opentrackr.org%3A1337&tr=udp%3A%2F%2Ftracker.internetwarriors.net%3A1337%2Fannounce&tr=udp%3A%2F%2Ftracker.leechers-paradise.org%3A6969%2Fannounce&tr=udp%3A%2F%2Ftracker.coppersurfer.tk%3A6969%2Fannounce&tr=udp%3A%2F%2Ftracker.pirateparty.gr%3A6969%2Fannounce&tr=udp%3A%2F%2Ftracker.cyberia.is%3A6969%2Fannounce",
        "seeder": "1",
        "leecher": "0"
    },
    {
        "rank": "30",
        "title": "Trial Xtreme 2 Winter Edition",
        "link": "magnet:?xt=urn:btih:29CF4E44B7579FF2F30FF6890457C56A80EC38DE&dn=Trial+Xtreme+2+Winter+Edition&tr=udp%3A%2F%2Ftracker.coppersurfer.tk%3A6969%2Fannounce&tr=udp%3A%2F%2F9.rarbg.to%3A2920%2Fannounce&tr=udp%3A%2F%2Ftracker.opentrackr.org%3A1337&tr=udp%3A%2F%2Ftracker.internetwarriors.net%3A1337%2Fannounce&tr=udp%3A%2F%2Ftracker.leechers-paradise.org%3A6969%2Fannounce&tr=udp%3A%2F%2Ftracker.coppersurfer.tk%3A6969%2Fannounce&tr=udp%3A%2F%2Ftracker.pirateparty.gr%3A6969%2Fannounce&tr=udp%3A%2F%2Ftracker.cyberia.is%3A6969%2Fannounce",
        "seeder": "1",
        "leecher": "0"
    },
    {
        "rank": "31",
        "title": "Artillery Brigade",
        "link": "magnet:?xt=urn:btih:8DA630543D101F36E6A0C466397F93BF4C9DA97A&dn=Artillery+Brigade&tr=udp%3A%2F%2Ftracker.coppersurfer.tk%3A6969%2Fannounce&tr=udp%3A%2F%2F9.rarbg.to%3A2920%2Fannounce&tr=udp%3A%2F%2Ftracker.opentrackr.org%3A1337&tr=udp%3A%2F%2Ftracker.internetwarriors.net%3A1337%2Fannounce&tr=udp%3A%2F%2Ftracker.leechers-paradise.org%3A6969%2Fannounce&tr=udp%3A%2F%2Ftracker.coppersurfer.tk%3A6969%2Fannounce&tr=udp%3A%2F%2Ftracker.pirateparty.gr%3A6969%2Fannounce&tr=udp%3A%2F%2Ftracker.cyberia.is%3A6969%2Fannounce",
        "seeder": "1",
        "leecher": "0"
    },
    {
        "rank": "32",
        "title": "Walking Dead: The Game",
        "link": "magnet:?xt=urn:btih:F375234530B5885DB4B8B8CC78D18DBE56162DCA&dn=Walking+Dead%3A+The+Game&tr=udp%3A%2F%2Ftracker.coppersurfer.tk%3A6969%2Fannounce&tr=udp%3A%2F%2F9.rarbg.to%3A2920%2Fannounce&tr=udp%3A%2F%2Ftracker.opentrackr.org%3A1337&tr=udp%3A%2F%2Ftracker.internetwarriors.net%3A1337%2Fannounce&tr=udp%3A%2F%2Ftracker.leechers-paradise.org%3A6969%2Fannounce&tr=udp%3A%2F%2Ftracker.coppersurfer.tk%3A6969%2Fannounce&tr=udp%3A%2F%2Ftracker.pirateparty.gr%3A6969%2Fannounce&tr=udp%3A%2F%2Ftracker.cyberia.is%3A6969%2Fannounce",
        "seeder": "1",
        "leecher": "0"
    },
    {
        "rank": "33",
        "title": "Angry Birds Star Wars II v1.3.0.dvt",
        "link": "magnet:?xt=urn:btih:308754DAB492519A447C1F492C6277A981FD6B89&dn=Angry+Birds+Star+Wars+II+v1.3.0.dvt&tr=udp%3A%2F%2Ftracker.coppersurfer.tk%3A6969%2Fannounce&tr=udp%3A%2F%2F9.rarbg.to%3A2920%2Fannounce&tr=udp%3A%2F%2Ftracker.opentrackr.org%3A1337&tr=udp%3A%2F%2Ftracker.internetwarriors.net%3A1337%2Fannounce&tr=udp%3A%2F%2Ftracker.leechers-paradise.org%3A6969%2Fannounce&tr=udp%3A%2F%2Ftracker.coppersurfer.tk%3A6969%2Fannounce&tr=udp%3A%2F%2Ftracker.pirateparty.gr%3A6969%2Fannounce&tr=udp%3A%2F%2Ftracker.cyberia.is%3A6969%2Fannounce",
        "seeder": "1",
        "leecher": "0"
    },
    {
        "rank": "34",
        "title": "Speedwa 2012 ipod.ipad.iphone",
        "link": "magnet:?xt=urn:btih:3ECC9DEA096152CD33FEDB5460B95ED3720948C7&dn=Speedwa+2012+ipod.ipad.iphone&tr=udp%3A%2F%2Ftracker.coppersurfer.tk%3A6969%2Fannounce&tr=udp%3A%2F%2F9.rarbg.to%3A2920%2Fannounce&tr=udp%3A%2F%2Ftracker.opentrackr.org%3A1337&tr=udp%3A%2F%2Ftracker.internetwarriors.net%3A1337%2Fannounce&tr=udp%3A%2F%2Ftracker.leechers-paradise.org%3A6969%2Fannounce&tr=udp%3A%2F%2Ftracker.coppersurfer.tk%3A6969%2Fannounce&tr=udp%3A%2F%2Ftracker.pirateparty.gr%3A6969%2Fannounce&tr=udp%3A%2F%2Ftracker.cyberia.is%3A6969%2Fannounce",
        "seeder": "1",
        "leecher": "0"
    },
    {
        "rank": "35",
        "title": "Woody Woodpecker ipod.ipad.iphone",
        "link": "magnet:?xt=urn:btih:4BBC00A32B925B257431B822556087D68CA15A4F&dn=Woody+Woodpecker+ipod.ipad.iphone&tr=udp%3A%2F%2Ftracker.coppersurfer.tk%3A6969%2Fannounce&tr=udp%3A%2F%2F9.rarbg.to%3A2920%2Fannounce&tr=udp%3A%2F%2Ftracker.opentrackr.org%3A1337&tr=udp%3A%2F%2Ftracker.internetwarriors.net%3A1337%2Fannounce&tr=udp%3A%2F%2Ftracker.leechers-paradise.org%3A6969%2Fannounce&tr=udp%3A%2F%2Ftracker.coppersurfer.tk%3A6969%2Fannounce&tr=udp%3A%2F%2Ftracker.pirateparty.gr%3A6969%2Fannounce&tr=udp%3A%2F%2Ftracker.cyberia.is%3A6969%2Fannounce",
        "seeder": "1",
        "leecher": "0"
    },
    {
        "rank": "36",
        "title": "GTA III iphone.ipad",
        "link": "magnet:?xt=urn:btih:90CBA2AC7508589425DA3C33E4F4F9C3AAD3EFD8&dn=GTA+III+iphone.ipad&tr=udp%3A%2F%2Ftracker.coppersurfer.tk%3A6969%2Fannounce&tr=udp%3A%2F%2F9.rarbg.to%3A2920%2Fannounce&tr=udp%3A%2F%2Ftracker.opentrackr.org%3A1337&tr=udp%3A%2F%2Ftracker.internetwarriors.net%3A1337%2Fannounce&tr=udp%3A%2F%2Ftracker.leechers-paradise.org%3A6969%2Fannounce&tr=udp%3A%2F%2Ftracker.coppersurfer.tk%3A6969%2Fannounce&tr=udp%3A%2F%2Ftracker.pirateparty.gr%3A6969%2Fannounce&tr=udp%3A%2F%2Ftracker.cyberia.is%3A6969%2Fannounce",
        "seeder": "1",
        "leecher": "0"
    },
    {
        "rank": "37",
        "title": "Rovio.Mobile.Ltd.Angry.Birds.Seasons.v2.3.0.iPad.iPhone.iPod.Tou",
        "link": "magnet:?xt=urn:btih:DF717D88F017B7019EAB8E6530390AAE441B2132&dn=Rovio.Mobile.Ltd.Angry.Birds.Seasons.v2.3.0.iPad.iPhone.iPod.Tou&tr=udp%3A%2F%2Ftracker.coppersurfer.tk%3A6969%2Fannounce&tr=udp%3A%2F%2F9.rarbg.to%3A2920%2Fannounce&tr=udp%3A%2F%2Ftracker.opentrackr.org%3A1337&tr=udp%3A%2F%2Ftracker.internetwarriors.net%3A1337%2Fannounce&tr=udp%3A%2F%2Ftracker.leechers-paradise.org%3A6969%2Fannounce&tr=udp%3A%2F%2Ftracker.coppersurfer.tk%3A6969%2Fannounce&tr=udp%3A%2F%2Ftracker.pirateparty.gr%3A6969%2Fannounce&tr=udp%3A%2F%2Ftracker.cyberia.is%3A6969%2Fannounce",
        "seeder": "1",
        "leecher": "0"
    },
    {
        "rank": "38",
        "title": "Shinobi III: Return of the Ninja Master ipod.ipad.iphone",
        "link": "magnet:?xt=urn:btih:52A74313A4A79E465D38A6FB792D8C87BF03A3B1&dn=Shinobi+III%3A+Return+of+the+Ninja+Master+ipod.ipad.iphone&tr=udp%3A%2F%2Ftracker.coppersurfer.tk%3A6969%2Fannounce&tr=udp%3A%2F%2F9.rarbg.to%3A2920%2Fannounce&tr=udp%3A%2F%2Ftracker.opentrackr.org%3A1337&tr=udp%3A%2F%2Ftracker.internetwarriors.net%3A1337%2Fannounce&tr=udp%3A%2F%2Ftracker.leechers-paradise.org%3A6969%2Fannounce&tr=udp%3A%2F%2Ftracker.coppersurfer.tk%3A6969%2Fannounce&tr=udp%3A%2F%2Ftracker.pirateparty.gr%3A6969%2Fannounce&tr=udp%3A%2F%2Ftracker.cyberia.is%3A6969%2Fannounce",
        "seeder": "1",
        "leecher": "0"
    },
    {
        "rank": "39",
        "title": "Asphalt 8 Airborne 1.3.0.ipa",
        "link": "magnet:?xt=urn:btih:D584BEB98977106B22676C53AFF6B3B2C5818BD2&dn=Asphalt+8+Airborne+1.3.0.ipa&tr=udp%3A%2F%2Ftracker.coppersurfer.tk%3A6969%2Fannounce&tr=udp%3A%2F%2F9.rarbg.to%3A2920%2Fannounce&tr=udp%3A%2F%2Ftracker.opentrackr.org%3A1337&tr=udp%3A%2F%2Ftracker.internetwarriors.net%3A1337%2Fannounce&tr=udp%3A%2F%2Ftracker.leechers-paradise.org%3A6969%2Fannounce&tr=udp%3A%2F%2Ftracker.coppersurfer.tk%3A6969%2Fannounce&tr=udp%3A%2F%2Ftracker.pirateparty.gr%3A6969%2Fannounce&tr=udp%3A%2F%2Ftracker.cyberia.is%3A6969%2Fannounce",
        "seeder": "1",
        "leecher": "0"
    },
    {
        "rank": "40",
        "title": "Monsters Run v1.0.0 CRACKED (iPhone/iPad) {AppleGuider}",
        "link": "magnet:?xt=urn:btih:4DB0E7F08394997B7ED7C8E912200F7B752FF649&dn=Monsters+Run+v1.0.0+CRACKED+%28iPhone%2FiPad%29+%7BAppleGuider%7D&tr=udp%3A%2F%2Ftracker.coppersurfer.tk%3A6969%2Fannounce&tr=udp%3A%2F%2F9.rarbg.to%3A2920%2Fannounce&tr=udp%3A%2F%2Ftracker.opentrackr.org%3A1337&tr=udp%3A%2F%2Ftracker.internetwarriors.net%3A1337%2Fannounce&tr=udp%3A%2F%2Ftracker.leechers-paradise.org%3A6969%2Fannounce&tr=udp%3A%2F%2Ftracker.coppersurfer.tk%3A6969%2Fannounce&tr=udp%3A%2F%2Ftracker.pirateparty.gr%3A6969%2Fannounce&tr=udp%3A%2F%2Ftracker.cyberia.is%3A6969%2Fannounce",
        "seeder": "1",
        "leecher": "0"
    },
    {
        "rank": "41",
        "title": "Wild Blood ipod,ipad,iphone",
        "link": "magnet:?xt=urn:btih:815574784008247C197F0484592435455DA7AFB9&dn=Wild+Blood+ipod%2Cipad%2Ciphone&tr=udp%3A%2F%2Ftracker.coppersurfer.tk%3A6969%2Fannounce&tr=udp%3A%2F%2F9.rarbg.to%3A2920%2Fannounce&tr=udp%3A%2F%2Ftracker.opentrackr.org%3A1337&tr=udp%3A%2F%2Ftracker.internetwarriors.net%3A1337%2Fannounce&tr=udp%3A%2F%2Ftracker.leechers-paradise.org%3A6969%2Fannounce&tr=udp%3A%2F%2Ftracker.coppersurfer.tk%3A6969%2Fannounce&tr=udp%3A%2F%2Ftracker.pirateparty.gr%3A6969%2Fannounce&tr=udp%3A%2F%2Ftracker.cyberia.is%3A6969%2Fannounce",
        "seeder": "1",
        "leecher": "0"
    },
    {
        "rank": "42",
        "title": "FLAPPY BIRD APP : FOR IPHONE/IPAD",
        "link": "magnet:?xt=urn:btih:EA8D90C6CE84859C176E24EAEE06B5D578B484E3&dn=FLAPPY+BIRD+APP+%3A+FOR+IPHONE%2FIPAD&tr=udp%3A%2F%2Ftracker.coppersurfer.tk%3A6969%2Fannounce&tr=udp%3A%2F%2F9.rarbg.to%3A2920%2Fannounce&tr=udp%3A%2F%2Ftracker.opentrackr.org%3A1337&tr=udp%3A%2F%2Ftracker.internetwarriors.net%3A1337%2Fannounce&tr=udp%3A%2F%2Ftracker.leechers-paradise.org%3A6969%2Fannounce&tr=udp%3A%2F%2Ftracker.coppersurfer.tk%3A6969%2Fannounce&tr=udp%3A%2F%2Ftracker.pirateparty.gr%3A6969%2Fannounce&tr=udp%3A%2F%2Ftracker.cyberia.is%3A6969%2Fannounce",
        "seeder": "1",
        "leecher": "0"
    },
    {
        "rank": "43",
        "title": "The Amazing Spider-Man: An Origin Story ipod.ipad.iphone",
        "link": "magnet:?xt=urn:btih:389B48805BB0003FE837C3888814DEF1EFD71F7B&dn=The+Amazing+Spider-Man%3A+An+Origin+Story+ipod.ipad.iphone&tr=udp%3A%2F%2Ftracker.coppersurfer.tk%3A6969%2Fannounce&tr=udp%3A%2F%2F9.rarbg.to%3A2920%2Fannounce&tr=udp%3A%2F%2Ftracker.opentrackr.org%3A1337&tr=udp%3A%2F%2Ftracker.internetwarriors.net%3A1337%2Fannounce&tr=udp%3A%2F%2Ftracker.leechers-paradise.org%3A6969%2Fannounce&tr=udp%3A%2F%2Ftracker.coppersurfer.tk%3A6969%2Fannounce&tr=udp%3A%2F%2Ftracker.pirateparty.gr%3A6969%2Fannounce&tr=udp%3A%2F%2Ftracker.cyberia.is%3A6969%2Fannounce",
        "seeder": "1",
        "leecher": "0"
    },
    {
        "rank": "44",
        "title": "Doodle Jump v3.5.3",
        "link": "magnet:?xt=urn:btih:EEA097C669F8AC94BB7C38F7D0BDA153EFE42CFA&dn=Doodle+Jump+v3.5.3&tr=udp%3A%2F%2Ftracker.coppersurfer.tk%3A6969%2Fannounce&tr=udp%3A%2F%2F9.rarbg.to%3A2920%2Fannounce&tr=udp%3A%2F%2Ftracker.opentrackr.org%3A1337&tr=udp%3A%2F%2Ftracker.internetwarriors.net%3A1337%2Fannounce&tr=udp%3A%2F%2Ftracker.leechers-paradise.org%3A6969%2Fannounce&tr=udp%3A%2F%2Ftracker.coppersurfer.tk%3A6969%2Fannounce&tr=udp%3A%2F%2Ftracker.pirateparty.gr%3A6969%2Fannounce&tr=udp%3A%2F%2Ftracker.cyberia.is%3A6969%2Fannounce",
        "seeder": "1",
        "leecher": "0"
    },
    {
        "rank": "45",
        "title": "Infinite Warrior",
        "link": "magnet:?xt=urn:btih:7B7BF8AD68FA75930162AF51264AA784EF5C3E86&dn=Infinite+Warrior&tr=udp%3A%2F%2Ftracker.coppersurfer.tk%3A6969%2Fannounce&tr=udp%3A%2F%2F9.rarbg.to%3A2920%2Fannounce&tr=udp%3A%2F%2Ftracker.opentrackr.org%3A1337&tr=udp%3A%2F%2Ftracker.internetwarriors.net%3A1337%2Fannounce&tr=udp%3A%2F%2Ftracker.leechers-paradise.org%3A6969%2Fannounce&tr=udp%3A%2F%2Ftracker.coppersurfer.tk%3A6969%2Fannounce&tr=udp%3A%2F%2Ftracker.pirateparty.gr%3A6969%2Fannounce&tr=udp%3A%2F%2Ftracker.cyberia.is%3A6969%2Fannounce",
        "seeder": "1",
        "leecher": "0"
    },
    {
        "rank": "46",
        "title": "CHAOS RINGS iphone.ipad",
        "link": "magnet:?xt=urn:btih:160062617A923C1AA0FDEC4921BA439FC54323E7&dn=CHAOS+RINGS+iphone.ipad&tr=udp%3A%2F%2Ftracker.coppersurfer.tk%3A6969%2Fannounce&tr=udp%3A%2F%2F9.rarbg.to%3A2920%2Fannounce&tr=udp%3A%2F%2Ftracker.opentrackr.org%3A1337&tr=udp%3A%2F%2Ftracker.internetwarriors.net%3A1337%2Fannounce&tr=udp%3A%2F%2Ftracker.leechers-paradise.org%3A6969%2Fannounce&tr=udp%3A%2F%2Ftracker.coppersurfer.tk%3A6969%2Fannounce&tr=udp%3A%2F%2Ftracker.pirateparty.gr%3A6969%2Fannounce&tr=udp%3A%2F%2Ftracker.cyberia.is%3A6969%2Fannounce",
        "seeder": "1",
        "leecher": "0"
    },
    {
        "rank": "47",
        "title": "The Tower v1.51.0",
        "link": "magnet:?xt=urn:btih:7530D1D44FD73DFFA1286685E85FE0827A67518C&dn=The+Tower+v1.51.0&tr=udp%3A%2F%2Ftracker.coppersurfer.tk%3A6969%2Fannounce&tr=udp%3A%2F%2F9.rarbg.to%3A2920%2Fannounce&tr=udp%3A%2F%2Ftracker.opentrackr.org%3A1337&tr=udp%3A%2F%2Ftracker.internetwarriors.net%3A1337%2Fannounce&tr=udp%3A%2F%2Ftracker.leechers-paradise.org%3A6969%2Fannounce&tr=udp%3A%2F%2Ftracker.coppersurfer.tk%3A6969%2Fannounce&tr=udp%3A%2F%2Ftracker.pirateparty.gr%3A6969%2Fannounce&tr=udp%3A%2F%2Ftracker.cyberia.is%3A6969%2Fannounce",
        "seeder": "1",
        "leecher": "0"
    },
    {
        "rank": "48",
        "title": "SOULCALIBUR IPA iPhone,iPad",
        "link": "magnet:?xt=urn:btih:5DD4C1312B816FF33C453878B19FE52A64A5E262&dn=SOULCALIBUR+IPA+iPhone%2CiPad&tr=udp%3A%2F%2Ftracker.coppersurfer.tk%3A6969%2Fannounce&tr=udp%3A%2F%2F9.rarbg.to%3A2920%2Fannounce&tr=udp%3A%2F%2Ftracker.opentrackr.org%3A1337&tr=udp%3A%2F%2Ftracker.internetwarriors.net%3A1337%2Fannounce&tr=udp%3A%2F%2Ftracker.leechers-paradise.org%3A6969%2Fannounce&tr=udp%3A%2F%2Ftracker.coppersurfer.tk%3A6969%2Fannounce&tr=udp%3A%2F%2Ftracker.pirateparty.gr%3A6969%2Fannounce&tr=udp%3A%2F%2Ftracker.cyberia.is%3A6969%2Fannounce",
        "seeder": "1",
        "leecher": "0"
    },
    {
        "rank": "49",
        "title": "SHADOWGUN ipod.ipad.iphone",
        "link": "magnet:?xt=urn:btih:E41149EC36D249D1345D771C83D5DF60DED6B543&dn=SHADOWGUN+ipod.ipad.iphone&tr=udp%3A%2F%2Ftracker.coppersurfer.tk%3A6969%2Fannounce&tr=udp%3A%2F%2F9.rarbg.to%3A2920%2Fannounce&tr=udp%3A%2F%2Ftracker.opentrackr.org%3A1337&tr=udp%3A%2F%2Ftracker.internetwarriors.net%3A1337%2Fannounce&tr=udp%3A%2F%2Ftracker.leechers-paradise.org%3A6969%2Fannounce&tr=udp%3A%2F%2Ftracker.coppersurfer.tk%3A6969%2Fannounce&tr=udp%3A%2F%2Ftracker.pirateparty.gr%3A6969%2Fannounce&tr=udp%3A%2F%2Ftracker.cyberia.is%3A6969%2Fannounce",
        "seeder": "1",
        "leecher": "0"
    },
    {
        "rank": "50",
        "title": "Chaos Rings II [mindcrasher]",
        "link": "magnet:?xt=urn:btih:078FF3522D562FCC85FB3982F0062A50900E1914&dn=Chaos+Rings+II+%5Bmindcrasher%5D&tr=udp%3A%2F%2Ftracker.coppersurfer.tk%3A6969%2Fannounce&tr=udp%3A%2F%2F9.rarbg.to%3A2920%2Fannounce&tr=udp%3A%2F%2Ftracker.opentrackr.org%3A1337&tr=udp%3A%2F%2Ftracker.internetwarriors.net%3A1337%2Fannounce&tr=udp%3A%2F%2Ftracker.leechers-paradise.org%3A6969%2Fannounce&tr=udp%3A%2F%2Ftracker.coppersurfer.tk%3A6969%2Fannounce&tr=udp%3A%2F%2Ftracker.pirateparty.gr%3A6969%2Fannounce&tr=udp%3A%2F%2Ftracker.cyberia.is%3A6969%2Fannounce",
        "seeder": "1",
        "leecher": "0"
    },
    {
        "rank": "51",
        "title": "Where's My Water? v1.3.6 ipod.iphone.ipad",
        "link": "magnet:?xt=urn:btih:CEC70E6B0F2FF33E41455F7352F442416AD7F7F2&dn=Where%27s+My+Water%3F+v1.3.6+ipod.iphone.ipad&tr=udp%3A%2F%2Ftracker.coppersurfer.tk%3A6969%2Fannounce&tr=udp%3A%2F%2F9.rarbg.to%3A2920%2Fannounce&tr=udp%3A%2F%2Ftracker.opentrackr.org%3A1337&tr=udp%3A%2F%2Ftracker.internetwarriors.net%3A1337%2Fannounce&tr=udp%3A%2F%2Ftracker.leechers-paradise.org%3A6969%2Fannounce&tr=udp%3A%2F%2Ftracker.coppersurfer.tk%3A6969%2Fannounce&tr=udp%3A%2F%2Ftracker.pirateparty.gr%3A6969%2Fannounce&tr=udp%3A%2F%2Ftracker.cyberia.is%3A6969%2Fannounce",
        "seeder": "1",
        "leecher": "0"
    },
    {
        "rank": "52",
        "title": "Dead Raid ipod.ipad.iphone",
        "link": "magnet:?xt=urn:btih:22FEFDD8C17FA701BAFDDD5AC75A2C5C255F2D95&dn=Dead+Raid+ipod.ipad.iphone&tr=udp%3A%2F%2Ftracker.coppersurfer.tk%3A6969%2Fannounce&tr=udp%3A%2F%2F9.rarbg.to%3A2920%2Fannounce&tr=udp%3A%2F%2Ftracker.opentrackr.org%3A1337&tr=udp%3A%2F%2Ftracker.internetwarriors.net%3A1337%2Fannounce&tr=udp%3A%2F%2Ftracker.leechers-paradise.org%3A6969%2Fannounce&tr=udp%3A%2F%2Ftracker.coppersurfer.tk%3A6969%2Fannounce&tr=udp%3A%2F%2Ftracker.pirateparty.gr%3A6969%2Fannounce&tr=udp%3A%2F%2Ftracker.cyberia.is%3A6969%2Fannounce",
        "seeder": "1",
        "leecher": "0"
    },
    {
        "rank": "53",
        "title": "TRANSFORMERS: DARK OF THE MOON ipad.ipod.iphone",
        "link": "magnet:?xt=urn:btih:570D8D0E8F78ECA60723D71AF6AE5B200C8D9138&dn=TRANSFORMERS%3A+DARK+OF+THE+MOON+ipad.ipod.iphone&tr=udp%3A%2F%2Ftracker.coppersurfer.tk%3A6969%2Fannounce&tr=udp%3A%2F%2F9.rarbg.to%3A2920%2Fannounce&tr=udp%3A%2F%2Ftracker.opentrackr.org%3A1337&tr=udp%3A%2F%2Ftracker.internetwarriors.net%3A1337%2Fannounce&tr=udp%3A%2F%2Ftracker.leechers-paradise.org%3A6969%2Fannounce&tr=udp%3A%2F%2Ftracker.coppersurfer.tk%3A6969%2Fannounce&tr=udp%3A%2F%2Ftracker.pirateparty.gr%3A6969%2Fannounce&tr=udp%3A%2F%2Ftracker.cyberia.is%3A6969%2Fannounce",
        "seeder": "1",
        "leecher": "0"
    },
    {
        "rank": "54",
        "title": "DMBX 2 - Mountain Bike and BMX ipod.ipad.iphone",
        "link": "magnet:?xt=urn:btih:393707DD92D0CC9F24BE5CFFB1670EE58DB8FC96&dn=DMBX+2+-+Mountain+Bike+and+BMX+ipod.ipad.iphone&tr=udp%3A%2F%2Ftracker.coppersurfer.tk%3A6969%2Fannounce&tr=udp%3A%2F%2F9.rarbg.to%3A2920%2Fannounce&tr=udp%3A%2F%2Ftracker.opentrackr.org%3A1337&tr=udp%3A%2F%2Ftracker.internetwarriors.net%3A1337%2Fannounce&tr=udp%3A%2F%2Ftracker.leechers-paradise.org%3A6969%2Fannounce&tr=udp%3A%2F%2Ftracker.coppersurfer.tk%3A6969%2Fannounce&tr=udp%3A%2F%2Ftracker.pirateparty.gr%3A6969%2Fannounce&tr=udp%3A%2F%2Ftracker.cyberia.is%3A6969%2Fannounce",
        "seeder": "1",
        "leecher": "0"
    },
    {
        "rank": "55",
        "title": "Escape2012 ipod.ipad.iphone",
        "link": "magnet:?xt=urn:btih:BB060EE3741052A9D7565292923915BF9B2F62A1&dn=Escape2012+ipod.ipad.iphone&tr=udp%3A%2F%2Ftracker.coppersurfer.tk%3A6969%2Fannounce&tr=udp%3A%2F%2F9.rarbg.to%3A2920%2Fannounce&tr=udp%3A%2F%2Ftracker.opentrackr.org%3A1337&tr=udp%3A%2F%2Ftracker.internetwarriors.net%3A1337%2Fannounce&tr=udp%3A%2F%2Ftracker.leechers-paradise.org%3A6969%2Fannounce&tr=udp%3A%2F%2Ftracker.coppersurfer.tk%3A6969%2Fannounce&tr=udp%3A%2F%2Ftracker.pirateparty.gr%3A6969%2Fannounce&tr=udp%3A%2F%2Ftracker.cyberia.is%3A6969%2Fannounce",
        "seeder": "1",
        "leecher": "0"
    },
    {
        "rank": "56",
        "title": "Dark Fury ipod.ipad.iphone",
        "link": "magnet:?xt=urn:btih:AB9FD070C6A7B57791B19B5E13C63A9A47C1CF6A&dn=Dark+Fury+ipod.ipad.iphone&tr=udp%3A%2F%2Ftracker.coppersurfer.tk%3A6969%2Fannounce&tr=udp%3A%2F%2F9.rarbg.to%3A2920%2Fannounce&tr=udp%3A%2F%2Ftracker.opentrackr.org%3A1337&tr=udp%3A%2F%2Ftracker.internetwarriors.net%3A1337%2Fannounce&tr=udp%3A%2F%2Ftracker.leechers-paradise.org%3A6969%2Fannounce&tr=udp%3A%2F%2Ftracker.coppersurfer.tk%3A6969%2Fannounce&tr=udp%3A%2F%2Ftracker.pirateparty.gr%3A6969%2Fannounce&tr=udp%3A%2F%2Ftracker.cyberia.is%3A6969%2Fannounce",
        "seeder": "1",
        "leecher": "0"
    },
    {
        "rank": "57",
        "title": "Crazy Putt ipod.ipad.iphone",
        "link": "magnet:?xt=urn:btih:E705931D981078C0CB8873C5252E5D5F7ABA124E&dn=Crazy+Putt+ipod.ipad.iphone&tr=udp%3A%2F%2Ftracker.coppersurfer.tk%3A6969%2Fannounce&tr=udp%3A%2F%2F9.rarbg.to%3A2920%2Fannounce&tr=udp%3A%2F%2Ftracker.opentrackr.org%3A1337&tr=udp%3A%2F%2Ftracker.internetwarriors.net%3A1337%2Fannounce&tr=udp%3A%2F%2Ftracker.leechers-paradise.org%3A6969%2Fannounce&tr=udp%3A%2F%2Ftracker.coppersurfer.tk%3A6969%2Fannounce&tr=udp%3A%2F%2Ftracker.pirateparty.gr%3A6969%2Fannounce&tr=udp%3A%2F%2Ftracker.cyberia.is%3A6969%2Fannounce",
        "seeder": "1",
        "leecher": "0"
    },
    {
        "rank": "58",
        "title": "CoAtlantis-v1.0.10-Allal123.ipa",
        "link": "magnet:?xt=urn:btih:848E6DAF425C9B293A3856F9BFB79BE14628702D&dn=CoAtlantis-v1.0.10-Allal123.ipa&tr=udp%3A%2F%2Ftracker.coppersurfer.tk%3A6969%2Fannounce&tr=udp%3A%2F%2F9.rarbg.to%3A2920%2Fannounce&tr=udp%3A%2F%2Ftracker.opentrackr.org%3A1337&tr=udp%3A%2F%2Ftracker.internetwarriors.net%3A1337%2Fannounce&tr=udp%3A%2F%2Ftracker.leechers-paradise.org%3A6969%2Fannounce&tr=udp%3A%2F%2Ftracker.coppersurfer.tk%3A6969%2Fannounce&tr=udp%3A%2F%2Ftracker.pirateparty.gr%3A6969%2Fannounce&tr=udp%3A%2F%2Ftracker.cyberia.is%3A6969%2Fannounce",
        "seeder": "1",
        "leecher": "0"
    },
    {
        "rank": "59",
        "title": "Contre Jour-v1.21-Allal123.ipa",
        "link": "magnet:?xt=urn:btih:D8AF492EA786D8E199EB94D037A5AFEC3250A185&dn=Contre+Jour-v1.21-Allal123.ipa&tr=udp%3A%2F%2Ftracker.coppersurfer.tk%3A6969%2Fannounce&tr=udp%3A%2F%2F9.rarbg.to%3A2920%2Fannounce&tr=udp%3A%2F%2Ftracker.opentrackr.org%3A1337&tr=udp%3A%2F%2Ftracker.internetwarriors.net%3A1337%2Fannounce&tr=udp%3A%2F%2Ftracker.leechers-paradise.org%3A6969%2Fannounce&tr=udp%3A%2F%2Ftracker.coppersurfer.tk%3A6969%2Fannounce&tr=udp%3A%2F%2Ftracker.pirateparty.gr%3A6969%2Fannounce&tr=udp%3A%2F%2Ftracker.cyberia.is%3A6969%2Fannounce",
        "seeder": "1",
        "leecher": "0"
    },
    {
        "rank": "60",
        "title": "Highway Rider-v1-Allal123.ipa",
        "link": "magnet:?xt=urn:btih:CCE86126E91A4CCCD25F8D7FA35FD013B6094019&dn=Highway+Rider-v1-Allal123.ipa&tr=udp%3A%2F%2Ftracker.coppersurfer.tk%3A6969%2Fannounce&tr=udp%3A%2F%2F9.rarbg.to%3A2920%2Fannounce&tr=udp%3A%2F%2Ftracker.opentrackr.org%3A1337&tr=udp%3A%2F%2Ftracker.internetwarriors.net%3A1337%2Fannounce&tr=udp%3A%2F%2Ftracker.leechers-paradise.org%3A6969%2Fannounce&tr=udp%3A%2F%2Ftracker.coppersurfer.tk%3A6969%2Fannounce&tr=udp%3A%2F%2Ftracker.pirateparty.gr%3A6969%2Fannounce&tr=udp%3A%2F%2Ftracker.cyberia.is%3A6969%2Fannounce",
        "seeder": "1",
        "leecher": "0"
    },
    {
        "rank": "61",
        "title": "BMX Rider Pro [Tsai Pei Yer] v1.0 3",
        "link": "magnet:?xt=urn:btih:560849265E8D99C9A1D1C2F91D3FAB43B795C259&dn=BMX+Rider+Pro+%5BTsai+Pei+Yer%5D+v1.0+3&tr=udp%3A%2F%2Ftracker.coppersurfer.tk%3A6969%2Fannounce&tr=udp%3A%2F%2F9.rarbg.to%3A2920%2Fannounce&tr=udp%3A%2F%2Ftracker.opentrackr.org%3A1337&tr=udp%3A%2F%2Ftracker.internetwarriors.net%3A1337%2Fannounce&tr=udp%3A%2F%2Ftracker.leechers-paradise.org%3A6969%2Fannounce&tr=udp%3A%2F%2Ftracker.coppersurfer.tk%3A6969%2Fannounce&tr=udp%3A%2F%2Ftracker.pirateparty.gr%3A6969%2Fannounce&tr=udp%3A%2F%2Ftracker.cyberia.is%3A6969%2Fannounce",
        "seeder": "1",
        "leecher": "0"
    },
    {
        "rank": "62",
        "title": "Horizon Chase - World Tour v1.1.0",
        "link": "magnet:?xt=urn:btih:B0D85F70CE50291082002BE4ADD3D3D2600D491A&dn=Horizon+Chase+-+World+Tour+v1.1.0&tr=udp%3A%2F%2Ftracker.coppersurfer.tk%3A6969%2Fannounce&tr=udp%3A%2F%2F9.rarbg.to%3A2920%2Fannounce&tr=udp%3A%2F%2Ftracker.opentrackr.org%3A1337&tr=udp%3A%2F%2Ftracker.internetwarriors.net%3A1337%2Fannounce&tr=udp%3A%2F%2Ftracker.leechers-paradise.org%3A6969%2Fannounce&tr=udp%3A%2F%2Ftracker.coppersurfer.tk%3A6969%2Fannounce&tr=udp%3A%2F%2Ftracker.pirateparty.gr%3A6969%2Fannounce&tr=udp%3A%2F%2Ftracker.cyberia.is%3A6969%2Fannounce",
        "seeder": "1",
        "leecher": "0"
    },
    {
        "rank": "63",
        "title": "FaceFighter Ultimate [Appy Entertainment Inc.] v3.3",
        "link": "magnet:?xt=urn:btih:18DCD13E1064558C65D345A2216E5DB8CA585539&dn=FaceFighter+Ultimate+%5BAppy+Entertainment+Inc.%5D+v3.3&tr=udp%3A%2F%2Ftracker.coppersurfer.tk%3A6969%2Fannounce&tr=udp%3A%2F%2F9.rarbg.to%3A2920%2Fannounce&tr=udp%3A%2F%2Ftracker.opentrackr.org%3A1337&tr=udp%3A%2F%2Ftracker.internetwarriors.net%3A1337%2Fannounce&tr=udp%3A%2F%2Ftracker.leechers-paradise.org%3A6969%2Fannounce&tr=udp%3A%2F%2Ftracker.coppersurfer.tk%3A6969%2Fannounce&tr=udp%3A%2F%2Ftracker.pirateparty.gr%3A6969%2Fannounce&tr=udp%3A%2F%2Ftracker.cyberia.is%3A6969%2Fannounce",
        "seeder": "1",
        "leecher": "0"
    },
    {
        "rank": "64",
        "title": "PopCap.Plants.vs.Zombies.HD.v1.0.5.iPad.REPACK-Lz0PDA",
        "link": "magnet:?xt=urn:btih:90B0A3470650EAA53CB457AF4B4925D10429DC82&dn=PopCap.Plants.vs.Zombies.HD.v1.0.5.iPad.REPACK-Lz0PDA&tr=udp%3A%2F%2Ftracker.coppersurfer.tk%3A6969%2Fannounce&tr=udp%3A%2F%2F9.rarbg.to%3A2920%2Fannounce&tr=udp%3A%2F%2Ftracker.opentrackr.org%3A1337&tr=udp%3A%2F%2Ftracker.internetwarriors.net%3A1337%2Fannounce&tr=udp%3A%2F%2Ftracker.leechers-paradise.org%3A6969%2Fannounce&tr=udp%3A%2F%2Ftracker.coppersurfer.tk%3A6969%2Fannounce&tr=udp%3A%2F%2Ftracker.pirateparty.gr%3A6969%2Fannounce&tr=udp%3A%2F%2Ftracker.cyberia.is%3A6969%2Fannounce",
        "seeder": "1",
        "leecher": "0"
    },
    {
        "rank": "65",
        "title": "Magic Nose ipod.ipad.iphone",
        "link": "magnet:?xt=urn:btih:ABC43A4EE7700271B2726010C4727085BE1CDBEA&dn=Magic+Nose+ipod.ipad.iphone&tr=udp%3A%2F%2Ftracker.coppersurfer.tk%3A6969%2Fannounce&tr=udp%3A%2F%2F9.rarbg.to%3A2920%2Fannounce&tr=udp%3A%2F%2Ftracker.opentrackr.org%3A1337&tr=udp%3A%2F%2Ftracker.internetwarriors.net%3A1337%2Fannounce&tr=udp%3A%2F%2Ftracker.leechers-paradise.org%3A6969%2Fannounce&tr=udp%3A%2F%2Ftracker.coppersurfer.tk%3A6969%2Fannounce&tr=udp%3A%2F%2Ftracker.pirateparty.gr%3A6969%2Fannounce&tr=udp%3A%2F%2Ftracker.cyberia.is%3A6969%2Fannounce",
        "seeder": "1",
        "leecher": "0"
    },
    {
        "rank": "66",
        "title": "TETRIS\u00c2\u00ae v1.0.1 iphone.ipad",
        "link": "magnet:?xt=urn:btih:E6C8ED74FE897438F6695FD171DBFB7BEDA2CFD5&dn=TETRIS%26Acirc%3B%26reg%3B+v1.0.1+iphone.ipad&tr=udp%3A%2F%2Ftracker.coppersurfer.tk%3A6969%2Fannounce&tr=udp%3A%2F%2F9.rarbg.to%3A2920%2Fannounce&tr=udp%3A%2F%2Ftracker.opentrackr.org%3A1337&tr=udp%3A%2F%2Ftracker.internetwarriors.net%3A1337%2Fannounce&tr=udp%3A%2F%2Ftracker.leechers-paradise.org%3A6969%2Fannounce&tr=udp%3A%2F%2Ftracker.coppersurfer.tk%3A6969%2Fannounce&tr=udp%3A%2F%2Ftracker.pirateparty.gr%3A6969%2Fannounce&tr=udp%3A%2F%2Ftracker.cyberia.is%3A6969%2Fannounce",
        "seeder": "1",
        "leecher": "0"
    },
    {
        "rank": "67",
        "title": "Four In A Row 2013 [OutOfTheBit Ltd] v1.00",
        "link": "magnet:?xt=urn:btih:24719AAAD5B99824F84AFAB8490C2EE8B4BEC4A2&dn=Four+In+A+Row+2013+%5BOutOfTheBit+Ltd%5D+v1.00&tr=udp%3A%2F%2Ftracker.coppersurfer.tk%3A6969%2Fannounce&tr=udp%3A%2F%2F9.rarbg.to%3A2920%2Fannounce&tr=udp%3A%2F%2Ftracker.opentrackr.org%3A1337&tr=udp%3A%2F%2Ftracker.internetwarriors.net%3A1337%2Fannounce&tr=udp%3A%2F%2Ftracker.leechers-paradise.org%3A6969%2Fannounce&tr=udp%3A%2F%2Ftracker.coppersurfer.tk%3A6969%2Fannounce&tr=udp%3A%2F%2Ftracker.pirateparty.gr%3A6969%2Fannounce&tr=udp%3A%2F%2Ftracker.cyberia.is%3A6969%2Fannounce",
        "seeder": "1",
        "leecher": "0"
    },
    {
        "rank": "68",
        "title": "ZeptoLab UK Limited Cut the Rope Time Travel HD v1 1 2 iPad",
        "link": "magnet:?xt=urn:btih:1908CA1AEB62AB8BF8265C08E8B5001AF75FCBD8&dn=ZeptoLab+UK+Limited+Cut+the+Rope+Time+Travel+HD+v1+1+2+iPad&tr=udp%3A%2F%2Ftracker.coppersurfer.tk%3A6969%2Fannounce&tr=udp%3A%2F%2F9.rarbg.to%3A2920%2Fannounce&tr=udp%3A%2F%2Ftracker.opentrackr.org%3A1337&tr=udp%3A%2F%2Ftracker.internetwarriors.net%3A1337%2Fannounce&tr=udp%3A%2F%2Ftracker.leechers-paradise.org%3A6969%2Fannounce&tr=udp%3A%2F%2Ftracker.coppersurfer.tk%3A6969%2Fannounce&tr=udp%3A%2F%2Ftracker.pirateparty.gr%3A6969%2Fannounce&tr=udp%3A%2F%2Ftracker.cyberia.is%3A6969%2Fannounce",
        "seeder": "1",
        "leecher": "0"
    },
    {
        "rank": "69",
        "title": "Doodle Jump v3.6 [Jun 28, 2013]",
        "link": "magnet:?xt=urn:btih:41A4A12598D49AF37F8C56C5133E1C712BC20AFE&dn=Doodle+Jump+v3.6+%5BJun+28%2C+2013%5D&tr=udp%3A%2F%2Ftracker.coppersurfer.tk%3A6969%2Fannounce&tr=udp%3A%2F%2F9.rarbg.to%3A2920%2Fannounce&tr=udp%3A%2F%2Ftracker.opentrackr.org%3A1337&tr=udp%3A%2F%2Ftracker.internetwarriors.net%3A1337%2Fannounce&tr=udp%3A%2F%2Ftracker.leechers-paradise.org%3A6969%2Fannounce&tr=udp%3A%2F%2Ftracker.coppersurfer.tk%3A6969%2Fannounce&tr=udp%3A%2F%2Ftracker.pirateparty.gr%3A6969%2Fannounce&tr=udp%3A%2F%2Ftracker.cyberia.is%3A6969%2Fannounce",
        "seeder": "1",
        "leecher": "0"
    },
    {
        "rank": "70",
        "title": "Move the Box [Otizito LLC] v1.4.0",
        "link": "magnet:?xt=urn:btih:DD7060854F50C412DA3A15D48A904282C7F66789&dn=Move+the+Box+%5BOtizito+LLC%5D+v1.4.0&tr=udp%3A%2F%2Ftracker.coppersurfer.tk%3A6969%2Fannounce&tr=udp%3A%2F%2F9.rarbg.to%3A2920%2Fannounce&tr=udp%3A%2F%2Ftracker.opentrackr.org%3A1337&tr=udp%3A%2F%2Ftracker.internetwarriors.net%3A1337%2Fannounce&tr=udp%3A%2F%2Ftracker.leechers-paradise.org%3A6969%2Fannounce&tr=udp%3A%2F%2Ftracker.coppersurfer.tk%3A6969%2Fannounce&tr=udp%3A%2F%2Ftracker.pirateparty.gr%3A6969%2Fannounce&tr=udp%3A%2F%2Ftracker.cyberia.is%3A6969%2Fannounce",
        "seeder": "1",
        "leecher": "0"
    },
    {
        "rank": "71",
        "title": "HOMERUN BATTLE 2 ipod .ipad.iphone",
        "link": "magnet:?xt=urn:btih:D30B4BCA41E1A9649DBF3962519B1355509FD83E&dn=HOMERUN+BATTLE+2+ipod+.ipad.iphone&tr=udp%3A%2F%2Ftracker.coppersurfer.tk%3A6969%2Fannounce&tr=udp%3A%2F%2F9.rarbg.to%3A2920%2Fannounce&tr=udp%3A%2F%2Ftracker.opentrackr.org%3A1337&tr=udp%3A%2F%2Ftracker.internetwarriors.net%3A1337%2Fannounce&tr=udp%3A%2F%2Ftracker.leechers-paradise.org%3A6969%2Fannounce&tr=udp%3A%2F%2Ftracker.coppersurfer.tk%3A6969%2Fannounce&tr=udp%3A%2F%2Ftracker.pirateparty.gr%3A6969%2Fannounce&tr=udp%3A%2F%2Ftracker.cyberia.is%3A6969%2Fannounce",
        "seeder": "1",
        "leecher": "0"
    },
    {
        "rank": "72",
        "title": "Star Battalion ipod.iphone.ipad",
        "link": "magnet:?xt=urn:btih:874DD3BE339762C3942CE3336DC42E01F18511BF&dn=Star+Battalion+ipod.iphone.ipad&tr=udp%3A%2F%2Ftracker.coppersurfer.tk%3A6969%2Fannounce&tr=udp%3A%2F%2F9.rarbg.to%3A2920%2Fannounce&tr=udp%3A%2F%2Ftracker.opentrackr.org%3A1337&tr=udp%3A%2F%2Ftracker.internetwarriors.net%3A1337%2Fannounce&tr=udp%3A%2F%2Ftracker.leechers-paradise.org%3A6969%2Fannounce&tr=udp%3A%2F%2Ftracker.coppersurfer.tk%3A6969%2Fannounce&tr=udp%3A%2F%2Ftracker.pirateparty.gr%3A6969%2Fannounce&tr=udp%3A%2F%2Ftracker.cyberia.is%3A6969%2Fannounce",
        "seeder": "1",
        "leecher": "0"
    },
    {
        "rank": "73",
        "title": "! Temple Run: Brave ipod,ipad,iphone",
        "link": "magnet:?xt=urn:btih:E130ACBF909F786901E8E90EBDE969B1527C3D78&dn=%21+Temple+Run%3A+Brave+ipod%2Cipad%2Ciphone&tr=udp%3A%2F%2Ftracker.coppersurfer.tk%3A6969%2Fannounce&tr=udp%3A%2F%2F9.rarbg.to%3A2920%2Fannounce&tr=udp%3A%2F%2Ftracker.opentrackr.org%3A1337&tr=udp%3A%2F%2Ftracker.internetwarriors.net%3A1337%2Fannounce&tr=udp%3A%2F%2Ftracker.leechers-paradise.org%3A6969%2Fannounce&tr=udp%3A%2F%2Ftracker.coppersurfer.tk%3A6969%2Fannounce&tr=udp%3A%2F%2Ftracker.pirateparty.gr%3A6969%2Fannounce&tr=udp%3A%2F%2Ftracker.cyberia.is%3A6969%2Fannounce",
        "seeder": "1",
        "leecher": "0"
    },
    {
        "rank": "74",
        "title": "Catapult King ipad.ipod.iphone",
        "link": "magnet:?xt=urn:btih:2D847B4FA280EC2EDC92E7D2B299BFB9DC9356E7&dn=Catapult+King+ipad.ipod.iphone&tr=udp%3A%2F%2Ftracker.coppersurfer.tk%3A6969%2Fannounce&tr=udp%3A%2F%2F9.rarbg.to%3A2920%2Fannounce&tr=udp%3A%2F%2Ftracker.opentrackr.org%3A1337&tr=udp%3A%2F%2Ftracker.internetwarriors.net%3A1337%2Fannounce&tr=udp%3A%2F%2Ftracker.leechers-paradise.org%3A6969%2Fannounce&tr=udp%3A%2F%2Ftracker.coppersurfer.tk%3A6969%2Fannounce&tr=udp%3A%2F%2Ftracker.pirateparty.gr%3A6969%2Fannounce&tr=udp%3A%2F%2Ftracker.cyberia.is%3A6969%2Fannounce",
        "seeder": "1",
        "leecher": "0"
    },
    {
        "rank": "75",
        "title": "Ninja Ponk [ALIEN WORM Marcin Konczakowski] v2.20",
        "link": "magnet:?xt=urn:btih:A9E4C86F3E9C01024D7E80F4E769B0EB4A887A38&dn=Ninja+Ponk+%5BALIEN+WORM+Marcin+Konczakowski%5D+v2.20&tr=udp%3A%2F%2Ftracker.coppersurfer.tk%3A6969%2Fannounce&tr=udp%3A%2F%2F9.rarbg.to%3A2920%2Fannounce&tr=udp%3A%2F%2Ftracker.opentrackr.org%3A1337&tr=udp%3A%2F%2Ftracker.internetwarriors.net%3A1337%2Fannounce&tr=udp%3A%2F%2Ftracker.leechers-paradise.org%3A6969%2Fannounce&tr=udp%3A%2F%2Ftracker.coppersurfer.tk%3A6969%2Fannounce&tr=udp%3A%2F%2Ftracker.pirateparty.gr%3A6969%2Fannounce&tr=udp%3A%2F%2Ftracker.cyberia.is%3A6969%2Fannounce",
        "seeder": "1",
        "leecher": "0"
    },
    {
        "rank": "76",
        "title": "ZeptoLab.UK.Cut.the.Rope.2.v1.0.1.iPhone.iPod.Touch.iPad-DVTPDA",
        "link": "magnet:?xt=urn:btih:DC18E55B7622052C1052824CD909CABC961C7C02&dn=ZeptoLab.UK.Cut.the.Rope.2.v1.0.1.iPhone.iPod.Touch.iPad-DVTPDA&tr=udp%3A%2F%2Ftracker.coppersurfer.tk%3A6969%2Fannounce&tr=udp%3A%2F%2F9.rarbg.to%3A2920%2Fannounce&tr=udp%3A%2F%2Ftracker.opentrackr.org%3A1337&tr=udp%3A%2F%2Ftracker.internetwarriors.net%3A1337%2Fannounce&tr=udp%3A%2F%2Ftracker.leechers-paradise.org%3A6969%2Fannounce&tr=udp%3A%2F%2Ftracker.coppersurfer.tk%3A6969%2Fannounce&tr=udp%3A%2F%2Ftracker.pirateparty.gr%3A6969%2Fannounce&tr=udp%3A%2F%2Ftracker.cyberia.is%3A6969%2Fannounce",
        "seeder": "1",
        "leecher": "1"
    },
    {
        "rank": "77",
        "title": "ORC: Vengeance ipod.ipad.iphone",
        "link": "magnet:?xt=urn:btih:633A6B62FBFE8554886CA6A04CB46AECCC63519F&dn=ORC%3A+Vengeance+ipod.ipad.iphone&tr=udp%3A%2F%2Ftracker.coppersurfer.tk%3A6969%2Fannounce&tr=udp%3A%2F%2F9.rarbg.to%3A2920%2Fannounce&tr=udp%3A%2F%2Ftracker.opentrackr.org%3A1337&tr=udp%3A%2F%2Ftracker.internetwarriors.net%3A1337%2Fannounce&tr=udp%3A%2F%2Ftracker.leechers-paradise.org%3A6969%2Fannounce&tr=udp%3A%2F%2Ftracker.coppersurfer.tk%3A6969%2Fannounce&tr=udp%3A%2F%2Ftracker.pirateparty.gr%3A6969%2Fannounce&tr=udp%3A%2F%2Ftracker.cyberia.is%3A6969%2Fannounce",
        "seeder": "1",
        "leecher": "0"
    },
    {
        "rank": "78",
        "title": "Plants vs. Zombies [PopCap] v1.9.8",
        "link": "magnet:?xt=urn:btih:6ACB2E99E2C53C364C55B2E73FA8BDBC20E9E7DD&dn=Plants+vs.+Zombies+%5BPopCap%5D+v1.9.8&tr=udp%3A%2F%2Ftracker.coppersurfer.tk%3A6969%2Fannounce&tr=udp%3A%2F%2F9.rarbg.to%3A2920%2Fannounce&tr=udp%3A%2F%2Ftracker.opentrackr.org%3A1337&tr=udp%3A%2F%2Ftracker.internetwarriors.net%3A1337%2Fannounce&tr=udp%3A%2F%2Ftracker.leechers-paradise.org%3A6969%2Fannounce&tr=udp%3A%2F%2Ftracker.coppersurfer.tk%3A6969%2Fannounce&tr=udp%3A%2F%2Ftracker.pirateparty.gr%3A6969%2Fannounce&tr=udp%3A%2F%2Ftracker.cyberia.is%3A6969%2Fannounce",
        "seeder": "1",
        "leecher": "0"
    },
    {
        "rank": "79",
        "title": "Million Dollar Quest: hidden object adventure ipod.ipad",
        "link": "magnet:?xt=urn:btih:71334B7CA00162D316BA51EDB822F7C6385A5D8C&dn=Million+Dollar+Quest%3A+hidden+object+adventure+ipod.ipad&tr=udp%3A%2F%2Ftracker.coppersurfer.tk%3A6969%2Fannounce&tr=udp%3A%2F%2F9.rarbg.to%3A2920%2Fannounce&tr=udp%3A%2F%2Ftracker.opentrackr.org%3A1337&tr=udp%3A%2F%2Ftracker.internetwarriors.net%3A1337%2Fannounce&tr=udp%3A%2F%2Ftracker.leechers-paradise.org%3A6969%2Fannounce&tr=udp%3A%2F%2Ftracker.coppersurfer.tk%3A6969%2Fannounce&tr=udp%3A%2F%2Ftracker.pirateparty.gr%3A6969%2Fannounce&tr=udp%3A%2F%2Ftracker.cyberia.is%3A6969%2Fannounce",
        "seeder": "1",
        "leecher": "0"
    },
    {
        "rank": "80",
        "title": "Max Payne Mobile",
        "link": "magnet:?xt=urn:btih:731BAC2E6771194E627AECFB1F3F0AD3AA99A7B8&dn=Max+Payne+Mobile&tr=udp%3A%2F%2Ftracker.coppersurfer.tk%3A6969%2Fannounce&tr=udp%3A%2F%2F9.rarbg.to%3A2920%2Fannounce&tr=udp%3A%2F%2Ftracker.opentrackr.org%3A1337&tr=udp%3A%2F%2Ftracker.internetwarriors.net%3A1337%2Fannounce&tr=udp%3A%2F%2Ftracker.leechers-paradise.org%3A6969%2Fannounce&tr=udp%3A%2F%2Ftracker.coppersurfer.tk%3A6969%2Fannounce&tr=udp%3A%2F%2Ftracker.pirateparty.gr%3A6969%2Fannounce&tr=udp%3A%2F%2Ftracker.cyberia.is%3A6969%2Fannounce",
        "seeder": "1",
        "leecher": "0"
    },
    {
        "rank": "81",
        "title": "Tank 90 for iPhone [Weikuan Zhou] v2.0.0",
        "link": "magnet:?xt=urn:btih:9DEA9713BCCBDF11C76B730E5D893B71CE926A96&dn=Tank+90+for+iPhone+%5BWeikuan+Zhou%5D+v2.0.0&tr=udp%3A%2F%2Ftracker.coppersurfer.tk%3A6969%2Fannounce&tr=udp%3A%2F%2F9.rarbg.to%3A2920%2Fannounce&tr=udp%3A%2F%2Ftracker.opentrackr.org%3A1337&tr=udp%3A%2F%2Ftracker.internetwarriors.net%3A1337%2Fannounce&tr=udp%3A%2F%2Ftracker.leechers-paradise.org%3A6969%2Fannounce&tr=udp%3A%2F%2Ftracker.coppersurfer.tk%3A6969%2Fannounce&tr=udp%3A%2F%2Ftracker.pirateparty.gr%3A6969%2Fannounce&tr=udp%3A%2F%2Ftracker.cyberia.is%3A6969%2Fannounce",
        "seeder": "1",
        "leecher": "0"
    },
    {
        "rank": "82",
        "title": "Legend of Master 3 ipod.ipad.iphone",
        "link": "magnet:?xt=urn:btih:BF2DA8327A90A55476C43B0D4845938E43A4C151&dn=Legend+of+Master+3+ipod.ipad.iphone&tr=udp%3A%2F%2Ftracker.coppersurfer.tk%3A6969%2Fannounce&tr=udp%3A%2F%2F9.rarbg.to%3A2920%2Fannounce&tr=udp%3A%2F%2Ftracker.opentrackr.org%3A1337&tr=udp%3A%2F%2Ftracker.internetwarriors.net%3A1337%2Fannounce&tr=udp%3A%2F%2Ftracker.leechers-paradise.org%3A6969%2Fannounce&tr=udp%3A%2F%2Ftracker.coppersurfer.tk%3A6969%2Fannounce&tr=udp%3A%2F%2Ftracker.pirateparty.gr%3A6969%2Fannounce&tr=udp%3A%2F%2Ftracker.cyberia.is%3A6969%2Fannounce",
        "seeder": "1",
        "leecher": "0"
    },
    {
        "rank": "83",
        "title": "Lara Croft and the Guardian of Light ipod.ipad.iphone",
        "link": "magnet:?xt=urn:btih:586950BA8A964B18C1638B673189B095E57349EE&dn=Lara+Croft+and+the+Guardian+of+Light+ipod.ipad.iphone&tr=udp%3A%2F%2Ftracker.coppersurfer.tk%3A6969%2Fannounce&tr=udp%3A%2F%2F9.rarbg.to%3A2920%2Fannounce&tr=udp%3A%2F%2Ftracker.opentrackr.org%3A1337&tr=udp%3A%2F%2Ftracker.internetwarriors.net%3A1337%2Fannounce&tr=udp%3A%2F%2Ftracker.leechers-paradise.org%3A6969%2Fannounce&tr=udp%3A%2F%2Ftracker.coppersurfer.tk%3A6969%2Fannounce&tr=udp%3A%2F%2Ftracker.pirateparty.gr%3A6969%2Fannounce&tr=udp%3A%2F%2Ftracker.cyberia.is%3A6969%2Fannounce",
        "seeder": "1",
        "leecher": "0"
    },
    {
        "rank": "84",
        "title": "Where's My Water-1.12.0",
        "link": "magnet:?xt=urn:btih:FD6864C3699FB125FCD89BFB5647D0983C095A8A&dn=Where%27s+My+Water-1.12.0&tr=udp%3A%2F%2Ftracker.coppersurfer.tk%3A6969%2Fannounce&tr=udp%3A%2F%2F9.rarbg.to%3A2920%2Fannounce&tr=udp%3A%2F%2Ftracker.opentrackr.org%3A1337&tr=udp%3A%2F%2Ftracker.internetwarriors.net%3A1337%2Fannounce&tr=udp%3A%2F%2Ftracker.leechers-paradise.org%3A6969%2Fannounce&tr=udp%3A%2F%2Ftracker.coppersurfer.tk%3A6969%2Fannounce&tr=udp%3A%2F%2Ftracker.pirateparty.gr%3A6969%2Fannounce&tr=udp%3A%2F%2Ftracker.cyberia.is%3A6969%2Fannounce",
        "seeder": "1",
        "leecher": "0"
    },
    {
        "rank": "85",
        "title": "Bad Piggies-1.3.0",
        "link": "magnet:?xt=urn:btih:BFCAF448818284DE05FD53A96ACC948EC58FB243&dn=Bad+Piggies-1.3.0&tr=udp%3A%2F%2Ftracker.coppersurfer.tk%3A6969%2Fannounce&tr=udp%3A%2F%2F9.rarbg.to%3A2920%2Fannounce&tr=udp%3A%2F%2Ftracker.opentrackr.org%3A1337&tr=udp%3A%2F%2Ftracker.internetwarriors.net%3A1337%2Fannounce&tr=udp%3A%2F%2Ftracker.leechers-paradise.org%3A6969%2Fannounce&tr=udp%3A%2F%2Ftracker.coppersurfer.tk%3A6969%2Fannounce&tr=udp%3A%2F%2Ftracker.pirateparty.gr%3A6969%2Fannounce&tr=udp%3A%2F%2Ftracker.cyberia.is%3A6969%2Fannounce",
        "seeder": "1",
        "leecher": "0"
    },
    {
        "rank": "86",
        "title": "Amazing Alex-1.0.4",
        "link": "magnet:?xt=urn:btih:4F43FBC0641336790E6DEC96638D3A85DBCD1DAA&dn=Amazing+Alex-1.0.4&tr=udp%3A%2F%2Ftracker.coppersurfer.tk%3A6969%2Fannounce&tr=udp%3A%2F%2F9.rarbg.to%3A2920%2Fannounce&tr=udp%3A%2F%2Ftracker.opentrackr.org%3A1337&tr=udp%3A%2F%2Ftracker.internetwarriors.net%3A1337%2Fannounce&tr=udp%3A%2F%2Ftracker.leechers-paradise.org%3A6969%2Fannounce&tr=udp%3A%2F%2Ftracker.coppersurfer.tk%3A6969%2Fannounce&tr=udp%3A%2F%2Ftracker.pirateparty.gr%3A6969%2Fannounce&tr=udp%3A%2F%2Ftracker.cyberia.is%3A6969%2Fannounce",
        "seeder": "1",
        "leecher": "0"
    },
    {
        "rank": "87",
        "title": "Mushihimesama BUG PANIC ipad.ipod.iphone",
        "link": "magnet:?xt=urn:btih:8AA0DF84E023F1E7C771C689B204BDFE64FD7E68&dn=Mushihimesama+BUG+PANIC+ipad.ipod.iphone&tr=udp%3A%2F%2Ftracker.coppersurfer.tk%3A6969%2Fannounce&tr=udp%3A%2F%2F9.rarbg.to%3A2920%2Fannounce&tr=udp%3A%2F%2Ftracker.opentrackr.org%3A1337&tr=udp%3A%2F%2Ftracker.internetwarriors.net%3A1337%2Fannounce&tr=udp%3A%2F%2Ftracker.leechers-paradise.org%3A6969%2Fannounce&tr=udp%3A%2F%2Ftracker.coppersurfer.tk%3A6969%2Fannounce&tr=udp%3A%2F%2Ftracker.pirateparty.gr%3A6969%2Fannounce&tr=udp%3A%2F%2Ftracker.cyberia.is%3A6969%2Fannounce",
        "seeder": "1",
        "leecher": "0"
    },
    {
        "rank": "88",
        "title": "Rovio.Entertainment.Angry.Birds.HD.v4.1.0.iPad-DVTPDA",
        "link": "magnet:?xt=urn:btih:62A26413555B82AED5FB659B425F41409177FCBA&dn=Rovio.Entertainment.Angry.Birds.HD.v4.1.0.iPad-DVTPDA&tr=udp%3A%2F%2Ftracker.coppersurfer.tk%3A6969%2Fannounce&tr=udp%3A%2F%2F9.rarbg.to%3A2920%2Fannounce&tr=udp%3A%2F%2Ftracker.opentrackr.org%3A1337&tr=udp%3A%2F%2Ftracker.internetwarriors.net%3A1337%2Fannounce&tr=udp%3A%2F%2Ftracker.leechers-paradise.org%3A6969%2Fannounce&tr=udp%3A%2F%2Ftracker.coppersurfer.tk%3A6969%2Fannounce&tr=udp%3A%2F%2Ftracker.pirateparty.gr%3A6969%2Fannounce&tr=udp%3A%2F%2Ftracker.cyberia.is%3A6969%2Fannounce",
        "seeder": "1",
        "leecher": "0"
    },
    {
        "rank": "89",
        "title": "World of Star ipod.ipad.iphone",
        "link": "magnet:?xt=urn:btih:2F0A5FA356FD0948BD7D105851392092188C1BF0&dn=World+of+Star+ipod.ipad.iphone&tr=udp%3A%2F%2Ftracker.coppersurfer.tk%3A6969%2Fannounce&tr=udp%3A%2F%2F9.rarbg.to%3A2920%2Fannounce&tr=udp%3A%2F%2Ftracker.opentrackr.org%3A1337&tr=udp%3A%2F%2Ftracker.internetwarriors.net%3A1337%2Fannounce&tr=udp%3A%2F%2Ftracker.leechers-paradise.org%3A6969%2Fannounce&tr=udp%3A%2F%2Ftracker.coppersurfer.tk%3A6969%2Fannounce&tr=udp%3A%2F%2Ftracker.pirateparty.gr%3A6969%2Fannounce&tr=udp%3A%2F%2Ftracker.cyberia.is%3A6969%2Fannounce",
        "seeder": "1",
        "leecher": "0"
    },
    {
        "rank": "90",
        "title": "Batman Arkham City Lockdown ipod,iphone,ipad",
        "link": "magnet:?xt=urn:btih:9E25A96B1560DBCF3C61E9C117A8EC35A117887E&dn=Batman+Arkham+City+Lockdown+ipod%2Ciphone%2Cipad&tr=udp%3A%2F%2Ftracker.coppersurfer.tk%3A6969%2Fannounce&tr=udp%3A%2F%2F9.rarbg.to%3A2920%2Fannounce&tr=udp%3A%2F%2Ftracker.opentrackr.org%3A1337&tr=udp%3A%2F%2Ftracker.internetwarriors.net%3A1337%2Fannounce&tr=udp%3A%2F%2Ftracker.leechers-paradise.org%3A6969%2Fannounce&tr=udp%3A%2F%2Ftracker.coppersurfer.tk%3A6969%2Fannounce&tr=udp%3A%2F%2Ftracker.pirateparty.gr%3A6969%2Fannounce&tr=udp%3A%2F%2Ftracker.cyberia.is%3A6969%2Fannounce",
        "seeder": "1",
        "leecher": "0"
    },
    {
        "rank": "91",
        "title": "Hacked player.dat file for Zombiewood (iOS)",
        "link": "magnet:?xt=urn:btih:19B475C7CB445B4CE03F8945BFAFC827E9D02BF0&dn=Hacked+player.dat+file+for+Zombiewood+%28iOS%29&tr=udp%3A%2F%2Ftracker.coppersurfer.tk%3A6969%2Fannounce&tr=udp%3A%2F%2F9.rarbg.to%3A2920%2Fannounce&tr=udp%3A%2F%2Ftracker.opentrackr.org%3A1337&tr=udp%3A%2F%2Ftracker.internetwarriors.net%3A1337%2Fannounce&tr=udp%3A%2F%2Ftracker.leechers-paradise.org%3A6969%2Fannounce&tr=udp%3A%2F%2Ftracker.coppersurfer.tk%3A6969%2Fannounce&tr=udp%3A%2F%2Ftracker.pirateparty.gr%3A6969%2Fannounce&tr=udp%3A%2F%2Ftracker.cyberia.is%3A6969%2Fannounce",
        "seeder": "1",
        "leecher": "0"
    },
    {
        "rank": "92",
        "title": "UFC\u00ae Undisputed\u2122 ipod.ipad.iphone",
        "link": "magnet:?xt=urn:btih:682B0670E6E3617F415F5CD8579661B2322A86ED&dn=UFC%26reg%3B+Undisputed%26trade%3B+ipod.ipad.iphone&tr=udp%3A%2F%2Ftracker.coppersurfer.tk%3A6969%2Fannounce&tr=udp%3A%2F%2F9.rarbg.to%3A2920%2Fannounce&tr=udp%3A%2F%2Ftracker.opentrackr.org%3A1337&tr=udp%3A%2F%2Ftracker.internetwarriors.net%3A1337%2Fannounce&tr=udp%3A%2F%2Ftracker.leechers-paradise.org%3A6969%2Fannounce&tr=udp%3A%2F%2Ftracker.coppersurfer.tk%3A6969%2Fannounce&tr=udp%3A%2F%2Ftracker.pirateparty.gr%3A6969%2Fannounce&tr=udp%3A%2F%2Ftracker.cyberia.is%3A6969%2Fannounce",
        "seeder": "0",
        "leecher": "1"
    },
    {
        "rank": "93",
        "title": "Prince of Persia\u00ae Classic ipod.ipad,iphone",
        "link": "magnet:?xt=urn:btih:6AA081C5ABEB6DA633256350D87A235D3A72A624&dn=Prince+of+Persia%26reg%3B+Classic+ipod.ipad%2Ciphone&tr=udp%3A%2F%2Ftracker.coppersurfer.tk%3A6969%2Fannounce&tr=udp%3A%2F%2F9.rarbg.to%3A2920%2Fannounce&tr=udp%3A%2F%2Ftracker.opentrackr.org%3A1337&tr=udp%3A%2F%2Ftracker.internetwarriors.net%3A1337%2Fannounce&tr=udp%3A%2F%2Ftracker.leechers-paradise.org%3A6969%2Fannounce&tr=udp%3A%2F%2Ftracker.coppersurfer.tk%3A6969%2Fannounce&tr=udp%3A%2F%2Ftracker.pirateparty.gr%3A6969%2Fannounce&tr=udp%3A%2F%2Ftracker.cyberia.is%3A6969%2Fannounce",
        "seeder": "0",
        "leecher": "1"
    },
    {
        "rank": "94",
        "title": "RIDGE RACER ACCELERATED ipod.ipad.iphone",
        "link": "magnet:?xt=urn:btih:169982A4CD256297A3B1118E482A56A411783A7A&dn=RIDGE+RACER+ACCELERATED+ipod.ipad.iphone&tr=udp%3A%2F%2Ftracker.coppersurfer.tk%3A6969%2Fannounce&tr=udp%3A%2F%2F9.rarbg.to%3A2920%2Fannounce&tr=udp%3A%2F%2Ftracker.opentrackr.org%3A1337&tr=udp%3A%2F%2Ftracker.internetwarriors.net%3A1337%2Fannounce&tr=udp%3A%2F%2Ftracker.leechers-paradise.org%3A6969%2Fannounce&tr=udp%3A%2F%2Ftracker.coppersurfer.tk%3A6969%2Fannounce&tr=udp%3A%2F%2Ftracker.pirateparty.gr%3A6969%2Fannounce&tr=udp%3A%2F%2Ftracker.cyberia.is%3A6969%2Fannounce",
        "seeder": "0",
        "leecher": "1"
    },
    {
        "rank": "95",
        "title": "Avenger \u00a9 ipod.ipad.iphone",
        "link": "magnet:?xt=urn:btih:E68A3AF6FB317A545AA6AECDCBCAC43297887E83&dn=Avenger+%26copy%3B+ipod.ipad.iphone&tr=udp%3A%2F%2Ftracker.coppersurfer.tk%3A6969%2Fannounce&tr=udp%3A%2F%2F9.rarbg.to%3A2920%2Fannounce&tr=udp%3A%2F%2Ftracker.opentrackr.org%3A1337&tr=udp%3A%2F%2Ftracker.internetwarriors.net%3A1337%2Fannounce&tr=udp%3A%2F%2Ftracker.leechers-paradise.org%3A6969%2Fannounce&tr=udp%3A%2F%2Ftracker.coppersurfer.tk%3A6969%2Fannounce&tr=udp%3A%2F%2Ftracker.pirateparty.gr%3A6969%2Fannounce&tr=udp%3A%2F%2Ftracker.cyberia.is%3A6969%2Fannounce",
        "seeder": "0",
        "leecher": "1"
    },
    {
        "rank": "96",
        "title": "BUBBLE BOBBLE DOUBLE ipod.ipad.iphone",
        "link": "magnet:?xt=urn:btih:AB49AFB9C044766C1706E53230B54ECE7A54852C&dn=BUBBLE+BOBBLE+DOUBLE+ipod.ipad.iphone&tr=udp%3A%2F%2Ftracker.coppersurfer.tk%3A6969%2Fannounce&tr=udp%3A%2F%2F9.rarbg.to%3A2920%2Fannounce&tr=udp%3A%2F%2Ftracker.opentrackr.org%3A1337&tr=udp%3A%2F%2Ftracker.internetwarriors.net%3A1337%2Fannounce&tr=udp%3A%2F%2Ftracker.leechers-paradise.org%3A6969%2Fannounce&tr=udp%3A%2F%2Ftracker.coppersurfer.tk%3A6969%2Fannounce&tr=udp%3A%2F%2Ftracker.pirateparty.gr%3A6969%2Fannounce&tr=udp%3A%2F%2Ftracker.cyberia.is%3A6969%2Fannounce",
        "seeder": "0",
        "leecher": "1"
    },
    {
        "rank": "97",
        "title": "Raid Leader iphone.ipod.ipad",
        "link": "magnet:?xt=urn:btih:A30770BABDC025FAD25135CE8B74856B36997A9D&dn=Raid+Leader+iphone.ipod.ipad&tr=udp%3A%2F%2Ftracker.coppersurfer.tk%3A6969%2Fannounce&tr=udp%3A%2F%2F9.rarbg.to%3A2920%2Fannounce&tr=udp%3A%2F%2Ftracker.opentrackr.org%3A1337&tr=udp%3A%2F%2Ftracker.internetwarriors.net%3A1337%2Fannounce&tr=udp%3A%2F%2Ftracker.leechers-paradise.org%3A6969%2Fannounce&tr=udp%3A%2F%2Ftracker.coppersurfer.tk%3A6969%2Fannounce&tr=udp%3A%2F%2Ftracker.pirateparty.gr%3A6969%2Fannounce&tr=udp%3A%2F%2Ftracker.cyberia.is%3A6969%2Fannounce",
        "seeder": "0",
        "leecher": "1"
    },
    {
        "rank": "98",
        "title": "Ice Rage ipod.ipad.iphone",
        "link": "magnet:?xt=urn:btih:1E024CBD68725BD1E65110E00B337A5476DF0367&dn=Ice+Rage+ipod.ipad.iphone&tr=udp%3A%2F%2Ftracker.coppersurfer.tk%3A6969%2Fannounce&tr=udp%3A%2F%2F9.rarbg.to%3A2920%2Fannounce&tr=udp%3A%2F%2Ftracker.opentrackr.org%3A1337&tr=udp%3A%2F%2Ftracker.internetwarriors.net%3A1337%2Fannounce&tr=udp%3A%2F%2Ftracker.leechers-paradise.org%3A6969%2Fannounce&tr=udp%3A%2F%2Ftracker.coppersurfer.tk%3A6969%2Fannounce&tr=udp%3A%2F%2Ftracker.pirateparty.gr%3A6969%2Fannounce&tr=udp%3A%2F%2Ftracker.cyberia.is%3A6969%2Fannounce",
        "seeder": "0",
        "leecher": "1"
    },
    {
        "rank": "99",
        "title": "Hero of Might and Magic ipod.ipad.iphone",
        "link": "magnet:?xt=urn:btih:22B3DF16C2BB0FCA34945D386F53DA4D66B4479C&dn=Hero+of+Might+and+Magic+ipod.ipad.iphone&tr=udp%3A%2F%2Ftracker.coppersurfer.tk%3A6969%2Fannounce&tr=udp%3A%2F%2F9.rarbg.to%3A2920%2Fannounce&tr=udp%3A%2F%2Ftracker.opentrackr.org%3A1337&tr=udp%3A%2F%2Ftracker.internetwarriors.net%3A1337%2Fannounce&tr=udp%3A%2F%2Ftracker.leechers-paradise.org%3A6969%2Fannounce&tr=udp%3A%2F%2Ftracker.coppersurfer.tk%3A6969%2Fannounce&tr=udp%3A%2F%2Ftracker.pirateparty.gr%3A6969%2Fannounce&tr=udp%3A%2F%2Ftracker.cyberia.is%3A6969%2Fannounce",
        "seeder": "0",
        "leecher": "1"
    },
    {
        "rank": "100",
        "title": "Monkey Flight ipod.ipad.iphone",
        "link": "magnet:?xt=urn:btih:67E1108D5464A87B38C76724E2B5E534D78B3235&dn=Monkey+Flight+ipod.ipad.iphone&tr=udp%3A%2F%2Ftracker.coppersurfer.tk%3A6969%2Fannounce&tr=udp%3A%2F%2F9.rarbg.to%3A2920%2Fannounce&tr=udp%3A%2F%2Ftracker.opentrackr.org%3A1337&tr=udp%3A%2F%2Ftracker.internetwarriors.net%3A1337%2Fannounce&tr=udp%3A%2F%2Ftracker.leechers-paradise.org%3A6969%2Fannounce&tr=udp%3A%2F%2Ftracker.coppersurfer.tk%3A6969%2Fannounce&tr=udp%3A%2F%2Ftracker.pirateparty.gr%3A6969%2Fannounce&tr=udp%3A%2F%2Ftracker.cyberia.is%3A6969%2Fannounce",
        "seeder": "0",
        "leecher": "1"
    }
]
