[
    {
        "rank": "1",
        "title": "Beyond Order: 12 More Rules for Life - Jordan B. Peterson 2021",
        "link": "magnet:?xt=urn:btih:1488CC072D14AC1717AF69DD0C87D5E87BCE826E&dn=Beyond+Order%3A+12+More+Rules+for+Life+-+Jordan+B.+Peterson+2021&tr=udp%3A%2F%2Ftracker.coppersurfer.tk%3A6969%2Fannounce&tr=udp%3A%2F%2F9.rarbg.to%3A2920%2Fannounce&tr=udp%3A%2F%2Ftracker.opentrackr.org%3A1337&tr=udp%3A%2F%2Ftracker.internetwarriors.net%3A1337%2Fannounce&tr=udp%3A%2F%2Ftracker.leechers-paradise.org%3A6969%2Fannounce&tr=udp%3A%2F%2Ftracker.coppersurfer.tk%3A6969%2Fannounce&tr=udp%3A%2F%2Ftracker.pirateparty.gr%3A6969%2Fannounce&tr=udp%3A%2F%2Ftracker.cyberia.is%3A6969%2Fannounce",
        "seeder": "155",
        "leecher": "5"
    },
    {
        "rank": "2",
        "title": "A Promised Land - Barack Obama 2020",
        "link": "magnet:?xt=urn:btih:51EE8C648409CF25693E2A2A081F1577C2E8CFD1&dn=A+Promised+Land+-+Barack+Obama+2020&tr=udp%3A%2F%2Ftracker.coppersurfer.tk%3A6969%2Fannounce&tr=udp%3A%2F%2F9.rarbg.to%3A2920%2Fannounce&tr=udp%3A%2F%2Ftracker.opentrackr.org%3A1337&tr=udp%3A%2F%2Ftracker.internetwarriors.net%3A1337%2Fannounce&tr=udp%3A%2F%2Ftracker.leechers-paradise.org%3A6969%2Fannounce&tr=udp%3A%2F%2Ftracker.coppersurfer.tk%3A6969%2Fannounce&tr=udp%3A%2F%2Ftracker.pirateparty.gr%3A6969%2Fannounce&tr=udp%3A%2F%2Ftracker.cyberia.is%3A6969%2Fannounce",
        "seeder": "154",
        "leecher": "3"
    },
    {
        "rank": "3",
        "title": "Harry Potter Audio Books 1-7; Read by Stephen Fry [MP3]",
        "link": "magnet:?xt=urn:btih:66132602C1981E3E77489086F8AF35B903D0643C&dn=Harry+Potter+Audio+Books+1-7%3B+Read+by+Stephen+Fry+%5BMP3%5D&tr=udp%3A%2F%2Ftracker.coppersurfer.tk%3A6969%2Fannounce&tr=udp%3A%2F%2F9.rarbg.to%3A2920%2Fannounce&tr=udp%3A%2F%2Ftracker.opentrackr.org%3A1337&tr=udp%3A%2F%2Ftracker.internetwarriors.net%3A1337%2Fannounce&tr=udp%3A%2F%2Ftracker.leechers-paradise.org%3A6969%2Fannounce&tr=udp%3A%2F%2Ftracker.coppersurfer.tk%3A6969%2Fannounce&tr=udp%3A%2F%2Ftracker.pirateparty.gr%3A6969%2Fannounce&tr=udp%3A%2F%2Ftracker.cyberia.is%3A6969%2Fannounce",
        "seeder": "126",
        "leecher": "6"
    },
    {
        "rank": "4",
        "title": "Orwell Collection: Animal Farm and 1984 (Read by Stephen Fry)",
        "link": "magnet:?xt=urn:btih:29BA6CCE4E811C46F747CDC39BA04987E9510D39&dn=Orwell+Collection%3A+Animal+Farm+and+1984+%28Read+by+Stephen+Fry%29&tr=udp%3A%2F%2Ftracker.coppersurfer.tk%3A6969%2Fannounce&tr=udp%3A%2F%2F9.rarbg.to%3A2920%2Fannounce&tr=udp%3A%2F%2Ftracker.opentrackr.org%3A1337&tr=udp%3A%2F%2Ftracker.internetwarriors.net%3A1337%2Fannounce&tr=udp%3A%2F%2Ftracker.leechers-paradise.org%3A6969%2Fannounce&tr=udp%3A%2F%2Ftracker.coppersurfer.tk%3A6969%2Fannounce&tr=udp%3A%2F%2Ftracker.pirateparty.gr%3A6969%2Fannounce&tr=udp%3A%2F%2Ftracker.cyberia.is%3A6969%2Fannounce",
        "seeder": "120",
        "leecher": "10"
    },
    {
        "rank": "5",
        "title": "Talking to Strangers - What We Should Know About the People We D",
        "link": "magnet:?xt=urn:btih:017521ECB67BBA19CE5C5C82238D3B93CC6FEA90&dn=Talking+to+Strangers+-+What+We+Should+Know+About+the+People+We+D&tr=udp%3A%2F%2Ftracker.coppersurfer.tk%3A6969%2Fannounce&tr=udp%3A%2F%2F9.rarbg.to%3A2920%2Fannounce&tr=udp%3A%2F%2Ftracker.opentrackr.org%3A1337&tr=udp%3A%2F%2Ftracker.internetwarriors.net%3A1337%2Fannounce&tr=udp%3A%2F%2Ftracker.leechers-paradise.org%3A6969%2Fannounce&tr=udp%3A%2F%2Ftracker.coppersurfer.tk%3A6969%2Fannounce&tr=udp%3A%2F%2Ftracker.pirateparty.gr%3A6969%2Fannounce&tr=udp%3A%2F%2Ftracker.cyberia.is%3A6969%2Fannounce",
        "seeder": "106",
        "leecher": "5"
    },
    {
        "rank": "6",
        "title": "Influence: The Psychology of Persuasion by Rober Cialdini 2014",
        "link": "magnet:?xt=urn:btih:10DB4BDFC10CF0081EB66CE2937A9B728889997C&dn=Influence%3A+The+Psychology+of+Persuasion+by+Rober+Cialdini+2014&tr=udp%3A%2F%2Ftracker.coppersurfer.tk%3A6969%2Fannounce&tr=udp%3A%2F%2F9.rarbg.to%3A2920%2Fannounce&tr=udp%3A%2F%2Ftracker.opentrackr.org%3A1337&tr=udp%3A%2F%2Ftracker.internetwarriors.net%3A1337%2Fannounce&tr=udp%3A%2F%2Ftracker.leechers-paradise.org%3A6969%2Fannounce&tr=udp%3A%2F%2Ftracker.coppersurfer.tk%3A6969%2Fannounce&tr=udp%3A%2F%2Ftracker.pirateparty.gr%3A6969%2Fannounce&tr=udp%3A%2F%2Ftracker.cyberia.is%3A6969%2Fannounce",
        "seeder": "103",
        "leecher": "3"
    },
    {
        "rank": "7",
        "title": "Dune - Audiobook Collection 2015",
        "link": "magnet:?xt=urn:btih:F4425771C01F25A7BB940E8E3027E0881C4A5212&dn=Dune+-+Audiobook+Collection+2015&tr=udp%3A%2F%2Ftracker.coppersurfer.tk%3A6969%2Fannounce&tr=udp%3A%2F%2F9.rarbg.to%3A2920%2Fannounce&tr=udp%3A%2F%2Ftracker.opentrackr.org%3A1337&tr=udp%3A%2F%2Ftracker.internetwarriors.net%3A1337%2Fannounce&tr=udp%3A%2F%2Ftracker.leechers-paradise.org%3A6969%2Fannounce&tr=udp%3A%2F%2Ftracker.coppersurfer.tk%3A6969%2Fannounce&tr=udp%3A%2F%2Ftracker.pirateparty.gr%3A6969%2Fannounce&tr=udp%3A%2F%2Ftracker.cyberia.is%3A6969%2Fannounce",
        "seeder": "99",
        "leecher": "23"
    },
    {
        "rank": "8",
        "title": "The Sandman - Neil Gaiman, Dirk Maggs 2020",
        "link": "magnet:?xt=urn:btih:D37D1D1FA69AFC98A1944C77F0D584D6227897D8&dn=The+Sandman+-+Neil+Gaiman%2C+Dirk+Maggs+2020&tr=udp%3A%2F%2Ftracker.coppersurfer.tk%3A6969%2Fannounce&tr=udp%3A%2F%2F9.rarbg.to%3A2920%2Fannounce&tr=udp%3A%2F%2Ftracker.opentrackr.org%3A1337&tr=udp%3A%2F%2Ftracker.internetwarriors.net%3A1337%2Fannounce&tr=udp%3A%2F%2Ftracker.leechers-paradise.org%3A6969%2Fannounce&tr=udp%3A%2F%2Ftracker.coppersurfer.tk%3A6969%2Fannounce&tr=udp%3A%2F%2Ftracker.pirateparty.gr%3A6969%2Fannounce&tr=udp%3A%2F%2Ftracker.cyberia.is%3A6969%2Fannounce",
        "seeder": "91",
        "leecher": "0"
    },
    {
        "rank": "9",
        "title": "Deep Work: Rules for Focused Success in a Distracted World - Cal",
        "link": "magnet:?xt=urn:btih:97293B9FA1992FA8223AAFEF4DF154B90BFB4C2C&dn=Deep+Work%3A+Rules+for+Focused+Success+in+a+Distracted+World+-+Cal&tr=udp%3A%2F%2Ftracker.coppersurfer.tk%3A6969%2Fannounce&tr=udp%3A%2F%2F9.rarbg.to%3A2920%2Fannounce&tr=udp%3A%2F%2Ftracker.opentrackr.org%3A1337&tr=udp%3A%2F%2Ftracker.internetwarriors.net%3A1337%2Fannounce&tr=udp%3A%2F%2Ftracker.leechers-paradise.org%3A6969%2Fannounce&tr=udp%3A%2F%2Ftracker.coppersurfer.tk%3A6969%2Fannounce&tr=udp%3A%2F%2Ftracker.pirateparty.gr%3A6969%2Fannounce&tr=udp%3A%2F%2Ftracker.cyberia.is%3A6969%2Fannounce",
        "seeder": "86",
        "leecher": "1"
    },
    {
        "rank": "10",
        "title": "1984 by George Orwell (Audiobook)",
        "link": "magnet:?xt=urn:btih:C4DE2BEF418468A1343FB73D604A83BA2FFB28D7&dn=1984+by+George+Orwell+%28Audiobook%29&tr=udp%3A%2F%2Ftracker.coppersurfer.tk%3A6969%2Fannounce&tr=udp%3A%2F%2F9.rarbg.to%3A2920%2Fannounce&tr=udp%3A%2F%2Ftracker.opentrackr.org%3A1337&tr=udp%3A%2F%2Ftracker.internetwarriors.net%3A1337%2Fannounce&tr=udp%3A%2F%2Ftracker.leechers-paradise.org%3A6969%2Fannounce&tr=udp%3A%2F%2Ftracker.coppersurfer.tk%3A6969%2Fannounce&tr=udp%3A%2F%2Ftracker.pirateparty.gr%3A6969%2Fannounce&tr=udp%3A%2F%2Ftracker.cyberia.is%3A6969%2Fannounce",
        "seeder": "84",
        "leecher": "1"
    },
    {
        "rank": "11",
        "title": "Critical Thinking: How to Effectively Reason, Understand Irratio",
        "link": "magnet:?xt=urn:btih:847E2604C3601292D63427DA45F29E24116126D9&dn=Critical+Thinking%3A+How+to+Effectively+Reason%2C+Understand+Irratio&tr=udp%3A%2F%2Ftracker.coppersurfer.tk%3A6969%2Fannounce&tr=udp%3A%2F%2F9.rarbg.to%3A2920%2Fannounce&tr=udp%3A%2F%2Ftracker.opentrackr.org%3A1337&tr=udp%3A%2F%2Ftracker.internetwarriors.net%3A1337%2Fannounce&tr=udp%3A%2F%2Ftracker.leechers-paradise.org%3A6969%2Fannounce&tr=udp%3A%2F%2Ftracker.coppersurfer.tk%3A6969%2Fannounce&tr=udp%3A%2F%2Ftracker.pirateparty.gr%3A6969%2Fannounce&tr=udp%3A%2F%2Ftracker.cyberia.is%3A6969%2Fannounce",
        "seeder": "82",
        "leecher": "4"
    },
    {
        "rank": "12",
        "title": "Can't Hurt Me by David Goggins (.M4B)",
        "link": "magnet:?xt=urn:btih:6339F6F143D106F909B9DB447BA236EEFA62EC76&dn=Can%27t+Hurt+Me+by+David+Goggins+%28.M4B%29&tr=udp%3A%2F%2Ftracker.coppersurfer.tk%3A6969%2Fannounce&tr=udp%3A%2F%2F9.rarbg.to%3A2920%2Fannounce&tr=udp%3A%2F%2Ftracker.opentrackr.org%3A1337&tr=udp%3A%2F%2Ftracker.internetwarriors.net%3A1337%2Fannounce&tr=udp%3A%2F%2Ftracker.leechers-paradise.org%3A6969%2Fannounce&tr=udp%3A%2F%2Ftracker.coppersurfer.tk%3A6969%2Fannounce&tr=udp%3A%2F%2Ftracker.pirateparty.gr%3A6969%2Fannounce&tr=udp%3A%2F%2Ftracker.cyberia.is%3A6969%2Fannounce",
        "seeder": "80",
        "leecher": "5"
    },
    {
        "rank": "13",
        "title": "The Lord of the Rings Complete Audiobooks J. R. R. Tolkien [EarR",
        "link": "magnet:?xt=urn:btih:DBB2D2733B4FCB9857A24D16D5ED28EE5BE3B83C&dn=The+Lord+of+the+Rings+Complete+Audiobooks+J.+R.+R.+Tolkien+%5BEarR&tr=udp%3A%2F%2Ftracker.coppersurfer.tk%3A6969%2Fannounce&tr=udp%3A%2F%2F9.rarbg.to%3A2920%2Fannounce&tr=udp%3A%2F%2Ftracker.opentrackr.org%3A1337&tr=udp%3A%2F%2Ftracker.internetwarriors.net%3A1337%2Fannounce&tr=udp%3A%2F%2Ftracker.leechers-paradise.org%3A6969%2Fannounce&tr=udp%3A%2F%2Ftracker.coppersurfer.tk%3A6969%2Fannounce&tr=udp%3A%2F%2Ftracker.pirateparty.gr%3A6969%2Fannounce&tr=udp%3A%2F%2Ftracker.cyberia.is%3A6969%2Fannounce",
        "seeder": "80",
        "leecher": "3"
    },
    {
        "rank": "14",
        "title": "Norse Mythology audiobook by Neil Gaiman [EarReaders]",
        "link": "magnet:?xt=urn:btih:E9154D48CEC7CDCB8E4C957C65338EC3797D4046&dn=Norse+Mythology+audiobook+by+Neil+Gaiman+%5BEarReaders%5D&tr=udp%3A%2F%2Ftracker.coppersurfer.tk%3A6969%2Fannounce&tr=udp%3A%2F%2F9.rarbg.to%3A2920%2Fannounce&tr=udp%3A%2F%2Ftracker.opentrackr.org%3A1337&tr=udp%3A%2F%2Ftracker.internetwarriors.net%3A1337%2Fannounce&tr=udp%3A%2F%2Ftracker.leechers-paradise.org%3A6969%2Fannounce&tr=udp%3A%2F%2Ftracker.coppersurfer.tk%3A6969%2Fannounce&tr=udp%3A%2F%2Ftracker.pirateparty.gr%3A6969%2Fannounce&tr=udp%3A%2F%2Ftracker.cyberia.is%3A6969%2Fannounce",
        "seeder": "78",
        "leecher": "2"
    },
    {
        "rank": "15",
        "title": "Ready Player Two - Ernest Cline MP3",
        "link": "magnet:?xt=urn:btih:232B84587FC29B48A19129F2F67AE5E4864EF348&dn=Ready+Player+Two+-+Ernest+Cline+MP3&tr=udp%3A%2F%2Ftracker.coppersurfer.tk%3A6969%2Fannounce&tr=udp%3A%2F%2F9.rarbg.to%3A2920%2Fannounce&tr=udp%3A%2F%2Ftracker.opentrackr.org%3A1337&tr=udp%3A%2F%2Ftracker.internetwarriors.net%3A1337%2Fannounce&tr=udp%3A%2F%2Ftracker.leechers-paradise.org%3A6969%2Fannounce&tr=udp%3A%2F%2Ftracker.coppersurfer.tk%3A6969%2Fannounce&tr=udp%3A%2F%2Ftracker.pirateparty.gr%3A6969%2Fannounce&tr=udp%3A%2F%2Ftracker.cyberia.is%3A6969%2Fannounce",
        "seeder": "77",
        "leecher": "1"
    },
    {
        "rank": "16",
        "title": "Greenlights - Matthew McConaughey",
        "link": "magnet:?xt=urn:btih:73A567FDFF4DCB4909653A98FFD3F1C9C79CA587&dn=Greenlights+-+Matthew+McConaughey&tr=udp%3A%2F%2Ftracker.coppersurfer.tk%3A6969%2Fannounce&tr=udp%3A%2F%2F9.rarbg.to%3A2920%2Fannounce&tr=udp%3A%2F%2Ftracker.opentrackr.org%3A1337&tr=udp%3A%2F%2Ftracker.internetwarriors.net%3A1337%2Fannounce&tr=udp%3A%2F%2Ftracker.leechers-paradise.org%3A6969%2Fannounce&tr=udp%3A%2F%2Ftracker.coppersurfer.tk%3A6969%2Fannounce&tr=udp%3A%2F%2Ftracker.pirateparty.gr%3A6969%2Fannounce&tr=udp%3A%2F%2Ftracker.cyberia.is%3A6969%2Fannounce",
        "seeder": "74",
        "leecher": "3"
    },
    {
        "rank": "17",
        "title": "The Art of Impossible: A Peak Performance Primer - Steven Kotler",
        "link": "magnet:?xt=urn:btih:796D7E385F1655073E338463118C056831F4BCFA&dn=The+Art+of+Impossible%3A+A+Peak+Performance+Primer+-+Steven+Kotler&tr=udp%3A%2F%2Ftracker.coppersurfer.tk%3A6969%2Fannounce&tr=udp%3A%2F%2F9.rarbg.to%3A2920%2Fannounce&tr=udp%3A%2F%2Ftracker.opentrackr.org%3A1337&tr=udp%3A%2F%2Ftracker.internetwarriors.net%3A1337%2Fannounce&tr=udp%3A%2F%2Ftracker.leechers-paradise.org%3A6969%2Fannounce&tr=udp%3A%2F%2Ftracker.coppersurfer.tk%3A6969%2Fannounce&tr=udp%3A%2F%2Ftracker.pirateparty.gr%3A6969%2Fannounce&tr=udp%3A%2F%2Ftracker.cyberia.is%3A6969%2Fannounce",
        "seeder": "73",
        "leecher": "4"
    },
    {
        "rank": "18",
        "title": "Mythos by Stephen Fry (M4B, 64 Kbps)",
        "link": "magnet:?xt=urn:btih:3390BE34D808DA614BC8ED336C6A228F9BFAAAAD&dn=Mythos+by+Stephen+Fry+%28M4B%2C+64+Kbps%29&tr=udp%3A%2F%2Ftracker.coppersurfer.tk%3A6969%2Fannounce&tr=udp%3A%2F%2F9.rarbg.to%3A2920%2Fannounce&tr=udp%3A%2F%2Ftracker.opentrackr.org%3A1337&tr=udp%3A%2F%2Ftracker.internetwarriors.net%3A1337%2Fannounce&tr=udp%3A%2F%2Ftracker.leechers-paradise.org%3A6969%2Fannounce&tr=udp%3A%2F%2Ftracker.coppersurfer.tk%3A6969%2Fannounce&tr=udp%3A%2F%2Ftracker.pirateparty.gr%3A6969%2Fannounce&tr=udp%3A%2F%2Ftracker.cyberia.is%3A6969%2Fannounce",
        "seeder": "73",
        "leecher": "4"
    },
    {
        "rank": "19",
        "title": "The Five Elements of Effective Thinking [Audiobook]",
        "link": "magnet:?xt=urn:btih:DEF25B0F2B6B6AB6F27F14FDC83B077291A7516E&dn=The+Five+Elements+of+Effective+Thinking+%5BAudiobook%5D&tr=udp%3A%2F%2Ftracker.coppersurfer.tk%3A6969%2Fannounce&tr=udp%3A%2F%2F9.rarbg.to%3A2920%2Fannounce&tr=udp%3A%2F%2Ftracker.opentrackr.org%3A1337&tr=udp%3A%2F%2Ftracker.internetwarriors.net%3A1337%2Fannounce&tr=udp%3A%2F%2Ftracker.leechers-paradise.org%3A6969%2Fannounce&tr=udp%3A%2F%2Ftracker.coppersurfer.tk%3A6969%2Fannounce&tr=udp%3A%2F%2Ftracker.pirateparty.gr%3A6969%2Fannounce&tr=udp%3A%2F%2Ftracker.cyberia.is%3A6969%2Fannounce",
        "seeder": "73",
        "leecher": "0"
    },
    {
        "rank": "20",
        "title": "Sapiens: A Brief History of Humankind - Yuval Harari",
        "link": "magnet:?xt=urn:btih:040212FE7DBB29F3B9672B91318783F15559E8F2&dn=Sapiens%3A+A+Brief+History+of+Humankind+-+Yuval+Harari&tr=udp%3A%2F%2Ftracker.coppersurfer.tk%3A6969%2Fannounce&tr=udp%3A%2F%2F9.rarbg.to%3A2920%2Fannounce&tr=udp%3A%2F%2Ftracker.opentrackr.org%3A1337&tr=udp%3A%2F%2Ftracker.internetwarriors.net%3A1337%2Fannounce&tr=udp%3A%2F%2Ftracker.leechers-paradise.org%3A6969%2Fannounce&tr=udp%3A%2F%2Ftracker.coppersurfer.tk%3A6969%2Fannounce&tr=udp%3A%2F%2Ftracker.pirateparty.gr%3A6969%2Fannounce&tr=udp%3A%2F%2Ftracker.cyberia.is%3A6969%2Fannounce",
        "seeder": "72",
        "leecher": "1"
    },
    {
        "rank": "21",
        "title": "Blockchain: The Complete Guide to Uncovering Bitcoin, Cryptocurr",
        "link": "magnet:?xt=urn:btih:AF28B94D125DAE652E0F769C0B8009A6F9675511&dn=Blockchain%3A+The+Complete+Guide+to+Uncovering+Bitcoin%2C+Cryptocurr&tr=udp%3A%2F%2Ftracker.coppersurfer.tk%3A6969%2Fannounce&tr=udp%3A%2F%2F9.rarbg.to%3A2920%2Fannounce&tr=udp%3A%2F%2Ftracker.opentrackr.org%3A1337&tr=udp%3A%2F%2Ftracker.internetwarriors.net%3A1337%2Fannounce&tr=udp%3A%2F%2Ftracker.leechers-paradise.org%3A6969%2Fannounce&tr=udp%3A%2F%2Ftracker.coppersurfer.tk%3A6969%2Fannounce&tr=udp%3A%2F%2Ftracker.pirateparty.gr%3A6969%2Fannounce&tr=udp%3A%2F%2Ftracker.cyberia.is%3A6969%2Fannounce",
        "seeder": "69",
        "leecher": "3"
    },
    {
        "rank": "22",
        "title": "The First 20 Hours How to Learn Anything Fast - Josh Kaufman",
        "link": "magnet:?xt=urn:btih:5CB83E792EE5663014531A3D58EEEB7663FBF88F&dn=The+First+20+Hours+How+to+Learn+Anything+Fast+-+Josh+Kaufman&tr=udp%3A%2F%2Ftracker.coppersurfer.tk%3A6969%2Fannounce&tr=udp%3A%2F%2F9.rarbg.to%3A2920%2Fannounce&tr=udp%3A%2F%2Ftracker.opentrackr.org%3A1337&tr=udp%3A%2F%2Ftracker.internetwarriors.net%3A1337%2Fannounce&tr=udp%3A%2F%2Ftracker.leechers-paradise.org%3A6969%2Fannounce&tr=udp%3A%2F%2Ftracker.coppersurfer.tk%3A6969%2Fannounce&tr=udp%3A%2F%2Ftracker.pirateparty.gr%3A6969%2Fannounce&tr=udp%3A%2F%2Ftracker.cyberia.is%3A6969%2Fannounce",
        "seeder": "66",
        "leecher": "3"
    },
    {
        "rank": "23",
        "title": "Mary L. Trump PhD - Too Much and Never Enough",
        "link": "magnet:?xt=urn:btih:E2FAE3D2A2E5F25C6F83A324FA92921B9D03E16E&dn=Mary+L.+Trump+PhD+-+Too+Much+and+Never+Enough&tr=udp%3A%2F%2Ftracker.coppersurfer.tk%3A6969%2Fannounce&tr=udp%3A%2F%2F9.rarbg.to%3A2920%2Fannounce&tr=udp%3A%2F%2Ftracker.opentrackr.org%3A1337&tr=udp%3A%2F%2Ftracker.internetwarriors.net%3A1337%2Fannounce&tr=udp%3A%2F%2Ftracker.leechers-paradise.org%3A6969%2Fannounce&tr=udp%3A%2F%2Ftracker.coppersurfer.tk%3A6969%2Fannounce&tr=udp%3A%2F%2Ftracker.pirateparty.gr%3A6969%2Fannounce&tr=udp%3A%2F%2Ftracker.cyberia.is%3A6969%2Fannounce",
        "seeder": "65",
        "leecher": "0"
    },
    {
        "rank": "24",
        "title": "Rich Dad Poor Dad Robert Kiyosaki MegaPack [1 of 4]",
        "link": "magnet:?xt=urn:btih:9ED4A63A4799413D8C7DCEA58C95DC41AA12B03D&dn=Rich+Dad+Poor+Dad+Robert+Kiyosaki+MegaPack+%5B1+of+4%5D&tr=udp%3A%2F%2Ftracker.coppersurfer.tk%3A6969%2Fannounce&tr=udp%3A%2F%2F9.rarbg.to%3A2920%2Fannounce&tr=udp%3A%2F%2Ftracker.opentrackr.org%3A1337&tr=udp%3A%2F%2Ftracker.internetwarriors.net%3A1337%2Fannounce&tr=udp%3A%2F%2Ftracker.leechers-paradise.org%3A6969%2Fannounce&tr=udp%3A%2F%2Ftracker.coppersurfer.tk%3A6969%2Fannounce&tr=udp%3A%2F%2Ftracker.pirateparty.gr%3A6969%2Fannounce&tr=udp%3A%2F%2Ftracker.cyberia.is%3A6969%2Fannounce",
        "seeder": "64",
        "leecher": "8"
    },
    {
        "rank": "25",
        "title": "Terry Pratchett - Discworld",
        "link": "magnet:?xt=urn:btih:B4DC8B3F13FC39086425F3ABDB04C0218C1A0F3E&dn=Terry+Pratchett+-+Discworld&tr=udp%3A%2F%2Ftracker.coppersurfer.tk%3A6969%2Fannounce&tr=udp%3A%2F%2F9.rarbg.to%3A2920%2Fannounce&tr=udp%3A%2F%2Ftracker.opentrackr.org%3A1337&tr=udp%3A%2F%2Ftracker.internetwarriors.net%3A1337%2Fannounce&tr=udp%3A%2F%2Ftracker.leechers-paradise.org%3A6969%2Fannounce&tr=udp%3A%2F%2Ftracker.coppersurfer.tk%3A6969%2Fannounce&tr=udp%3A%2F%2Ftracker.pirateparty.gr%3A6969%2Fannounce&tr=udp%3A%2F%2Ftracker.cyberia.is%3A6969%2Fannounce",
        "seeder": "63",
        "leecher": "10"
    },
    {
        "rank": "26",
        "title": "Ikigai: The Japanese Secret to a Long and Happy Life",
        "link": "magnet:?xt=urn:btih:3E760F6A4DD1669B165F2BE5CD7745E40CCC6418&dn=Ikigai%3A+The+Japanese+Secret+to+a+Long+and+Happy+Life&tr=udp%3A%2F%2Ftracker.coppersurfer.tk%3A6969%2Fannounce&tr=udp%3A%2F%2F9.rarbg.to%3A2920%2Fannounce&tr=udp%3A%2F%2Ftracker.opentrackr.org%3A1337&tr=udp%3A%2F%2Ftracker.internetwarriors.net%3A1337%2Fannounce&tr=udp%3A%2F%2Ftracker.leechers-paradise.org%3A6969%2Fannounce&tr=udp%3A%2F%2Ftracker.coppersurfer.tk%3A6969%2Fannounce&tr=udp%3A%2F%2Ftracker.pirateparty.gr%3A6969%2Fannounce&tr=udp%3A%2F%2Ftracker.cyberia.is%3A6969%2Fannounce",
        "seeder": "62",
        "leecher": "3"
    },
    {
        "rank": "27",
        "title": "The Art of War by Sun Tzu",
        "link": "magnet:?xt=urn:btih:726FF42F84356C9AEB27DFA379678C89F0E62149&dn=The+Art+of+War+by+Sun+Tzu&tr=udp%3A%2F%2Ftracker.coppersurfer.tk%3A6969%2Fannounce&tr=udp%3A%2F%2F9.rarbg.to%3A2920%2Fannounce&tr=udp%3A%2F%2Ftracker.opentrackr.org%3A1337&tr=udp%3A%2F%2Ftracker.internetwarriors.net%3A1337%2Fannounce&tr=udp%3A%2F%2Ftracker.leechers-paradise.org%3A6969%2Fannounce&tr=udp%3A%2F%2Ftracker.coppersurfer.tk%3A6969%2Fannounce&tr=udp%3A%2F%2Ftracker.pirateparty.gr%3A6969%2Fannounce&tr=udp%3A%2F%2Ftracker.cyberia.is%3A6969%2Fannounce",
        "seeder": "61",
        "leecher": "2"
    },
    {
        "rank": "28",
        "title": "HBRs 10 Must Reads on Negotiation by Harvard Business Review",
        "link": "magnet:?xt=urn:btih:F919618BACC7C1BFAD183106DD5CE80323DFBA5B&dn=HBRs+10+Must+Reads+on+Negotiation+by+Harvard+Business+Review&tr=udp%3A%2F%2Ftracker.coppersurfer.tk%3A6969%2Fannounce&tr=udp%3A%2F%2F9.rarbg.to%3A2920%2Fannounce&tr=udp%3A%2F%2Ftracker.opentrackr.org%3A1337&tr=udp%3A%2F%2Ftracker.internetwarriors.net%3A1337%2Fannounce&tr=udp%3A%2F%2Ftracker.leechers-paradise.org%3A6969%2Fannounce&tr=udp%3A%2F%2Ftracker.coppersurfer.tk%3A6969%2Fannounce&tr=udp%3A%2F%2Ftracker.pirateparty.gr%3A6969%2Fannounce&tr=udp%3A%2F%2Ftracker.cyberia.is%3A6969%2Fannounce",
        "seeder": "58",
        "leecher": "0"
    },
    {
        "rank": "29",
        "title": "The Third Reich: A History of Nazi Germany 2020",
        "link": "magnet:?xt=urn:btih:3DE303234C5BFE521BE7C5F873F8DCBB9DD108B2&dn=The+Third+Reich%3A+A+History+of+Nazi+Germany+2020&tr=udp%3A%2F%2Ftracker.coppersurfer.tk%3A6969%2Fannounce&tr=udp%3A%2F%2F9.rarbg.to%3A2920%2Fannounce&tr=udp%3A%2F%2Ftracker.opentrackr.org%3A1337&tr=udp%3A%2F%2Ftracker.internetwarriors.net%3A1337%2Fannounce&tr=udp%3A%2F%2Ftracker.leechers-paradise.org%3A6969%2Fannounce&tr=udp%3A%2F%2Ftracker.coppersurfer.tk%3A6969%2Fannounce&tr=udp%3A%2F%2Ftracker.pirateparty.gr%3A6969%2Fannounce&tr=udp%3A%2F%2Ftracker.cyberia.is%3A6969%2Fannounce",
        "seeder": "57",
        "leecher": "4"
    },
    {
        "rank": "30",
        "title": "Frank Herbert - Dune (Books 1-6)",
        "link": "magnet:?xt=urn:btih:BB5CA4F00D22EA48662C26F155A166849099F510&dn=Frank+Herbert+-+Dune+%28Books+1-6%29&tr=udp%3A%2F%2Ftracker.coppersurfer.tk%3A6969%2Fannounce&tr=udp%3A%2F%2F9.rarbg.to%3A2920%2Fannounce&tr=udp%3A%2F%2Ftracker.opentrackr.org%3A1337&tr=udp%3A%2F%2Ftracker.internetwarriors.net%3A1337%2Fannounce&tr=udp%3A%2F%2Ftracker.leechers-paradise.org%3A6969%2Fannounce&tr=udp%3A%2F%2Ftracker.coppersurfer.tk%3A6969%2Fannounce&tr=udp%3A%2F%2Ftracker.pirateparty.gr%3A6969%2Fannounce&tr=udp%3A%2F%2Ftracker.cyberia.is%3A6969%2Fannounce",
        "seeder": "56",
        "leecher": "7"
    },
    {
        "rank": "31",
        "title": "Audible\u2019s Top Mystery & Thrillers of 2019",
        "link": "magnet:?xt=urn:btih:15EF220D99ADB2344B8EC7B086301F11C960C1D0&dn=Audible%26rsquo%3Bs+Top+Mystery+%26amp%3B+Thrillers+of+2019&tr=udp%3A%2F%2Ftracker.coppersurfer.tk%3A6969%2Fannounce&tr=udp%3A%2F%2F9.rarbg.to%3A2920%2Fannounce&tr=udp%3A%2F%2Ftracker.opentrackr.org%3A1337&tr=udp%3A%2F%2Ftracker.internetwarriors.net%3A1337%2Fannounce&tr=udp%3A%2F%2Ftracker.leechers-paradise.org%3A6969%2Fannounce&tr=udp%3A%2F%2Ftracker.coppersurfer.tk%3A6969%2Fannounce&tr=udp%3A%2F%2Ftracker.pirateparty.gr%3A6969%2Fannounce&tr=udp%3A%2F%2Ftracker.cyberia.is%3A6969%2Fannounce",
        "seeder": "52",
        "leecher": "4"
    },
    {
        "rank": "32",
        "title": "The Parasitic Mind: How Infectious Ideas Are Killing Common Sens",
        "link": "magnet:?xt=urn:btih:9E69FB2BF87F94A048E7C5880217F0BE9486F522&dn=The+Parasitic+Mind%3A+How+Infectious+Ideas+Are+Killing+Common+Sens&tr=udp%3A%2F%2Ftracker.coppersurfer.tk%3A6969%2Fannounce&tr=udp%3A%2F%2F9.rarbg.to%3A2920%2Fannounce&tr=udp%3A%2F%2Ftracker.opentrackr.org%3A1337&tr=udp%3A%2F%2Ftracker.internetwarriors.net%3A1337%2Fannounce&tr=udp%3A%2F%2Ftracker.leechers-paradise.org%3A6969%2Fannounce&tr=udp%3A%2F%2Ftracker.coppersurfer.tk%3A6969%2Fannounce&tr=udp%3A%2F%2Ftracker.pirateparty.gr%3A6969%2Fannounce&tr=udp%3A%2F%2Ftracker.cyberia.is%3A6969%2Fannounce",
        "seeder": "52",
        "leecher": "3"
    },
    {
        "rank": "33",
        "title": "The Trouble with Gravity: Solving the Mystery Beneath Our Feet -",
        "link": "magnet:?xt=urn:btih:1BBB91155DEA6C151DE899B721C3FB53A67B515E&dn=The+Trouble+with+Gravity%3A+Solving+the+Mystery+Beneath+Our+Feet+-&tr=udp%3A%2F%2Ftracker.coppersurfer.tk%3A6969%2Fannounce&tr=udp%3A%2F%2F9.rarbg.to%3A2920%2Fannounce&tr=udp%3A%2F%2Ftracker.opentrackr.org%3A1337&tr=udp%3A%2F%2Ftracker.internetwarriors.net%3A1337%2Fannounce&tr=udp%3A%2F%2Ftracker.leechers-paradise.org%3A6969%2Fannounce&tr=udp%3A%2F%2Ftracker.coppersurfer.tk%3A6969%2Fannounce&tr=udp%3A%2F%2Ftracker.pirateparty.gr%3A6969%2Fannounce&tr=udp%3A%2F%2Ftracker.cyberia.is%3A6969%2Fannounce",
        "seeder": "51",
        "leecher": "1"
    },
    {
        "rank": "34",
        "title": "Think Like a Monk: Train Your Mind for Peace and Purpose Every D",
        "link": "magnet:?xt=urn:btih:EF1935FBE860F146644FEBA75247CC41656429EE&dn=Think+Like+a+Monk%3A+Train+Your+Mind+for+Peace+and+Purpose+Every+D&tr=udp%3A%2F%2Ftracker.coppersurfer.tk%3A6969%2Fannounce&tr=udp%3A%2F%2F9.rarbg.to%3A2920%2Fannounce&tr=udp%3A%2F%2Ftracker.opentrackr.org%3A1337&tr=udp%3A%2F%2Ftracker.internetwarriors.net%3A1337%2Fannounce&tr=udp%3A%2F%2Ftracker.leechers-paradise.org%3A6969%2Fannounce&tr=udp%3A%2F%2Ftracker.coppersurfer.tk%3A6969%2Fannounce&tr=udp%3A%2F%2Ftracker.pirateparty.gr%3A6969%2Fannounce&tr=udp%3A%2F%2Ftracker.cyberia.is%3A6969%2Fannounce",
        "seeder": "50",
        "leecher": "0"
    },
    {
        "rank": "35",
        "title": "Sadhguru - Inner Engineering: A Yogis Guide to Joy 2018",
        "link": "magnet:?xt=urn:btih:482B3FC9570D8FC38F1BEF352CB1CDEDC535CD94&dn=Sadhguru+-+Inner+Engineering%3A+A+Yogis+Guide+to+Joy+2018&tr=udp%3A%2F%2Ftracker.coppersurfer.tk%3A6969%2Fannounce&tr=udp%3A%2F%2F9.rarbg.to%3A2920%2Fannounce&tr=udp%3A%2F%2Ftracker.opentrackr.org%3A1337&tr=udp%3A%2F%2Ftracker.internetwarriors.net%3A1337%2Fannounce&tr=udp%3A%2F%2Ftracker.leechers-paradise.org%3A6969%2Fannounce&tr=udp%3A%2F%2Ftracker.coppersurfer.tk%3A6969%2Fannounce&tr=udp%3A%2F%2Ftracker.pirateparty.gr%3A6969%2Fannounce&tr=udp%3A%2F%2Ftracker.cyberia.is%3A6969%2Fannounce",
        "seeder": "50",
        "leecher": "0"
    },
    {
        "rank": "36",
        "title": "The Crusades: The Authoritative History of the War for the Holy",
        "link": "magnet:?xt=urn:btih:62F4CC0F9A3F380B807C586A8D5F433B8188440A&dn=The+Crusades%3A+The+Authoritative+History+of+the+War+for+the+Holy&tr=udp%3A%2F%2Ftracker.coppersurfer.tk%3A6969%2Fannounce&tr=udp%3A%2F%2F9.rarbg.to%3A2920%2Fannounce&tr=udp%3A%2F%2Ftracker.opentrackr.org%3A1337&tr=udp%3A%2F%2Ftracker.internetwarriors.net%3A1337%2Fannounce&tr=udp%3A%2F%2Ftracker.leechers-paradise.org%3A6969%2Fannounce&tr=udp%3A%2F%2Ftracker.coppersurfer.tk%3A6969%2Fannounce&tr=udp%3A%2F%2Ftracker.pirateparty.gr%3A6969%2Fannounce&tr=udp%3A%2F%2Ftracker.cyberia.is%3A6969%2Fannounce",
        "seeder": "48",
        "leecher": "2"
    },
    {
        "rank": "37",
        "title": "The Top 100 Sci-Fi Audiobooks   (1-25)",
        "link": "magnet:?xt=urn:btih:66F33A84A7320BCDB896FEAB93936FE73F73868D&dn=The+Top+100+Sci-Fi+Audiobooks+++%281-25%29&tr=udp%3A%2F%2Ftracker.coppersurfer.tk%3A6969%2Fannounce&tr=udp%3A%2F%2F9.rarbg.to%3A2920%2Fannounce&tr=udp%3A%2F%2Ftracker.opentrackr.org%3A1337&tr=udp%3A%2F%2Ftracker.internetwarriors.net%3A1337%2Fannounce&tr=udp%3A%2F%2Ftracker.leechers-paradise.org%3A6969%2Fannounce&tr=udp%3A%2F%2Ftracker.coppersurfer.tk%3A6969%2Fannounce&tr=udp%3A%2F%2Ftracker.pirateparty.gr%3A6969%2Fannounce&tr=udp%3A%2F%2Ftracker.cyberia.is%3A6969%2Fannounce",
        "seeder": "48",
        "leecher": "12"
    },
    {
        "rank": "38",
        "title": "Yoga Nidra Sleep Meditation: Guided Meditations for Deep Relaxat",
        "link": "magnet:?xt=urn:btih:D511901AF72E13F762C9E3B6210C8935FFC0628E&dn=Yoga+Nidra+Sleep+Meditation%3A+Guided+Meditations+for+Deep+Relaxat&tr=udp%3A%2F%2Ftracker.coppersurfer.tk%3A6969%2Fannounce&tr=udp%3A%2F%2F9.rarbg.to%3A2920%2Fannounce&tr=udp%3A%2F%2Ftracker.opentrackr.org%3A1337&tr=udp%3A%2F%2Ftracker.internetwarriors.net%3A1337%2Fannounce&tr=udp%3A%2F%2Ftracker.leechers-paradise.org%3A6969%2Fannounce&tr=udp%3A%2F%2Ftracker.coppersurfer.tk%3A6969%2Fannounce&tr=udp%3A%2F%2Ftracker.pirateparty.gr%3A6969%2Fannounce&tr=udp%3A%2F%2Ftracker.cyberia.is%3A6969%2Fannounce",
        "seeder": "47",
        "leecher": "0"
    },
    {
        "rank": "39",
        "title": "The Art of Seduction: An Indispensible Primer on the Ultimate Fo",
        "link": "magnet:?xt=urn:btih:596F834EC669AFF78D3FAF24961025C102BCC43E&dn=The+Art+of+Seduction%3A+An+Indispensible+Primer+on+the+Ultimate+Fo&tr=udp%3A%2F%2Ftracker.coppersurfer.tk%3A6969%2Fannounce&tr=udp%3A%2F%2F9.rarbg.to%3A2920%2Fannounce&tr=udp%3A%2F%2Ftracker.opentrackr.org%3A1337&tr=udp%3A%2F%2Ftracker.internetwarriors.net%3A1337%2Fannounce&tr=udp%3A%2F%2Ftracker.leechers-paradise.org%3A6969%2Fannounce&tr=udp%3A%2F%2Ftracker.coppersurfer.tk%3A6969%2Fannounce&tr=udp%3A%2F%2Ftracker.pirateparty.gr%3A6969%2Fannounce&tr=udp%3A%2F%2Ftracker.cyberia.is%3A6969%2Fannounce",
        "seeder": "47",
        "leecher": "1"
    },
    {
        "rank": "40",
        "title": "Scrum: The Art of Doing Twice the Work in Half the Time - Jeff S",
        "link": "magnet:?xt=urn:btih:085C9E8E510884414F3B9969301962C6585F1049&dn=Scrum%3A+The+Art+of+Doing+Twice+the+Work+in+Half+the+Time+-+Jeff+S&tr=udp%3A%2F%2Ftracker.coppersurfer.tk%3A6969%2Fannounce&tr=udp%3A%2F%2F9.rarbg.to%3A2920%2Fannounce&tr=udp%3A%2F%2Ftracker.opentrackr.org%3A1337&tr=udp%3A%2F%2Ftracker.internetwarriors.net%3A1337%2Fannounce&tr=udp%3A%2F%2Ftracker.leechers-paradise.org%3A6969%2Fannounce&tr=udp%3A%2F%2Ftracker.coppersurfer.tk%3A6969%2Fannounce&tr=udp%3A%2F%2Ftracker.pirateparty.gr%3A6969%2Fannounce&tr=udp%3A%2F%2Ftracker.cyberia.is%3A6969%2Fannounce",
        "seeder": "47",
        "leecher": "0"
    },
    {
        "rank": "41",
        "title": "Thinking, Fast and Slow - Daniel Kahneman",
        "link": "magnet:?xt=urn:btih:B4494E9B84A3986CD9705B92F80C028EFDB8B125&dn=Thinking%2C+Fast+and+Slow+-+Daniel+Kahneman&tr=udp%3A%2F%2Ftracker.coppersurfer.tk%3A6969%2Fannounce&tr=udp%3A%2F%2F9.rarbg.to%3A2920%2Fannounce&tr=udp%3A%2F%2Ftracker.opentrackr.org%3A1337&tr=udp%3A%2F%2Ftracker.internetwarriors.net%3A1337%2Fannounce&tr=udp%3A%2F%2Ftracker.leechers-paradise.org%3A6969%2Fannounce&tr=udp%3A%2F%2Ftracker.coppersurfer.tk%3A6969%2Fannounce&tr=udp%3A%2F%2Ftracker.pirateparty.gr%3A6969%2Fannounce&tr=udp%3A%2F%2Ftracker.cyberia.is%3A6969%2Fannounce",
        "seeder": "47",
        "leecher": "0"
    },
    {
        "rank": "42",
        "title": "The Alchemist audiobook by Paulo Coelho EarReaders",
        "link": "magnet:?xt=urn:btih:2C4B172C97E4423682752A3F6D2A06B2A250EC06&dn=The+Alchemist+audiobook+by+Paulo+Coelho+EarReaders&tr=udp%3A%2F%2Ftracker.coppersurfer.tk%3A6969%2Fannounce&tr=udp%3A%2F%2F9.rarbg.to%3A2920%2Fannounce&tr=udp%3A%2F%2Ftracker.opentrackr.org%3A1337&tr=udp%3A%2F%2Ftracker.internetwarriors.net%3A1337%2Fannounce&tr=udp%3A%2F%2Ftracker.leechers-paradise.org%3A6969%2Fannounce&tr=udp%3A%2F%2Ftracker.coppersurfer.tk%3A6969%2Fannounce&tr=udp%3A%2F%2Ftracker.pirateparty.gr%3A6969%2Fannounce&tr=udp%3A%2F%2Ftracker.cyberia.is%3A6969%2Fannounce",
        "seeder": "46",
        "leecher": "0"
    },
    {
        "rank": "43",
        "title": "Sexual Intelligence - What We Really Want from Sex and How to Ge",
        "link": "magnet:?xt=urn:btih:69EB4F38A8610B8C5AB1B670210E6FBA65CC3EDE&dn=Sexual+Intelligence+-+What+We+Really+Want+from+Sex+and+How+to+Ge&tr=udp%3A%2F%2Ftracker.coppersurfer.tk%3A6969%2Fannounce&tr=udp%3A%2F%2F9.rarbg.to%3A2920%2Fannounce&tr=udp%3A%2F%2Ftracker.opentrackr.org%3A1337&tr=udp%3A%2F%2Ftracker.internetwarriors.net%3A1337%2Fannounce&tr=udp%3A%2F%2Ftracker.leechers-paradise.org%3A6969%2Fannounce&tr=udp%3A%2F%2Ftracker.coppersurfer.tk%3A6969%2Fannounce&tr=udp%3A%2F%2Ftracker.pirateparty.gr%3A6969%2Fannounce&tr=udp%3A%2F%2Ftracker.cyberia.is%3A6969%2Fannounce",
        "seeder": "45",
        "leecher": "0"
    },
    {
        "rank": "44",
        "title": "Learn French Language( ebooks + Audio Book ) ** Mega Collection",
        "link": "magnet:?xt=urn:btih:61FF9F66F0CDE3CF338ADD65F210DE7999C3FAA2&dn=Learn+French+Language%28+ebooks+%2B+Audio+Book+%29+%2A%2A+Mega+Collection&tr=udp%3A%2F%2Ftracker.coppersurfer.tk%3A6969%2Fannounce&tr=udp%3A%2F%2F9.rarbg.to%3A2920%2Fannounce&tr=udp%3A%2F%2Ftracker.opentrackr.org%3A1337&tr=udp%3A%2F%2Ftracker.internetwarriors.net%3A1337%2Fannounce&tr=udp%3A%2F%2Ftracker.leechers-paradise.org%3A6969%2Fannounce&tr=udp%3A%2F%2Ftracker.coppersurfer.tk%3A6969%2Fannounce&tr=udp%3A%2F%2Ftracker.pirateparty.gr%3A6969%2Fannounce&tr=udp%3A%2F%2Ftracker.cyberia.is%3A6969%2Fannounce",
        "seeder": "44",
        "leecher": "1"
    },
    {
        "rank": "45",
        "title": "Matthew J. Van Natta - The Beginner's Guide to Stoicism",
        "link": "magnet:?xt=urn:btih:B4B97D68532334686B05E17ECCB777FF4DF3435F&dn=Matthew+J.+Van+Natta+-+The+Beginner%27s+Guide+to+Stoicism&tr=udp%3A%2F%2Ftracker.coppersurfer.tk%3A6969%2Fannounce&tr=udp%3A%2F%2F9.rarbg.to%3A2920%2Fannounce&tr=udp%3A%2F%2Ftracker.opentrackr.org%3A1337&tr=udp%3A%2F%2Ftracker.internetwarriors.net%3A1337%2Fannounce&tr=udp%3A%2F%2Ftracker.leechers-paradise.org%3A6969%2Fannounce&tr=udp%3A%2F%2Ftracker.coppersurfer.tk%3A6969%2Fannounce&tr=udp%3A%2F%2Ftracker.pirateparty.gr%3A6969%2Fannounce&tr=udp%3A%2F%2Ftracker.cyberia.is%3A6969%2Fannounce",
        "seeder": "43",
        "leecher": "5"
    },
    {
        "rank": "46",
        "title": "Be Obsessed or Be Average [Audiobook] by Grant Cardone [Dr.Soc]",
        "link": "magnet:?xt=urn:btih:2FBE3CE84C822BBB0A97BDF71C0DEE5522E81354&dn=Be+Obsessed+or+Be+Average+%5BAudiobook%5D+by+Grant+Cardone+%5BDr.Soc%5D&tr=udp%3A%2F%2Ftracker.coppersurfer.tk%3A6969%2Fannounce&tr=udp%3A%2F%2F9.rarbg.to%3A2920%2Fannounce&tr=udp%3A%2F%2Ftracker.opentrackr.org%3A1337&tr=udp%3A%2F%2Ftracker.internetwarriors.net%3A1337%2Fannounce&tr=udp%3A%2F%2Ftracker.leechers-paradise.org%3A6969%2Fannounce&tr=udp%3A%2F%2Ftracker.coppersurfer.tk%3A6969%2Fannounce&tr=udp%3A%2F%2Ftracker.pirateparty.gr%3A6969%2Fannounce&tr=udp%3A%2F%2Ftracker.cyberia.is%3A6969%2Fannounce",
        "seeder": "42",
        "leecher": "0"
    },
    {
        "rank": "47",
        "title": "The Tipping Point Malcolm Gladwell - Audiobook",
        "link": "magnet:?xt=urn:btih:6F9863B9104FFEA0139E7F8F33DE1821B536F8A8&dn=The+Tipping+Point+Malcolm+Gladwell+-+Audiobook&tr=udp%3A%2F%2Ftracker.coppersurfer.tk%3A6969%2Fannounce&tr=udp%3A%2F%2F9.rarbg.to%3A2920%2Fannounce&tr=udp%3A%2F%2Ftracker.opentrackr.org%3A1337&tr=udp%3A%2F%2Ftracker.internetwarriors.net%3A1337%2Fannounce&tr=udp%3A%2F%2Ftracker.leechers-paradise.org%3A6969%2Fannounce&tr=udp%3A%2F%2Ftracker.coppersurfer.tk%3A6969%2Fannounce&tr=udp%3A%2F%2Ftracker.pirateparty.gr%3A6969%2Fannounce&tr=udp%3A%2F%2Ftracker.cyberia.is%3A6969%2Fannounce",
        "seeder": "42",
        "leecher": "3"
    },
    {
        "rank": "48",
        "title": "Brandon Sanderson - The Way of Kings (The Stormlight Archive #1)",
        "link": "magnet:?xt=urn:btih:16D2D7FC4B5680C92DC3D812C8C57B7CCC56FF5B&dn=Brandon+Sanderson+-+The+Way+of+Kings+%28The+Stormlight+Archive+%231%29&tr=udp%3A%2F%2Ftracker.coppersurfer.tk%3A6969%2Fannounce&tr=udp%3A%2F%2F9.rarbg.to%3A2920%2Fannounce&tr=udp%3A%2F%2Ftracker.opentrackr.org%3A1337&tr=udp%3A%2F%2Ftracker.internetwarriors.net%3A1337%2Fannounce&tr=udp%3A%2F%2Ftracker.leechers-paradise.org%3A6969%2Fannounce&tr=udp%3A%2F%2Ftracker.coppersurfer.tk%3A6969%2Fannounce&tr=udp%3A%2F%2Ftracker.pirateparty.gr%3A6969%2Fannounce&tr=udp%3A%2F%2Ftracker.cyberia.is%3A6969%2Fannounce",
        "seeder": "41",
        "leecher": "1"
    },
    {
        "rank": "49",
        "title": "The Rational Male - Rollo Tomassi",
        "link": "magnet:?xt=urn:btih:4ADE3B4F6A0CBB44F7DDF421F3F002BD8BA7BD24&dn=The+Rational+Male+-+Rollo+Tomassi&tr=udp%3A%2F%2Ftracker.coppersurfer.tk%3A6969%2Fannounce&tr=udp%3A%2F%2F9.rarbg.to%3A2920%2Fannounce&tr=udp%3A%2F%2Ftracker.opentrackr.org%3A1337&tr=udp%3A%2F%2Ftracker.internetwarriors.net%3A1337%2Fannounce&tr=udp%3A%2F%2Ftracker.leechers-paradise.org%3A6969%2Fannounce&tr=udp%3A%2F%2Ftracker.coppersurfer.tk%3A6969%2Fannounce&tr=udp%3A%2F%2Ftracker.pirateparty.gr%3A6969%2Fannounce&tr=udp%3A%2F%2Ftracker.cyberia.is%3A6969%2Fannounce",
        "seeder": "40",
        "leecher": "1"
    },
    {
        "rank": "50",
        "title": "The Witcher - Audiobook Collection 2015",
        "link": "magnet:?xt=urn:btih:C8B5613908E829072C5C9DDAE1D84D555A95F889&dn=The+Witcher+-+Audiobook+Collection+2015&tr=udp%3A%2F%2Ftracker.coppersurfer.tk%3A6969%2Fannounce&tr=udp%3A%2F%2F9.rarbg.to%3A2920%2Fannounce&tr=udp%3A%2F%2Ftracker.opentrackr.org%3A1337&tr=udp%3A%2F%2Ftracker.internetwarriors.net%3A1337%2Fannounce&tr=udp%3A%2F%2Ftracker.leechers-paradise.org%3A6969%2Fannounce&tr=udp%3A%2F%2Ftracker.coppersurfer.tk%3A6969%2Fannounce&tr=udp%3A%2F%2Ftracker.pirateparty.gr%3A6969%2Fannounce&tr=udp%3A%2F%2Ftracker.cyberia.is%3A6969%2Fannounce",
        "seeder": "40",
        "leecher": "3"
    },
    {
        "rank": "51",
        "title": "Solving the Procrastination Puzzle --Timothy A. Pychyl Audiobook",
        "link": "magnet:?xt=urn:btih:884FDFE5BC30BBCCC2D861DF123A125A568C9681&dn=Solving+the+Procrastination+Puzzle+--Timothy+A.+Pychyl+Audiobook&tr=udp%3A%2F%2Ftracker.coppersurfer.tk%3A6969%2Fannounce&tr=udp%3A%2F%2F9.rarbg.to%3A2920%2Fannounce&tr=udp%3A%2F%2Ftracker.opentrackr.org%3A1337&tr=udp%3A%2F%2Ftracker.internetwarriors.net%3A1337%2Fannounce&tr=udp%3A%2F%2Ftracker.leechers-paradise.org%3A6969%2Fannounce&tr=udp%3A%2F%2Ftracker.coppersurfer.tk%3A6969%2Fannounce&tr=udp%3A%2F%2Ftracker.pirateparty.gr%3A6969%2Fannounce&tr=udp%3A%2F%2Ftracker.cyberia.is%3A6969%2Fannounce",
        "seeder": "40",
        "leecher": "1"
    },
    {
        "rank": "52",
        "title": "Alan Watts- Out of Your Mind (The Essential Lectures)",
        "link": "magnet:?xt=urn:btih:113640652C0ACBB11D7FA266FC6B29BADA5132DE&dn=Alan+Watts-+Out+of+Your+Mind+%28The+Essential+Lectures%29&tr=udp%3A%2F%2Ftracker.coppersurfer.tk%3A6969%2Fannounce&tr=udp%3A%2F%2F9.rarbg.to%3A2920%2Fannounce&tr=udp%3A%2F%2Ftracker.opentrackr.org%3A1337&tr=udp%3A%2F%2Ftracker.internetwarriors.net%3A1337%2Fannounce&tr=udp%3A%2F%2Ftracker.leechers-paradise.org%3A6969%2Fannounce&tr=udp%3A%2F%2Ftracker.coppersurfer.tk%3A6969%2Fannounce&tr=udp%3A%2F%2Ftracker.pirateparty.gr%3A6969%2Fannounce&tr=udp%3A%2F%2Ftracker.cyberia.is%3A6969%2Fannounce",
        "seeder": "40",
        "leecher": "0"
    },
    {
        "rank": "53",
        "title": "Rich Dad Poor Dad Robert Kiyosaki MegaPack [4 of 4]",
        "link": "magnet:?xt=urn:btih:284D8348748847383592131F8A60BE3178F5774E&dn=Rich+Dad+Poor+Dad+Robert+Kiyosaki+MegaPack+%5B4+of+4%5D&tr=udp%3A%2F%2Ftracker.coppersurfer.tk%3A6969%2Fannounce&tr=udp%3A%2F%2F9.rarbg.to%3A2920%2Fannounce&tr=udp%3A%2F%2Ftracker.opentrackr.org%3A1337&tr=udp%3A%2F%2Ftracker.internetwarriors.net%3A1337%2Fannounce&tr=udp%3A%2F%2Ftracker.leechers-paradise.org%3A6969%2Fannounce&tr=udp%3A%2F%2Ftracker.coppersurfer.tk%3A6969%2Fannounce&tr=udp%3A%2F%2Ftracker.pirateparty.gr%3A6969%2Fannounce&tr=udp%3A%2F%2Ftracker.cyberia.is%3A6969%2Fannounce",
        "seeder": "39",
        "leecher": "3"
    },
    {
        "rank": "54",
        "title": "Think and Grow Rich by Napoleon Hill (Unabridged Version)",
        "link": "magnet:?xt=urn:btih:3E033B91CF6EAB5E0F9C81852603407016139E7F&dn=Think+and+Grow+Rich+by+Napoleon+Hill+%28Unabridged+Version%29&tr=udp%3A%2F%2Ftracker.coppersurfer.tk%3A6969%2Fannounce&tr=udp%3A%2F%2F9.rarbg.to%3A2920%2Fannounce&tr=udp%3A%2F%2Ftracker.opentrackr.org%3A1337&tr=udp%3A%2F%2Ftracker.internetwarriors.net%3A1337%2Fannounce&tr=udp%3A%2F%2Ftracker.leechers-paradise.org%3A6969%2Fannounce&tr=udp%3A%2F%2Ftracker.coppersurfer.tk%3A6969%2Fannounce&tr=udp%3A%2F%2Ftracker.pirateparty.gr%3A6969%2Fannounce&tr=udp%3A%2F%2Ftracker.cyberia.is%3A6969%2Fannounce",
        "seeder": "37",
        "leecher": "1"
    },
    {
        "rank": "55",
        "title": "The Harry Potter Audiobook Collection  (Stephen Fry)",
        "link": "magnet:?xt=urn:btih:3C52FE46CB781E2CA8920999C231F44D76A5E7A5&dn=The+Harry+Potter+Audiobook+Collection++%28Stephen+Fry%29&tr=udp%3A%2F%2Ftracker.coppersurfer.tk%3A6969%2Fannounce&tr=udp%3A%2F%2F9.rarbg.to%3A2920%2Fannounce&tr=udp%3A%2F%2Ftracker.opentrackr.org%3A1337&tr=udp%3A%2F%2Ftracker.internetwarriors.net%3A1337%2Fannounce&tr=udp%3A%2F%2Ftracker.leechers-paradise.org%3A6969%2Fannounce&tr=udp%3A%2F%2Ftracker.coppersurfer.tk%3A6969%2Fannounce&tr=udp%3A%2F%2Ftracker.pirateparty.gr%3A6969%2Fannounce&tr=udp%3A%2F%2Ftracker.cyberia.is%3A6969%2Fannounce",
        "seeder": "37",
        "leecher": "3"
    },
    {
        "rank": "56",
        "title": "Spanish for Dummies Audio Set (3 CDs and book)",
        "link": "magnet:?xt=urn:btih:0A08017A081D0A7DB35A322C81CF855D7CC96EA0&dn=Spanish+for+Dummies+Audio+Set+%283+CDs+and+book%29&tr=udp%3A%2F%2Ftracker.coppersurfer.tk%3A6969%2Fannounce&tr=udp%3A%2F%2F9.rarbg.to%3A2920%2Fannounce&tr=udp%3A%2F%2Ftracker.opentrackr.org%3A1337&tr=udp%3A%2F%2Ftracker.internetwarriors.net%3A1337%2Fannounce&tr=udp%3A%2F%2Ftracker.leechers-paradise.org%3A6969%2Fannounce&tr=udp%3A%2F%2Ftracker.coppersurfer.tk%3A6969%2Fannounce&tr=udp%3A%2F%2Ftracker.pirateparty.gr%3A6969%2Fannounce&tr=udp%3A%2F%2Ftracker.cyberia.is%3A6969%2Fannounce",
        "seeder": "37",
        "leecher": "0"
    },
    {
        "rank": "57",
        "title": "Douglas Adams - Hitchhiker's Guide To The Galaxy (Stephen Fry an",
        "link": "magnet:?xt=urn:btih:09F8C342D4A492421BA61BD25AC5AC62C18B25E4&dn=Douglas+Adams+-+Hitchhiker%27s+Guide+To+The+Galaxy+%28Stephen+Fry+an&tr=udp%3A%2F%2Ftracker.coppersurfer.tk%3A6969%2Fannounce&tr=udp%3A%2F%2F9.rarbg.to%3A2920%2Fannounce&tr=udp%3A%2F%2Ftracker.opentrackr.org%3A1337&tr=udp%3A%2F%2Ftracker.internetwarriors.net%3A1337%2Fannounce&tr=udp%3A%2F%2Ftracker.leechers-paradise.org%3A6969%2Fannounce&tr=udp%3A%2F%2Ftracker.coppersurfer.tk%3A6969%2Fannounce&tr=udp%3A%2F%2Ftracker.pirateparty.gr%3A6969%2Fannounce&tr=udp%3A%2F%2Ftracker.cyberia.is%3A6969%2Fannounce",
        "seeder": "36",
        "leecher": "4"
    },
    {
        "rank": "58",
        "title": "OUTLIERS - Malcolm Gladwell. Read by Gladwell {FerraBit}",
        "link": "magnet:?xt=urn:btih:205E58E35DBBF1E9666844F015C40AAD91A25176&dn=OUTLIERS+-+Malcolm+Gladwell.+Read+by+Gladwell+%7BFerraBit%7D&tr=udp%3A%2F%2Ftracker.coppersurfer.tk%3A6969%2Fannounce&tr=udp%3A%2F%2F9.rarbg.to%3A2920%2Fannounce&tr=udp%3A%2F%2Ftracker.opentrackr.org%3A1337&tr=udp%3A%2F%2Ftracker.internetwarriors.net%3A1337%2Fannounce&tr=udp%3A%2F%2Ftracker.leechers-paradise.org%3A6969%2Fannounce&tr=udp%3A%2F%2Ftracker.coppersurfer.tk%3A6969%2Fannounce&tr=udp%3A%2F%2Ftracker.pirateparty.gr%3A6969%2Fannounce&tr=udp%3A%2F%2Ftracker.cyberia.is%3A6969%2Fannounce",
        "seeder": "36",
        "leecher": "2"
    },
    {
        "rank": "59",
        "title": "The Room Where It Happened: A White House Memoir - John Bolton",
        "link": "magnet:?xt=urn:btih:162D78B9546E162716CC345D4E90F7676308E60C&dn=The+Room+Where+It+Happened%3A+A+White+House+Memoir+-+John+Bolton&tr=udp%3A%2F%2Ftracker.coppersurfer.tk%3A6969%2Fannounce&tr=udp%3A%2F%2F9.rarbg.to%3A2920%2Fannounce&tr=udp%3A%2F%2Ftracker.opentrackr.org%3A1337&tr=udp%3A%2F%2Ftracker.internetwarriors.net%3A1337%2Fannounce&tr=udp%3A%2F%2Ftracker.leechers-paradise.org%3A6969%2Fannounce&tr=udp%3A%2F%2Ftracker.coppersurfer.tk%3A6969%2Fannounce&tr=udp%3A%2F%2Ftracker.pirateparty.gr%3A6969%2Fannounce&tr=udp%3A%2F%2Ftracker.cyberia.is%3A6969%2Fannounce",
        "seeder": "35",
        "leecher": "0"
    },
    {
        "rank": "60",
        "title": "TTC - 12 Essential Scientific Concepts",
        "link": "magnet:?xt=urn:btih:4E482479A3180A7FB559AE6AE76B7852293A0C39&dn=TTC+-+12+Essential+Scientific+Concepts&tr=udp%3A%2F%2Ftracker.coppersurfer.tk%3A6969%2Fannounce&tr=udp%3A%2F%2F9.rarbg.to%3A2920%2Fannounce&tr=udp%3A%2F%2Ftracker.opentrackr.org%3A1337&tr=udp%3A%2F%2Ftracker.internetwarriors.net%3A1337%2Fannounce&tr=udp%3A%2F%2Ftracker.leechers-paradise.org%3A6969%2Fannounce&tr=udp%3A%2F%2Ftracker.coppersurfer.tk%3A6969%2Fannounce&tr=udp%3A%2F%2Ftracker.pirateparty.gr%3A6969%2Fannounce&tr=udp%3A%2F%2Ftracker.cyberia.is%3A6969%2Fannounce",
        "seeder": "35",
        "leecher": "1"
    },
    {
        "rank": "61",
        "title": "Sherlock Holmes The Definitive Collection reader Stephen Fry m4b",
        "link": "magnet:?xt=urn:btih:B172AA22498ABC9571E1F37B5CE3C4B8C0DD09D2&dn=Sherlock+Holmes+The+Definitive+Collection+reader+Stephen+Fry+m4b&tr=udp%3A%2F%2Ftracker.coppersurfer.tk%3A6969%2Fannounce&tr=udp%3A%2F%2F9.rarbg.to%3A2920%2Fannounce&tr=udp%3A%2F%2Ftracker.opentrackr.org%3A1337&tr=udp%3A%2F%2Ftracker.internetwarriors.net%3A1337%2Fannounce&tr=udp%3A%2F%2Ftracker.leechers-paradise.org%3A6969%2Fannounce&tr=udp%3A%2F%2Ftracker.coppersurfer.tk%3A6969%2Fannounce&tr=udp%3A%2F%2Ftracker.pirateparty.gr%3A6969%2Fannounce&tr=udp%3A%2F%2Ftracker.cyberia.is%3A6969%2Fannounce",
        "seeder": "34",
        "leecher": "5"
    },
    {
        "rank": "62",
        "title": "Leaders Eat Last - Simon Sinek - Chapterized Audiobook MP3",
        "link": "magnet:?xt=urn:btih:120B6EF9919815D8B8EAF86D2A667A1650E8C56B&dn=Leaders+Eat+Last+-+Simon+Sinek+-+Chapterized+Audiobook+MP3&tr=udp%3A%2F%2Ftracker.coppersurfer.tk%3A6969%2Fannounce&tr=udp%3A%2F%2F9.rarbg.to%3A2920%2Fannounce&tr=udp%3A%2F%2Ftracker.opentrackr.org%3A1337&tr=udp%3A%2F%2Ftracker.internetwarriors.net%3A1337%2Fannounce&tr=udp%3A%2F%2Ftracker.leechers-paradise.org%3A6969%2Fannounce&tr=udp%3A%2F%2Ftracker.coppersurfer.tk%3A6969%2Fannounce&tr=udp%3A%2F%2Ftracker.pirateparty.gr%3A6969%2Fannounce&tr=udp%3A%2F%2Ftracker.cyberia.is%3A6969%2Fannounce",
        "seeder": "34",
        "leecher": "2"
    },
    {
        "rank": "63",
        "title": "Juggling with Knives: Smart Investing in the Coming Age of Volat",
        "link": "magnet:?xt=urn:btih:8E19F596A1B90659DEE430293395B4D6B43DF5F1&dn=Juggling+with+Knives%3A+Smart+Investing+in+the+Coming+Age+of+Volat&tr=udp%3A%2F%2Ftracker.coppersurfer.tk%3A6969%2Fannounce&tr=udp%3A%2F%2F9.rarbg.to%3A2920%2Fannounce&tr=udp%3A%2F%2Ftracker.opentrackr.org%3A1337&tr=udp%3A%2F%2Ftracker.internetwarriors.net%3A1337%2Fannounce&tr=udp%3A%2F%2Ftracker.leechers-paradise.org%3A6969%2Fannounce&tr=udp%3A%2F%2Ftracker.coppersurfer.tk%3A6969%2Fannounce&tr=udp%3A%2F%2Ftracker.pirateparty.gr%3A6969%2Fannounce&tr=udp%3A%2F%2Ftracker.cyberia.is%3A6969%2Fannounce",
        "seeder": "33",
        "leecher": "0"
    },
    {
        "rank": "64",
        "title": "Terry Pratchett Audiobook Collection",
        "link": "magnet:?xt=urn:btih:D6CC274C838F7E009984392D54B02F4C2115C3C0&dn=Terry+Pratchett+Audiobook+Collection&tr=udp%3A%2F%2Ftracker.coppersurfer.tk%3A6969%2Fannounce&tr=udp%3A%2F%2F9.rarbg.to%3A2920%2Fannounce&tr=udp%3A%2F%2Ftracker.opentrackr.org%3A1337&tr=udp%3A%2F%2Ftracker.internetwarriors.net%3A1337%2Fannounce&tr=udp%3A%2F%2Ftracker.leechers-paradise.org%3A6969%2Fannounce&tr=udp%3A%2F%2Ftracker.coppersurfer.tk%3A6969%2Fannounce&tr=udp%3A%2F%2Ftracker.pirateparty.gr%3A6969%2Fannounce&tr=udp%3A%2F%2Ftracker.cyberia.is%3A6969%2Fannounce",
        "seeder": "33",
        "leecher": "24"
    },
    {
        "rank": "65",
        "title": "The Millionaire Booklet [Audiobook] by Grant Cardone [Dr.Soc]",
        "link": "magnet:?xt=urn:btih:2C653BCDDB4B9096B2AA241010C0F0F8503DB421&dn=The+Millionaire+Booklet+%5BAudiobook%5D+by+Grant+Cardone+%5BDr.Soc%5D&tr=udp%3A%2F%2Ftracker.coppersurfer.tk%3A6969%2Fannounce&tr=udp%3A%2F%2F9.rarbg.to%3A2920%2Fannounce&tr=udp%3A%2F%2Ftracker.opentrackr.org%3A1337&tr=udp%3A%2F%2Ftracker.internetwarriors.net%3A1337%2Fannounce&tr=udp%3A%2F%2Ftracker.leechers-paradise.org%3A6969%2Fannounce&tr=udp%3A%2F%2Ftracker.coppersurfer.tk%3A6969%2Fannounce&tr=udp%3A%2F%2Ftracker.pirateparty.gr%3A6969%2Fannounce&tr=udp%3A%2F%2Ftracker.cyberia.is%3A6969%2Fannounce",
        "seeder": "33",
        "leecher": "0"
    },
    {
        "rank": "66",
        "title": "Christopher Paolini - To Sleep in a Sea of Stars",
        "link": "magnet:?xt=urn:btih:627F8CF12244BE09510AE70BA2A2F9565BCA40FC&dn=Christopher+Paolini+-+To+Sleep+in+a+Sea+of+Stars&tr=udp%3A%2F%2Ftracker.coppersurfer.tk%3A6969%2Fannounce&tr=udp%3A%2F%2F9.rarbg.to%3A2920%2Fannounce&tr=udp%3A%2F%2Ftracker.opentrackr.org%3A1337&tr=udp%3A%2F%2Ftracker.internetwarriors.net%3A1337%2Fannounce&tr=udp%3A%2F%2Ftracker.leechers-paradise.org%3A6969%2Fannounce&tr=udp%3A%2F%2Ftracker.coppersurfer.tk%3A6969%2Fannounce&tr=udp%3A%2F%2Ftracker.pirateparty.gr%3A6969%2Fannounce&tr=udp%3A%2F%2Ftracker.cyberia.is%3A6969%2Fannounce",
        "seeder": "32",
        "leecher": "0"
    },
    {
        "rank": "67",
        "title": "Brandon Sanderson - Mistborn Series [Books 1-4] MacMillan Audio",
        "link": "magnet:?xt=urn:btih:E37313A2B3D0B923F96F6EAD8F72222BA66C3DCE&dn=Brandon+Sanderson+-+Mistborn+Series+%5BBooks+1-4%5D+MacMillan+Audio&tr=udp%3A%2F%2Ftracker.coppersurfer.tk%3A6969%2Fannounce&tr=udp%3A%2F%2F9.rarbg.to%3A2920%2Fannounce&tr=udp%3A%2F%2Ftracker.opentrackr.org%3A1337&tr=udp%3A%2F%2Ftracker.internetwarriors.net%3A1337%2Fannounce&tr=udp%3A%2F%2Ftracker.leechers-paradise.org%3A6969%2Fannounce&tr=udp%3A%2F%2Ftracker.coppersurfer.tk%3A6969%2Fannounce&tr=udp%3A%2F%2Ftracker.pirateparty.gr%3A6969%2Fannounce&tr=udp%3A%2F%2Ftracker.cyberia.is%3A6969%2Fannounce",
        "seeder": "32",
        "leecher": "2"
    },
    {
        "rank": "68",
        "title": "Cixin Liu - The Three-Body Problem (Three Body #1)",
        "link": "magnet:?xt=urn:btih:3AFFCCB854830DF88B9F7880837CC0EF509A7828&dn=Cixin+Liu+-+The+Three-Body+Problem+%28Three+Body+%231%29&tr=udp%3A%2F%2Ftracker.coppersurfer.tk%3A6969%2Fannounce&tr=udp%3A%2F%2F9.rarbg.to%3A2920%2Fannounce&tr=udp%3A%2F%2Ftracker.opentrackr.org%3A1337&tr=udp%3A%2F%2Ftracker.internetwarriors.net%3A1337%2Fannounce&tr=udp%3A%2F%2Ftracker.leechers-paradise.org%3A6969%2Fannounce&tr=udp%3A%2F%2Ftracker.coppersurfer.tk%3A6969%2Fannounce&tr=udp%3A%2F%2Ftracker.pirateparty.gr%3A6969%2Fannounce&tr=udp%3A%2F%2Ftracker.cyberia.is%3A6969%2Fannounce",
        "seeder": "32",
        "leecher": "0"
    },
    {
        "rank": "69",
        "title": "George Orwell - Complete Collection (eBooks + Audio Books + Oth",
        "link": "magnet:?xt=urn:btih:B4BC5CE52046EB1293F8511E6912F44DDA6D024B&dn=George+Orwell+-+Complete+Collection+%28eBooks+%2B+Audio+Books+%2B+Oth&tr=udp%3A%2F%2Ftracker.coppersurfer.tk%3A6969%2Fannounce&tr=udp%3A%2F%2F9.rarbg.to%3A2920%2Fannounce&tr=udp%3A%2F%2Ftracker.opentrackr.org%3A1337&tr=udp%3A%2F%2Ftracker.internetwarriors.net%3A1337%2Fannounce&tr=udp%3A%2F%2Ftracker.leechers-paradise.org%3A6969%2Fannounce&tr=udp%3A%2F%2Ftracker.coppersurfer.tk%3A6969%2Fannounce&tr=udp%3A%2F%2Ftracker.pirateparty.gr%3A6969%2Fannounce&tr=udp%3A%2F%2Ftracker.cyberia.is%3A6969%2Fannounce",
        "seeder": "32",
        "leecher": "3"
    },
    {
        "rank": "70",
        "title": "Think Like a Roman Emperor - Stoic Philosophy of Marcus Aurelius",
        "link": "magnet:?xt=urn:btih:4F4C1B08FD97914679CA9D4EB90EEFD8E90D5690&dn=Think+Like+a+Roman+Emperor+-+Stoic+Philosophy+of+Marcus+Aurelius&tr=udp%3A%2F%2Ftracker.coppersurfer.tk%3A6969%2Fannounce&tr=udp%3A%2F%2F9.rarbg.to%3A2920%2Fannounce&tr=udp%3A%2F%2Ftracker.opentrackr.org%3A1337&tr=udp%3A%2F%2Ftracker.internetwarriors.net%3A1337%2Fannounce&tr=udp%3A%2F%2Ftracker.leechers-paradise.org%3A6969%2Fannounce&tr=udp%3A%2F%2Ftracker.coppersurfer.tk%3A6969%2Fannounce&tr=udp%3A%2F%2Ftracker.pirateparty.gr%3A6969%2Fannounce&tr=udp%3A%2F%2Ftracker.cyberia.is%3A6969%2Fannounce",
        "seeder": "31",
        "leecher": "6"
    },
    {
        "rank": "71",
        "title": "Ryan Holiday - Lives of the Stoics",
        "link": "magnet:?xt=urn:btih:8EA6FDF31D1056487EDA8F889818C6E5812F4B8D&dn=Ryan+Holiday+-+Lives+of+the+Stoics&tr=udp%3A%2F%2Ftracker.coppersurfer.tk%3A6969%2Fannounce&tr=udp%3A%2F%2F9.rarbg.to%3A2920%2Fannounce&tr=udp%3A%2F%2Ftracker.opentrackr.org%3A1337&tr=udp%3A%2F%2Ftracker.internetwarriors.net%3A1337%2Fannounce&tr=udp%3A%2F%2Ftracker.leechers-paradise.org%3A6969%2Fannounce&tr=udp%3A%2F%2Ftracker.coppersurfer.tk%3A6969%2Fannounce&tr=udp%3A%2F%2Ftracker.pirateparty.gr%3A6969%2Fannounce&tr=udp%3A%2F%2Ftracker.cyberia.is%3A6969%2Fannounce",
        "seeder": "31",
        "leecher": "4"
    },
    {
        "rank": "72",
        "title": "Seneca - Letters from a Stoic Penguin Classics",
        "link": "magnet:?xt=urn:btih:74CA9BD88BA08E1204FB733B96AA9D81DDD36708&dn=Seneca+-+Letters+from+a+Stoic+Penguin+Classics&tr=udp%3A%2F%2Ftracker.coppersurfer.tk%3A6969%2Fannounce&tr=udp%3A%2F%2F9.rarbg.to%3A2920%2Fannounce&tr=udp%3A%2F%2Ftracker.opentrackr.org%3A1337&tr=udp%3A%2F%2Ftracker.internetwarriors.net%3A1337%2Fannounce&tr=udp%3A%2F%2Ftracker.leechers-paradise.org%3A6969%2Fannounce&tr=udp%3A%2F%2Ftracker.coppersurfer.tk%3A6969%2Fannounce&tr=udp%3A%2F%2Ftracker.pirateparty.gr%3A6969%2Fannounce&tr=udp%3A%2F%2Ftracker.cyberia.is%3A6969%2Fannounce",
        "seeder": "31",
        "leecher": "7"
    },
    {
        "rank": "73",
        "title": "Lee Child: Jack Reacher 01-24 (read by Jeff Harding) + Shorts",
        "link": "magnet:?xt=urn:btih:39BE99090DF8D3109C28EB78B4CE9343A37D536C&dn=Lee+Child%3A+Jack+Reacher+01-24+%28read+by+Jeff+Harding%29+%2B+Shorts&tr=udp%3A%2F%2Ftracker.coppersurfer.tk%3A6969%2Fannounce&tr=udp%3A%2F%2F9.rarbg.to%3A2920%2Fannounce&tr=udp%3A%2F%2Ftracker.opentrackr.org%3A1337&tr=udp%3A%2F%2Ftracker.internetwarriors.net%3A1337%2Fannounce&tr=udp%3A%2F%2Ftracker.leechers-paradise.org%3A6969%2Fannounce&tr=udp%3A%2F%2Ftracker.coppersurfer.tk%3A6969%2Fannounce&tr=udp%3A%2F%2Ftracker.pirateparty.gr%3A6969%2Fannounce&tr=udp%3A%2F%2Ftracker.cyberia.is%3A6969%2Fannounce",
        "seeder": "31",
        "leecher": "9"
    },
    {
        "rank": "74",
        "title": "TTC - The Physics Of History",
        "link": "magnet:?xt=urn:btih:57A71AA406A58ABEB44996A54B55A67B2037C96B&dn=TTC+-+The+Physics+Of+History&tr=udp%3A%2F%2Ftracker.coppersurfer.tk%3A6969%2Fannounce&tr=udp%3A%2F%2F9.rarbg.to%3A2920%2Fannounce&tr=udp%3A%2F%2Ftracker.opentrackr.org%3A1337&tr=udp%3A%2F%2Ftracker.internetwarriors.net%3A1337%2Fannounce&tr=udp%3A%2F%2Ftracker.leechers-paradise.org%3A6969%2Fannounce&tr=udp%3A%2F%2Ftracker.coppersurfer.tk%3A6969%2Fannounce&tr=udp%3A%2F%2Ftracker.pirateparty.gr%3A6969%2Fannounce&tr=udp%3A%2F%2Ftracker.cyberia.is%3A6969%2Fannounce",
        "seeder": "31",
        "leecher": "0"
    },
    {
        "rank": "75",
        "title": "Brian Tracy - No Excuses The Power of Self-Discipline",
        "link": "magnet:?xt=urn:btih:0FE9AAC78A4BFCA345A38648173BBABAA32E8AB1&dn=Brian+Tracy+-+No+Excuses+The+Power+of+Self-Discipline&tr=udp%3A%2F%2Ftracker.coppersurfer.tk%3A6969%2Fannounce&tr=udp%3A%2F%2F9.rarbg.to%3A2920%2Fannounce&tr=udp%3A%2F%2Ftracker.opentrackr.org%3A1337&tr=udp%3A%2F%2Ftracker.internetwarriors.net%3A1337%2Fannounce&tr=udp%3A%2F%2Ftracker.leechers-paradise.org%3A6969%2Fannounce&tr=udp%3A%2F%2Ftracker.coppersurfer.tk%3A6969%2Fannounce&tr=udp%3A%2F%2Ftracker.pirateparty.gr%3A6969%2Fannounce&tr=udp%3A%2F%2Ftracker.cyberia.is%3A6969%2Fannounce",
        "seeder": "31",
        "leecher": "0"
    },
    {
        "rank": "76",
        "title": "Mythology Collection - Matt Clayton",
        "link": "magnet:?xt=urn:btih:61AEC3EA7C0A936D1F38CD7AC01F11E1BBD9CB77&dn=Mythology+Collection+-+Matt+Clayton&tr=udp%3A%2F%2Ftracker.coppersurfer.tk%3A6969%2Fannounce&tr=udp%3A%2F%2F9.rarbg.to%3A2920%2Fannounce&tr=udp%3A%2F%2Ftracker.opentrackr.org%3A1337&tr=udp%3A%2F%2Ftracker.internetwarriors.net%3A1337%2Fannounce&tr=udp%3A%2F%2Ftracker.leechers-paradise.org%3A6969%2Fannounce&tr=udp%3A%2F%2Ftracker.coppersurfer.tk%3A6969%2Fannounce&tr=udp%3A%2F%2Ftracker.pirateparty.gr%3A6969%2Fannounce&tr=udp%3A%2F%2Ftracker.cyberia.is%3A6969%2Fannounce",
        "seeder": "29",
        "leecher": "4"
    },
    {
        "rank": "77",
        "title": "The Grand Design - Stephen Hawking, Leonard Mlodinow",
        "link": "magnet:?xt=urn:btih:0A6F97C63835EA2F45780B1D4B4583A7F0BB4058&dn=The+Grand+Design+-+Stephen+Hawking%2C+Leonard+Mlodinow&tr=udp%3A%2F%2Ftracker.coppersurfer.tk%3A6969%2Fannounce&tr=udp%3A%2F%2F9.rarbg.to%3A2920%2Fannounce&tr=udp%3A%2F%2Ftracker.opentrackr.org%3A1337&tr=udp%3A%2F%2Ftracker.internetwarriors.net%3A1337%2Fannounce&tr=udp%3A%2F%2Ftracker.leechers-paradise.org%3A6969%2Fannounce&tr=udp%3A%2F%2Ftracker.coppersurfer.tk%3A6969%2Fannounce&tr=udp%3A%2F%2Ftracker.pirateparty.gr%3A6969%2Fannounce&tr=udp%3A%2F%2Ftracker.cyberia.is%3A6969%2Fannounce",
        "seeder": "29",
        "leecher": "1"
    },
    {
        "rank": "78",
        "title": "Christoffer Carlsson - Brinn mig en sol - Svensk",
        "link": "magnet:?xt=urn:btih:CE99E9C42810D084348EBEFD71830BBE7C2C5150&dn=Christoffer+Carlsson+-+Brinn+mig+en+sol+-+Svensk&tr=udp%3A%2F%2Ftracker.coppersurfer.tk%3A6969%2Fannounce&tr=udp%3A%2F%2F9.rarbg.to%3A2920%2Fannounce&tr=udp%3A%2F%2Ftracker.opentrackr.org%3A1337&tr=udp%3A%2F%2Ftracker.internetwarriors.net%3A1337%2Fannounce&tr=udp%3A%2F%2Ftracker.leechers-paradise.org%3A6969%2Fannounce&tr=udp%3A%2F%2Ftracker.coppersurfer.tk%3A6969%2Fannounce&tr=udp%3A%2F%2Ftracker.pirateparty.gr%3A6969%2Fannounce&tr=udp%3A%2F%2Ftracker.cyberia.is%3A6969%2Fannounce",
        "seeder": "28",
        "leecher": "3"
    },
    {
        "rank": "79",
        "title": "John Grisham Audiobook Collection (2019)",
        "link": "magnet:?xt=urn:btih:4624B6110F753E57A14E0E49ED14A7256B88DB43&dn=John+Grisham+Audiobook+Collection+%282019%29&tr=udp%3A%2F%2Ftracker.coppersurfer.tk%3A6969%2Fannounce&tr=udp%3A%2F%2F9.rarbg.to%3A2920%2Fannounce&tr=udp%3A%2F%2Ftracker.opentrackr.org%3A1337&tr=udp%3A%2F%2Ftracker.internetwarriors.net%3A1337%2Fannounce&tr=udp%3A%2F%2Ftracker.leechers-paradise.org%3A6969%2Fannounce&tr=udp%3A%2F%2Ftracker.coppersurfer.tk%3A6969%2Fannounce&tr=udp%3A%2F%2Ftracker.pirateparty.gr%3A6969%2Fannounce&tr=udp%3A%2F%2Ftracker.cyberia.is%3A6969%2Fannounce",
        "seeder": "28",
        "leecher": "12"
    },
    {
        "rank": "80",
        "title": "Bob Woodward Rage",
        "link": "magnet:?xt=urn:btih:B1602FD14DCDEFF3211E1483D53CD54BF8014712&dn=Bob+Woodward+Rage&tr=udp%3A%2F%2Ftracker.coppersurfer.tk%3A6969%2Fannounce&tr=udp%3A%2F%2F9.rarbg.to%3A2920%2Fannounce&tr=udp%3A%2F%2Ftracker.opentrackr.org%3A1337&tr=udp%3A%2F%2Ftracker.internetwarriors.net%3A1337%2Fannounce&tr=udp%3A%2F%2Ftracker.leechers-paradise.org%3A6969%2Fannounce&tr=udp%3A%2F%2Ftracker.coppersurfer.tk%3A6969%2Fannounce&tr=udp%3A%2F%2Ftracker.pirateparty.gr%3A6969%2Fannounce&tr=udp%3A%2F%2Ftracker.cyberia.is%3A6969%2Fannounce",
        "seeder": "28",
        "leecher": "0"
    },
    {
        "rank": "81",
        "title": "Born a Crime [Audiobook] by Trevor Noah [Dr.Soc]",
        "link": "magnet:?xt=urn:btih:FD05FBF9ED6D892881D6FD2EF2C2026DB26C16BF&dn=Born+a+Crime+%5BAudiobook%5D+by+Trevor+Noah+%5BDr.Soc%5D&tr=udp%3A%2F%2Ftracker.coppersurfer.tk%3A6969%2Fannounce&tr=udp%3A%2F%2F9.rarbg.to%3A2920%2Fannounce&tr=udp%3A%2F%2Ftracker.opentrackr.org%3A1337&tr=udp%3A%2F%2Ftracker.internetwarriors.net%3A1337%2Fannounce&tr=udp%3A%2F%2Ftracker.leechers-paradise.org%3A6969%2Fannounce&tr=udp%3A%2F%2Ftracker.coppersurfer.tk%3A6969%2Fannounce&tr=udp%3A%2F%2Ftracker.pirateparty.gr%3A6969%2Fannounce&tr=udp%3A%2F%2Ftracker.cyberia.is%3A6969%2Fannounce",
        "seeder": "28",
        "leecher": "1"
    },
    {
        "rank": "82",
        "title": "The Holy Bible - Audio Bible - King James Version - Alexander Sc",
        "link": "magnet:?xt=urn:btih:30EC1F2D03EB8E3D39D91BA7B049EA54EFA719A6&dn=The+Holy+Bible+-+Audio+Bible+-+King+James+Version+-+Alexander+Sc&tr=udp%3A%2F%2Ftracker.coppersurfer.tk%3A6969%2Fannounce&tr=udp%3A%2F%2F9.rarbg.to%3A2920%2Fannounce&tr=udp%3A%2F%2Ftracker.opentrackr.org%3A1337&tr=udp%3A%2F%2Ftracker.internetwarriors.net%3A1337%2Fannounce&tr=udp%3A%2F%2Ftracker.leechers-paradise.org%3A6969%2Fannounce&tr=udp%3A%2F%2Ftracker.coppersurfer.tk%3A6969%2Fannounce&tr=udp%3A%2F%2Ftracker.pirateparty.gr%3A6969%2Fannounce&tr=udp%3A%2F%2Ftracker.cyberia.is%3A6969%2Fannounce",
        "seeder": "28",
        "leecher": "1"
    },
    {
        "rank": "83",
        "title": "The Daily Stoic: 366 Meditations on Wisdom, Perseverance, and th",
        "link": "magnet:?xt=urn:btih:712B59D3345FE186DB1F7B5916C36ADA1F17E8AD&dn=The+Daily+Stoic%3A+366+Meditations+on+Wisdom%2C+Perseverance%2C+and+th&tr=udp%3A%2F%2Ftracker.coppersurfer.tk%3A6969%2Fannounce&tr=udp%3A%2F%2F9.rarbg.to%3A2920%2Fannounce&tr=udp%3A%2F%2Ftracker.opentrackr.org%3A1337&tr=udp%3A%2F%2Ftracker.internetwarriors.net%3A1337%2Fannounce&tr=udp%3A%2F%2Ftracker.leechers-paradise.org%3A6969%2Fannounce&tr=udp%3A%2F%2Ftracker.coppersurfer.tk%3A6969%2Fannounce&tr=udp%3A%2F%2Ftracker.pirateparty.gr%3A6969%2Fannounce&tr=udp%3A%2F%2Ftracker.cyberia.is%3A6969%2Fannounce",
        "seeder": "27",
        "leecher": "6"
    },
    {
        "rank": "84",
        "title": "Jens Lapidus - Paradis City - Svensk",
        "link": "magnet:?xt=urn:btih:4DE71AF0B14589F87A80F98F458206F288E6F28C&dn=Jens+Lapidus+-+Paradis+City+-+Svensk&tr=udp%3A%2F%2Ftracker.coppersurfer.tk%3A6969%2Fannounce&tr=udp%3A%2F%2F9.rarbg.to%3A2920%2Fannounce&tr=udp%3A%2F%2Ftracker.opentrackr.org%3A1337&tr=udp%3A%2F%2Ftracker.internetwarriors.net%3A1337%2Fannounce&tr=udp%3A%2F%2Ftracker.leechers-paradise.org%3A6969%2Fannounce&tr=udp%3A%2F%2Ftracker.coppersurfer.tk%3A6969%2Fannounce&tr=udp%3A%2F%2Ftracker.pirateparty.gr%3A6969%2Fannounce&tr=udp%3A%2F%2Ftracker.cyberia.is%3A6969%2Fannounce",
        "seeder": "27",
        "leecher": "1"
    },
    {
        "rank": "85",
        "title": "James Lovegrove - Firefly [1-4]",
        "link": "magnet:?xt=urn:btih:AFDB92E0F339A34F388B3F35D1402EBEF3BBA36D&dn=James+Lovegrove+-+Firefly+%5B1-4%5D&tr=udp%3A%2F%2Ftracker.coppersurfer.tk%3A6969%2Fannounce&tr=udp%3A%2F%2F9.rarbg.to%3A2920%2Fannounce&tr=udp%3A%2F%2Ftracker.opentrackr.org%3A1337&tr=udp%3A%2F%2Ftracker.internetwarriors.net%3A1337%2Fannounce&tr=udp%3A%2F%2Ftracker.leechers-paradise.org%3A6969%2Fannounce&tr=udp%3A%2F%2Ftracker.coppersurfer.tk%3A6969%2Fannounce&tr=udp%3A%2F%2Ftracker.pirateparty.gr%3A6969%2Fannounce&tr=udp%3A%2F%2Ftracker.cyberia.is%3A6969%2Fannounce",
        "seeder": "27",
        "leecher": "0"
    },
    {
        "rank": "86",
        "title": "Taboo: 10 Facts You Can\u2019t Talk About - Wilfred Reilly",
        "link": "magnet:?xt=urn:btih:DAEBF58BCC552E85A4E98CE79A6E00A93C46E0A9&dn=Taboo%3A+10+Facts+You+Can%26rsquo%3Bt+Talk+About+-+Wilfred+Reilly&tr=udp%3A%2F%2Ftracker.coppersurfer.tk%3A6969%2Fannounce&tr=udp%3A%2F%2F9.rarbg.to%3A2920%2Fannounce&tr=udp%3A%2F%2Ftracker.opentrackr.org%3A1337&tr=udp%3A%2F%2Ftracker.internetwarriors.net%3A1337%2Fannounce&tr=udp%3A%2F%2Ftracker.leechers-paradise.org%3A6969%2Fannounce&tr=udp%3A%2F%2Ftracker.coppersurfer.tk%3A6969%2Fannounce&tr=udp%3A%2F%2Ftracker.pirateparty.gr%3A6969%2Fannounce&tr=udp%3A%2F%2Ftracker.cyberia.is%3A6969%2Fannounce",
        "seeder": "27",
        "leecher": "0"
    },
    {
        "rank": "87",
        "title": "Brainwashing: The Science of Thought Control - Kathleen Taylor",
        "link": "magnet:?xt=urn:btih:895F31A3792C7B7B222FEA0F88AB4B2FC24215C0&dn=Brainwashing%3A+The+Science+of+Thought+Control+-+Kathleen+Taylor&tr=udp%3A%2F%2Ftracker.coppersurfer.tk%3A6969%2Fannounce&tr=udp%3A%2F%2F9.rarbg.to%3A2920%2Fannounce&tr=udp%3A%2F%2Ftracker.opentrackr.org%3A1337&tr=udp%3A%2F%2Ftracker.internetwarriors.net%3A1337%2Fannounce&tr=udp%3A%2F%2Ftracker.leechers-paradise.org%3A6969%2Fannounce&tr=udp%3A%2F%2Ftracker.coppersurfer.tk%3A6969%2Fannounce&tr=udp%3A%2F%2Ftracker.pirateparty.gr%3A6969%2Fannounce&tr=udp%3A%2F%2Ftracker.cyberia.is%3A6969%2Fannounce",
        "seeder": "27",
        "leecher": "0"
    },
    {
        "rank": "88",
        "title": "Calling Bullshit: The Art of Scepticism in a Data-Driven World -",
        "link": "magnet:?xt=urn:btih:1B89DA6EBAD31EAFAA9B39F43E05B03A4E16BD2F&dn=Calling+Bullshit%3A+The+Art+of+Scepticism+in+a+Data-Driven+World+-&tr=udp%3A%2F%2Ftracker.coppersurfer.tk%3A6969%2Fannounce&tr=udp%3A%2F%2F9.rarbg.to%3A2920%2Fannounce&tr=udp%3A%2F%2Ftracker.opentrackr.org%3A1337&tr=udp%3A%2F%2Ftracker.internetwarriors.net%3A1337%2Fannounce&tr=udp%3A%2F%2Ftracker.leechers-paradise.org%3A6969%2Fannounce&tr=udp%3A%2F%2Ftracker.coppersurfer.tk%3A6969%2Fannounce&tr=udp%3A%2F%2Ftracker.pirateparty.gr%3A6969%2Fannounce&tr=udp%3A%2F%2Ftracker.cyberia.is%3A6969%2Fannounce",
        "seeder": "27",
        "leecher": "0"
    },
    {
        "rank": "89",
        "title": "Behave: The Biology of Humans at Our Best and Worst - Robert M.",
        "link": "magnet:?xt=urn:btih:EB3FB2CA306E2504B02D8BFCE79F1A7A07003A8F&dn=Behave%3A+The+Biology+of+Humans+at+Our+Best+and+Worst+-+Robert+M.&tr=udp%3A%2F%2Ftracker.coppersurfer.tk%3A6969%2Fannounce&tr=udp%3A%2F%2F9.rarbg.to%3A2920%2Fannounce&tr=udp%3A%2F%2Ftracker.opentrackr.org%3A1337&tr=udp%3A%2F%2Ftracker.internetwarriors.net%3A1337%2Fannounce&tr=udp%3A%2F%2Ftracker.leechers-paradise.org%3A6969%2Fannounce&tr=udp%3A%2F%2Ftracker.coppersurfer.tk%3A6969%2Fannounce&tr=udp%3A%2F%2Ftracker.pirateparty.gr%3A6969%2Fannounce&tr=udp%3A%2F%2Ftracker.cyberia.is%3A6969%2Fannounce",
        "seeder": "27",
        "leecher": "0"
    },
    {
        "rank": "90",
        "title": "The Giants of Philosophy Series (Boxed Set) [Blackstone Audio]",
        "link": "magnet:?xt=urn:btih:640A1B93040D88486CFC9ABC2C8291B8721DBAEC&dn=The+Giants+of+Philosophy+Series+%28Boxed+Set%29+%5BBlackstone+Audio%5D&tr=udp%3A%2F%2Ftracker.coppersurfer.tk%3A6969%2Fannounce&tr=udp%3A%2F%2F9.rarbg.to%3A2920%2Fannounce&tr=udp%3A%2F%2Ftracker.opentrackr.org%3A1337&tr=udp%3A%2F%2Ftracker.internetwarriors.net%3A1337%2Fannounce&tr=udp%3A%2F%2Ftracker.leechers-paradise.org%3A6969%2Fannounce&tr=udp%3A%2F%2Ftracker.coppersurfer.tk%3A6969%2Fannounce&tr=udp%3A%2F%2Ftracker.pirateparty.gr%3A6969%2Fannounce&tr=udp%3A%2F%2Ftracker.cyberia.is%3A6969%2Fannounce",
        "seeder": "27",
        "leecher": "1"
    },
    {
        "rank": "91",
        "title": "The Body Keeps the Score: Brain, Mind, and Body in the Healing o",
        "link": "magnet:?xt=urn:btih:E1D161E8BDA9C2EE62CFD197D254A3CBEE22DDAA&dn=The+Body+Keeps+the+Score%3A+Brain%2C+Mind%2C+and+Body+in+the+Healing+o&tr=udp%3A%2F%2Ftracker.coppersurfer.tk%3A6969%2Fannounce&tr=udp%3A%2F%2F9.rarbg.to%3A2920%2Fannounce&tr=udp%3A%2F%2Ftracker.opentrackr.org%3A1337&tr=udp%3A%2F%2Ftracker.internetwarriors.net%3A1337%2Fannounce&tr=udp%3A%2F%2Ftracker.leechers-paradise.org%3A6969%2Fannounce&tr=udp%3A%2F%2Ftracker.coppersurfer.tk%3A6969%2Fannounce&tr=udp%3A%2F%2Ftracker.pirateparty.gr%3A6969%2Fannounce&tr=udp%3A%2F%2Ftracker.cyberia.is%3A6969%2Fannounce",
        "seeder": "27",
        "leecher": "1"
    },
    {
        "rank": "92",
        "title": "Richard Osman -The Thursday MurderClub",
        "link": "magnet:?xt=urn:btih:0F8CFD5DDC6AF83F076158F31DA8309CD6FDED81&dn=Richard+Osman+-The+Thursday+MurderClub&tr=udp%3A%2F%2Ftracker.coppersurfer.tk%3A6969%2Fannounce&tr=udp%3A%2F%2F9.rarbg.to%3A2920%2Fannounce&tr=udp%3A%2F%2Ftracker.opentrackr.org%3A1337&tr=udp%3A%2F%2Ftracker.internetwarriors.net%3A1337%2Fannounce&tr=udp%3A%2F%2Ftracker.leechers-paradise.org%3A6969%2Fannounce&tr=udp%3A%2F%2Ftracker.coppersurfer.tk%3A6969%2Fannounce&tr=udp%3A%2F%2Ftracker.pirateparty.gr%3A6969%2Fannounce&tr=udp%3A%2F%2Ftracker.cyberia.is%3A6969%2Fannounce",
        "seeder": "26",
        "leecher": "1"
    },
    {
        "rank": "93",
        "title": "The Bhagavad Gita 2019 [Naxos Audiobook]",
        "link": "magnet:?xt=urn:btih:84A3FF1CAEBF354AEB6C8DE16C1512ED3E07A2EA&dn=The+Bhagavad+Gita+2019+%5BNaxos+Audiobook%5D&tr=udp%3A%2F%2Ftracker.coppersurfer.tk%3A6969%2Fannounce&tr=udp%3A%2F%2F9.rarbg.to%3A2920%2Fannounce&tr=udp%3A%2F%2Ftracker.opentrackr.org%3A1337&tr=udp%3A%2F%2Ftracker.internetwarriors.net%3A1337%2Fannounce&tr=udp%3A%2F%2Ftracker.leechers-paradise.org%3A6969%2Fannounce&tr=udp%3A%2F%2Ftracker.coppersurfer.tk%3A6969%2Fannounce&tr=udp%3A%2F%2Ftracker.pirateparty.gr%3A6969%2Fannounce&tr=udp%3A%2F%2Ftracker.cyberia.is%3A6969%2Fannounce",
        "seeder": "26",
        "leecher": "1"
    },
    {
        "rank": "94",
        "title": "How They Rule the World: The 22 Secret Strategies of Global Powe",
        "link": "magnet:?xt=urn:btih:4209FBF49D69ECEEF17D35D0830F59D70A4D83BB&dn=How+They+Rule+the+World%3A+The+22+Secret+Strategies+of+Global+Powe&tr=udp%3A%2F%2Ftracker.coppersurfer.tk%3A6969%2Fannounce&tr=udp%3A%2F%2F9.rarbg.to%3A2920%2Fannounce&tr=udp%3A%2F%2Ftracker.opentrackr.org%3A1337&tr=udp%3A%2F%2Ftracker.internetwarriors.net%3A1337%2Fannounce&tr=udp%3A%2F%2Ftracker.leechers-paradise.org%3A6969%2Fannounce&tr=udp%3A%2F%2Ftracker.coppersurfer.tk%3A6969%2Fannounce&tr=udp%3A%2F%2Ftracker.pirateparty.gr%3A6969%2Fannounce&tr=udp%3A%2F%2Ftracker.cyberia.is%3A6969%2Fannounce",
        "seeder": "26",
        "leecher": "0"
    },
    {
        "rank": "95",
        "title": "Brandon Sanderson - The Final Empire (Mistborn #1) [GraphicAudio",
        "link": "magnet:?xt=urn:btih:F816FFEF0A29B944FBAD4870C0FCE4B938CB90C1&dn=Brandon+Sanderson+-+The+Final+Empire+%28Mistborn+%231%29+%5BGraphicAudio&tr=udp%3A%2F%2Ftracker.coppersurfer.tk%3A6969%2Fannounce&tr=udp%3A%2F%2F9.rarbg.to%3A2920%2Fannounce&tr=udp%3A%2F%2Ftracker.opentrackr.org%3A1337&tr=udp%3A%2F%2Ftracker.internetwarriors.net%3A1337%2Fannounce&tr=udp%3A%2F%2Ftracker.leechers-paradise.org%3A6969%2Fannounce&tr=udp%3A%2F%2Ftracker.coppersurfer.tk%3A6969%2Fannounce&tr=udp%3A%2F%2Ftracker.pirateparty.gr%3A6969%2Fannounce&tr=udp%3A%2F%2Ftracker.cyberia.is%3A6969%2Fannounce",
        "seeder": "26",
        "leecher": "1"
    },
    {
        "rank": "96",
        "title": "The Power of Habit audiobook",
        "link": "magnet:?xt=urn:btih:D0681922327EE39C875BFC920B7A5A1F2E7A4735&dn=The+Power+of+Habit+audiobook&tr=udp%3A%2F%2Ftracker.coppersurfer.tk%3A6969%2Fannounce&tr=udp%3A%2F%2F9.rarbg.to%3A2920%2Fannounce&tr=udp%3A%2F%2Ftracker.opentrackr.org%3A1337&tr=udp%3A%2F%2Ftracker.internetwarriors.net%3A1337%2Fannounce&tr=udp%3A%2F%2Ftracker.leechers-paradise.org%3A6969%2Fannounce&tr=udp%3A%2F%2Ftracker.coppersurfer.tk%3A6969%2Fannounce&tr=udp%3A%2F%2Ftracker.pirateparty.gr%3A6969%2Fannounce&tr=udp%3A%2F%2Ftracker.cyberia.is%3A6969%2Fannounce",
        "seeder": "26",
        "leecher": "2"
    },
    {
        "rank": "97",
        "title": "Alastair Reynolds Audiobook Collection",
        "link": "magnet:?xt=urn:btih:749687EAB94D81E6D2B048102D784E4D373ABD09&dn=Alastair+Reynolds+Audiobook+Collection&tr=udp%3A%2F%2Ftracker.coppersurfer.tk%3A6969%2Fannounce&tr=udp%3A%2F%2F9.rarbg.to%3A2920%2Fannounce&tr=udp%3A%2F%2Ftracker.opentrackr.org%3A1337&tr=udp%3A%2F%2Ftracker.internetwarriors.net%3A1337%2Fannounce&tr=udp%3A%2F%2Ftracker.leechers-paradise.org%3A6969%2Fannounce&tr=udp%3A%2F%2Ftracker.coppersurfer.tk%3A6969%2Fannounce&tr=udp%3A%2F%2Ftracker.pirateparty.gr%3A6969%2Fannounce&tr=udp%3A%2F%2Ftracker.cyberia.is%3A6969%2Fannounce",
        "seeder": "25",
        "leecher": "4"
    },
    {
        "rank": "98",
        "title": "Peter F. Hamilton - Salvation Sequence (1-3) repack",
        "link": "magnet:?xt=urn:btih:5244CE4BCDB07082D036D5F14DBA4FA9CC908531&dn=Peter+F.+Hamilton+-+Salvation+Sequence+%281-3%29+repack&tr=udp%3A%2F%2Ftracker.coppersurfer.tk%3A6969%2Fannounce&tr=udp%3A%2F%2F9.rarbg.to%3A2920%2Fannounce&tr=udp%3A%2F%2Ftracker.opentrackr.org%3A1337&tr=udp%3A%2F%2Ftracker.internetwarriors.net%3A1337%2Fannounce&tr=udp%3A%2F%2Ftracker.leechers-paradise.org%3A6969%2Fannounce&tr=udp%3A%2F%2Ftracker.coppersurfer.tk%3A6969%2Fannounce&tr=udp%3A%2F%2Ftracker.pirateparty.gr%3A6969%2Fannounce&tr=udp%3A%2F%2Ftracker.cyberia.is%3A6969%2Fannounce",
        "seeder": "25",
        "leecher": "1"
    },
    {
        "rank": "99",
        "title": "Empireland: How Imperialism Has Shaped Modern Britain 2021",
        "link": "magnet:?xt=urn:btih:A3FC25A8F0E179FE97DBB7C63D6DB9211D7CE26B&dn=Empireland%3A+How+Imperialism+Has+Shaped+Modern+Britain+2021&tr=udp%3A%2F%2Ftracker.coppersurfer.tk%3A6969%2Fannounce&tr=udp%3A%2F%2F9.rarbg.to%3A2920%2Fannounce&tr=udp%3A%2F%2Ftracker.opentrackr.org%3A1337&tr=udp%3A%2F%2Ftracker.internetwarriors.net%3A1337%2Fannounce&tr=udp%3A%2F%2Ftracker.leechers-paradise.org%3A6969%2Fannounce&tr=udp%3A%2F%2Ftracker.coppersurfer.tk%3A6969%2Fannounce&tr=udp%3A%2F%2Ftracker.pirateparty.gr%3A6969%2Fannounce&tr=udp%3A%2F%2Ftracker.cyberia.is%3A6969%2Fannounce",
        "seeder": "25",
        "leecher": "1"
    },
    {
        "rank": "100",
        "title": "Kim Stanley Robinson - The Ministry for the Future",
        "link": "magnet:?xt=urn:btih:2BDA566F80B2E283EF0A147BE51069C65713F4CC&dn=Kim+Stanley+Robinson+-+The+Ministry+for+the+Future&tr=udp%3A%2F%2Ftracker.coppersurfer.tk%3A6969%2Fannounce&tr=udp%3A%2F%2F9.rarbg.to%3A2920%2Fannounce&tr=udp%3A%2F%2Ftracker.opentrackr.org%3A1337&tr=udp%3A%2F%2Ftracker.internetwarriors.net%3A1337%2Fannounce&tr=udp%3A%2F%2Ftracker.leechers-paradise.org%3A6969%2Fannounce&tr=udp%3A%2F%2Ftracker.coppersurfer.tk%3A6969%2Fannounce&tr=udp%3A%2F%2Ftracker.pirateparty.gr%3A6969%2Fannounce&tr=udp%3A%2F%2Ftracker.cyberia.is%3A6969%2Fannounce",
        "seeder": "25",
        "leecher": "0"
    }
]
