[
    {
        "rank": "1",
        "title": "The Passenger (1975) [BluRay] [1080p]",
        "link": "magnet:?xt=urn:btih:FFA777585B2598FFC8428CD38A177436C00C660C&dn=The+Passenger+%281975%29+%5BBluRay%5D+%5B1080p%5D&tr=udp%3A%2F%2Ftracker.coppersurfer.tk%3A6969%2Fannounce&tr=udp%3A%2F%2F9.rarbg.to%3A2920%2Fannounce&tr=udp%3A%2F%2Ftracker.opentrackr.org%3A1337&tr=udp%3A%2F%2Ftracker.internetwarriors.net%3A1337%2Fannounce&tr=udp%3A%2F%2Ftracker.leechers-paradise.org%3A6969%2Fannounce&tr=udp%3A%2F%2Ftracker.coppersurfer.tk%3A6969%2Fannounce&tr=udp%3A%2F%2Ftracker.pirateparty.gr%3A6969%2Fannounce&tr=udp%3A%2F%2Ftracker.cyberia.is%3A6969%2Fannounce",
        "seeder": "35",
        "leecher": "3"
    },
    {
        "rank": "2",
        "title": "The Never Ending Story (1984) [DVD5 - NTSC]",
        "link": "magnet:?xt=urn:btih:833A6834205B1B6603C5CE68D0A0DD71D3AC6F46&dn=The+Never+Ending+Story+%281984%29+%5BDVD5+-+NTSC%5D&tr=udp%3A%2F%2Ftracker.coppersurfer.tk%3A6969%2Fannounce&tr=udp%3A%2F%2F9.rarbg.to%3A2920%2Fannounce&tr=udp%3A%2F%2Ftracker.opentrackr.org%3A1337&tr=udp%3A%2F%2Ftracker.internetwarriors.net%3A1337%2Fannounce&tr=udp%3A%2F%2Ftracker.leechers-paradise.org%3A6969%2Fannounce&tr=udp%3A%2F%2Ftracker.coppersurfer.tk%3A6969%2Fannounce&tr=udp%3A%2F%2Ftracker.pirateparty.gr%3A6969%2Fannounce&tr=udp%3A%2F%2Ftracker.cyberia.is%3A6969%2Fannounce",
        "seeder": "22",
        "leecher": "2"
    },
    {
        "rank": "3",
        "title": "Cosas que nunca te dije | Things I Never Told You [PAL. DVD5]",
        "link": "magnet:?xt=urn:btih:8645B7E02E9DC45B715E83A0932BCEAB162C00F2&dn=Cosas+que+nunca+te+dije+%7C+Things+I+Never+Told+You+%5BPAL.+DVD5%5D&tr=udp%3A%2F%2Ftracker.coppersurfer.tk%3A6969%2Fannounce&tr=udp%3A%2F%2F9.rarbg.to%3A2920%2Fannounce&tr=udp%3A%2F%2Ftracker.opentrackr.org%3A1337&tr=udp%3A%2F%2Ftracker.internetwarriors.net%3A1337%2Fannounce&tr=udp%3A%2F%2Ftracker.leechers-paradise.org%3A6969%2Fannounce&tr=udp%3A%2F%2Ftracker.coppersurfer.tk%3A6969%2Fannounce&tr=udp%3A%2F%2Ftracker.pirateparty.gr%3A6969%2Fannounce&tr=udp%3A%2F%2Ftracker.cyberia.is%3A6969%2Fannounce",
        "seeder": "20",
        "leecher": "0"
    },
    {
        "rank": "4",
        "title": "Blood.In.Blood.Out.1993.Directors.Cut.DVDRip.x264.DD2.0-URBiN4HD",
        "link": "magnet:?xt=urn:btih:35CBC121C64B91621856B902B6E42A5D893183BB&dn=Blood.In.Blood.Out.1993.Directors.Cut.DVDRip.x264.DD2.0-URBiN4HD&tr=udp%3A%2F%2Ftracker.coppersurfer.tk%3A6969%2Fannounce&tr=udp%3A%2F%2F9.rarbg.to%3A2920%2Fannounce&tr=udp%3A%2F%2Ftracker.opentrackr.org%3A1337&tr=udp%3A%2F%2Ftracker.internetwarriors.net%3A1337%2Fannounce&tr=udp%3A%2F%2Ftracker.leechers-paradise.org%3A6969%2Fannounce&tr=udp%3A%2F%2Ftracker.coppersurfer.tk%3A6969%2Fannounce&tr=udp%3A%2F%2Ftracker.pirateparty.gr%3A6969%2Fannounce&tr=udp%3A%2F%2Ftracker.cyberia.is%3A6969%2Fannounce",
        "seeder": "14",
        "leecher": "1"
    },
    {
        "rank": "5",
        "title": "Shaolin Kung Fu Fundamental Training DVDRip",
        "link": "magnet:?xt=urn:btih:E0AF42BF35D0FD1B64281DABE447CAFA90A0C89E&dn=Shaolin+Kung+Fu+Fundamental+Training+DVDRip&tr=udp%3A%2F%2Ftracker.coppersurfer.tk%3A6969%2Fannounce&tr=udp%3A%2F%2F9.rarbg.to%3A2920%2Fannounce&tr=udp%3A%2F%2Ftracker.opentrackr.org%3A1337&tr=udp%3A%2F%2Ftracker.internetwarriors.net%3A1337%2Fannounce&tr=udp%3A%2F%2Ftracker.leechers-paradise.org%3A6969%2Fannounce&tr=udp%3A%2F%2Ftracker.coppersurfer.tk%3A6969%2Fannounce&tr=udp%3A%2F%2Ftracker.pirateparty.gr%3A6969%2Fannounce&tr=udp%3A%2F%2Ftracker.cyberia.is%3A6969%2Fannounce",
        "seeder": "12",
        "leecher": "0"
    },
    {
        "rank": "6",
        "title": "It.Boy.2013.MULTiSUBS.PAL.DVDR-DiSHON",
        "link": "magnet:?xt=urn:btih:208B70FD2BA0E76832C7B11171EB1A8BD03A70A7&dn=It.Boy.2013.MULTiSUBS.PAL.DVDR-DiSHON&tr=udp%3A%2F%2Ftracker.coppersurfer.tk%3A6969%2Fannounce&tr=udp%3A%2F%2F9.rarbg.to%3A2920%2Fannounce&tr=udp%3A%2F%2Ftracker.opentrackr.org%3A1337&tr=udp%3A%2F%2Ftracker.internetwarriors.net%3A1337%2Fannounce&tr=udp%3A%2F%2Ftracker.leechers-paradise.org%3A6969%2Fannounce&tr=udp%3A%2F%2Ftracker.coppersurfer.tk%3A6969%2Fannounce&tr=udp%3A%2F%2Ftracker.pirateparty.gr%3A6969%2Fannounce&tr=udp%3A%2F%2Ftracker.cyberia.is%3A6969%2Fannounce",
        "seeder": "12",
        "leecher": "2"
    },
    {
        "rank": "7",
        "title": "Jim Henson's - The Storyteller [1988 PAL DVD][En.De Multisubs[7",
        "link": "magnet:?xt=urn:btih:5F8875D37BA8E68D3B9DB144CC09FA720DD4804D&dn=Jim+Henson%27s+-+The+Storyteller+%5B1988+PAL+DVD%5D%5BEn.De+Multisubs%5B7&tr=udp%3A%2F%2Ftracker.coppersurfer.tk%3A6969%2Fannounce&tr=udp%3A%2F%2F9.rarbg.to%3A2920%2Fannounce&tr=udp%3A%2F%2Ftracker.opentrackr.org%3A1337&tr=udp%3A%2F%2Ftracker.internetwarriors.net%3A1337%2Fannounce&tr=udp%3A%2F%2Ftracker.leechers-paradise.org%3A6969%2Fannounce&tr=udp%3A%2F%2Ftracker.coppersurfer.tk%3A6969%2Fannounce&tr=udp%3A%2F%2Ftracker.pirateparty.gr%3A6969%2Fannounce&tr=udp%3A%2F%2Ftracker.cyberia.is%3A6969%2Fannounce",
        "seeder": "12",
        "leecher": "1"
    },
    {
        "rank": "8",
        "title": "Cannabis Collection - Pot In Pans - Cooking With Marijuana",
        "link": "magnet:?xt=urn:btih:792938AD17D77585860CA13E07B4D9B67E5DA5D4&dn=Cannabis+Collection+-+Pot+In+Pans+-+Cooking+With+Marijuana&tr=udp%3A%2F%2Ftracker.coppersurfer.tk%3A6969%2Fannounce&tr=udp%3A%2F%2F9.rarbg.to%3A2920%2Fannounce&tr=udp%3A%2F%2Ftracker.opentrackr.org%3A1337&tr=udp%3A%2F%2Ftracker.internetwarriors.net%3A1337%2Fannounce&tr=udp%3A%2F%2Ftracker.leechers-paradise.org%3A6969%2Fannounce&tr=udp%3A%2F%2Ftracker.coppersurfer.tk%3A6969%2Fannounce&tr=udp%3A%2F%2Ftracker.pirateparty.gr%3A6969%2Fannounce&tr=udp%3A%2F%2Ftracker.cyberia.is%3A6969%2Fannounce",
        "seeder": "11",
        "leecher": "1"
    },
    {
        "rank": "9",
        "title": "Ed Dames Remote Viewing Training Course",
        "link": "magnet:?xt=urn:btih:C36317136E1EC139DE2A63794608339D54D95196&dn=Ed+Dames+Remote+Viewing+Training+Course&tr=udp%3A%2F%2Ftracker.coppersurfer.tk%3A6969%2Fannounce&tr=udp%3A%2F%2F9.rarbg.to%3A2920%2Fannounce&tr=udp%3A%2F%2Ftracker.opentrackr.org%3A1337&tr=udp%3A%2F%2Ftracker.internetwarriors.net%3A1337%2Fannounce&tr=udp%3A%2F%2Ftracker.leechers-paradise.org%3A6969%2Fannounce&tr=udp%3A%2F%2Ftracker.coppersurfer.tk%3A6969%2Fannounce&tr=udp%3A%2F%2Ftracker.pirateparty.gr%3A6969%2Fannounce&tr=udp%3A%2F%2Ftracker.cyberia.is%3A6969%2Fannounce",
        "seeder": "10",
        "leecher": "1"
    },
    {
        "rank": "10",
        "title": "Parasitos.2019.DOBLADA.EN.CASTELLANO.DVDRip.x264.DD5.1-URBiN4HD",
        "link": "magnet:?xt=urn:btih:3E693FA97D3D818DF274DFE75B192582667DDBDE&dn=Parasitos.2019.DOBLADA.EN.CASTELLANO.DVDRip.x264.DD5.1-URBiN4HD&tr=udp%3A%2F%2Ftracker.coppersurfer.tk%3A6969%2Fannounce&tr=udp%3A%2F%2F9.rarbg.to%3A2920%2Fannounce&tr=udp%3A%2F%2Ftracker.opentrackr.org%3A1337&tr=udp%3A%2F%2Ftracker.internetwarriors.net%3A1337%2Fannounce&tr=udp%3A%2F%2Ftracker.leechers-paradise.org%3A6969%2Fannounce&tr=udp%3A%2F%2Ftracker.coppersurfer.tk%3A6969%2Fannounce&tr=udp%3A%2F%2Ftracker.pirateparty.gr%3A6969%2Fannounce&tr=udp%3A%2F%2Ftracker.cyberia.is%3A6969%2Fannounce",
        "seeder": "9",
        "leecher": "0"
    },
    {
        "rank": "11",
        "title": "Taken Steven Spielberg Sci-Fi Mini-Series 2002 Eng Multi-Subs",
        "link": "magnet:?xt=urn:btih:F75112B4788ADA83C682AB24330D41748F62F2A4&dn=Taken+Steven+Spielberg+Sci-Fi+Mini-Series+2002+Eng+Multi-Subs&tr=udp%3A%2F%2Ftracker.coppersurfer.tk%3A6969%2Fannounce&tr=udp%3A%2F%2F9.rarbg.to%3A2920%2Fannounce&tr=udp%3A%2F%2Ftracker.opentrackr.org%3A1337&tr=udp%3A%2F%2Ftracker.internetwarriors.net%3A1337%2Fannounce&tr=udp%3A%2F%2Ftracker.leechers-paradise.org%3A6969%2Fannounce&tr=udp%3A%2F%2Ftracker.coppersurfer.tk%3A6969%2Fannounce&tr=udp%3A%2F%2Ftracker.pirateparty.gr%3A6969%2Fannounce&tr=udp%3A%2F%2Ftracker.cyberia.is%3A6969%2Fannounce",
        "seeder": "9",
        "leecher": "2"
    },
    {
        "rank": "12",
        "title": "This Christmas (2007) (Full DVDRip - H264 - AAC - 5.1) {CTShoN}",
        "link": "magnet:?xt=urn:btih:AA1423AE1C52B7D6CAC3AA5191CAABD4BBD047B0&dn=This+Christmas+%282007%29+%28Full+DVDRip+-+H264+-+AAC+-+5.1%29+%7BCTShoN%7D&tr=udp%3A%2F%2Ftracker.coppersurfer.tk%3A6969%2Fannounce&tr=udp%3A%2F%2F9.rarbg.to%3A2920%2Fannounce&tr=udp%3A%2F%2Ftracker.opentrackr.org%3A1337&tr=udp%3A%2F%2Ftracker.internetwarriors.net%3A1337%2Fannounce&tr=udp%3A%2F%2Ftracker.leechers-paradise.org%3A6969%2Fannounce&tr=udp%3A%2F%2Ftracker.coppersurfer.tk%3A6969%2Fannounce&tr=udp%3A%2F%2Ftracker.pirateparty.gr%3A6969%2Fannounce&tr=udp%3A%2F%2Ftracker.cyberia.is%3A6969%2Fannounce",
        "seeder": "9",
        "leecher": "4"
    },
    {
        "rank": "13",
        "title": "Drugs Collection - DMT - Ayahuasca - Shamans of the Amazon",
        "link": "magnet:?xt=urn:btih:5E6C612D365CA79FE1F5B8BC5028221F4B9DB964&dn=Drugs+Collection+-+DMT+-+Ayahuasca+-+Shamans+of+the+Amazon&tr=udp%3A%2F%2Ftracker.coppersurfer.tk%3A6969%2Fannounce&tr=udp%3A%2F%2F9.rarbg.to%3A2920%2Fannounce&tr=udp%3A%2F%2Ftracker.opentrackr.org%3A1337&tr=udp%3A%2F%2Ftracker.internetwarriors.net%3A1337%2Fannounce&tr=udp%3A%2F%2Ftracker.leechers-paradise.org%3A6969%2Fannounce&tr=udp%3A%2F%2Ftracker.coppersurfer.tk%3A6969%2Fannounce&tr=udp%3A%2F%2Ftracker.pirateparty.gr%3A6969%2Fannounce&tr=udp%3A%2F%2Ftracker.cyberia.is%3A6969%2Fannounce",
        "seeder": "9",
        "leecher": "1"
    },
    {
        "rank": "14",
        "title": "John Woo's The Killer (1989) NTSC Criterion",
        "link": "magnet:?xt=urn:btih:2BF5D5872CC1BD3D2A52ED7CDAADB7C3EA813A8C&dn=John+Woo%27s+The+Killer+%281989%29+NTSC+Criterion&tr=udp%3A%2F%2Ftracker.coppersurfer.tk%3A6969%2Fannounce&tr=udp%3A%2F%2F9.rarbg.to%3A2920%2Fannounce&tr=udp%3A%2F%2Ftracker.opentrackr.org%3A1337&tr=udp%3A%2F%2Ftracker.internetwarriors.net%3A1337%2Fannounce&tr=udp%3A%2F%2Ftracker.leechers-paradise.org%3A6969%2Fannounce&tr=udp%3A%2F%2Ftracker.coppersurfer.tk%3A6969%2Fannounce&tr=udp%3A%2F%2Ftracker.pirateparty.gr%3A6969%2Fannounce&tr=udp%3A%2F%2Ftracker.cyberia.is%3A6969%2Fannounce",
        "seeder": "9",
        "leecher": "3"
    },
    {
        "rank": "15",
        "title": "North and South (1985) Complete BOX PAL Retail Multi NLUPPER",
        "link": "magnet:?xt=urn:btih:F166F1FC525153162219FDD0FE9B49CA2BBF7F78&dn=North+and+South+%281985%29+Complete+BOX+PAL+Retail+Multi+NLUPPER&tr=udp%3A%2F%2Ftracker.coppersurfer.tk%3A6969%2Fannounce&tr=udp%3A%2F%2F9.rarbg.to%3A2920%2Fannounce&tr=udp%3A%2F%2Ftracker.opentrackr.org%3A1337&tr=udp%3A%2F%2Ftracker.internetwarriors.net%3A1337%2Fannounce&tr=udp%3A%2F%2Ftracker.leechers-paradise.org%3A6969%2Fannounce&tr=udp%3A%2F%2Ftracker.coppersurfer.tk%3A6969%2Fannounce&tr=udp%3A%2F%2Ftracker.pirateparty.gr%3A6969%2Fannounce&tr=udp%3A%2F%2Ftracker.cyberia.is%3A6969%2Fannounce",
        "seeder": "8",
        "leecher": "1"
    },
    {
        "rank": "16",
        "title": "U2 - ZOO TV LIVE FROM SYDNEY 2 DVD",
        "link": "magnet:?xt=urn:btih:13E8D124D25119C87513239EFB503F224446150E&dn=U2+-+ZOO+TV+LIVE+FROM+SYDNEY+2+DVD&tr=udp%3A%2F%2Ftracker.coppersurfer.tk%3A6969%2Fannounce&tr=udp%3A%2F%2F9.rarbg.to%3A2920%2Fannounce&tr=udp%3A%2F%2Ftracker.opentrackr.org%3A1337&tr=udp%3A%2F%2Ftracker.internetwarriors.net%3A1337%2Fannounce&tr=udp%3A%2F%2Ftracker.leechers-paradise.org%3A6969%2Fannounce&tr=udp%3A%2F%2Ftracker.coppersurfer.tk%3A6969%2Fannounce&tr=udp%3A%2F%2Ftracker.pirateparty.gr%3A6969%2Fannounce&tr=udp%3A%2F%2Ftracker.cyberia.is%3A6969%2Fannounce",
        "seeder": "8",
        "leecher": "3"
    },
    {
        "rank": "17",
        "title": "Never.Back.Down.3.No.Surrender.2016.DVD9.nforelease",
        "link": "magnet:?xt=urn:btih:B810C13620706EBD3C5AD53DF50F03AF9DB0E4FB&dn=Never.Back.Down.3.No.Surrender.2016.DVD9.nforelease&tr=udp%3A%2F%2Ftracker.coppersurfer.tk%3A6969%2Fannounce&tr=udp%3A%2F%2F9.rarbg.to%3A2920%2Fannounce&tr=udp%3A%2F%2Ftracker.opentrackr.org%3A1337&tr=udp%3A%2F%2Ftracker.internetwarriors.net%3A1337%2Fannounce&tr=udp%3A%2F%2Ftracker.leechers-paradise.org%3A6969%2Fannounce&tr=udp%3A%2F%2Ftracker.coppersurfer.tk%3A6969%2Fannounce&tr=udp%3A%2F%2Ftracker.pirateparty.gr%3A6969%2Fannounce&tr=udp%3A%2F%2Ftracker.cyberia.is%3A6969%2Fannounce",
        "seeder": "7",
        "leecher": "1"
    },
    {
        "rank": "18",
        "title": "David Gilmour - Citizen Dave",
        "link": "magnet:?xt=urn:btih:A3976615810BE4822407EB1E452048770903BF00&dn=David+Gilmour+-+Citizen+Dave&tr=udp%3A%2F%2Ftracker.coppersurfer.tk%3A6969%2Fannounce&tr=udp%3A%2F%2F9.rarbg.to%3A2920%2Fannounce&tr=udp%3A%2F%2Ftracker.opentrackr.org%3A1337&tr=udp%3A%2F%2Ftracker.internetwarriors.net%3A1337%2Fannounce&tr=udp%3A%2F%2Ftracker.leechers-paradise.org%3A6969%2Fannounce&tr=udp%3A%2F%2Ftracker.coppersurfer.tk%3A6969%2Fannounce&tr=udp%3A%2F%2Ftracker.pirateparty.gr%3A6969%2Fannounce&tr=udp%3A%2F%2Ftracker.cyberia.is%3A6969%2Fannounce",
        "seeder": "7",
        "leecher": "0"
    },
    {
        "rank": "19",
        "title": "Extreme Boxing: Hardcore Boxing for Self-Defense (2005) - DVDRip",
        "link": "magnet:?xt=urn:btih:964B8C98CDD17AFECD39B3B85F1CD1D79A6361DF&dn=Extreme+Boxing%3A+Hardcore+Boxing+for+Self-Defense+%282005%29+-+DVDRip&tr=udp%3A%2F%2Ftracker.coppersurfer.tk%3A6969%2Fannounce&tr=udp%3A%2F%2F9.rarbg.to%3A2920%2Fannounce&tr=udp%3A%2F%2Ftracker.opentrackr.org%3A1337&tr=udp%3A%2F%2Ftracker.internetwarriors.net%3A1337%2Fannounce&tr=udp%3A%2F%2Ftracker.leechers-paradise.org%3A6969%2Fannounce&tr=udp%3A%2F%2Ftracker.coppersurfer.tk%3A6969%2Fannounce&tr=udp%3A%2F%2Ftracker.pirateparty.gr%3A6969%2Fannounce&tr=udp%3A%2F%2Ftracker.cyberia.is%3A6969%2Fannounce",
        "seeder": "7",
        "leecher": "1"
    },
    {
        "rank": "20",
        "title": "Drugs Collection - Alcohol - BBC Horizon - Do I drink too much",
        "link": "magnet:?xt=urn:btih:E5A7AB764335AD293C44635E1A15F9928A5A2C03&dn=Drugs+Collection+-+Alcohol+-+BBC+Horizon+-+Do+I+drink+too+much&tr=udp%3A%2F%2Ftracker.coppersurfer.tk%3A6969%2Fannounce&tr=udp%3A%2F%2F9.rarbg.to%3A2920%2Fannounce&tr=udp%3A%2F%2Ftracker.opentrackr.org%3A1337&tr=udp%3A%2F%2Ftracker.internetwarriors.net%3A1337%2Fannounce&tr=udp%3A%2F%2Ftracker.leechers-paradise.org%3A6969%2Fannounce&tr=udp%3A%2F%2Ftracker.coppersurfer.tk%3A6969%2Fannounce&tr=udp%3A%2F%2Ftracker.pirateparty.gr%3A6969%2Fannounce&tr=udp%3A%2F%2Ftracker.cyberia.is%3A6969%2Fannounce",
        "seeder": "7",
        "leecher": "0"
    },
    {
        "rank": "21",
        "title": "Cannabis Collection - High Grower - Indoor Growing",
        "link": "magnet:?xt=urn:btih:15A8E81E8C2A8D443ED2EAD25155AD05894B986A&dn=Cannabis+Collection+-+High+Grower+-+Indoor+Growing&tr=udp%3A%2F%2Ftracker.coppersurfer.tk%3A6969%2Fannounce&tr=udp%3A%2F%2F9.rarbg.to%3A2920%2Fannounce&tr=udp%3A%2F%2Ftracker.opentrackr.org%3A1337&tr=udp%3A%2F%2Ftracker.internetwarriors.net%3A1337%2Fannounce&tr=udp%3A%2F%2Ftracker.leechers-paradise.org%3A6969%2Fannounce&tr=udp%3A%2F%2Ftracker.coppersurfer.tk%3A6969%2Fannounce&tr=udp%3A%2F%2Ftracker.pirateparty.gr%3A6969%2Fannounce&tr=udp%3A%2F%2Ftracker.cyberia.is%3A6969%2Fannounce",
        "seeder": "7",
        "leecher": "0"
    },
    {
        "rank": "22",
        "title": "Anne of Green Gables The Continuing Story (2000) NL Subs Retail",
        "link": "magnet:?xt=urn:btih:94834707D50593D13101AC830927867935879C77&dn=Anne+of+Green+Gables+The+Continuing+Story+%282000%29+NL+Subs+Retail&tr=udp%3A%2F%2Ftracker.coppersurfer.tk%3A6969%2Fannounce&tr=udp%3A%2F%2F9.rarbg.to%3A2920%2Fannounce&tr=udp%3A%2F%2Ftracker.opentrackr.org%3A1337&tr=udp%3A%2F%2Ftracker.internetwarriors.net%3A1337%2Fannounce&tr=udp%3A%2F%2Ftracker.leechers-paradise.org%3A6969%2Fannounce&tr=udp%3A%2F%2Ftracker.coppersurfer.tk%3A6969%2Fannounce&tr=udp%3A%2F%2Ftracker.pirateparty.gr%3A6969%2Fannounce&tr=udp%3A%2F%2Ftracker.cyberia.is%3A6969%2Fannounce",
        "seeder": "7",
        "leecher": "0"
    },
    {
        "rank": "23",
        "title": "The Sect - Horror 1991 Eng Ita [H264-mp4]",
        "link": "magnet:?xt=urn:btih:C48D70C47FF693CF4B231531B73E69FB723C114D&dn=The+Sect+-+Horror+1991+Eng+Ita+%5BH264-mp4%5D&tr=udp%3A%2F%2Ftracker.coppersurfer.tk%3A6969%2Fannounce&tr=udp%3A%2F%2F9.rarbg.to%3A2920%2Fannounce&tr=udp%3A%2F%2Ftracker.opentrackr.org%3A1337&tr=udp%3A%2F%2Ftracker.internetwarriors.net%3A1337%2Fannounce&tr=udp%3A%2F%2Ftracker.leechers-paradise.org%3A6969%2Fannounce&tr=udp%3A%2F%2Ftracker.coppersurfer.tk%3A6969%2Fannounce&tr=udp%3A%2F%2Ftracker.pirateparty.gr%3A6969%2Fannounce&tr=udp%3A%2F%2Ftracker.cyberia.is%3A6969%2Fannounce",
        "seeder": "6",
        "leecher": "1"
    },
    {
        "rank": "24",
        "title": "The.Night.Flier.1997.DVDRip.x264.DD5.1-URBiN4HD",
        "link": "magnet:?xt=urn:btih:AB4E488C9BA58CA58B064E3764C2862A43848CF7&dn=The.Night.Flier.1997.DVDRip.x264.DD5.1-URBiN4HD&tr=udp%3A%2F%2Ftracker.coppersurfer.tk%3A6969%2Fannounce&tr=udp%3A%2F%2F9.rarbg.to%3A2920%2Fannounce&tr=udp%3A%2F%2Ftracker.opentrackr.org%3A1337&tr=udp%3A%2F%2Ftracker.internetwarriors.net%3A1337%2Fannounce&tr=udp%3A%2F%2Ftracker.leechers-paradise.org%3A6969%2Fannounce&tr=udp%3A%2F%2Ftracker.coppersurfer.tk%3A6969%2Fannounce&tr=udp%3A%2F%2Ftracker.pirateparty.gr%3A6969%2Fannounce&tr=udp%3A%2F%2Ftracker.cyberia.is%3A6969%2Fannounce",
        "seeder": "6",
        "leecher": "2"
    },
    {
        "rank": "25",
        "title": "MacGyver: Lost Treasure of Atlantis/Trail to Doomsday DVD 9 RETA",
        "link": "magnet:?xt=urn:btih:68149DC217AE06061E74A3AE1D121FD4B5BDAC83&dn=MacGyver%3A+Lost+Treasure+of+Atlantis%2FTrail+to+Doomsday+DVD+9+RETA&tr=udp%3A%2F%2Ftracker.coppersurfer.tk%3A6969%2Fannounce&tr=udp%3A%2F%2F9.rarbg.to%3A2920%2Fannounce&tr=udp%3A%2F%2Ftracker.opentrackr.org%3A1337&tr=udp%3A%2F%2Ftracker.internetwarriors.net%3A1337%2Fannounce&tr=udp%3A%2F%2Ftracker.leechers-paradise.org%3A6969%2Fannounce&tr=udp%3A%2F%2Ftracker.coppersurfer.tk%3A6969%2Fannounce&tr=udp%3A%2F%2Ftracker.pirateparty.gr%3A6969%2Fannounce&tr=udp%3A%2F%2Ftracker.cyberia.is%3A6969%2Fannounce",
        "seeder": "6",
        "leecher": "0"
    },
    {
        "rank": "26",
        "title": "Dino Risi's Profumo di donna (1974) - DVDRip x265 HEVC - ITA (EN",
        "link": "magnet:?xt=urn:btih:E92B6B0CF9695ECA6863EDECA5316F9D30B8BC73&dn=Dino+Risi%27s+Profumo+di+donna+%281974%29+-+DVDRip+x265+HEVC+-+ITA+%28EN&tr=udp%3A%2F%2Ftracker.coppersurfer.tk%3A6969%2Fannounce&tr=udp%3A%2F%2F9.rarbg.to%3A2920%2Fannounce&tr=udp%3A%2F%2Ftracker.opentrackr.org%3A1337&tr=udp%3A%2F%2Ftracker.internetwarriors.net%3A1337%2Fannounce&tr=udp%3A%2F%2Ftracker.leechers-paradise.org%3A6969%2Fannounce&tr=udp%3A%2F%2Ftracker.coppersurfer.tk%3A6969%2Fannounce&tr=udp%3A%2F%2Ftracker.pirateparty.gr%3A6969%2Fannounce&tr=udp%3A%2F%2Ftracker.cyberia.is%3A6969%2Fannounce",
        "seeder": "6",
        "leecher": "1"
    },
    {
        "rank": "27",
        "title": "Dugun.Dernek.2.Sunnet.2015.DVDRip.x264.Turkish.AAC-ETRG",
        "link": "magnet:?xt=urn:btih:CD2BDE676917D72ACD8FC99BFC6A7E03317225B9&dn=Dugun.Dernek.2.Sunnet.2015.DVDRip.x264.Turkish.AAC-ETRG&tr=udp%3A%2F%2Ftracker.coppersurfer.tk%3A6969%2Fannounce&tr=udp%3A%2F%2F9.rarbg.to%3A2920%2Fannounce&tr=udp%3A%2F%2Ftracker.opentrackr.org%3A1337&tr=udp%3A%2F%2Ftracker.internetwarriors.net%3A1337%2Fannounce&tr=udp%3A%2F%2Ftracker.leechers-paradise.org%3A6969%2Fannounce&tr=udp%3A%2F%2Ftracker.coppersurfer.tk%3A6969%2Fannounce&tr=udp%3A%2F%2Ftracker.pirateparty.gr%3A6969%2Fannounce&tr=udp%3A%2F%2Ftracker.cyberia.is%3A6969%2Fannounce",
        "seeder": "6",
        "leecher": "0"
    },
    {
        "rank": "28",
        "title": "Skyfall (2012) 007 James Bond Original DVD",
        "link": "magnet:?xt=urn:btih:9C433F55F0FCECBAE94674A9953BD395F7D803ED&dn=Skyfall+%282012%29+007+James+Bond+Original+DVD&tr=udp%3A%2F%2Ftracker.coppersurfer.tk%3A6969%2Fannounce&tr=udp%3A%2F%2F9.rarbg.to%3A2920%2Fannounce&tr=udp%3A%2F%2Ftracker.opentrackr.org%3A1337&tr=udp%3A%2F%2Ftracker.internetwarriors.net%3A1337%2Fannounce&tr=udp%3A%2F%2Ftracker.leechers-paradise.org%3A6969%2Fannounce&tr=udp%3A%2F%2Ftracker.coppersurfer.tk%3A6969%2Fannounce&tr=udp%3A%2F%2Ftracker.pirateparty.gr%3A6969%2Fannounce&tr=udp%3A%2F%2Ftracker.cyberia.is%3A6969%2Fannounce",
        "seeder": "6",
        "leecher": "0"
    },
    {
        "rank": "29",
        "title": "U2 PopMart Tour Live From Mexico City [DVD9  Eng - Dolby 5.1] TN",
        "link": "magnet:?xt=urn:btih:FF2D0BFE817A3965771C518E6445D8D41691A1B5&dn=U2+PopMart+Tour+Live+From+Mexico+City+%5BDVD9++Eng+-+Dolby+5.1%5D+TN&tr=udp%3A%2F%2Ftracker.coppersurfer.tk%3A6969%2Fannounce&tr=udp%3A%2F%2F9.rarbg.to%3A2920%2Fannounce&tr=udp%3A%2F%2Ftracker.opentrackr.org%3A1337&tr=udp%3A%2F%2Ftracker.internetwarriors.net%3A1337%2Fannounce&tr=udp%3A%2F%2Ftracker.leechers-paradise.org%3A6969%2Fannounce&tr=udp%3A%2F%2Ftracker.coppersurfer.tk%3A6969%2Fannounce&tr=udp%3A%2F%2Ftracker.pirateparty.gr%3A6969%2Fannounce&tr=udp%3A%2F%2Ftracker.cyberia.is%3A6969%2Fannounce",
        "seeder": "6",
        "leecher": "1"
    },
    {
        "rank": "30",
        "title": "Drugs Collection - HC - Illegal Drugs - LSD Ecstasy and the rave",
        "link": "magnet:?xt=urn:btih:43D0510CA1AB5157D26F33FACF6CDE906669E0EF&dn=Drugs+Collection+-+HC+-+Illegal+Drugs+-+LSD+Ecstasy+and+the+rave&tr=udp%3A%2F%2Ftracker.coppersurfer.tk%3A6969%2Fannounce&tr=udp%3A%2F%2F9.rarbg.to%3A2920%2Fannounce&tr=udp%3A%2F%2Ftracker.opentrackr.org%3A1337&tr=udp%3A%2F%2Ftracker.internetwarriors.net%3A1337%2Fannounce&tr=udp%3A%2F%2Ftracker.leechers-paradise.org%3A6969%2Fannounce&tr=udp%3A%2F%2Ftracker.coppersurfer.tk%3A6969%2Fannounce&tr=udp%3A%2F%2Ftracker.pirateparty.gr%3A6969%2Fannounce&tr=udp%3A%2F%2Ftracker.cyberia.is%3A6969%2Fannounce",
        "seeder": "6",
        "leecher": "0"
    },
    {
        "rank": "31",
        "title": "Cannabis Collection - Run From The Cure - The Rick Simpson Story",
        "link": "magnet:?xt=urn:btih:055E884ECB1C74D55F900EDF214BECED6D59F199&dn=Cannabis+Collection+-+Run+From+The+Cure+-+The+Rick+Simpson+Story&tr=udp%3A%2F%2Ftracker.coppersurfer.tk%3A6969%2Fannounce&tr=udp%3A%2F%2F9.rarbg.to%3A2920%2Fannounce&tr=udp%3A%2F%2Ftracker.opentrackr.org%3A1337&tr=udp%3A%2F%2Ftracker.internetwarriors.net%3A1337%2Fannounce&tr=udp%3A%2F%2Ftracker.leechers-paradise.org%3A6969%2Fannounce&tr=udp%3A%2F%2Ftracker.coppersurfer.tk%3A6969%2Fannounce&tr=udp%3A%2F%2Ftracker.pirateparty.gr%3A6969%2Fannounce&tr=udp%3A%2F%2Ftracker.cyberia.is%3A6969%2Fannounce",
        "seeder": "6",
        "leecher": "0"
    },
    {
        "rank": "32",
        "title": "Cannabis Collection - Reefer Madness (1936) - Colorized and Rest",
        "link": "magnet:?xt=urn:btih:473F022CFAF5B02082D1C7D88FE8F8EB93E9680C&dn=Cannabis+Collection+-+Reefer+Madness+%281936%29+-+Colorized+and+Rest&tr=udp%3A%2F%2Ftracker.coppersurfer.tk%3A6969%2Fannounce&tr=udp%3A%2F%2F9.rarbg.to%3A2920%2Fannounce&tr=udp%3A%2F%2Ftracker.opentrackr.org%3A1337&tr=udp%3A%2F%2Ftracker.internetwarriors.net%3A1337%2Fannounce&tr=udp%3A%2F%2Ftracker.leechers-paradise.org%3A6969%2Fannounce&tr=udp%3A%2F%2Ftracker.coppersurfer.tk%3A6969%2Fannounce&tr=udp%3A%2F%2Ftracker.pirateparty.gr%3A6969%2Fannounce&tr=udp%3A%2F%2Ftracker.cyberia.is%3A6969%2Fannounce",
        "seeder": "6",
        "leecher": "0"
    },
    {
        "rank": "33",
        "title": "Cannabis Collection - Aphrodisiac - The Sexual Secret of Marijua",
        "link": "magnet:?xt=urn:btih:0617674868C2FB4664BB43BD29EA1C4BC6BE68CF&dn=Cannabis+Collection+-+Aphrodisiac+-+The+Sexual+Secret+of+Marijua&tr=udp%3A%2F%2Ftracker.coppersurfer.tk%3A6969%2Fannounce&tr=udp%3A%2F%2F9.rarbg.to%3A2920%2Fannounce&tr=udp%3A%2F%2Ftracker.opentrackr.org%3A1337&tr=udp%3A%2F%2Ftracker.internetwarriors.net%3A1337%2Fannounce&tr=udp%3A%2F%2Ftracker.leechers-paradise.org%3A6969%2Fannounce&tr=udp%3A%2F%2Ftracker.coppersurfer.tk%3A6969%2Fannounce&tr=udp%3A%2F%2Ftracker.pirateparty.gr%3A6969%2Fannounce&tr=udp%3A%2F%2Ftracker.cyberia.is%3A6969%2Fannounce",
        "seeder": "6",
        "leecher": "0"
    },
    {
        "rank": "34",
        "title": "Rasputin (1996) DD2.0 Nl Subs PAL   TBS",
        "link": "magnet:?xt=urn:btih:5053A4336796E49BF5EE3F9653D25785405452EE&dn=Rasputin+%281996%29+DD2.0+Nl+Subs+PAL+++TBS&tr=udp%3A%2F%2Ftracker.coppersurfer.tk%3A6969%2Fannounce&tr=udp%3A%2F%2F9.rarbg.to%3A2920%2Fannounce&tr=udp%3A%2F%2Ftracker.opentrackr.org%3A1337&tr=udp%3A%2F%2Ftracker.internetwarriors.net%3A1337%2Fannounce&tr=udp%3A%2F%2Ftracker.leechers-paradise.org%3A6969%2Fannounce&tr=udp%3A%2F%2Ftracker.coppersurfer.tk%3A6969%2Fannounce&tr=udp%3A%2F%2Ftracker.pirateparty.gr%3A6969%2Fannounce&tr=udp%3A%2F%2Ftracker.cyberia.is%3A6969%2Fannounce",
        "seeder": "6",
        "leecher": "0"
    },
    {
        "rank": "35",
        "title": "Jim Henson's - The Storyteller - Greek Myths [1990 PAL DVD][En.",
        "link": "magnet:?xt=urn:btih:9E953AD9AF10750C50B68D552063D4E74ACA5196&dn=Jim+Henson%27s+-+The+Storyteller+-+Greek+Myths+%5B1990+PAL+DVD%5D%5BEn.&tr=udp%3A%2F%2Ftracker.coppersurfer.tk%3A6969%2Fannounce&tr=udp%3A%2F%2F9.rarbg.to%3A2920%2Fannounce&tr=udp%3A%2F%2Ftracker.opentrackr.org%3A1337&tr=udp%3A%2F%2Ftracker.internetwarriors.net%3A1337%2Fannounce&tr=udp%3A%2F%2Ftracker.leechers-paradise.org%3A6969%2Fannounce&tr=udp%3A%2F%2Ftracker.coppersurfer.tk%3A6969%2Fannounce&tr=udp%3A%2F%2Ftracker.pirateparty.gr%3A6969%2Fannounce&tr=udp%3A%2F%2Ftracker.cyberia.is%3A6969%2Fannounce",
        "seeder": "6",
        "leecher": "1"
    },
    {
        "rank": "36",
        "title": "Lick Library - Ultimate Guitar Techniques - Scale Shapes",
        "link": "magnet:?xt=urn:btih:7912BFE31379F6DC4C7852C832D38E3D390AB6FB&dn=Lick+Library+-+Ultimate+Guitar+Techniques+-+Scale+Shapes&tr=udp%3A%2F%2Ftracker.coppersurfer.tk%3A6969%2Fannounce&tr=udp%3A%2F%2F9.rarbg.to%3A2920%2Fannounce&tr=udp%3A%2F%2Ftracker.opentrackr.org%3A1337&tr=udp%3A%2F%2Ftracker.internetwarriors.net%3A1337%2Fannounce&tr=udp%3A%2F%2Ftracker.leechers-paradise.org%3A6969%2Fannounce&tr=udp%3A%2F%2Ftracker.coppersurfer.tk%3A6969%2Fannounce&tr=udp%3A%2F%2Ftracker.pirateparty.gr%3A6969%2Fannounce&tr=udp%3A%2F%2Ftracker.cyberia.is%3A6969%2Fannounce",
        "seeder": "6",
        "leecher": "0"
    },
    {
        "rank": "37",
        "title": "The Ultimate Disney Collection - 08. Make Mine Music (1946)",
        "link": "magnet:?xt=urn:btih:77EF71E847A3B53928104DD23784C669408856BA&dn=The+Ultimate+Disney+Collection+-+08.+Make+Mine+Music+%281946%29&tr=udp%3A%2F%2Ftracker.coppersurfer.tk%3A6969%2Fannounce&tr=udp%3A%2F%2F9.rarbg.to%3A2920%2Fannounce&tr=udp%3A%2F%2Ftracker.opentrackr.org%3A1337&tr=udp%3A%2F%2Ftracker.internetwarriors.net%3A1337%2Fannounce&tr=udp%3A%2F%2Ftracker.leechers-paradise.org%3A6969%2Fannounce&tr=udp%3A%2F%2Ftracker.coppersurfer.tk%3A6969%2Fannounce&tr=udp%3A%2F%2Ftracker.pirateparty.gr%3A6969%2Fannounce&tr=udp%3A%2F%2Ftracker.cyberia.is%3A6969%2Fannounce",
        "seeder": "6",
        "leecher": "0"
    },
    {
        "rank": "38",
        "title": "Malcom X-DVDR-SUBS, ENG, FRA",
        "link": "magnet:?xt=urn:btih:F71066795B132AD3353CD9DCEB4B6C43CD4B84DF&dn=Malcom+X-DVDR-SUBS%2C+ENG%2C+FRA&tr=udp%3A%2F%2Ftracker.coppersurfer.tk%3A6969%2Fannounce&tr=udp%3A%2F%2F9.rarbg.to%3A2920%2Fannounce&tr=udp%3A%2F%2Ftracker.opentrackr.org%3A1337&tr=udp%3A%2F%2Ftracker.internetwarriors.net%3A1337%2Fannounce&tr=udp%3A%2F%2Ftracker.leechers-paradise.org%3A6969%2Fannounce&tr=udp%3A%2F%2Ftracker.coppersurfer.tk%3A6969%2Fannounce&tr=udp%3A%2F%2Ftracker.pirateparty.gr%3A6969%2Fannounce&tr=udp%3A%2F%2Ftracker.cyberia.is%3A6969%2Fannounce",
        "seeder": "6",
        "leecher": "0"
    },
    {
        "rank": "39",
        "title": "Cannabis Collection - The Legend of 420",
        "link": "magnet:?xt=urn:btih:B79C3DF5387D08EBC3F6BC4129A7D161294D9CAB&dn=Cannabis+Collection+-+The+Legend+of+420&tr=udp%3A%2F%2Ftracker.coppersurfer.tk%3A6969%2Fannounce&tr=udp%3A%2F%2F9.rarbg.to%3A2920%2Fannounce&tr=udp%3A%2F%2Ftracker.opentrackr.org%3A1337&tr=udp%3A%2F%2Ftracker.internetwarriors.net%3A1337%2Fannounce&tr=udp%3A%2F%2Ftracker.leechers-paradise.org%3A6969%2Fannounce&tr=udp%3A%2F%2Ftracker.coppersurfer.tk%3A6969%2Fannounce&tr=udp%3A%2F%2Ftracker.pirateparty.gr%3A6969%2Fannounce&tr=udp%3A%2F%2Ftracker.cyberia.is%3A6969%2Fannounce",
        "seeder": "5",
        "leecher": "0"
    },
    {
        "rank": "40",
        "title": "Cannabis Collection - Magic Weed",
        "link": "magnet:?xt=urn:btih:9C97F730BA40E7DDCBF7D671C6B8DCA8FD116211&dn=Cannabis+Collection+-+Magic+Weed&tr=udp%3A%2F%2Ftracker.coppersurfer.tk%3A6969%2Fannounce&tr=udp%3A%2F%2F9.rarbg.to%3A2920%2Fannounce&tr=udp%3A%2F%2Ftracker.opentrackr.org%3A1337&tr=udp%3A%2F%2Ftracker.internetwarriors.net%3A1337%2Fannounce&tr=udp%3A%2F%2Ftracker.leechers-paradise.org%3A6969%2Fannounce&tr=udp%3A%2F%2Ftracker.coppersurfer.tk%3A6969%2Fannounce&tr=udp%3A%2F%2Ftracker.pirateparty.gr%3A6969%2Fannounce&tr=udp%3A%2F%2Ftracker.cyberia.is%3A6969%2Fannounce",
        "seeder": "5",
        "leecher": "0"
    },
    {
        "rank": "41",
        "title": "Charles Bronson (1980) - Borderline",
        "link": "magnet:?xt=urn:btih:6C92D9624D711779FED45F0FD267112D41B49CEF&dn=Charles+Bronson+%281980%29+-+Borderline&tr=udp%3A%2F%2Ftracker.coppersurfer.tk%3A6969%2Fannounce&tr=udp%3A%2F%2F9.rarbg.to%3A2920%2Fannounce&tr=udp%3A%2F%2Ftracker.opentrackr.org%3A1337&tr=udp%3A%2F%2Ftracker.internetwarriors.net%3A1337%2Fannounce&tr=udp%3A%2F%2Ftracker.leechers-paradise.org%3A6969%2Fannounce&tr=udp%3A%2F%2Ftracker.coppersurfer.tk%3A6969%2Fannounce&tr=udp%3A%2F%2Ftracker.pirateparty.gr%3A6969%2Fannounce&tr=udp%3A%2F%2Ftracker.cyberia.is%3A6969%2Fannounce",
        "seeder": "5",
        "leecher": "0"
    },
    {
        "rank": "42",
        "title": "Garage Olimpo (1999) - DVDRip x264 - ESP-ITA (ENG SUBS) [BRSHNKV",
        "link": "magnet:?xt=urn:btih:EE2B3D2FA9C34F82242208F6751CD6F237375C5B&dn=Garage+Olimpo+%281999%29+-+DVDRip+x264+-+ESP-ITA+%28ENG+SUBS%29+%5BBRSHNKV&tr=udp%3A%2F%2Ftracker.coppersurfer.tk%3A6969%2Fannounce&tr=udp%3A%2F%2F9.rarbg.to%3A2920%2Fannounce&tr=udp%3A%2F%2Ftracker.opentrackr.org%3A1337&tr=udp%3A%2F%2Ftracker.internetwarriors.net%3A1337%2Fannounce&tr=udp%3A%2F%2Ftracker.leechers-paradise.org%3A6969%2Fannounce&tr=udp%3A%2F%2Ftracker.coppersurfer.tk%3A6969%2Fannounce&tr=udp%3A%2F%2Ftracker.pirateparty.gr%3A6969%2Fannounce&tr=udp%3A%2F%2Ftracker.cyberia.is%3A6969%2Fannounce",
        "seeder": "5",
        "leecher": "0"
    },
    {
        "rank": "43",
        "title": "Cannabis Collection - HC - The Marijuana Revolution",
        "link": "magnet:?xt=urn:btih:49D79F12DBB59DCFBE0D95D5F6F7D0EB619E5961&dn=Cannabis+Collection+-+HC+-+The+Marijuana+Revolution&tr=udp%3A%2F%2Ftracker.coppersurfer.tk%3A6969%2Fannounce&tr=udp%3A%2F%2F9.rarbg.to%3A2920%2Fannounce&tr=udp%3A%2F%2Ftracker.opentrackr.org%3A1337&tr=udp%3A%2F%2Ftracker.internetwarriors.net%3A1337%2Fannounce&tr=udp%3A%2F%2Ftracker.leechers-paradise.org%3A6969%2Fannounce&tr=udp%3A%2F%2Ftracker.coppersurfer.tk%3A6969%2Fannounce&tr=udp%3A%2F%2Ftracker.pirateparty.gr%3A6969%2Fannounce&tr=udp%3A%2F%2Ftracker.cyberia.is%3A6969%2Fannounce",
        "seeder": "5",
        "leecher": "1"
    },
    {
        "rank": "44",
        "title": "Cannabis Collection - Weediquette - Stoned Kids Cure Cancer",
        "link": "magnet:?xt=urn:btih:F8A708A1E47C0F601A60255CE50E18F61848E874&dn=Cannabis+Collection+-+Weediquette+-+Stoned+Kids+Cure+Cancer&tr=udp%3A%2F%2Ftracker.coppersurfer.tk%3A6969%2Fannounce&tr=udp%3A%2F%2F9.rarbg.to%3A2920%2Fannounce&tr=udp%3A%2F%2Ftracker.opentrackr.org%3A1337&tr=udp%3A%2F%2Ftracker.internetwarriors.net%3A1337%2Fannounce&tr=udp%3A%2F%2Ftracker.leechers-paradise.org%3A6969%2Fannounce&tr=udp%3A%2F%2Ftracker.coppersurfer.tk%3A6969%2Fannounce&tr=udp%3A%2F%2Ftracker.pirateparty.gr%3A6969%2Fannounce&tr=udp%3A%2F%2Ftracker.cyberia.is%3A6969%2Fannounce",
        "seeder": "5",
        "leecher": "1"
    },
    {
        "rank": "45",
        "title": "The Gene Wilder + Richard Pryor Collection (1976 - 1991)",
        "link": "magnet:?xt=urn:btih:DB27D5EA828BAD92F0F5B0B1B6DC206490C073B2&dn=The+Gene+Wilder+%2B+Richard+Pryor+Collection+%281976+-+1991%29&tr=udp%3A%2F%2Ftracker.coppersurfer.tk%3A6969%2Fannounce&tr=udp%3A%2F%2F9.rarbg.to%3A2920%2Fannounce&tr=udp%3A%2F%2Ftracker.opentrackr.org%3A1337&tr=udp%3A%2F%2Ftracker.internetwarriors.net%3A1337%2Fannounce&tr=udp%3A%2F%2Ftracker.leechers-paradise.org%3A6969%2Fannounce&tr=udp%3A%2F%2Ftracker.coppersurfer.tk%3A6969%2Fannounce&tr=udp%3A%2F%2Ftracker.pirateparty.gr%3A6969%2Fannounce&tr=udp%3A%2F%2Ftracker.cyberia.is%3A6969%2Fannounce",
        "seeder": "5",
        "leecher": "1"
    },
    {
        "rank": "46",
        "title": "James Brown 1973-1974 Soul Train",
        "link": "magnet:?xt=urn:btih:B17DDB3FC4C80517DF286FD589228C4F2AAC3D9F&dn=James+Brown+1973-1974+Soul+Train&tr=udp%3A%2F%2Ftracker.coppersurfer.tk%3A6969%2Fannounce&tr=udp%3A%2F%2F9.rarbg.to%3A2920%2Fannounce&tr=udp%3A%2F%2Ftracker.opentrackr.org%3A1337&tr=udp%3A%2F%2Ftracker.internetwarriors.net%3A1337%2Fannounce&tr=udp%3A%2F%2Ftracker.leechers-paradise.org%3A6969%2Fannounce&tr=udp%3A%2F%2Ftracker.coppersurfer.tk%3A6969%2Fannounce&tr=udp%3A%2F%2Ftracker.pirateparty.gr%3A6969%2Fannounce&tr=udp%3A%2F%2Ftracker.cyberia.is%3A6969%2Fannounce",
        "seeder": "5",
        "leecher": "0"
    },
    {
        "rank": "47",
        "title": "Keith Richards - Solo Works",
        "link": "magnet:?xt=urn:btih:FFF8B847140CD2759A3273DD46235F8F11C44BDE&dn=Keith+Richards+-+Solo+Works&tr=udp%3A%2F%2Ftracker.coppersurfer.tk%3A6969%2Fannounce&tr=udp%3A%2F%2F9.rarbg.to%3A2920%2Fannounce&tr=udp%3A%2F%2Ftracker.opentrackr.org%3A1337&tr=udp%3A%2F%2Ftracker.internetwarriors.net%3A1337%2Fannounce&tr=udp%3A%2F%2Ftracker.leechers-paradise.org%3A6969%2Fannounce&tr=udp%3A%2F%2Ftracker.coppersurfer.tk%3A6969%2Fannounce&tr=udp%3A%2F%2Ftracker.pirateparty.gr%3A6969%2Fannounce&tr=udp%3A%2F%2Ftracker.cyberia.is%3A6969%2Fannounce",
        "seeder": "5",
        "leecher": "0"
    },
    {
        "rank": "48",
        "title": "The Matchmaker (1997) DVDrip x264 RB58",
        "link": "magnet:?xt=urn:btih:8C445B9A417FED8853C936A67FDA4327891FC5BF&dn=The+Matchmaker+%281997%29+DVDrip+x264+RB58&tr=udp%3A%2F%2Ftracker.coppersurfer.tk%3A6969%2Fannounce&tr=udp%3A%2F%2F9.rarbg.to%3A2920%2Fannounce&tr=udp%3A%2F%2Ftracker.opentrackr.org%3A1337&tr=udp%3A%2F%2Ftracker.internetwarriors.net%3A1337%2Fannounce&tr=udp%3A%2F%2Ftracker.leechers-paradise.org%3A6969%2Fannounce&tr=udp%3A%2F%2Ftracker.coppersurfer.tk%3A6969%2Fannounce&tr=udp%3A%2F%2Ftracker.pirateparty.gr%3A6969%2Fannounce&tr=udp%3A%2F%2Ftracker.cyberia.is%3A6969%2Fannounce",
        "seeder": "5",
        "leecher": "1"
    },
    {
        "rank": "49",
        "title": "Marx Brothers [1937] A Day At The Races - Eng, Ger, Sp + multisu",
        "link": "magnet:?xt=urn:btih:E7346CC164E2967AB38011BFC6FF93238C11F856&dn=Marx+Brothers+%5B1937%5D+A+Day+At+The+Races+-+Eng%2C+Ger%2C+Sp+%2B+multisu&tr=udp%3A%2F%2Ftracker.coppersurfer.tk%3A6969%2Fannounce&tr=udp%3A%2F%2F9.rarbg.to%3A2920%2Fannounce&tr=udp%3A%2F%2Ftracker.opentrackr.org%3A1337&tr=udp%3A%2F%2Ftracker.internetwarriors.net%3A1337%2Fannounce&tr=udp%3A%2F%2Ftracker.leechers-paradise.org%3A6969%2Fannounce&tr=udp%3A%2F%2Ftracker.coppersurfer.tk%3A6969%2Fannounce&tr=udp%3A%2F%2Ftracker.pirateparty.gr%3A6969%2Fannounce&tr=udp%3A%2F%2Ftracker.cyberia.is%3A6969%2Fannounce",
        "seeder": "5",
        "leecher": "0"
    },
    {
        "rank": "50",
        "title": "Drugs Collection - Ayahuasca - Other Worlds",
        "link": "magnet:?xt=urn:btih:D78A207F9FB7833EEB1072BCE2C56B1611DEE4C8&dn=Drugs+Collection+-+Ayahuasca+-+Other+Worlds&tr=udp%3A%2F%2Ftracker.coppersurfer.tk%3A6969%2Fannounce&tr=udp%3A%2F%2F9.rarbg.to%3A2920%2Fannounce&tr=udp%3A%2F%2Ftracker.opentrackr.org%3A1337&tr=udp%3A%2F%2Ftracker.internetwarriors.net%3A1337%2Fannounce&tr=udp%3A%2F%2Ftracker.leechers-paradise.org%3A6969%2Fannounce&tr=udp%3A%2F%2Ftracker.coppersurfer.tk%3A6969%2Fannounce&tr=udp%3A%2F%2Ftracker.pirateparty.gr%3A6969%2Fannounce&tr=udp%3A%2F%2Ftracker.cyberia.is%3A6969%2Fannounce",
        "seeder": "5",
        "leecher": "1"
    },
    {
        "rank": "51",
        "title": "Rembetiko [1983 PAL DVD][El Subs[En]",
        "link": "magnet:?xt=urn:btih:78408684E2139FCC54120CAC53BF11CF9AA34EC4&dn=Rembetiko+%5B1983+PAL+DVD%5D%5BEl+Subs%5BEn%5D&tr=udp%3A%2F%2Ftracker.coppersurfer.tk%3A6969%2Fannounce&tr=udp%3A%2F%2F9.rarbg.to%3A2920%2Fannounce&tr=udp%3A%2F%2Ftracker.opentrackr.org%3A1337&tr=udp%3A%2F%2Ftracker.internetwarriors.net%3A1337%2Fannounce&tr=udp%3A%2F%2Ftracker.leechers-paradise.org%3A6969%2Fannounce&tr=udp%3A%2F%2Ftracker.coppersurfer.tk%3A6969%2Fannounce&tr=udp%3A%2F%2Ftracker.pirateparty.gr%3A6969%2Fannounce&tr=udp%3A%2F%2Ftracker.cyberia.is%3A6969%2Fannounce",
        "seeder": "5",
        "leecher": "0"
    },
    {
        "rank": "52",
        "title": "Cannabis Collection - Never Get Raided Again",
        "link": "magnet:?xt=urn:btih:9E29686BE6FC25D1A2262BEF3EAF75A3C581DCC4&dn=Cannabis+Collection+-+Never+Get+Raided+Again&tr=udp%3A%2F%2Ftracker.coppersurfer.tk%3A6969%2Fannounce&tr=udp%3A%2F%2F9.rarbg.to%3A2920%2Fannounce&tr=udp%3A%2F%2Ftracker.opentrackr.org%3A1337&tr=udp%3A%2F%2Ftracker.internetwarriors.net%3A1337%2Fannounce&tr=udp%3A%2F%2Ftracker.leechers-paradise.org%3A6969%2Fannounce&tr=udp%3A%2F%2Ftracker.coppersurfer.tk%3A6969%2Fannounce&tr=udp%3A%2F%2Ftracker.pirateparty.gr%3A6969%2Fannounce&tr=udp%3A%2F%2Ftracker.cyberia.is%3A6969%2Fannounce",
        "seeder": "5",
        "leecher": "3"
    },
    {
        "rank": "53",
        "title": "Drugs Collection - Peyote to LSD - Sacred Mushrooms",
        "link": "magnet:?xt=urn:btih:DA0D2AFA5C58BF48AFAACACDDA24346432A42585&dn=Drugs+Collection+-+Peyote+to+LSD+-+Sacred+Mushrooms&tr=udp%3A%2F%2Ftracker.coppersurfer.tk%3A6969%2Fannounce&tr=udp%3A%2F%2F9.rarbg.to%3A2920%2Fannounce&tr=udp%3A%2F%2Ftracker.opentrackr.org%3A1337&tr=udp%3A%2F%2Ftracker.internetwarriors.net%3A1337%2Fannounce&tr=udp%3A%2F%2Ftracker.leechers-paradise.org%3A6969%2Fannounce&tr=udp%3A%2F%2Ftracker.coppersurfer.tk%3A6969%2Fannounce&tr=udp%3A%2F%2Ftracker.pirateparty.gr%3A6969%2Fannounce&tr=udp%3A%2F%2Ftracker.cyberia.is%3A6969%2Fannounce",
        "seeder": "5",
        "leecher": "0"
    },
    {
        "rank": "54",
        "title": "Cannabis Collection - Cancer is Curable Now",
        "link": "magnet:?xt=urn:btih:0E5826433AF40C0779D4E98FCD54ADB884D53CA2&dn=Cannabis+Collection+-+Cancer+is+Curable+Now&tr=udp%3A%2F%2Ftracker.coppersurfer.tk%3A6969%2Fannounce&tr=udp%3A%2F%2F9.rarbg.to%3A2920%2Fannounce&tr=udp%3A%2F%2Ftracker.opentrackr.org%3A1337&tr=udp%3A%2F%2Ftracker.internetwarriors.net%3A1337%2Fannounce&tr=udp%3A%2F%2Ftracker.leechers-paradise.org%3A6969%2Fannounce&tr=udp%3A%2F%2Ftracker.coppersurfer.tk%3A6969%2Fannounce&tr=udp%3A%2F%2Ftracker.pirateparty.gr%3A6969%2Fannounce&tr=udp%3A%2F%2Ftracker.cyberia.is%3A6969%2Fannounce",
        "seeder": "5",
        "leecher": "0"
    },
    {
        "rank": "55",
        "title": "Cannabis Collection - Sex Drugs and Democracy",
        "link": "magnet:?xt=urn:btih:44824DD8095FC07376B0A5C5D75CFB6503683EB2&dn=Cannabis+Collection+-+Sex+Drugs+and+Democracy&tr=udp%3A%2F%2Ftracker.coppersurfer.tk%3A6969%2Fannounce&tr=udp%3A%2F%2F9.rarbg.to%3A2920%2Fannounce&tr=udp%3A%2F%2Ftracker.opentrackr.org%3A1337&tr=udp%3A%2F%2Ftracker.internetwarriors.net%3A1337%2Fannounce&tr=udp%3A%2F%2Ftracker.leechers-paradise.org%3A6969%2Fannounce&tr=udp%3A%2F%2Ftracker.coppersurfer.tk%3A6969%2Fannounce&tr=udp%3A%2F%2Ftracker.pirateparty.gr%3A6969%2Fannounce&tr=udp%3A%2F%2Ftracker.cyberia.is%3A6969%2Fannounce",
        "seeder": "5",
        "leecher": "0"
    },
    {
        "rank": "56",
        "title": "Stephen King's Storm of the Century (1999) 2 DVD's (multi Subs)T",
        "link": "magnet:?xt=urn:btih:34843C6FA5CE8D4CDB416E278FB3F5A4B9CB3AD9&dn=Stephen+King%27s+Storm+of+the+Century+%281999%29+2+DVD%27s+%28multi+Subs%29T&tr=udp%3A%2F%2Ftracker.coppersurfer.tk%3A6969%2Fannounce&tr=udp%3A%2F%2F9.rarbg.to%3A2920%2Fannounce&tr=udp%3A%2F%2Ftracker.opentrackr.org%3A1337&tr=udp%3A%2F%2Ftracker.internetwarriors.net%3A1337%2Fannounce&tr=udp%3A%2F%2Ftracker.leechers-paradise.org%3A6969%2Fannounce&tr=udp%3A%2F%2Ftracker.coppersurfer.tk%3A6969%2Fannounce&tr=udp%3A%2F%2Ftracker.pirateparty.gr%3A6969%2Fannounce&tr=udp%3A%2F%2Ftracker.cyberia.is%3A6969%2Fannounce",
        "seeder": "5",
        "leecher": "0"
    },
    {
        "rank": "57",
        "title": "Panique au Village (2009) Juultje TBS",
        "link": "magnet:?xt=urn:btih:14F1AF35CA1F988EC0FC2A058A396CFF7C61C298&dn=Panique+au+Village+%282009%29+Juultje+TBS&tr=udp%3A%2F%2Ftracker.coppersurfer.tk%3A6969%2Fannounce&tr=udp%3A%2F%2F9.rarbg.to%3A2920%2Fannounce&tr=udp%3A%2F%2Ftracker.opentrackr.org%3A1337&tr=udp%3A%2F%2Ftracker.internetwarriors.net%3A1337%2Fannounce&tr=udp%3A%2F%2Ftracker.leechers-paradise.org%3A6969%2Fannounce&tr=udp%3A%2F%2Ftracker.coppersurfer.tk%3A6969%2Fannounce&tr=udp%3A%2F%2Ftracker.pirateparty.gr%3A6969%2Fannounce&tr=udp%3A%2F%2Ftracker.cyberia.is%3A6969%2Fannounce",
        "seeder": "5",
        "leecher": "0"
    },
    {
        "rank": "58",
        "title": "Simon And Garfunkel-The Concert In Central Park (1981) PAL",
        "link": "magnet:?xt=urn:btih:4B5C3BA6430E9A3C7AE221E8977489A75665BE6D&dn=Simon+And+Garfunkel-The+Concert+In+Central+Park+%281981%29+PAL&tr=udp%3A%2F%2Ftracker.coppersurfer.tk%3A6969%2Fannounce&tr=udp%3A%2F%2F9.rarbg.to%3A2920%2Fannounce&tr=udp%3A%2F%2Ftracker.opentrackr.org%3A1337&tr=udp%3A%2F%2Ftracker.internetwarriors.net%3A1337%2Fannounce&tr=udp%3A%2F%2Ftracker.leechers-paradise.org%3A6969%2Fannounce&tr=udp%3A%2F%2Ftracker.coppersurfer.tk%3A6969%2Fannounce&tr=udp%3A%2F%2Ftracker.pirateparty.gr%3A6969%2Fannounce&tr=udp%3A%2F%2Ftracker.cyberia.is%3A6969%2Fannounce",
        "seeder": "5",
        "leecher": "0"
    },
    {
        "rank": "59",
        "title": "Entre Tinieblas,Dark Habits -83 by Pedro Almod\u00c3\u00b3var DvD9 Nordic",
        "link": "magnet:?xt=urn:btih:08233CF214A1181A466F08D4732D7A82BC548E63&dn=Entre+Tinieblas%2CDark+Habits+-83+by+Pedro+Almod%C3%83%C2%B3var+DvD9+Nordic&tr=udp%3A%2F%2Ftracker.coppersurfer.tk%3A6969%2Fannounce&tr=udp%3A%2F%2F9.rarbg.to%3A2920%2Fannounce&tr=udp%3A%2F%2Ftracker.opentrackr.org%3A1337&tr=udp%3A%2F%2Ftracker.internetwarriors.net%3A1337%2Fannounce&tr=udp%3A%2F%2Ftracker.leechers-paradise.org%3A6969%2Fannounce&tr=udp%3A%2F%2Ftracker.coppersurfer.tk%3A6969%2Fannounce&tr=udp%3A%2F%2Ftracker.pirateparty.gr%3A6969%2Fannounce&tr=udp%3A%2F%2Ftracker.cyberia.is%3A6969%2Fannounce",
        "seeder": "5",
        "leecher": "1"
    },
    {
        "rank": "60",
        "title": "The Lars von Trier Collection: Riget I & II PAL DVD9",
        "link": "magnet:?xt=urn:btih:40BB976D7E8713AC56F9D9FC087DF08FFEF0DB63&dn=The+Lars+von+Trier+Collection%3A+Riget+I+%26+II+PAL+DVD9&tr=udp%3A%2F%2Ftracker.coppersurfer.tk%3A6969%2Fannounce&tr=udp%3A%2F%2F9.rarbg.to%3A2920%2Fannounce&tr=udp%3A%2F%2Ftracker.opentrackr.org%3A1337&tr=udp%3A%2F%2Ftracker.internetwarriors.net%3A1337%2Fannounce&tr=udp%3A%2F%2Ftracker.leechers-paradise.org%3A6969%2Fannounce&tr=udp%3A%2F%2Ftracker.coppersurfer.tk%3A6969%2Fannounce&tr=udp%3A%2F%2Ftracker.pirateparty.gr%3A6969%2Fannounce&tr=udp%3A%2F%2Ftracker.cyberia.is%3A6969%2Fannounce",
        "seeder": "5",
        "leecher": "1"
    },
    {
        "rank": "61",
        "title": "Yrrol.1994.SWEDiSH.COMPLETE.PAL.DVDR-ThePiraten",
        "link": "magnet:?xt=urn:btih:F7A52C23549465342EB4C7F66DAA617D7758A821&dn=Yrrol.1994.SWEDiSH.COMPLETE.PAL.DVDR-ThePiraten&tr=udp%3A%2F%2Ftracker.coppersurfer.tk%3A6969%2Fannounce&tr=udp%3A%2F%2F9.rarbg.to%3A2920%2Fannounce&tr=udp%3A%2F%2Ftracker.opentrackr.org%3A1337&tr=udp%3A%2F%2Ftracker.internetwarriors.net%3A1337%2Fannounce&tr=udp%3A%2F%2Ftracker.leechers-paradise.org%3A6969%2Fannounce&tr=udp%3A%2F%2Ftracker.coppersurfer.tk%3A6969%2Fannounce&tr=udp%3A%2F%2Ftracker.pirateparty.gr%3A6969%2Fannounce&tr=udp%3A%2F%2Ftracker.cyberia.is%3A6969%2Fannounce",
        "seeder": "5",
        "leecher": "0"
    },
    {
        "rank": "62",
        "title": "Horse_Feathers(The_Marx_Brothers)Eng_Ger_Fre_Ita_Spa",
        "link": "magnet:?xt=urn:btih:76D1E70B45E578A5FAC703A855E106047B194581&dn=Horse_Feathers%28The_Marx_Brothers%29Eng_Ger_Fre_Ita_Spa&tr=udp%3A%2F%2Ftracker.coppersurfer.tk%3A6969%2Fannounce&tr=udp%3A%2F%2F9.rarbg.to%3A2920%2Fannounce&tr=udp%3A%2F%2Ftracker.opentrackr.org%3A1337&tr=udp%3A%2F%2Ftracker.internetwarriors.net%3A1337%2Fannounce&tr=udp%3A%2F%2Ftracker.leechers-paradise.org%3A6969%2Fannounce&tr=udp%3A%2F%2Ftracker.coppersurfer.tk%3A6969%2Fannounce&tr=udp%3A%2F%2Ftracker.pirateparty.gr%3A6969%2Fannounce&tr=udp%3A%2F%2Ftracker.cyberia.is%3A6969%2Fannounce",
        "seeder": "5",
        "leecher": "0"
    },
    {
        "rank": "63",
        "title": "Cannabis Collection - Growing Belushi - S01 - DVD9",
        "link": "magnet:?xt=urn:btih:4022D7E01CE50AD95D07733E2B2568CCB7740DFF&dn=Cannabis+Collection+-+Growing+Belushi+-+S01+-+DVD9&tr=udp%3A%2F%2Ftracker.coppersurfer.tk%3A6969%2Fannounce&tr=udp%3A%2F%2F9.rarbg.to%3A2920%2Fannounce&tr=udp%3A%2F%2Ftracker.opentrackr.org%3A1337&tr=udp%3A%2F%2Ftracker.internetwarriors.net%3A1337%2Fannounce&tr=udp%3A%2F%2Ftracker.leechers-paradise.org%3A6969%2Fannounce&tr=udp%3A%2F%2Ftracker.coppersurfer.tk%3A6969%2Fannounce&tr=udp%3A%2F%2Ftracker.pirateparty.gr%3A6969%2Fannounce&tr=udp%3A%2F%2Ftracker.cyberia.is%3A6969%2Fannounce",
        "seeder": "4",
        "leecher": "0"
    },
    {
        "rank": "64",
        "title": "Cannabis Collection - The God Plant",
        "link": "magnet:?xt=urn:btih:4591668D349831DD7144342261D674FD296D211B&dn=Cannabis+Collection+-+The+God+Plant&tr=udp%3A%2F%2Ftracker.coppersurfer.tk%3A6969%2Fannounce&tr=udp%3A%2F%2F9.rarbg.to%3A2920%2Fannounce&tr=udp%3A%2F%2Ftracker.opentrackr.org%3A1337&tr=udp%3A%2F%2Ftracker.internetwarriors.net%3A1337%2Fannounce&tr=udp%3A%2F%2Ftracker.leechers-paradise.org%3A6969%2Fannounce&tr=udp%3A%2F%2Ftracker.coppersurfer.tk%3A6969%2Fannounce&tr=udp%3A%2F%2Ftracker.pirateparty.gr%3A6969%2Fannounce&tr=udp%3A%2F%2Ftracker.cyberia.is%3A6969%2Fannounce",
        "seeder": "4",
        "leecher": "0"
    },
    {
        "rank": "65",
        "title": "Cannabis Collection - Psychedelica - The Original Medicine",
        "link": "magnet:?xt=urn:btih:D265661189C00021AF6B4418863AE32788F5A354&dn=Cannabis+Collection+-+Psychedelica+-+The+Original+Medicine&tr=udp%3A%2F%2Ftracker.coppersurfer.tk%3A6969%2Fannounce&tr=udp%3A%2F%2F9.rarbg.to%3A2920%2Fannounce&tr=udp%3A%2F%2Ftracker.opentrackr.org%3A1337&tr=udp%3A%2F%2Ftracker.internetwarriors.net%3A1337%2Fannounce&tr=udp%3A%2F%2Ftracker.leechers-paradise.org%3A6969%2Fannounce&tr=udp%3A%2F%2Ftracker.coppersurfer.tk%3A6969%2Fannounce&tr=udp%3A%2F%2Ftracker.pirateparty.gr%3A6969%2Fannounce&tr=udp%3A%2F%2Ftracker.cyberia.is%3A6969%2Fannounce",
        "seeder": "4",
        "leecher": "0"
    },
    {
        "rank": "66",
        "title": "Cannabis Collection - The  Black Packet",
        "link": "magnet:?xt=urn:btih:C65CC17BA5C14E1F1E012D3F2362C09768EC4A27&dn=Cannabis+Collection+-+The++Black+Packet&tr=udp%3A%2F%2Ftracker.coppersurfer.tk%3A6969%2Fannounce&tr=udp%3A%2F%2F9.rarbg.to%3A2920%2Fannounce&tr=udp%3A%2F%2Ftracker.opentrackr.org%3A1337&tr=udp%3A%2F%2Ftracker.internetwarriors.net%3A1337%2Fannounce&tr=udp%3A%2F%2Ftracker.leechers-paradise.org%3A6969%2Fannounce&tr=udp%3A%2F%2Ftracker.coppersurfer.tk%3A6969%2Fannounce&tr=udp%3A%2F%2Ftracker.pirateparty.gr%3A6969%2Fannounce&tr=udp%3A%2F%2Ftracker.cyberia.is%3A6969%2Fannounce",
        "seeder": "4",
        "leecher": "0"
    },
    {
        "rank": "67",
        "title": "A.Dog\u2019s.Way.Home.2019.DVDR.NTSC.YG",
        "link": "magnet:?xt=urn:btih:12179AC15B2A51F9CDE61C27CD3C8063CF83E7FB&dn=A.Dog%26rsquo%3Bs.Way.Home.2019.DVDR.NTSC.YG&tr=udp%3A%2F%2Ftracker.coppersurfer.tk%3A6969%2Fannounce&tr=udp%3A%2F%2F9.rarbg.to%3A2920%2Fannounce&tr=udp%3A%2F%2Ftracker.opentrackr.org%3A1337&tr=udp%3A%2F%2Ftracker.internetwarriors.net%3A1337%2Fannounce&tr=udp%3A%2F%2Ftracker.leechers-paradise.org%3A6969%2Fannounce&tr=udp%3A%2F%2Ftracker.coppersurfer.tk%3A6969%2Fannounce&tr=udp%3A%2F%2Ftracker.pirateparty.gr%3A6969%2Fannounce&tr=udp%3A%2F%2Ftracker.cyberia.is%3A6969%2Fannounce",
        "seeder": "4",
        "leecher": "1"
    },
    {
        "rank": "68",
        "title": "Cannabis Collection - CNN - Weed 2 - Cannabis Madness",
        "link": "magnet:?xt=urn:btih:A1EC372E721433F84D7E1F2D7B496D93D9436CAD&dn=Cannabis+Collection+-+CNN+-+Weed+2+-+Cannabis+Madness&tr=udp%3A%2F%2Ftracker.coppersurfer.tk%3A6969%2Fannounce&tr=udp%3A%2F%2F9.rarbg.to%3A2920%2Fannounce&tr=udp%3A%2F%2Ftracker.opentrackr.org%3A1337&tr=udp%3A%2F%2Ftracker.internetwarriors.net%3A1337%2Fannounce&tr=udp%3A%2F%2Ftracker.leechers-paradise.org%3A6969%2Fannounce&tr=udp%3A%2F%2Ftracker.coppersurfer.tk%3A6969%2Fannounce&tr=udp%3A%2F%2Ftracker.pirateparty.gr%3A6969%2Fannounce&tr=udp%3A%2F%2Ftracker.cyberia.is%3A6969%2Fannounce",
        "seeder": "4",
        "leecher": "0"
    },
    {
        "rank": "69",
        "title": "Maladolescenza (1977) DVD5 RETAIL",
        "link": "magnet:?xt=urn:btih:1C3C48A74DA313786D2358FD222B0A09ED61AB1E&dn=Maladolescenza+%281977%29+DVD5+RETAIL&tr=udp%3A%2F%2Ftracker.coppersurfer.tk%3A6969%2Fannounce&tr=udp%3A%2F%2F9.rarbg.to%3A2920%2Fannounce&tr=udp%3A%2F%2Ftracker.opentrackr.org%3A1337&tr=udp%3A%2F%2Ftracker.internetwarriors.net%3A1337%2Fannounce&tr=udp%3A%2F%2Ftracker.leechers-paradise.org%3A6969%2Fannounce&tr=udp%3A%2F%2Ftracker.coppersurfer.tk%3A6969%2Fannounce&tr=udp%3A%2F%2Ftracker.pirateparty.gr%3A6969%2Fannounce&tr=udp%3A%2F%2Ftracker.cyberia.is%3A6969%2Fannounce",
        "seeder": "4",
        "leecher": "0"
    },
    {
        "rank": "70",
        "title": "David Gilmour - Live at the Mermaid Theatre - BBC",
        "link": "magnet:?xt=urn:btih:2EBF2F1CFA636F6108FFF9406780B6F82A02CA27&dn=David+Gilmour+-+Live+at+the+Mermaid+Theatre+-+BBC&tr=udp%3A%2F%2Ftracker.coppersurfer.tk%3A6969%2Fannounce&tr=udp%3A%2F%2F9.rarbg.to%3A2920%2Fannounce&tr=udp%3A%2F%2Ftracker.opentrackr.org%3A1337&tr=udp%3A%2F%2Ftracker.internetwarriors.net%3A1337%2Fannounce&tr=udp%3A%2F%2Ftracker.leechers-paradise.org%3A6969%2Fannounce&tr=udp%3A%2F%2Ftracker.coppersurfer.tk%3A6969%2Fannounce&tr=udp%3A%2F%2Ftracker.pirateparty.gr%3A6969%2Fannounce&tr=udp%3A%2F%2Ftracker.cyberia.is%3A6969%2Fannounce",
        "seeder": "4",
        "leecher": "0"
    },
    {
        "rank": "71",
        "title": "Genesis - In Concert - 1976",
        "link": "magnet:?xt=urn:btih:A4ED71750B50EE0BAAA66E9675605A43F365E4A8&dn=Genesis+-+In+Concert+-+1976&tr=udp%3A%2F%2Ftracker.coppersurfer.tk%3A6969%2Fannounce&tr=udp%3A%2F%2F9.rarbg.to%3A2920%2Fannounce&tr=udp%3A%2F%2Ftracker.opentrackr.org%3A1337&tr=udp%3A%2F%2Ftracker.internetwarriors.net%3A1337%2Fannounce&tr=udp%3A%2F%2Ftracker.leechers-paradise.org%3A6969%2Fannounce&tr=udp%3A%2F%2Ftracker.coppersurfer.tk%3A6969%2Fannounce&tr=udp%3A%2F%2Ftracker.pirateparty.gr%3A6969%2Fannounce&tr=udp%3A%2F%2Ftracker.cyberia.is%3A6969%2Fannounce",
        "seeder": "4",
        "leecher": "0"
    },
    {
        "rank": "72",
        "title": "Kieslowski - A Short Film About Killing (Art Movie 1988)",
        "link": "magnet:?xt=urn:btih:746A9D8292FC85C655688D3BEAB29D54AC8A3F12&dn=Kieslowski+-+A+Short+Film+About+Killing+%28Art+Movie+1988%29&tr=udp%3A%2F%2Ftracker.coppersurfer.tk%3A6969%2Fannounce&tr=udp%3A%2F%2F9.rarbg.to%3A2920%2Fannounce&tr=udp%3A%2F%2Ftracker.opentrackr.org%3A1337&tr=udp%3A%2F%2Ftracker.internetwarriors.net%3A1337%2Fannounce&tr=udp%3A%2F%2Ftracker.leechers-paradise.org%3A6969%2Fannounce&tr=udp%3A%2F%2Ftracker.coppersurfer.tk%3A6969%2Fannounce&tr=udp%3A%2F%2Ftracker.pirateparty.gr%3A6969%2Fannounce&tr=udp%3A%2F%2Ftracker.cyberia.is%3A6969%2Fannounce",
        "seeder": "4",
        "leecher": "1"
    },
    {
        "rank": "73",
        "title": "Carl Sagan Cosmos (1980) Collectors Edition NTSC-DVDR-NLU002",
        "link": "magnet:?xt=urn:btih:2666ABA654A12C54EABA0070840F270564811DD8&dn=Carl+Sagan+Cosmos+%281980%29+Collectors+Edition+NTSC-DVDR-NLU002&tr=udp%3A%2F%2Ftracker.coppersurfer.tk%3A6969%2Fannounce&tr=udp%3A%2F%2F9.rarbg.to%3A2920%2Fannounce&tr=udp%3A%2F%2Ftracker.opentrackr.org%3A1337&tr=udp%3A%2F%2Ftracker.internetwarriors.net%3A1337%2Fannounce&tr=udp%3A%2F%2Ftracker.leechers-paradise.org%3A6969%2Fannounce&tr=udp%3A%2F%2Ftracker.coppersurfer.tk%3A6969%2Fannounce&tr=udp%3A%2F%2Ftracker.pirateparty.gr%3A6969%2Fannounce&tr=udp%3A%2F%2Ftracker.cyberia.is%3A6969%2Fannounce",
        "seeder": "4",
        "leecher": "1"
    },
    {
        "rank": "74",
        "title": "Disney's Frozen (2013) Eng NL Audio Eng NL Sub BR2DVD-NLU002",
        "link": "magnet:?xt=urn:btih:17EA7E292B54A62069594D061D58C8D83CA9B83E&dn=Disney%27s+Frozen+%282013%29+Eng+NL+Audio+Eng+NL+Sub+BR2DVD-NLU002&tr=udp%3A%2F%2Ftracker.coppersurfer.tk%3A6969%2Fannounce&tr=udp%3A%2F%2F9.rarbg.to%3A2920%2Fannounce&tr=udp%3A%2F%2Ftracker.opentrackr.org%3A1337&tr=udp%3A%2F%2Ftracker.internetwarriors.net%3A1337%2Fannounce&tr=udp%3A%2F%2Ftracker.leechers-paradise.org%3A6969%2Fannounce&tr=udp%3A%2F%2Ftracker.coppersurfer.tk%3A6969%2Fannounce&tr=udp%3A%2F%2Ftracker.pirateparty.gr%3A6969%2Fannounce&tr=udp%3A%2F%2Ftracker.cyberia.is%3A6969%2Fannounce",
        "seeder": "4",
        "leecher": "0"
    },
    {
        "rank": "75",
        "title": "Walt Disney [Classic DVD-Collection] PAL [55xDVD-5] NL Subs",
        "link": "magnet:?xt=urn:btih:1191940811F8B1407DC2FF952B0AD2E7E903B7EA&dn=Walt+Disney+%5BClassic+DVD-Collection%5D+PAL+%5B55xDVD-5%5D+NL+Subs&tr=udp%3A%2F%2Ftracker.coppersurfer.tk%3A6969%2Fannounce&tr=udp%3A%2F%2F9.rarbg.to%3A2920%2Fannounce&tr=udp%3A%2F%2Ftracker.opentrackr.org%3A1337&tr=udp%3A%2F%2Ftracker.internetwarriors.net%3A1337%2Fannounce&tr=udp%3A%2F%2Ftracker.leechers-paradise.org%3A6969%2Fannounce&tr=udp%3A%2F%2Ftracker.coppersurfer.tk%3A6969%2Fannounce&tr=udp%3A%2F%2Ftracker.pirateparty.gr%3A6969%2Fannounce&tr=udp%3A%2F%2Ftracker.cyberia.is%3A6969%2Fannounce",
        "seeder": "4",
        "leecher": "4"
    },
    {
        "rank": "76",
        "title": "Maria Wern (2012) [Crime Serie] 7xDVD Boxset PAL DVDR NL Subs",
        "link": "magnet:?xt=urn:btih:59A1F20B5F47E3EFFDA292D6193D577A7E9044FA&dn=Maria+Wern+%282012%29+%5BCrime+Serie%5D+7xDVD+Boxset+PAL+DVDR+NL+Subs&tr=udp%3A%2F%2Ftracker.coppersurfer.tk%3A6969%2Fannounce&tr=udp%3A%2F%2F9.rarbg.to%3A2920%2Fannounce&tr=udp%3A%2F%2Ftracker.opentrackr.org%3A1337&tr=udp%3A%2F%2Ftracker.internetwarriors.net%3A1337%2Fannounce&tr=udp%3A%2F%2Ftracker.leechers-paradise.org%3A6969%2Fannounce&tr=udp%3A%2F%2Ftracker.coppersurfer.tk%3A6969%2Fannounce&tr=udp%3A%2F%2Ftracker.pirateparty.gr%3A6969%2Fannounce&tr=udp%3A%2F%2Ftracker.cyberia.is%3A6969%2Fannounce",
        "seeder": "4",
        "leecher": "0"
    },
    {
        "rank": "77",
        "title": "FernGully 2 The Magical Rescue (1998) Retail DVD5 Pal Multi Subs",
        "link": "magnet:?xt=urn:btih:763E1B0353E8C36D12E496097FCF7CA3E7AD7223&dn=FernGully+2+The+Magical+Rescue+%281998%29+Retail+DVD5+Pal+Multi+Subs&tr=udp%3A%2F%2Ftracker.coppersurfer.tk%3A6969%2Fannounce&tr=udp%3A%2F%2F9.rarbg.to%3A2920%2Fannounce&tr=udp%3A%2F%2Ftracker.opentrackr.org%3A1337&tr=udp%3A%2F%2Ftracker.internetwarriors.net%3A1337%2Fannounce&tr=udp%3A%2F%2Ftracker.leechers-paradise.org%3A6969%2Fannounce&tr=udp%3A%2F%2Ftracker.coppersurfer.tk%3A6969%2Fannounce&tr=udp%3A%2F%2Ftracker.pirateparty.gr%3A6969%2Fannounce&tr=udp%3A%2F%2Ftracker.cyberia.is%3A6969%2Fannounce",
        "seeder": "4",
        "leecher": "0"
    },
    {
        "rank": "78",
        "title": "Cannabis Collection - Cannabis Weltkultur - Hans Cousto - CannaT",
        "link": "magnet:?xt=urn:btih:AA253078E8F0583AC187284681BDC311334C2D4D&dn=Cannabis+Collection+-+Cannabis+Weltkultur+-+Hans+Cousto+-+CannaT&tr=udp%3A%2F%2Ftracker.coppersurfer.tk%3A6969%2Fannounce&tr=udp%3A%2F%2F9.rarbg.to%3A2920%2Fannounce&tr=udp%3A%2F%2Ftracker.opentrackr.org%3A1337&tr=udp%3A%2F%2Ftracker.internetwarriors.net%3A1337%2Fannounce&tr=udp%3A%2F%2Ftracker.leechers-paradise.org%3A6969%2Fannounce&tr=udp%3A%2F%2Ftracker.coppersurfer.tk%3A6969%2Fannounce&tr=udp%3A%2F%2Ftracker.pirateparty.gr%3A6969%2Fannounce&tr=udp%3A%2F%2Ftracker.cyberia.is%3A6969%2Fannounce",
        "seeder": "4",
        "leecher": "0"
    },
    {
        "rank": "79",
        "title": "Drugs Collection - American Meth - 2007",
        "link": "magnet:?xt=urn:btih:89CD3306760525BF58FE46C4F595819CEADFAC97&dn=Drugs+Collection+-+American+Meth+-+2007&tr=udp%3A%2F%2Ftracker.coppersurfer.tk%3A6969%2Fannounce&tr=udp%3A%2F%2F9.rarbg.to%3A2920%2Fannounce&tr=udp%3A%2F%2Ftracker.opentrackr.org%3A1337&tr=udp%3A%2F%2Ftracker.internetwarriors.net%3A1337%2Fannounce&tr=udp%3A%2F%2Ftracker.leechers-paradise.org%3A6969%2Fannounce&tr=udp%3A%2F%2Ftracker.coppersurfer.tk%3A6969%2Fannounce&tr=udp%3A%2F%2Ftracker.pirateparty.gr%3A6969%2Fannounce&tr=udp%3A%2F%2Ftracker.cyberia.is%3A6969%2Fannounce",
        "seeder": "4",
        "leecher": "0"
    },
    {
        "rank": "80",
        "title": "Drugs Collection - Rakontur - Cocaine Cowboys II",
        "link": "magnet:?xt=urn:btih:041FC4FDE3E7DF10597FEBDE3AC1E43741BCE678&dn=Drugs+Collection+-+Rakontur+-+Cocaine+Cowboys+II&tr=udp%3A%2F%2Ftracker.coppersurfer.tk%3A6969%2Fannounce&tr=udp%3A%2F%2F9.rarbg.to%3A2920%2Fannounce&tr=udp%3A%2F%2Ftracker.opentrackr.org%3A1337&tr=udp%3A%2F%2Ftracker.internetwarriors.net%3A1337%2Fannounce&tr=udp%3A%2F%2Ftracker.leechers-paradise.org%3A6969%2Fannounce&tr=udp%3A%2F%2Ftracker.coppersurfer.tk%3A6969%2Fannounce&tr=udp%3A%2F%2Ftracker.pirateparty.gr%3A6969%2Fannounce&tr=udp%3A%2F%2Ftracker.cyberia.is%3A6969%2Fannounce",
        "seeder": "4",
        "leecher": "0"
    },
    {
        "rank": "81",
        "title": "Drugs Collection - Rakontur - Cocaine Cowboys I",
        "link": "magnet:?xt=urn:btih:1AB2CB0C500E8E21577A93284592E5FDE58CC0B3&dn=Drugs+Collection+-+Rakontur+-+Cocaine+Cowboys+I&tr=udp%3A%2F%2Ftracker.coppersurfer.tk%3A6969%2Fannounce&tr=udp%3A%2F%2F9.rarbg.to%3A2920%2Fannounce&tr=udp%3A%2F%2Ftracker.opentrackr.org%3A1337&tr=udp%3A%2F%2Ftracker.internetwarriors.net%3A1337%2Fannounce&tr=udp%3A%2F%2Ftracker.leechers-paradise.org%3A6969%2Fannounce&tr=udp%3A%2F%2Ftracker.coppersurfer.tk%3A6969%2Fannounce&tr=udp%3A%2F%2Ftracker.pirateparty.gr%3A6969%2Fannounce&tr=udp%3A%2F%2Ftracker.cyberia.is%3A6969%2Fannounce",
        "seeder": "4",
        "leecher": "0"
    },
    {
        "rank": "82",
        "title": "Drugs Collection - Entheogen - Awakening the Divine within",
        "link": "magnet:?xt=urn:btih:5C52F5F298F2CD3CF06A7B814F88DE0A6C95FBDD&dn=Drugs+Collection+-+Entheogen+-+Awakening+the+Divine+within&tr=udp%3A%2F%2Ftracker.coppersurfer.tk%3A6969%2Fannounce&tr=udp%3A%2F%2F9.rarbg.to%3A2920%2Fannounce&tr=udp%3A%2F%2Ftracker.opentrackr.org%3A1337&tr=udp%3A%2F%2Ftracker.internetwarriors.net%3A1337%2Fannounce&tr=udp%3A%2F%2Ftracker.leechers-paradise.org%3A6969%2Fannounce&tr=udp%3A%2F%2Ftracker.coppersurfer.tk%3A6969%2Fannounce&tr=udp%3A%2F%2Ftracker.pirateparty.gr%3A6969%2Fannounce&tr=udp%3A%2F%2Ftracker.cyberia.is%3A6969%2Fannounce",
        "seeder": "4",
        "leecher": "0"
    },
    {
        "rank": "83",
        "title": "Cannabis Collection - CBC - Cannabis Pain Medication",
        "link": "magnet:?xt=urn:btih:1D059EB5AA9F91CF6412C8E7A7959667806E6054&dn=Cannabis+Collection+-+CBC+-+Cannabis+Pain+Medication&tr=udp%3A%2F%2Ftracker.coppersurfer.tk%3A6969%2Fannounce&tr=udp%3A%2F%2F9.rarbg.to%3A2920%2Fannounce&tr=udp%3A%2F%2Ftracker.opentrackr.org%3A1337&tr=udp%3A%2F%2Ftracker.internetwarriors.net%3A1337%2Fannounce&tr=udp%3A%2F%2Ftracker.leechers-paradise.org%3A6969%2Fannounce&tr=udp%3A%2F%2Ftracker.coppersurfer.tk%3A6969%2Fannounce&tr=udp%3A%2F%2Ftracker.pirateparty.gr%3A6969%2Fannounce&tr=udp%3A%2F%2Ftracker.cyberia.is%3A6969%2Fannounce",
        "seeder": "4",
        "leecher": "0"
    },
    {
        "rank": "84",
        "title": "Drugs Collection - Weird Nature - Peculiar Potions",
        "link": "magnet:?xt=urn:btih:DCCA000695767107C9572EBD4D04F0E9F4435B2D&dn=Drugs+Collection+-+Weird+Nature+-+Peculiar+Potions&tr=udp%3A%2F%2Ftracker.coppersurfer.tk%3A6969%2Fannounce&tr=udp%3A%2F%2F9.rarbg.to%3A2920%2Fannounce&tr=udp%3A%2F%2Ftracker.opentrackr.org%3A1337&tr=udp%3A%2F%2Ftracker.internetwarriors.net%3A1337%2Fannounce&tr=udp%3A%2F%2Ftracker.leechers-paradise.org%3A6969%2Fannounce&tr=udp%3A%2F%2Ftracker.coppersurfer.tk%3A6969%2Fannounce&tr=udp%3A%2F%2Ftracker.pirateparty.gr%3A6969%2Fannounce&tr=udp%3A%2F%2Ftracker.cyberia.is%3A6969%2Fannounce",
        "seeder": "4",
        "leecher": "0"
    },
    {
        "rank": "85",
        "title": "Drugs Collection - Ecstasy Rising",
        "link": "magnet:?xt=urn:btih:447E0E0D0E07D19BCF2430A46DC457624B4BC498&dn=Drugs+Collection+-+Ecstasy+Rising&tr=udp%3A%2F%2Ftracker.coppersurfer.tk%3A6969%2Fannounce&tr=udp%3A%2F%2F9.rarbg.to%3A2920%2Fannounce&tr=udp%3A%2F%2Ftracker.opentrackr.org%3A1337&tr=udp%3A%2F%2Ftracker.internetwarriors.net%3A1337%2Fannounce&tr=udp%3A%2F%2Ftracker.leechers-paradise.org%3A6969%2Fannounce&tr=udp%3A%2F%2Ftracker.coppersurfer.tk%3A6969%2Fannounce&tr=udp%3A%2F%2Ftracker.pirateparty.gr%3A6969%2Fannounce&tr=udp%3A%2F%2Ftracker.cyberia.is%3A6969%2Fannounce",
        "seeder": "4",
        "leecher": "0"
    },
    {
        "rank": "86",
        "title": "Cannabis Collection - Hemplands",
        "link": "magnet:?xt=urn:btih:A0C499F09C92F279DA2920C841C2475877E39BD4&dn=Cannabis+Collection+-+Hemplands&tr=udp%3A%2F%2Ftracker.coppersurfer.tk%3A6969%2Fannounce&tr=udp%3A%2F%2F9.rarbg.to%3A2920%2Fannounce&tr=udp%3A%2F%2Ftracker.opentrackr.org%3A1337&tr=udp%3A%2F%2Ftracker.internetwarriors.net%3A1337%2Fannounce&tr=udp%3A%2F%2Ftracker.leechers-paradise.org%3A6969%2Fannounce&tr=udp%3A%2F%2Ftracker.coppersurfer.tk%3A6969%2Fannounce&tr=udp%3A%2F%2Ftracker.pirateparty.gr%3A6969%2Fannounce&tr=udp%3A%2F%2Ftracker.cyberia.is%3A6969%2Fannounce",
        "seeder": "4",
        "leecher": "0"
    },
    {
        "rank": "87",
        "title": "Cannabis Collection - Kif from the Rif",
        "link": "magnet:?xt=urn:btih:0FF1DA63F39D35F3E174D7517DD930FFAD0CAAC8&dn=Cannabis+Collection+-+Kif+from+the+Rif&tr=udp%3A%2F%2Ftracker.coppersurfer.tk%3A6969%2Fannounce&tr=udp%3A%2F%2F9.rarbg.to%3A2920%2Fannounce&tr=udp%3A%2F%2Ftracker.opentrackr.org%3A1337&tr=udp%3A%2F%2Ftracker.internetwarriors.net%3A1337%2Fannounce&tr=udp%3A%2F%2Ftracker.leechers-paradise.org%3A6969%2Fannounce&tr=udp%3A%2F%2Ftracker.coppersurfer.tk%3A6969%2Fannounce&tr=udp%3A%2F%2Ftracker.pirateparty.gr%3A6969%2Fannounce&tr=udp%3A%2F%2Ftracker.cyberia.is%3A6969%2Fannounce",
        "seeder": "4",
        "leecher": "0"
    },
    {
        "rank": "88",
        "title": "Cannabis Collection - Howard Marks - Mr. Nice - A Video Dairy",
        "link": "magnet:?xt=urn:btih:E8BF5E1DA461BAF78BA242A92F4991D8A7F9AC2C&dn=Cannabis+Collection+-+Howard+Marks+-+Mr.+Nice+-+A+Video+Dairy&tr=udp%3A%2F%2Ftracker.coppersurfer.tk%3A6969%2Fannounce&tr=udp%3A%2F%2F9.rarbg.to%3A2920%2Fannounce&tr=udp%3A%2F%2Ftracker.opentrackr.org%3A1337&tr=udp%3A%2F%2Ftracker.internetwarriors.net%3A1337%2Fannounce&tr=udp%3A%2F%2Ftracker.leechers-paradise.org%3A6969%2Fannounce&tr=udp%3A%2F%2Ftracker.coppersurfer.tk%3A6969%2Fannounce&tr=udp%3A%2F%2Ftracker.pirateparty.gr%3A6969%2Fannounce&tr=udp%3A%2F%2Ftracker.cyberia.is%3A6969%2Fannounce",
        "seeder": "4",
        "leecher": "0"
    },
    {
        "rank": "89",
        "title": "Cannabis Collection - Stoned Free - Guide to Growing Cannabis",
        "link": "magnet:?xt=urn:btih:9513ED8E4487589DA212B06EB39C0584FFC0E8E7&dn=Cannabis+Collection+-+Stoned+Free+-+Guide+to+Growing+Cannabis&tr=udp%3A%2F%2Ftracker.coppersurfer.tk%3A6969%2Fannounce&tr=udp%3A%2F%2F9.rarbg.to%3A2920%2Fannounce&tr=udp%3A%2F%2Ftracker.opentrackr.org%3A1337&tr=udp%3A%2F%2Ftracker.internetwarriors.net%3A1337%2Fannounce&tr=udp%3A%2F%2Ftracker.leechers-paradise.org%3A6969%2Fannounce&tr=udp%3A%2F%2Ftracker.coppersurfer.tk%3A6969%2Fannounce&tr=udp%3A%2F%2Ftracker.pirateparty.gr%3A6969%2Fannounce&tr=udp%3A%2F%2Ftracker.cyberia.is%3A6969%2Fannounce",
        "seeder": "4",
        "leecher": "0"
    },
    {
        "rank": "90",
        "title": "Cannabis Collection - Ready Set Grow",
        "link": "magnet:?xt=urn:btih:7CACE13B9A203F92A46A58CF7ECB1A8665EB530D&dn=Cannabis+Collection+-+Ready+Set+Grow&tr=udp%3A%2F%2Ftracker.coppersurfer.tk%3A6969%2Fannounce&tr=udp%3A%2F%2F9.rarbg.to%3A2920%2Fannounce&tr=udp%3A%2F%2Ftracker.opentrackr.org%3A1337&tr=udp%3A%2F%2Ftracker.internetwarriors.net%3A1337%2Fannounce&tr=udp%3A%2F%2Ftracker.leechers-paradise.org%3A6969%2Fannounce&tr=udp%3A%2F%2Ftracker.coppersurfer.tk%3A6969%2Fannounce&tr=udp%3A%2F%2Ftracker.pirateparty.gr%3A6969%2Fannounce&tr=udp%3A%2F%2Ftracker.cyberia.is%3A6969%2Fannounce",
        "seeder": "4",
        "leecher": "1"
    },
    {
        "rank": "91",
        "title": "Drugs Collection - The Beyond Within - LSD",
        "link": "magnet:?xt=urn:btih:C8987A40F5A5C2552CFAC3AFFD7496ED7F702A99&dn=Drugs+Collection+-+The+Beyond+Within+-+LSD&tr=udp%3A%2F%2Ftracker.coppersurfer.tk%3A6969%2Fannounce&tr=udp%3A%2F%2F9.rarbg.to%3A2920%2Fannounce&tr=udp%3A%2F%2Ftracker.opentrackr.org%3A1337&tr=udp%3A%2F%2Ftracker.internetwarriors.net%3A1337%2Fannounce&tr=udp%3A%2F%2Ftracker.leechers-paradise.org%3A6969%2Fannounce&tr=udp%3A%2F%2Ftracker.coppersurfer.tk%3A6969%2Fannounce&tr=udp%3A%2F%2Ftracker.pirateparty.gr%3A6969%2Fannounce&tr=udp%3A%2F%2Ftracker.cyberia.is%3A6969%2Fannounce",
        "seeder": "4",
        "leecher": "0"
    },
    {
        "rank": "92",
        "title": "Cannabis Collection - Sea of Green Vol 3",
        "link": "magnet:?xt=urn:btih:0CBFB88E86AFA99E72AA7D53AA8F7B8D7C286425&dn=Cannabis+Collection+-+Sea+of+Green+Vol+3&tr=udp%3A%2F%2Ftracker.coppersurfer.tk%3A6969%2Fannounce&tr=udp%3A%2F%2F9.rarbg.to%3A2920%2Fannounce&tr=udp%3A%2F%2Ftracker.opentrackr.org%3A1337&tr=udp%3A%2F%2Ftracker.internetwarriors.net%3A1337%2Fannounce&tr=udp%3A%2F%2Ftracker.leechers-paradise.org%3A6969%2Fannounce&tr=udp%3A%2F%2Ftracker.coppersurfer.tk%3A6969%2Fannounce&tr=udp%3A%2F%2Ftracker.pirateparty.gr%3A6969%2Fannounce&tr=udp%3A%2F%2Ftracker.cyberia.is%3A6969%2Fannounce",
        "seeder": "4",
        "leecher": "0"
    },
    {
        "rank": "93",
        "title": "Cannabis Collection - Sea of Green Vol 2",
        "link": "magnet:?xt=urn:btih:5999C1F787872233D7EE141C5BAF4ECA1600AFE6&dn=Cannabis+Collection+-+Sea+of+Green+Vol+2&tr=udp%3A%2F%2Ftracker.coppersurfer.tk%3A6969%2Fannounce&tr=udp%3A%2F%2F9.rarbg.to%3A2920%2Fannounce&tr=udp%3A%2F%2Ftracker.opentrackr.org%3A1337&tr=udp%3A%2F%2Ftracker.internetwarriors.net%3A1337%2Fannounce&tr=udp%3A%2F%2Ftracker.leechers-paradise.org%3A6969%2Fannounce&tr=udp%3A%2F%2Ftracker.coppersurfer.tk%3A6969%2Fannounce&tr=udp%3A%2F%2Ftracker.pirateparty.gr%3A6969%2Fannounce&tr=udp%3A%2F%2Ftracker.cyberia.is%3A6969%2Fannounce",
        "seeder": "4",
        "leecher": "0"
    },
    {
        "rank": "94",
        "title": "Cannabis Collection - Acapulco Gold",
        "link": "magnet:?xt=urn:btih:D10DD6755D1DA16361C797958BA351BE256E9A2F&dn=Cannabis+Collection+-+Acapulco+Gold&tr=udp%3A%2F%2Ftracker.coppersurfer.tk%3A6969%2Fannounce&tr=udp%3A%2F%2F9.rarbg.to%3A2920%2Fannounce&tr=udp%3A%2F%2Ftracker.opentrackr.org%3A1337&tr=udp%3A%2F%2Ftracker.internetwarriors.net%3A1337%2Fannounce&tr=udp%3A%2F%2Ftracker.leechers-paradise.org%3A6969%2Fannounce&tr=udp%3A%2F%2Ftracker.coppersurfer.tk%3A6969%2Fannounce&tr=udp%3A%2F%2Ftracker.pirateparty.gr%3A6969%2Fannounce&tr=udp%3A%2F%2Ftracker.cyberia.is%3A6969%2Fannounce",
        "seeder": "4",
        "leecher": "0"
    },
    {
        "rank": "95",
        "title": "Cannabis Collection - Weed Wars",
        "link": "magnet:?xt=urn:btih:F98498C1D005D57EB180192E543CD81986AAFFEA&dn=Cannabis+Collection+-+Weed+Wars&tr=udp%3A%2F%2Ftracker.coppersurfer.tk%3A6969%2Fannounce&tr=udp%3A%2F%2F9.rarbg.to%3A2920%2Fannounce&tr=udp%3A%2F%2Ftracker.opentrackr.org%3A1337&tr=udp%3A%2F%2Ftracker.internetwarriors.net%3A1337%2Fannounce&tr=udp%3A%2F%2Ftracker.leechers-paradise.org%3A6969%2Fannounce&tr=udp%3A%2F%2Ftracker.coppersurfer.tk%3A6969%2Fannounce&tr=udp%3A%2F%2Ftracker.pirateparty.gr%3A6969%2Fannounce&tr=udp%3A%2F%2Ftracker.cyberia.is%3A6969%2Fannounce",
        "seeder": "4",
        "leecher": "0"
    },
    {
        "rank": "96",
        "title": "Cannabis Collection - Hemp Revolution",
        "link": "magnet:?xt=urn:btih:97A677BF3D6E0574ACA4685FBC3D9B5767A5FDF0&dn=Cannabis+Collection+-+Hemp+Revolution&tr=udp%3A%2F%2Ftracker.coppersurfer.tk%3A6969%2Fannounce&tr=udp%3A%2F%2F9.rarbg.to%3A2920%2Fannounce&tr=udp%3A%2F%2Ftracker.opentrackr.org%3A1337&tr=udp%3A%2F%2Ftracker.internetwarriors.net%3A1337%2Fannounce&tr=udp%3A%2F%2Ftracker.leechers-paradise.org%3A6969%2Fannounce&tr=udp%3A%2F%2Ftracker.coppersurfer.tk%3A6969%2Fannounce&tr=udp%3A%2F%2Ftracker.pirateparty.gr%3A6969%2Fannounce&tr=udp%3A%2F%2Ftracker.cyberia.is%3A6969%2Fannounce",
        "seeder": "4",
        "leecher": "0"
    },
    {
        "rank": "97",
        "title": "Cannabis Collection - Drugs - Uses and abuses",
        "link": "magnet:?xt=urn:btih:FE0ACB9B8348BB7D86D9697C256E750F3C97DFE7&dn=Cannabis+Collection+-+Drugs+-+Uses+and+abuses&tr=udp%3A%2F%2Ftracker.coppersurfer.tk%3A6969%2Fannounce&tr=udp%3A%2F%2F9.rarbg.to%3A2920%2Fannounce&tr=udp%3A%2F%2Ftracker.opentrackr.org%3A1337&tr=udp%3A%2F%2Ftracker.internetwarriors.net%3A1337%2Fannounce&tr=udp%3A%2F%2Ftracker.leechers-paradise.org%3A6969%2Fannounce&tr=udp%3A%2F%2Ftracker.coppersurfer.tk%3A6969%2Fannounce&tr=udp%3A%2F%2Ftracker.pirateparty.gr%3A6969%2Fannounce&tr=udp%3A%2F%2Ftracker.cyberia.is%3A6969%2Fannounce",
        "seeder": "4",
        "leecher": "0"
    },
    {
        "rank": "98",
        "title": "Drugs Collection - Iboga Collection",
        "link": "magnet:?xt=urn:btih:A28554E938D981F39449AAD50496E29C8A876ED9&dn=Drugs+Collection+-+Iboga+Collection&tr=udp%3A%2F%2Ftracker.coppersurfer.tk%3A6969%2Fannounce&tr=udp%3A%2F%2F9.rarbg.to%3A2920%2Fannounce&tr=udp%3A%2F%2Ftracker.opentrackr.org%3A1337&tr=udp%3A%2F%2Ftracker.internetwarriors.net%3A1337%2Fannounce&tr=udp%3A%2F%2Ftracker.leechers-paradise.org%3A6969%2Fannounce&tr=udp%3A%2F%2Ftracker.coppersurfer.tk%3A6969%2Fannounce&tr=udp%3A%2F%2Ftracker.pirateparty.gr%3A6969%2Fannounce&tr=udp%3A%2F%2Ftracker.cyberia.is%3A6969%2Fannounce",
        "seeder": "4",
        "leecher": "0"
    },
    {
        "rank": "99",
        "title": "Cannabis Collection - the Land of Look Behind",
        "link": "magnet:?xt=urn:btih:40BC43576CA79D3D3D0412C40A383DFE57CEACD3&dn=Cannabis+Collection+-+the+Land+of+Look+Behind&tr=udp%3A%2F%2Ftracker.coppersurfer.tk%3A6969%2Fannounce&tr=udp%3A%2F%2F9.rarbg.to%3A2920%2Fannounce&tr=udp%3A%2F%2Ftracker.opentrackr.org%3A1337&tr=udp%3A%2F%2Ftracker.internetwarriors.net%3A1337%2Fannounce&tr=udp%3A%2F%2Ftracker.leechers-paradise.org%3A6969%2Fannounce&tr=udp%3A%2F%2Ftracker.coppersurfer.tk%3A6969%2Fannounce&tr=udp%3A%2F%2Ftracker.pirateparty.gr%3A6969%2Fannounce&tr=udp%3A%2F%2Ftracker.cyberia.is%3A6969%2Fannounce",
        "seeder": "4",
        "leecher": "0"
    },
    {
        "rank": "100",
        "title": "Cannabis Collection - Hash - Drugs Inc - National Geographic",
        "link": "magnet:?xt=urn:btih:96F2D3A29A18BDF3875007815D55F47194A7681A&dn=Cannabis+Collection+-+Hash+-+Drugs+Inc+-+National+Geographic&tr=udp%3A%2F%2Ftracker.coppersurfer.tk%3A6969%2Fannounce&tr=udp%3A%2F%2F9.rarbg.to%3A2920%2Fannounce&tr=udp%3A%2F%2Ftracker.opentrackr.org%3A1337&tr=udp%3A%2F%2Ftracker.internetwarriors.net%3A1337%2Fannounce&tr=udp%3A%2F%2Ftracker.leechers-paradise.org%3A6969%2Fannounce&tr=udp%3A%2F%2Ftracker.coppersurfer.tk%3A6969%2Fannounce&tr=udp%3A%2F%2Ftracker.pirateparty.gr%3A6969%2Fannounce&tr=udp%3A%2F%2Ftracker.cyberia.is%3A6969%2Fannounce",
        "seeder": "4",
        "leecher": "0"
    }
]
