[
    {
        "rank": "1",
        "title": "Zack Snyder's Justice League (2021) [1080p] [WEBRip] [5.1]",
        "link": "magnet:?xt=urn:btih:311BCEE679211FF69DB471E2EFD6099A3F06C3D3&dn=Zack+Snyder%27s+Justice+League+%282021%29+%5B1080p%5D+%5BWEBRip%5D+%5B5.1%5D&tr=udp%3A%2F%2Ftracker.coppersurfer.tk%3A6969%2Fannounce&tr=udp%3A%2F%2F9.rarbg.to%3A2920%2Fannounce&tr=udp%3A%2F%2Ftracker.opentrackr.org%3A1337&tr=udp%3A%2F%2Ftracker.internetwarriors.net%3A1337%2Fannounce&tr=udp%3A%2F%2Ftracker.leechers-paradise.org%3A6969%2Fannounce&tr=udp%3A%2F%2Ftracker.coppersurfer.tk%3A6969%2Fannounce&tr=udp%3A%2F%2Ftracker.pirateparty.gr%3A6969%2Fannounce&tr=udp%3A%2F%2Ftracker.cyberia.is%3A6969%2Fannounce",
        "seeder": "10214",
        "leecher": "957"
    },
    {
        "rank": "2",
        "title": "Zack Snyder's Justice League (2021) [720p] [WEBRip]",
        "link": "magnet:?xt=urn:btih:8DCCE8447B8C317602B9B4C18BA817EA2589BB06&dn=Zack+Snyder%27s+Justice+League+%282021%29+%5B720p%5D+%5BWEBRip%5D&tr=udp%3A%2F%2Ftracker.coppersurfer.tk%3A6969%2Fannounce&tr=udp%3A%2F%2F9.rarbg.to%3A2920%2Fannounce&tr=udp%3A%2F%2Ftracker.opentrackr.org%3A1337&tr=udp%3A%2F%2Ftracker.internetwarriors.net%3A1337%2Fannounce&tr=udp%3A%2F%2Ftracker.leechers-paradise.org%3A6969%2Fannounce&tr=udp%3A%2F%2Ftracker.coppersurfer.tk%3A6969%2Fannounce&tr=udp%3A%2F%2Ftracker.pirateparty.gr%3A6969%2Fannounce&tr=udp%3A%2F%2Ftracker.cyberia.is%3A6969%2Fannounce",
        "seeder": "6283",
        "leecher": "572"
    },
    {
        "rank": "3",
        "title": "Zack.Snyders.Justice.League.2021.1080p.HDRip.AAC2.0.x264-PD[TGx]",
        "link": "magnet:?xt=urn:btih:DB2875C33D0B9B30F2224301BE757F0072DCCE0F&dn=Zack.Snyders.Justice.League.2021.1080p.HDRip.AAC2.0.x264-PD%5BTGx%5D&tr=udp%3A%2F%2Ftracker.coppersurfer.tk%3A6969%2Fannounce&tr=udp%3A%2F%2F9.rarbg.to%3A2920%2Fannounce&tr=udp%3A%2F%2Ftracker.opentrackr.org%3A1337&tr=udp%3A%2F%2Ftracker.internetwarriors.net%3A1337%2Fannounce&tr=udp%3A%2F%2Ftracker.leechers-paradise.org%3A6969%2Fannounce&tr=udp%3A%2F%2Ftracker.coppersurfer.tk%3A6969%2Fannounce&tr=udp%3A%2F%2Ftracker.pirateparty.gr%3A6969%2Fannounce&tr=udp%3A%2F%2Ftracker.cyberia.is%3A6969%2Fannounce",
        "seeder": "5323",
        "leecher": "310"
    },
    {
        "rank": "4",
        "title": "Raya and the Last Dragon (2021) [1080p] [WEBRip]",
        "link": "magnet:?xt=urn:btih:602A60BB6B4F061B5E4E7BE9822B67D6CD289E23&dn=Raya+and+the+Last+Dragon+%282021%29+%5B1080p%5D+%5BWEBRip%5D&tr=udp%3A%2F%2Ftracker.coppersurfer.tk%3A6969%2Fannounce&tr=udp%3A%2F%2F9.rarbg.to%3A2920%2Fannounce&tr=udp%3A%2F%2Ftracker.opentrackr.org%3A1337&tr=udp%3A%2F%2Ftracker.internetwarriors.net%3A1337%2Fannounce&tr=udp%3A%2F%2Ftracker.leechers-paradise.org%3A6969%2Fannounce&tr=udp%3A%2F%2Ftracker.coppersurfer.tk%3A6969%2Fannounce&tr=udp%3A%2F%2Ftracker.pirateparty.gr%3A6969%2Fannounce&tr=udp%3A%2F%2Ftracker.cyberia.is%3A6969%2Fannounce",
        "seeder": "5026",
        "leecher": "289"
    },
    {
        "rank": "5",
        "title": "Godzilla.vs.Kong.2021.720p.WEBRip.800MB.x264-GalaxyRG",
        "link": "magnet:?xt=urn:btih:E24180A7DC92D52FCA446AE751438D9A0A94AC01&dn=Godzilla.vs.Kong.2021.720p.WEBRip.800MB.x264-GalaxyRG&tr=udp%3A%2F%2Ftracker.coppersurfer.tk%3A6969%2Fannounce&tr=udp%3A%2F%2F9.rarbg.to%3A2920%2Fannounce&tr=udp%3A%2F%2Ftracker.opentrackr.org%3A1337&tr=udp%3A%2F%2Ftracker.internetwarriors.net%3A1337%2Fannounce&tr=udp%3A%2F%2Ftracker.leechers-paradise.org%3A6969%2Fannounce&tr=udp%3A%2F%2Ftracker.coppersurfer.tk%3A6969%2Fannounce&tr=udp%3A%2F%2Ftracker.pirateparty.gr%3A6969%2Fannounce&tr=udp%3A%2F%2Ftracker.cyberia.is%3A6969%2Fannounce",
        "seeder": "4127",
        "leecher": "1215"
    },
    {
        "rank": "6",
        "title": "Zack.Snyders.Justice.League.2021.REPACK.720p.HDRip.1200MB.x264-G",
        "link": "magnet:?xt=urn:btih:0C5B9EC9E99984B97D6B4C0CADA6ECC01DA7183F&dn=Zack.Snyders.Justice.League.2021.REPACK.720p.HDRip.1200MB.x264-G&tr=udp%3A%2F%2Ftracker.coppersurfer.tk%3A6969%2Fannounce&tr=udp%3A%2F%2F9.rarbg.to%3A2920%2Fannounce&tr=udp%3A%2F%2Ftracker.opentrackr.org%3A1337&tr=udp%3A%2F%2Ftracker.internetwarriors.net%3A1337%2Fannounce&tr=udp%3A%2F%2Ftracker.leechers-paradise.org%3A6969%2Fannounce&tr=udp%3A%2F%2Ftracker.coppersurfer.tk%3A6969%2Fannounce&tr=udp%3A%2F%2Ftracker.pirateparty.gr%3A6969%2Fannounce&tr=udp%3A%2F%2Ftracker.cyberia.is%3A6969%2Fannounce",
        "seeder": "3527",
        "leecher": "394"
    },
    {
        "rank": "7",
        "title": "Godzilla.vs.Kong.2021.1080p.WEBRip.1400MB.DD5.1.x264-GalaxyRG",
        "link": "magnet:?xt=urn:btih:DC97C539938351F2288174D61136F9A0DC960823&dn=Godzilla.vs.Kong.2021.1080p.WEBRip.1400MB.DD5.1.x264-GalaxyRG&tr=udp%3A%2F%2Ftracker.coppersurfer.tk%3A6969%2Fannounce&tr=udp%3A%2F%2F9.rarbg.to%3A2920%2Fannounce&tr=udp%3A%2F%2Ftracker.opentrackr.org%3A1337&tr=udp%3A%2F%2Ftracker.internetwarriors.net%3A1337%2Fannounce&tr=udp%3A%2F%2Ftracker.leechers-paradise.org%3A6969%2Fannounce&tr=udp%3A%2F%2Ftracker.coppersurfer.tk%3A6969%2Fannounce&tr=udp%3A%2F%2Ftracker.pirateparty.gr%3A6969%2Fannounce&tr=udp%3A%2F%2Ftracker.cyberia.is%3A6969%2Fannounce",
        "seeder": "3325",
        "leecher": "872"
    },
    {
        "rank": "8",
        "title": "Raya and the Last Dragon (2021) [720p] [WEBRip]",
        "link": "magnet:?xt=urn:btih:E07674245099C66E5AFDED08B9806AB4A3B2A4DE&dn=Raya+and+the+Last+Dragon+%282021%29+%5B720p%5D+%5BWEBRip%5D&tr=udp%3A%2F%2Ftracker.coppersurfer.tk%3A6969%2Fannounce&tr=udp%3A%2F%2F9.rarbg.to%3A2920%2Fannounce&tr=udp%3A%2F%2Ftracker.opentrackr.org%3A1337&tr=udp%3A%2F%2Ftracker.internetwarriors.net%3A1337%2Fannounce&tr=udp%3A%2F%2Ftracker.leechers-paradise.org%3A6969%2Fannounce&tr=udp%3A%2F%2Ftracker.coppersurfer.tk%3A6969%2Fannounce&tr=udp%3A%2F%2Ftracker.pirateparty.gr%3A6969%2Fannounce&tr=udp%3A%2F%2Ftracker.cyberia.is%3A6969%2Fannounce",
        "seeder": "3012",
        "leecher": "252"
    },
    {
        "rank": "9",
        "title": "Tenet (2020) [1080p] [BluRay] [5.1]",
        "link": "magnet:?xt=urn:btih:182B1965ADF9DCD3CDAE27C68DE9E810CEF75346&dn=Tenet+%282020%29+%5B1080p%5D+%5BBluRay%5D+%5B5.1%5D&tr=udp%3A%2F%2Ftracker.coppersurfer.tk%3A6969%2Fannounce&tr=udp%3A%2F%2F9.rarbg.to%3A2920%2Fannounce&tr=udp%3A%2F%2Ftracker.opentrackr.org%3A1337&tr=udp%3A%2F%2Ftracker.internetwarriors.net%3A1337%2Fannounce&tr=udp%3A%2F%2Ftracker.leechers-paradise.org%3A6969%2Fannounce&tr=udp%3A%2F%2Ftracker.coppersurfer.tk%3A6969%2Fannounce&tr=udp%3A%2F%2Ftracker.pirateparty.gr%3A6969%2Fannounce&tr=udp%3A%2F%2Ftracker.cyberia.is%3A6969%2Fannounce",
        "seeder": "2765",
        "leecher": "371"
    },
    {
        "rank": "10",
        "title": "Justice League Snyders Cut 2021 1080p HDRip X264-WORM",
        "link": "magnet:?xt=urn:btih:449EDF3CDE94B83EA689FA82742132174FA4543F&dn=Justice+League+Snyders+Cut+2021+1080p+HDRip+X264-WORM&tr=udp%3A%2F%2Ftracker.coppersurfer.tk%3A6969%2Fannounce&tr=udp%3A%2F%2F9.rarbg.to%3A2920%2Fannounce&tr=udp%3A%2F%2Ftracker.opentrackr.org%3A1337&tr=udp%3A%2F%2Ftracker.internetwarriors.net%3A1337%2Fannounce&tr=udp%3A%2F%2Ftracker.leechers-paradise.org%3A6969%2Fannounce&tr=udp%3A%2F%2Ftracker.coppersurfer.tk%3A6969%2Fannounce&tr=udp%3A%2F%2Ftracker.pirateparty.gr%3A6969%2Fannounce&tr=udp%3A%2F%2Ftracker.cyberia.is%3A6969%2Fannounce",
        "seeder": "2572",
        "leecher": "259"
    },
    {
        "rank": "11",
        "title": "The Father (2020) [1080p] [WEBRip] [5.1]",
        "link": "magnet:?xt=urn:btih:97533F2033BD41367C8D39D22EBCB7FD963E91C9&dn=The+Father+%282020%29+%5B1080p%5D+%5BWEBRip%5D+%5B5.1%5D&tr=udp%3A%2F%2Ftracker.coppersurfer.tk%3A6969%2Fannounce&tr=udp%3A%2F%2F9.rarbg.to%3A2920%2Fannounce&tr=udp%3A%2F%2Ftracker.opentrackr.org%3A1337&tr=udp%3A%2F%2Ftracker.internetwarriors.net%3A1337%2Fannounce&tr=udp%3A%2F%2Ftracker.leechers-paradise.org%3A6969%2Fannounce&tr=udp%3A%2F%2Ftracker.coppersurfer.tk%3A6969%2Fannounce&tr=udp%3A%2F%2Ftracker.pirateparty.gr%3A6969%2Fannounce&tr=udp%3A%2F%2Ftracker.cyberia.is%3A6969%2Fannounce",
        "seeder": "2169",
        "leecher": "229"
    },
    {
        "rank": "12",
        "title": "Tom and Jerry (2021) 720p Webrip",
        "link": "magnet:?xt=urn:btih:E612F1042782C5277DEBEFD057CAB5FDA26D3768&dn=Tom+and+Jerry+%282021%29+720p+Webrip&tr=udp%3A%2F%2Ftracker.coppersurfer.tk%3A6969%2Fannounce&tr=udp%3A%2F%2F9.rarbg.to%3A2920%2Fannounce&tr=udp%3A%2F%2Ftracker.opentrackr.org%3A1337&tr=udp%3A%2F%2Ftracker.internetwarriors.net%3A1337%2Fannounce&tr=udp%3A%2F%2Ftracker.leechers-paradise.org%3A6969%2Fannounce&tr=udp%3A%2F%2Ftracker.coppersurfer.tk%3A6969%2Fannounce&tr=udp%3A%2F%2Ftracker.pirateparty.gr%3A6969%2Fannounce&tr=udp%3A%2F%2Ftracker.cyberia.is%3A6969%2Fannounce",
        "seeder": "2054",
        "leecher": "248"
    },
    {
        "rank": "13",
        "title": "Coming 2 America (2021) [1080p] [WEBRip] [5.1]",
        "link": "magnet:?xt=urn:btih:12F95B447A97F2BD3098951EA379EBA660DAB53E&dn=Coming+2+America+%282021%29+%5B1080p%5D+%5BWEBRip%5D+%5B5.1%5D&tr=udp%3A%2F%2Ftracker.coppersurfer.tk%3A6969%2Fannounce&tr=udp%3A%2F%2F9.rarbg.to%3A2920%2Fannounce&tr=udp%3A%2F%2Ftracker.opentrackr.org%3A1337&tr=udp%3A%2F%2Ftracker.internetwarriors.net%3A1337%2Fannounce&tr=udp%3A%2F%2Ftracker.leechers-paradise.org%3A6969%2Fannounce&tr=udp%3A%2F%2Ftracker.coppersurfer.tk%3A6969%2Fannounce&tr=udp%3A%2F%2Ftracker.pirateparty.gr%3A6969%2Fannounce&tr=udp%3A%2F%2Ftracker.cyberia.is%3A6969%2Fannounce",
        "seeder": "2027",
        "leecher": "226"
    },
    {
        "rank": "14",
        "title": "Soul (2020) [1080p] [BluRay] [5.1]",
        "link": "magnet:?xt=urn:btih:ACD885336B04E022E411364E03BDF3EF04EF3A14&dn=Soul+%282020%29+%5B1080p%5D+%5BBluRay%5D+%5B5.1%5D&tr=udp%3A%2F%2Ftracker.coppersurfer.tk%3A6969%2Fannounce&tr=udp%3A%2F%2F9.rarbg.to%3A2920%2Fannounce&tr=udp%3A%2F%2Ftracker.opentrackr.org%3A1337&tr=udp%3A%2F%2Ftracker.internetwarriors.net%3A1337%2Fannounce&tr=udp%3A%2F%2Ftracker.leechers-paradise.org%3A6969%2Fannounce&tr=udp%3A%2F%2Ftracker.coppersurfer.tk%3A6969%2Fannounce&tr=udp%3A%2F%2Ftracker.pirateparty.gr%3A6969%2Fannounce&tr=udp%3A%2F%2Ftracker.cyberia.is%3A6969%2Fannounce",
        "seeder": "1911",
        "leecher": "218"
    },
    {
        "rank": "15",
        "title": "Godzilla.vs.Kong.2021.1080p.WEB-DL.DDP5.1.Atmos.x264-EVO[TGx]",
        "link": "magnet:?xt=urn:btih:2EDC556DBD0F63FA7D37A5689002AA65F26CC025&dn=Godzilla.vs.Kong.2021.1080p.WEB-DL.DDP5.1.Atmos.x264-EVO%5BTGx%5D&tr=udp%3A%2F%2Ftracker.coppersurfer.tk%3A6969%2Fannounce&tr=udp%3A%2F%2F9.rarbg.to%3A2920%2Fannounce&tr=udp%3A%2F%2Ftracker.opentrackr.org%3A1337&tr=udp%3A%2F%2Ftracker.internetwarriors.net%3A1337%2Fannounce&tr=udp%3A%2F%2Ftracker.leechers-paradise.org%3A6969%2Fannounce&tr=udp%3A%2F%2Ftracker.coppersurfer.tk%3A6969%2Fannounce&tr=udp%3A%2F%2Ftracker.pirateparty.gr%3A6969%2Fannounce&tr=udp%3A%2F%2Ftracker.cyberia.is%3A6969%2Fannounce",
        "seeder": "1842",
        "leecher": "497"
    },
    {
        "rank": "16",
        "title": "Chaos.Walking.2021.720p.WEBRip.800MB.x264-GalaxyRG",
        "link": "magnet:?xt=urn:btih:B95680B652374E596A9C09F557403E60038B5EAF&dn=Chaos.Walking.2021.720p.WEBRip.800MB.x264-GalaxyRG&tr=udp%3A%2F%2Ftracker.coppersurfer.tk%3A6969%2Fannounce&tr=udp%3A%2F%2F9.rarbg.to%3A2920%2Fannounce&tr=udp%3A%2F%2Ftracker.opentrackr.org%3A1337&tr=udp%3A%2F%2Ftracker.internetwarriors.net%3A1337%2Fannounce&tr=udp%3A%2F%2Ftracker.leechers-paradise.org%3A6969%2Fannounce&tr=udp%3A%2F%2Ftracker.coppersurfer.tk%3A6969%2Fannounce&tr=udp%3A%2F%2Ftracker.pirateparty.gr%3A6969%2Fannounce&tr=udp%3A%2F%2Ftracker.cyberia.is%3A6969%2Fannounce",
        "seeder": "1793",
        "leecher": "406"
    },
    {
        "rank": "17",
        "title": "Avengers.Endgame.2019.1080p.BRRip.x264-MP4",
        "link": "magnet:?xt=urn:btih:223F7484D326AD8EFD3CF1E548DED524833CB77E&dn=Avengers.Endgame.2019.1080p.BRRip.x264-MP4&tr=udp%3A%2F%2Ftracker.coppersurfer.tk%3A6969%2Fannounce&tr=udp%3A%2F%2F9.rarbg.to%3A2920%2Fannounce&tr=udp%3A%2F%2Ftracker.opentrackr.org%3A1337&tr=udp%3A%2F%2Ftracker.internetwarriors.net%3A1337%2Fannounce&tr=udp%3A%2F%2Ftracker.leechers-paradise.org%3A6969%2Fannounce&tr=udp%3A%2F%2Ftracker.coppersurfer.tk%3A6969%2Fannounce&tr=udp%3A%2F%2Ftracker.pirateparty.gr%3A6969%2Fannounce&tr=udp%3A%2F%2Ftracker.cyberia.is%3A6969%2Fannounce",
        "seeder": "1678",
        "leecher": "309"
    },
    {
        "rank": "18",
        "title": "The Vault (2021) [720p] [WEBRip]",
        "link": "magnet:?xt=urn:btih:5611963291F782AEDB15BB90FAC98DBCD1825417&dn=The+Vault+%282021%29+%5B720p%5D+%5BWEBRip%5D&tr=udp%3A%2F%2Ftracker.coppersurfer.tk%3A6969%2Fannounce&tr=udp%3A%2F%2F9.rarbg.to%3A2920%2Fannounce&tr=udp%3A%2F%2Ftracker.opentrackr.org%3A1337&tr=udp%3A%2F%2Ftracker.internetwarriors.net%3A1337%2Fannounce&tr=udp%3A%2F%2Ftracker.leechers-paradise.org%3A6969%2Fannounce&tr=udp%3A%2F%2Ftracker.coppersurfer.tk%3A6969%2Fannounce&tr=udp%3A%2F%2Ftracker.pirateparty.gr%3A6969%2Fannounce&tr=udp%3A%2F%2Ftracker.cyberia.is%3A6969%2Fannounce",
        "seeder": "1523",
        "leecher": "206"
    },
    {
        "rank": "19",
        "title": "Coming.2.America.2021.720p.WEBRip.800MB.x264-GalaxyRG",
        "link": "magnet:?xt=urn:btih:F96F7714FFBA2288FD927226148C46BF85358603&dn=Coming.2.America.2021.720p.WEBRip.800MB.x264-GalaxyRG&tr=udp%3A%2F%2Ftracker.coppersurfer.tk%3A6969%2Fannounce&tr=udp%3A%2F%2F9.rarbg.to%3A2920%2Fannounce&tr=udp%3A%2F%2Ftracker.opentrackr.org%3A1337&tr=udp%3A%2F%2Ftracker.internetwarriors.net%3A1337%2Fannounce&tr=udp%3A%2F%2Ftracker.leechers-paradise.org%3A6969%2Fannounce&tr=udp%3A%2F%2Ftracker.coppersurfer.tk%3A6969%2Fannounce&tr=udp%3A%2F%2Ftracker.pirateparty.gr%3A6969%2Fannounce&tr=udp%3A%2F%2Ftracker.cyberia.is%3A6969%2Fannounce",
        "seeder": "1507",
        "leecher": "304"
    },
    {
        "rank": "20",
        "title": "The Father (2020) [720p] [WEBRip]",
        "link": "magnet:?xt=urn:btih:5F9A140C7CAFD68D7F50CF44818A030B5F9E14E8&dn=The+Father+%282020%29+%5B720p%5D+%5BWEBRip%5D&tr=udp%3A%2F%2Ftracker.coppersurfer.tk%3A6969%2Fannounce&tr=udp%3A%2F%2F9.rarbg.to%3A2920%2Fannounce&tr=udp%3A%2F%2Ftracker.opentrackr.org%3A1337&tr=udp%3A%2F%2Ftracker.internetwarriors.net%3A1337%2Fannounce&tr=udp%3A%2F%2Ftracker.leechers-paradise.org%3A6969%2Fannounce&tr=udp%3A%2F%2Ftracker.coppersurfer.tk%3A6969%2Fannounce&tr=udp%3A%2F%2Ftracker.pirateparty.gr%3A6969%2Fannounce&tr=udp%3A%2F%2Ftracker.cyberia.is%3A6969%2Fannounce",
        "seeder": "1424",
        "leecher": "138"
    },
    {
        "rank": "21",
        "title": "Mulan (2020) [1080p] [WEBRip] [5.1]",
        "link": "magnet:?xt=urn:btih:6D4318B38EB00C3516B6CF46A3027E2DF716D25C&dn=Mulan+%282020%29+%5B1080p%5D+%5BWEBRip%5D+%5B5.1%5D&tr=udp%3A%2F%2Ftracker.coppersurfer.tk%3A6969%2Fannounce&tr=udp%3A%2F%2F9.rarbg.to%3A2920%2Fannounce&tr=udp%3A%2F%2Ftracker.opentrackr.org%3A1337&tr=udp%3A%2F%2Ftracker.internetwarriors.net%3A1337%2Fannounce&tr=udp%3A%2F%2Ftracker.leechers-paradise.org%3A6969%2Fannounce&tr=udp%3A%2F%2Ftracker.coppersurfer.tk%3A6969%2Fannounce&tr=udp%3A%2F%2Ftracker.pirateparty.gr%3A6969%2Fannounce&tr=udp%3A%2F%2Ftracker.cyberia.is%3A6969%2Fannounce",
        "seeder": "1369",
        "leecher": "80"
    },
    {
        "rank": "22",
        "title": "Raya.and.the.Last.Dragon.2021.720p.WEBRip.800MB.x264-GalaxyRG",
        "link": "magnet:?xt=urn:btih:9A894DE281D55011354F5662C95DC484A371B0F9&dn=Raya.and.the.Last.Dragon.2021.720p.WEBRip.800MB.x264-GalaxyRG&tr=udp%3A%2F%2Ftracker.coppersurfer.tk%3A6969%2Fannounce&tr=udp%3A%2F%2F9.rarbg.to%3A2920%2Fannounce&tr=udp%3A%2F%2Ftracker.opentrackr.org%3A1337&tr=udp%3A%2F%2Ftracker.internetwarriors.net%3A1337%2Fannounce&tr=udp%3A%2F%2Ftracker.leechers-paradise.org%3A6969%2Fannounce&tr=udp%3A%2F%2Ftracker.coppersurfer.tk%3A6969%2Fannounce&tr=udp%3A%2F%2Ftracker.pirateparty.gr%3A6969%2Fannounce&tr=udp%3A%2F%2Ftracker.cyberia.is%3A6969%2Fannounce",
        "seeder": "1366",
        "leecher": "173"
    },
    {
        "rank": "23",
        "title": "Coming 2 America (2021) [720p] [WEBRip]",
        "link": "magnet:?xt=urn:btih:6BA07C99B04148AE14B09F2F3D43F4E77AEA872F&dn=Coming+2+America+%282021%29+%5B720p%5D+%5BWEBRip%5D&tr=udp%3A%2F%2Ftracker.coppersurfer.tk%3A6969%2Fannounce&tr=udp%3A%2F%2F9.rarbg.to%3A2920%2Fannounce&tr=udp%3A%2F%2Ftracker.opentrackr.org%3A1337&tr=udp%3A%2F%2Ftracker.internetwarriors.net%3A1337%2Fannounce&tr=udp%3A%2F%2Ftracker.leechers-paradise.org%3A6969%2Fannounce&tr=udp%3A%2F%2Ftracker.coppersurfer.tk%3A6969%2Fannounce&tr=udp%3A%2F%2Ftracker.pirateparty.gr%3A6969%2Fannounce&tr=udp%3A%2F%2Ftracker.cyberia.is%3A6969%2Fannounce",
        "seeder": "1317",
        "leecher": "213"
    },
    {
        "rank": "24",
        "title": "Zack Snyder's Justice League (2021) [2160p] [WEBRip] [5.1]",
        "link": "magnet:?xt=urn:btih:6503AB335DF57F102CC96D81815CC484A4DFB4DC&dn=Zack+Snyder%27s+Justice+League+%282021%29+%5B2160p%5D+%5BWEBRip%5D+%5B5.1%5D&tr=udp%3A%2F%2Ftracker.coppersurfer.tk%3A6969%2Fannounce&tr=udp%3A%2F%2F9.rarbg.to%3A2920%2Fannounce&tr=udp%3A%2F%2Ftracker.opentrackr.org%3A1337&tr=udp%3A%2F%2Ftracker.internetwarriors.net%3A1337%2Fannounce&tr=udp%3A%2F%2Ftracker.leechers-paradise.org%3A6969%2Fannounce&tr=udp%3A%2F%2Ftracker.coppersurfer.tk%3A6969%2Fannounce&tr=udp%3A%2F%2Ftracker.pirateparty.gr%3A6969%2Fannounce&tr=udp%3A%2F%2Ftracker.cyberia.is%3A6969%2Fannounce",
        "seeder": "1293",
        "leecher": "307"
    },
    {
        "rank": "25",
        "title": "Godzilla.vs.Kong.2021.1080p.HMAX.WEB-DL.DDP5.1.Atmos.x264-EVO[TG",
        "link": "magnet:?xt=urn:btih:9A6D00CADFBC0EF4B2651478C78192FA3DDDD29C&dn=Godzilla.vs.Kong.2021.1080p.HMAX.WEB-DL.DDP5.1.Atmos.x264-EVO%5BTG&tr=udp%3A%2F%2Ftracker.coppersurfer.tk%3A6969%2Fannounce&tr=udp%3A%2F%2F9.rarbg.to%3A2920%2Fannounce&tr=udp%3A%2F%2Ftracker.opentrackr.org%3A1337&tr=udp%3A%2F%2Ftracker.internetwarriors.net%3A1337%2Fannounce&tr=udp%3A%2F%2Ftracker.leechers-paradise.org%3A6969%2Fannounce&tr=udp%3A%2F%2Ftracker.coppersurfer.tk%3A6969%2Fannounce&tr=udp%3A%2F%2Ftracker.pirateparty.gr%3A6969%2Fannounce&tr=udp%3A%2F%2Ftracker.cyberia.is%3A6969%2Fannounce",
        "seeder": "1288",
        "leecher": "348"
    },
    {
        "rank": "26",
        "title": "The Croods A New Age (2020) [1080p] [WEBRip] [5.1]",
        "link": "magnet:?xt=urn:btih:C5EB9FD0F279FA0984B23141E29E1818A7D0CC6D&dn=The+Croods+A+New+Age+%282020%29+%5B1080p%5D+%5BWEBRip%5D+%5B5.1%5D&tr=udp%3A%2F%2Ftracker.coppersurfer.tk%3A6969%2Fannounce&tr=udp%3A%2F%2F9.rarbg.to%3A2920%2Fannounce&tr=udp%3A%2F%2Ftracker.opentrackr.org%3A1337&tr=udp%3A%2F%2Ftracker.internetwarriors.net%3A1337%2Fannounce&tr=udp%3A%2F%2Ftracker.leechers-paradise.org%3A6969%2Fannounce&tr=udp%3A%2F%2Ftracker.coppersurfer.tk%3A6969%2Fannounce&tr=udp%3A%2F%2Ftracker.pirateparty.gr%3A6969%2Fannounce&tr=udp%3A%2F%2Ftracker.cyberia.is%3A6969%2Fannounce",
        "seeder": "1231",
        "leecher": "81"
    },
    {
        "rank": "27",
        "title": "The Vault (2021) [1080p] [WEBRip]",
        "link": "magnet:?xt=urn:btih:62C09C34B68B89DC5441F99E7186C5F22D91057C&dn=The+Vault+%282021%29+%5B1080p%5D+%5BWEBRip%5D&tr=udp%3A%2F%2Ftracker.coppersurfer.tk%3A6969%2Fannounce&tr=udp%3A%2F%2F9.rarbg.to%3A2920%2Fannounce&tr=udp%3A%2F%2Ftracker.opentrackr.org%3A1337&tr=udp%3A%2F%2Ftracker.internetwarriors.net%3A1337%2Fannounce&tr=udp%3A%2F%2Ftracker.leechers-paradise.org%3A6969%2Fannounce&tr=udp%3A%2F%2Ftracker.coppersurfer.tk%3A6969%2Fannounce&tr=udp%3A%2F%2Ftracker.pirateparty.gr%3A6969%2Fannounce&tr=udp%3A%2F%2Ftracker.cyberia.is%3A6969%2Fannounce",
        "seeder": "1203",
        "leecher": "154"
    },
    {
        "rank": "28",
        "title": "Monster.Hunter.2021.720p.WEBRip.800MB.x264-GalaxyRG",
        "link": "magnet:?xt=urn:btih:EDFA88E59FCF13C43CCCFA659EE99E0633CAAE70&dn=Monster.Hunter.2021.720p.WEBRip.800MB.x264-GalaxyRG&tr=udp%3A%2F%2Ftracker.coppersurfer.tk%3A6969%2Fannounce&tr=udp%3A%2F%2F9.rarbg.to%3A2920%2Fannounce&tr=udp%3A%2F%2Ftracker.opentrackr.org%3A1337&tr=udp%3A%2F%2Ftracker.internetwarriors.net%3A1337%2Fannounce&tr=udp%3A%2F%2Ftracker.leechers-paradise.org%3A6969%2Fannounce&tr=udp%3A%2F%2Ftracker.coppersurfer.tk%3A6969%2Fannounce&tr=udp%3A%2F%2Ftracker.pirateparty.gr%3A6969%2Fannounce&tr=udp%3A%2F%2Ftracker.cyberia.is%3A6969%2Fannounce",
        "seeder": "1143",
        "leecher": "236"
    },
    {
        "rank": "29",
        "title": "Wonder Woman 1984 (2020) [1080p] [BluRay]",
        "link": "magnet:?xt=urn:btih:A4B39D923BED7EA2DD1E40041114E87B1DAC7188&dn=Wonder+Woman+1984+%282020%29+%5B1080p%5D+%5BBluRay%5D&tr=udp%3A%2F%2Ftracker.coppersurfer.tk%3A6969%2Fannounce&tr=udp%3A%2F%2F9.rarbg.to%3A2920%2Fannounce&tr=udp%3A%2F%2Ftracker.opentrackr.org%3A1337&tr=udp%3A%2F%2Ftracker.internetwarriors.net%3A1337%2Fannounce&tr=udp%3A%2F%2Ftracker.leechers-paradise.org%3A6969%2Fannounce&tr=udp%3A%2F%2Ftracker.coppersurfer.tk%3A6969%2Fannounce&tr=udp%3A%2F%2Ftracker.pirateparty.gr%3A6969%2Fannounce&tr=udp%3A%2F%2Ftracker.cyberia.is%3A6969%2Fannounce",
        "seeder": "1139",
        "leecher": "169"
    },
    {
        "rank": "30",
        "title": "The.Dry.2021.720p.WEBRip.800MB.x264-GalaxyRG",
        "link": "magnet:?xt=urn:btih:0ADEDC47E4D3F0ED92264E025F663D28DDEDF26B&dn=The.Dry.2021.720p.WEBRip.800MB.x264-GalaxyRG&tr=udp%3A%2F%2Ftracker.coppersurfer.tk%3A6969%2Fannounce&tr=udp%3A%2F%2F9.rarbg.to%3A2920%2Fannounce&tr=udp%3A%2F%2Ftracker.opentrackr.org%3A1337&tr=udp%3A%2F%2Ftracker.internetwarriors.net%3A1337%2Fannounce&tr=udp%3A%2F%2Ftracker.leechers-paradise.org%3A6969%2Fannounce&tr=udp%3A%2F%2Ftracker.coppersurfer.tk%3A6969%2Fannounce&tr=udp%3A%2F%2Ftracker.pirateparty.gr%3A6969%2Fannounce&tr=udp%3A%2F%2Ftracker.cyberia.is%3A6969%2Fannounce",
        "seeder": "1123",
        "leecher": "169"
    },
    {
        "rank": "31",
        "title": "Tenet (2020) [720p] [BluRay]",
        "link": "magnet:?xt=urn:btih:F508A897DEF7EE16EB7101B01768A7A6F9401DCE&dn=Tenet+%282020%29+%5B720p%5D+%5BBluRay%5D&tr=udp%3A%2F%2Ftracker.coppersurfer.tk%3A6969%2Fannounce&tr=udp%3A%2F%2F9.rarbg.to%3A2920%2Fannounce&tr=udp%3A%2F%2Ftracker.opentrackr.org%3A1337&tr=udp%3A%2F%2Ftracker.internetwarriors.net%3A1337%2Fannounce&tr=udp%3A%2F%2Ftracker.leechers-paradise.org%3A6969%2Fannounce&tr=udp%3A%2F%2Ftracker.coppersurfer.tk%3A6969%2Fannounce&tr=udp%3A%2F%2Ftracker.pirateparty.gr%3A6969%2Fannounce&tr=udp%3A%2F%2Ftracker.cyberia.is%3A6969%2Fannounce",
        "seeder": "1064",
        "leecher": "128"
    },
    {
        "rank": "32",
        "title": "Chaos.Walking.2021.1080p.WEB-DL.DD5.1.H264-CMRG[TGx]",
        "link": "magnet:?xt=urn:btih:21262C2B5ECC0E104D8DAB4D0FE2DC2DE0F047AE&dn=Chaos.Walking.2021.1080p.WEB-DL.DD5.1.H264-CMRG%5BTGx%5D&tr=udp%3A%2F%2Ftracker.coppersurfer.tk%3A6969%2Fannounce&tr=udp%3A%2F%2F9.rarbg.to%3A2920%2Fannounce&tr=udp%3A%2F%2Ftracker.opentrackr.org%3A1337&tr=udp%3A%2F%2Ftracker.internetwarriors.net%3A1337%2Fannounce&tr=udp%3A%2F%2Ftracker.leechers-paradise.org%3A6969%2Fannounce&tr=udp%3A%2F%2Ftracker.coppersurfer.tk%3A6969%2Fannounce&tr=udp%3A%2F%2Ftracker.pirateparty.gr%3A6969%2Fannounce&tr=udp%3A%2F%2Ftracker.cyberia.is%3A6969%2Fannounce",
        "seeder": "1004",
        "leecher": "227"
    },
    {
        "rank": "33",
        "title": "Soul.2020.720p.WEBRip.800MB.x264-GalaxyRG",
        "link": "magnet:?xt=urn:btih:5F4F1921F2E21F4CAAD9894E51C1A780FA410C3C&dn=Soul.2020.720p.WEBRip.800MB.x264-GalaxyRG&tr=udp%3A%2F%2Ftracker.coppersurfer.tk%3A6969%2Fannounce&tr=udp%3A%2F%2F9.rarbg.to%3A2920%2Fannounce&tr=udp%3A%2F%2Ftracker.opentrackr.org%3A1337&tr=udp%3A%2F%2Ftracker.internetwarriors.net%3A1337%2Fannounce&tr=udp%3A%2F%2Ftracker.leechers-paradise.org%3A6969%2Fannounce&tr=udp%3A%2F%2Ftracker.coppersurfer.tk%3A6969%2Fannounce&tr=udp%3A%2F%2Ftracker.pirateparty.gr%3A6969%2Fannounce&tr=udp%3A%2F%2Ftracker.cyberia.is%3A6969%2Fannounce",
        "seeder": "999",
        "leecher": "100"
    },
    {
        "rank": "34",
        "title": "Framing.Britney.Spears.2021.720p.WEBRip.800MB.x264-GalaxyRG",
        "link": "magnet:?xt=urn:btih:F339072DE4EBDF7E8B6A045B927D5405AAFD152A&dn=Framing.Britney.Spears.2021.720p.WEBRip.800MB.x264-GalaxyRG&tr=udp%3A%2F%2Ftracker.coppersurfer.tk%3A6969%2Fannounce&tr=udp%3A%2F%2F9.rarbg.to%3A2920%2Fannounce&tr=udp%3A%2F%2Ftracker.opentrackr.org%3A1337&tr=udp%3A%2F%2Ftracker.internetwarriors.net%3A1337%2Fannounce&tr=udp%3A%2F%2Ftracker.leechers-paradise.org%3A6969%2Fannounce&tr=udp%3A%2F%2Ftracker.coppersurfer.tk%3A6969%2Fannounce&tr=udp%3A%2F%2Ftracker.pirateparty.gr%3A6969%2Fannounce&tr=udp%3A%2F%2Ftracker.cyberia.is%3A6969%2Fannounce",
        "seeder": "997",
        "leecher": "27"
    },
    {
        "rank": "35",
        "title": "Tenet.2020.720p.HDRip.900MB.x264-GalaxyRG",
        "link": "magnet:?xt=urn:btih:FAD87ADFB92CBEEB0CF8265B837B76E48971BC40&dn=Tenet.2020.720p.HDRip.900MB.x264-GalaxyRG&tr=udp%3A%2F%2Ftracker.coppersurfer.tk%3A6969%2Fannounce&tr=udp%3A%2F%2F9.rarbg.to%3A2920%2Fannounce&tr=udp%3A%2F%2Ftracker.opentrackr.org%3A1337&tr=udp%3A%2F%2Ftracker.internetwarriors.net%3A1337%2Fannounce&tr=udp%3A%2F%2Ftracker.leechers-paradise.org%3A6969%2Fannounce&tr=udp%3A%2F%2Ftracker.coppersurfer.tk%3A6969%2Fannounce&tr=udp%3A%2F%2Ftracker.pirateparty.gr%3A6969%2Fannounce&tr=udp%3A%2F%2Ftracker.cyberia.is%3A6969%2Fannounce",
        "seeder": "987",
        "leecher": "43"
    },
    {
        "rank": "36",
        "title": "Tom.and.Jerry.2021.720p.WEBRip.800MB.x264-GalaxyRG",
        "link": "magnet:?xt=urn:btih:1367E11FDCFEB8447FC877D64E9D292A07B5CE12&dn=Tom.and.Jerry.2021.720p.WEBRip.800MB.x264-GalaxyRG&tr=udp%3A%2F%2Ftracker.coppersurfer.tk%3A6969%2Fannounce&tr=udp%3A%2F%2F9.rarbg.to%3A2920%2Fannounce&tr=udp%3A%2F%2Ftracker.opentrackr.org%3A1337&tr=udp%3A%2F%2Ftracker.internetwarriors.net%3A1337%2Fannounce&tr=udp%3A%2F%2Ftracker.leechers-paradise.org%3A6969%2Fannounce&tr=udp%3A%2F%2Ftracker.coppersurfer.tk%3A6969%2Fannounce&tr=udp%3A%2F%2Ftracker.pirateparty.gr%3A6969%2Fannounce&tr=udp%3A%2F%2Ftracker.cyberia.is%3A6969%2Fannounce",
        "seeder": "980",
        "leecher": "428"
    },
    {
        "rank": "37",
        "title": "Greyhound (2020) [1080p] [WEBRip] [5.1]",
        "link": "magnet:?xt=urn:btih:1272B6F0A25AE3176BAE5325700A54B061D891D6&dn=Greyhound+%282020%29+%5B1080p%5D+%5BWEBRip%5D+%5B5.1%5D&tr=udp%3A%2F%2Ftracker.coppersurfer.tk%3A6969%2Fannounce&tr=udp%3A%2F%2F9.rarbg.to%3A2920%2Fannounce&tr=udp%3A%2F%2Ftracker.opentrackr.org%3A1337&tr=udp%3A%2F%2Ftracker.internetwarriors.net%3A1337%2Fannounce&tr=udp%3A%2F%2Ftracker.leechers-paradise.org%3A6969%2Fannounce&tr=udp%3A%2F%2Ftracker.coppersurfer.tk%3A6969%2Fannounce&tr=udp%3A%2F%2Ftracker.pirateparty.gr%3A6969%2Fannounce&tr=udp%3A%2F%2Ftracker.cyberia.is%3A6969%2Fannounce",
        "seeder": "897",
        "leecher": "88"
    },
    {
        "rank": "38",
        "title": "Honest Thief (2020) [1080p] [BluRay] [5.1]",
        "link": "magnet:?xt=urn:btih:471145937565BD86EEE447FE16D0927744A19861&dn=Honest+Thief+%282020%29+%5B1080p%5D+%5BBluRay%5D+%5B5.1%5D&tr=udp%3A%2F%2Ftracker.coppersurfer.tk%3A6969%2Fannounce&tr=udp%3A%2F%2F9.rarbg.to%3A2920%2Fannounce&tr=udp%3A%2F%2Ftracker.opentrackr.org%3A1337&tr=udp%3A%2F%2Ftracker.internetwarriors.net%3A1337%2Fannounce&tr=udp%3A%2F%2Ftracker.leechers-paradise.org%3A6969%2Fannounce&tr=udp%3A%2F%2Ftracker.coppersurfer.tk%3A6969%2Fannounce&tr=udp%3A%2F%2Ftracker.pirateparty.gr%3A6969%2Fannounce&tr=udp%3A%2F%2Ftracker.cyberia.is%3A6969%2Fannounce",
        "seeder": "895",
        "leecher": "144"
    },
    {
        "rank": "39",
        "title": "John.Wick.Chapter.3 - Parabellum.2019.1080p.BRRip.x264-MP4",
        "link": "magnet:?xt=urn:btih:8FD93E1A5B18EBF27972E3E8650CD577C9075AC7&dn=John.Wick.Chapter.3+-+Parabellum.2019.1080p.BRRip.x264-MP4&tr=udp%3A%2F%2Ftracker.coppersurfer.tk%3A6969%2Fannounce&tr=udp%3A%2F%2F9.rarbg.to%3A2920%2Fannounce&tr=udp%3A%2F%2Ftracker.opentrackr.org%3A1337&tr=udp%3A%2F%2Ftracker.internetwarriors.net%3A1337%2Fannounce&tr=udp%3A%2F%2Ftracker.leechers-paradise.org%3A6969%2Fannounce&tr=udp%3A%2F%2Ftracker.coppersurfer.tk%3A6969%2Fannounce&tr=udp%3A%2F%2Ftracker.pirateparty.gr%3A6969%2Fannounce&tr=udp%3A%2F%2Ftracker.cyberia.is%3A6969%2Fannounce",
        "seeder": "894",
        "leecher": "89"
    },
    {
        "rank": "40",
        "title": "Raya and the Last Dragon.2021.1080p.DSNP.WEB-DL.H264.Atmos-EVO[T",
        "link": "magnet:?xt=urn:btih:CDD0AF2482405CED98518AC8DD9734E18F7F2FA1&dn=Raya+and+the+Last+Dragon.2021.1080p.DSNP.WEB-DL.H264.Atmos-EVO%5BT&tr=udp%3A%2F%2Ftracker.coppersurfer.tk%3A6969%2Fannounce&tr=udp%3A%2F%2F9.rarbg.to%3A2920%2Fannounce&tr=udp%3A%2F%2Ftracker.opentrackr.org%3A1337&tr=udp%3A%2F%2Ftracker.internetwarriors.net%3A1337%2Fannounce&tr=udp%3A%2F%2Ftracker.leechers-paradise.org%3A6969%2Fannounce&tr=udp%3A%2F%2Ftracker.coppersurfer.tk%3A6969%2Fannounce&tr=udp%3A%2F%2Ftracker.pirateparty.gr%3A6969%2Fannounce&tr=udp%3A%2F%2Ftracker.cyberia.is%3A6969%2Fannounce",
        "seeder": "874",
        "leecher": "239"
    },
    {
        "rank": "41",
        "title": "Avengers Endgame (2019) [BluRay] [720p]",
        "link": "magnet:?xt=urn:btih:5A4140BD59D66BCAC57CF05AF4A8FAB4EBCAE1C1&dn=Avengers+Endgame+%282019%29+%5BBluRay%5D+%5B720p%5D&tr=udp%3A%2F%2Ftracker.coppersurfer.tk%3A6969%2Fannounce&tr=udp%3A%2F%2F9.rarbg.to%3A2920%2Fannounce&tr=udp%3A%2F%2Ftracker.opentrackr.org%3A1337&tr=udp%3A%2F%2Ftracker.internetwarriors.net%3A1337%2Fannounce&tr=udp%3A%2F%2Ftracker.leechers-paradise.org%3A6969%2Fannounce&tr=udp%3A%2F%2Ftracker.coppersurfer.tk%3A6969%2Fannounce&tr=udp%3A%2F%2Ftracker.pirateparty.gr%3A6969%2Fannounce&tr=udp%3A%2F%2Ftracker.cyberia.is%3A6969%2Fannounce",
        "seeder": "861",
        "leecher": "103"
    },
    {
        "rank": "42",
        "title": "Wrong.Turn.2021.720p.BluRay.800MB.x264-GalaxyRG",
        "link": "magnet:?xt=urn:btih:284346F6C0CA8B8CE73CF9A9E05FEFCFBD541703&dn=Wrong.Turn.2021.720p.BluRay.800MB.x264-GalaxyRG&tr=udp%3A%2F%2Ftracker.coppersurfer.tk%3A6969%2Fannounce&tr=udp%3A%2F%2F9.rarbg.to%3A2920%2Fannounce&tr=udp%3A%2F%2Ftracker.opentrackr.org%3A1337&tr=udp%3A%2F%2Ftracker.internetwarriors.net%3A1337%2Fannounce&tr=udp%3A%2F%2Ftracker.leechers-paradise.org%3A6969%2Fannounce&tr=udp%3A%2F%2Ftracker.coppersurfer.tk%3A6969%2Fannounce&tr=udp%3A%2F%2Ftracker.pirateparty.gr%3A6969%2Fannounce&tr=udp%3A%2F%2Ftracker.cyberia.is%3A6969%2Fannounce",
        "seeder": "839",
        "leecher": "134"
    },
    {
        "rank": "43",
        "title": "Cherry.2021.720p.WEBRip.900MB.x264-GalaxyRG",
        "link": "magnet:?xt=urn:btih:C695BBBDC3CDBCE719C189392180EAE5A870681D&dn=Cherry.2021.720p.WEBRip.900MB.x264-GalaxyRG&tr=udp%3A%2F%2Ftracker.coppersurfer.tk%3A6969%2Fannounce&tr=udp%3A%2F%2F9.rarbg.to%3A2920%2Fannounce&tr=udp%3A%2F%2Ftracker.opentrackr.org%3A1337&tr=udp%3A%2F%2Ftracker.internetwarriors.net%3A1337%2Fannounce&tr=udp%3A%2F%2Ftracker.leechers-paradise.org%3A6969%2Fannounce&tr=udp%3A%2F%2Ftracker.coppersurfer.tk%3A6969%2Fannounce&tr=udp%3A%2F%2Ftracker.pirateparty.gr%3A6969%2Fannounce&tr=udp%3A%2F%2Ftracker.cyberia.is%3A6969%2Fannounce",
        "seeder": "828",
        "leecher": "423"
    },
    {
        "rank": "44",
        "title": "Zack.Snyders.Justice.League.2021.1080p.WEBRip.2GB.DD5.1.x264-Gal",
        "link": "magnet:?xt=urn:btih:9E277B91A94AECB28E7FBA49EDC2E69B1F139C96&dn=Zack.Snyders.Justice.League.2021.1080p.WEBRip.2GB.DD5.1.x264-Gal&tr=udp%3A%2F%2Ftracker.coppersurfer.tk%3A6969%2Fannounce&tr=udp%3A%2F%2F9.rarbg.to%3A2920%2Fannounce&tr=udp%3A%2F%2Ftracker.opentrackr.org%3A1337&tr=udp%3A%2F%2Ftracker.internetwarriors.net%3A1337%2Fannounce&tr=udp%3A%2F%2Ftracker.leechers-paradise.org%3A6969%2Fannounce&tr=udp%3A%2F%2Ftracker.coppersurfer.tk%3A6969%2Fannounce&tr=udp%3A%2F%2Ftracker.pirateparty.gr%3A6969%2Fannounce&tr=udp%3A%2F%2Ftracker.cyberia.is%3A6969%2Fannounce",
        "seeder": "822",
        "leecher": "139"
    },
    {
        "rank": "45",
        "title": "The.Little.Things.2021.720p.WEBRip.800MB.x264-GalaxyRG",
        "link": "magnet:?xt=urn:btih:6391E428C4BA1358CF8758C6D7090EF614D5445F&dn=The.Little.Things.2021.720p.WEBRip.800MB.x264-GalaxyRG&tr=udp%3A%2F%2Ftracker.coppersurfer.tk%3A6969%2Fannounce&tr=udp%3A%2F%2F9.rarbg.to%3A2920%2Fannounce&tr=udp%3A%2F%2Ftracker.opentrackr.org%3A1337&tr=udp%3A%2F%2Ftracker.internetwarriors.net%3A1337%2Fannounce&tr=udp%3A%2F%2Ftracker.leechers-paradise.org%3A6969%2Fannounce&tr=udp%3A%2F%2Ftracker.coppersurfer.tk%3A6969%2Fannounce&tr=udp%3A%2F%2Ftracker.pirateparty.gr%3A6969%2Fannounce&tr=udp%3A%2F%2Ftracker.cyberia.is%3A6969%2Fannounce",
        "seeder": "806",
        "leecher": "126"
    },
    {
        "rank": "46",
        "title": "Godzilla vs Kong 2021 720p HDCAM-C1NEM4",
        "link": "magnet:?xt=urn:btih:905DEA7DA2E381AF0D1076F9B9F30787D815F1BA&dn=Godzilla+vs+Kong+2021+720p+HDCAM-C1NEM4&tr=udp%3A%2F%2Ftracker.coppersurfer.tk%3A6969%2Fannounce&tr=udp%3A%2F%2F9.rarbg.to%3A2920%2Fannounce&tr=udp%3A%2F%2Ftracker.opentrackr.org%3A1337&tr=udp%3A%2F%2Ftracker.internetwarriors.net%3A1337%2Fannounce&tr=udp%3A%2F%2Ftracker.leechers-paradise.org%3A6969%2Fannounce&tr=udp%3A%2F%2Ftracker.coppersurfer.tk%3A6969%2Fannounce&tr=udp%3A%2F%2Ftracker.pirateparty.gr%3A6969%2Fannounce&tr=udp%3A%2F%2Ftracker.cyberia.is%3A6969%2Fannounce",
        "seeder": "798",
        "leecher": "240"
    },
    {
        "rank": "47",
        "title": "Judas.and.the.Black.Messiah.2021.720p.WEBRip.800MB.x264-GalaxyRG",
        "link": "magnet:?xt=urn:btih:A2CDB04E6EAFFC9AB786100BFB8C7A72902DFF2D&dn=Judas.and.the.Black.Messiah.2021.720p.WEBRip.800MB.x264-GalaxyRG&tr=udp%3A%2F%2Ftracker.coppersurfer.tk%3A6969%2Fannounce&tr=udp%3A%2F%2F9.rarbg.to%3A2920%2Fannounce&tr=udp%3A%2F%2Ftracker.opentrackr.org%3A1337&tr=udp%3A%2F%2Ftracker.internetwarriors.net%3A1337%2Fannounce&tr=udp%3A%2F%2Ftracker.leechers-paradise.org%3A6969%2Fannounce&tr=udp%3A%2F%2Ftracker.coppersurfer.tk%3A6969%2Fannounce&tr=udp%3A%2F%2Ftracker.pirateparty.gr%3A6969%2Fannounce&tr=udp%3A%2F%2Ftracker.cyberia.is%3A6969%2Fannounce",
        "seeder": "795",
        "leecher": "118"
    },
    {
        "rank": "48",
        "title": "The.Lion.King.2019.1080p.BRRip.x264-MP4",
        "link": "magnet:?xt=urn:btih:F4C231734DF63E05D214B08308D2EF93210C1858&dn=The.Lion.King.2019.1080p.BRRip.x264-MP4&tr=udp%3A%2F%2Ftracker.coppersurfer.tk%3A6969%2Fannounce&tr=udp%3A%2F%2F9.rarbg.to%3A2920%2Fannounce&tr=udp%3A%2F%2Ftracker.opentrackr.org%3A1337&tr=udp%3A%2F%2Ftracker.internetwarriors.net%3A1337%2Fannounce&tr=udp%3A%2F%2Ftracker.leechers-paradise.org%3A6969%2Fannounce&tr=udp%3A%2F%2Ftracker.coppersurfer.tk%3A6969%2Fannounce&tr=udp%3A%2F%2Ftracker.pirateparty.gr%3A6969%2Fannounce&tr=udp%3A%2F%2Ftracker.cyberia.is%3A6969%2Fannounce",
        "seeder": "768",
        "leecher": "95"
    },
    {
        "rank": "49",
        "title": "Godzilla.vs.Kong.2021.2160p.HMAX.WEB-DL.DDP5.1.Atmos.HDR.HEVC-EV",
        "link": "magnet:?xt=urn:btih:E7003BB3D68BD73E6AB4469BA3AD81484955543F&dn=Godzilla.vs.Kong.2021.2160p.HMAX.WEB-DL.DDP5.1.Atmos.HDR.HEVC-EV&tr=udp%3A%2F%2Ftracker.coppersurfer.tk%3A6969%2Fannounce&tr=udp%3A%2F%2F9.rarbg.to%3A2920%2Fannounce&tr=udp%3A%2F%2Ftracker.opentrackr.org%3A1337&tr=udp%3A%2F%2Ftracker.internetwarriors.net%3A1337%2Fannounce&tr=udp%3A%2F%2Ftracker.leechers-paradise.org%3A6969%2Fannounce&tr=udp%3A%2F%2Ftracker.coppersurfer.tk%3A6969%2Fannounce&tr=udp%3A%2F%2Ftracker.pirateparty.gr%3A6969%2Fannounce&tr=udp%3A%2F%2Ftracker.cyberia.is%3A6969%2Fannounce",
        "seeder": "752",
        "leecher": "348"
    },
    {
        "rank": "50",
        "title": "Wonder.Woman.1984.2020.720p.WEBRip.900MB.x264-GalaxyRG",
        "link": "magnet:?xt=urn:btih:D2AEE5E75594403E56080596E20E02860A0E7F10&dn=Wonder.Woman.1984.2020.720p.WEBRip.900MB.x264-GalaxyRG&tr=udp%3A%2F%2Ftracker.coppersurfer.tk%3A6969%2Fannounce&tr=udp%3A%2F%2F9.rarbg.to%3A2920%2Fannounce&tr=udp%3A%2F%2Ftracker.opentrackr.org%3A1337&tr=udp%3A%2F%2Ftracker.internetwarriors.net%3A1337%2Fannounce&tr=udp%3A%2F%2Ftracker.leechers-paradise.org%3A6969%2Fannounce&tr=udp%3A%2F%2Ftracker.coppersurfer.tk%3A6969%2Fannounce&tr=udp%3A%2F%2Ftracker.pirateparty.gr%3A6969%2Fannounce&tr=udp%3A%2F%2Ftracker.cyberia.is%3A6969%2Fannounce",
        "seeder": "752",
        "leecher": "107"
    },
    {
        "rank": "51",
        "title": "Greenland (2020) [1080p] [WEBRip] [5.1]",
        "link": "magnet:?xt=urn:btih:7470EC6BFD6013E7594BA98806472A6E8628EF71&dn=Greenland+%282020%29+%5B1080p%5D+%5BWEBRip%5D+%5B5.1%5D&tr=udp%3A%2F%2Ftracker.coppersurfer.tk%3A6969%2Fannounce&tr=udp%3A%2F%2F9.rarbg.to%3A2920%2Fannounce&tr=udp%3A%2F%2Ftracker.opentrackr.org%3A1337&tr=udp%3A%2F%2Ftracker.internetwarriors.net%3A1337%2Fannounce&tr=udp%3A%2F%2Ftracker.leechers-paradise.org%3A6969%2Fannounce&tr=udp%3A%2F%2Ftracker.coppersurfer.tk%3A6969%2Fannounce&tr=udp%3A%2F%2Ftracker.pirateparty.gr%3A6969%2Fannounce&tr=udp%3A%2F%2Ftracker.cyberia.is%3A6969%2Fannounce",
        "seeder": "752",
        "leecher": "53"
    },
    {
        "rank": "52",
        "title": "The Croods A New Age (2020) [720p] [WEBRip]",
        "link": "magnet:?xt=urn:btih:D0C9A780AFDB1DBDD12217EB5EC86152A92F0B2A&dn=The+Croods+A+New+Age+%282020%29+%5B720p%5D+%5BWEBRip%5D&tr=udp%3A%2F%2Ftracker.coppersurfer.tk%3A6969%2Fannounce&tr=udp%3A%2F%2F9.rarbg.to%3A2920%2Fannounce&tr=udp%3A%2F%2Ftracker.opentrackr.org%3A1337&tr=udp%3A%2F%2Ftracker.internetwarriors.net%3A1337%2Fannounce&tr=udp%3A%2F%2Ftracker.leechers-paradise.org%3A6969%2Fannounce&tr=udp%3A%2F%2Ftracker.coppersurfer.tk%3A6969%2Fannounce&tr=udp%3A%2F%2Ftracker.pirateparty.gr%3A6969%2Fannounce&tr=udp%3A%2F%2Ftracker.cyberia.is%3A6969%2Fannounce",
        "seeder": "746",
        "leecher": "102"
    },
    {
        "rank": "53",
        "title": "Promising.Young.Woman.2020.1080p.AMZN.WEBRip.AAC5.1.x264-Rapta",
        "link": "magnet:?xt=urn:btih:1737DB5C5268463C9DD7692E16EF7CDD4AA69266&dn=Promising.Young.Woman.2020.1080p.AMZN.WEBRip.AAC5.1.x264-Rapta&tr=udp%3A%2F%2Ftracker.coppersurfer.tk%3A6969%2Fannounce&tr=udp%3A%2F%2F9.rarbg.to%3A2920%2Fannounce&tr=udp%3A%2F%2Ftracker.opentrackr.org%3A1337&tr=udp%3A%2F%2Ftracker.internetwarriors.net%3A1337%2Fannounce&tr=udp%3A%2F%2Ftracker.leechers-paradise.org%3A6969%2Fannounce&tr=udp%3A%2F%2Ftracker.coppersurfer.tk%3A6969%2Fannounce&tr=udp%3A%2F%2Ftracker.pirateparty.gr%3A6969%2Fannounce&tr=udp%3A%2F%2Ftracker.cyberia.is%3A6969%2Fannounce",
        "seeder": "737",
        "leecher": "267"
    },
    {
        "rank": "54",
        "title": "Borat Subsequent Moviefilm (2020) [1080p] [WEBRip] [5.1]",
        "link": "magnet:?xt=urn:btih:A49762CB37065776C2B97731554A3DC894749B59&dn=Borat+Subsequent+Moviefilm+%282020%29+%5B1080p%5D+%5BWEBRip%5D+%5B5.1%5D&tr=udp%3A%2F%2Ftracker.coppersurfer.tk%3A6969%2Fannounce&tr=udp%3A%2F%2F9.rarbg.to%3A2920%2Fannounce&tr=udp%3A%2F%2Ftracker.opentrackr.org%3A1337&tr=udp%3A%2F%2Ftracker.internetwarriors.net%3A1337%2Fannounce&tr=udp%3A%2F%2Ftracker.leechers-paradise.org%3A6969%2Fannounce&tr=udp%3A%2F%2Ftracker.coppersurfer.tk%3A6969%2Fannounce&tr=udp%3A%2F%2Ftracker.pirateparty.gr%3A6969%2Fannounce&tr=udp%3A%2F%2Ftracker.cyberia.is%3A6969%2Fannounce",
        "seeder": "723",
        "leecher": "96"
    },
    {
        "rank": "55",
        "title": "Home Alone (1990) 1080p BrRip x264 - YIFY",
        "link": "magnet:?xt=urn:btih:5FEFAC61C0F42FFC43946B3379A540D1A38F6480&dn=Home+Alone+%281990%29+1080p+BrRip+x264+-+YIFY&tr=udp%3A%2F%2Ftracker.coppersurfer.tk%3A6969%2Fannounce&tr=udp%3A%2F%2F9.rarbg.to%3A2920%2Fannounce&tr=udp%3A%2F%2Ftracker.opentrackr.org%3A1337&tr=udp%3A%2F%2Ftracker.internetwarriors.net%3A1337%2Fannounce&tr=udp%3A%2F%2Ftracker.leechers-paradise.org%3A6969%2Fannounce&tr=udp%3A%2F%2Ftracker.coppersurfer.tk%3A6969%2Fannounce&tr=udp%3A%2F%2Ftracker.pirateparty.gr%3A6969%2Fannounce&tr=udp%3A%2F%2Ftracker.cyberia.is%3A6969%2Fannounce",
        "seeder": "720",
        "leecher": "243"
    },
    {
        "rank": "56",
        "title": "Wonder Woman 1984 (2020) [720p] [BluRay]",
        "link": "magnet:?xt=urn:btih:DE2BC06DFD5657325638C77CCE4CC1BA7A247524&dn=Wonder+Woman+1984+%282020%29+%5B720p%5D+%5BBluRay%5D&tr=udp%3A%2F%2Ftracker.coppersurfer.tk%3A6969%2Fannounce&tr=udp%3A%2F%2F9.rarbg.to%3A2920%2Fannounce&tr=udp%3A%2F%2Ftracker.opentrackr.org%3A1337&tr=udp%3A%2F%2Ftracker.internetwarriors.net%3A1337%2Fannounce&tr=udp%3A%2F%2Ftracker.leechers-paradise.org%3A6969%2Fannounce&tr=udp%3A%2F%2Ftracker.coppersurfer.tk%3A6969%2Fannounce&tr=udp%3A%2F%2Ftracker.pirateparty.gr%3A6969%2Fannounce&tr=udp%3A%2F%2Ftracker.cyberia.is%3A6969%2Fannounce",
        "seeder": "713",
        "leecher": "146"
    },
    {
        "rank": "57",
        "title": "Love and Monsters (2020) [1080p] [WEBRip] [5.1]",
        "link": "magnet:?xt=urn:btih:22BBE090578E24C53ED0686FD3B919947563D555&dn=Love+and+Monsters+%282020%29+%5B1080p%5D+%5BWEBRip%5D+%5B5.1%5D&tr=udp%3A%2F%2Ftracker.coppersurfer.tk%3A6969%2Fannounce&tr=udp%3A%2F%2F9.rarbg.to%3A2920%2Fannounce&tr=udp%3A%2F%2Ftracker.opentrackr.org%3A1337&tr=udp%3A%2F%2Ftracker.internetwarriors.net%3A1337%2Fannounce&tr=udp%3A%2F%2Ftracker.leechers-paradise.org%3A6969%2Fannounce&tr=udp%3A%2F%2Ftracker.coppersurfer.tk%3A6969%2Fannounce&tr=udp%3A%2F%2Ftracker.pirateparty.gr%3A6969%2Fannounce&tr=udp%3A%2F%2Ftracker.cyberia.is%3A6969%2Fannounce",
        "seeder": "677",
        "leecher": "58"
    },
    {
        "rank": "58",
        "title": "Nomadland.2020.1080p.WEBSCR.DD2.0.x264-NOGRP",
        "link": "magnet:?xt=urn:btih:2DE7DF066FA639669F1E877CE49E65ED5F1E6D94&dn=Nomadland.2020.1080p.WEBSCR.DD2.0.x264-NOGRP&tr=udp%3A%2F%2Ftracker.coppersurfer.tk%3A6969%2Fannounce&tr=udp%3A%2F%2F9.rarbg.to%3A2920%2Fannounce&tr=udp%3A%2F%2Ftracker.opentrackr.org%3A1337&tr=udp%3A%2F%2Ftracker.internetwarriors.net%3A1337%2Fannounce&tr=udp%3A%2F%2Ftracker.leechers-paradise.org%3A6969%2Fannounce&tr=udp%3A%2F%2Ftracker.coppersurfer.tk%3A6969%2Fannounce&tr=udp%3A%2F%2Ftracker.pirateparty.gr%3A6969%2Fannounce&tr=udp%3A%2F%2Ftracker.cyberia.is%3A6969%2Fannounce",
        "seeder": "676",
        "leecher": "362"
    },
    {
        "rank": "59",
        "title": "Godzilla.King.Of.The.Monsters.2019.1080p.WEBRip.x264-MP4",
        "link": "magnet:?xt=urn:btih:DF60E25EC380D66185A9D628E85B0AD8B9A6FAB9&dn=Godzilla.King.Of.The.Monsters.2019.1080p.WEBRip.x264-MP4&tr=udp%3A%2F%2Ftracker.coppersurfer.tk%3A6969%2Fannounce&tr=udp%3A%2F%2F9.rarbg.to%3A2920%2Fannounce&tr=udp%3A%2F%2Ftracker.opentrackr.org%3A1337&tr=udp%3A%2F%2Ftracker.internetwarriors.net%3A1337%2Fannounce&tr=udp%3A%2F%2Ftracker.leechers-paradise.org%3A6969%2Fannounce&tr=udp%3A%2F%2Ftracker.coppersurfer.tk%3A6969%2Fannounce&tr=udp%3A%2F%2Ftracker.pirateparty.gr%3A6969%2Fannounce&tr=udp%3A%2F%2Ftracker.cyberia.is%3A6969%2Fannounce",
        "seeder": "672",
        "leecher": "241"
    },
    {
        "rank": "60",
        "title": "Knives.Out.2019.1080p.BRRip.x264.AAC5.1-MP4",
        "link": "magnet:?xt=urn:btih:3B2694FB0E0BB41D7FB92C79D7D0CC7B90543A13&dn=Knives.Out.2019.1080p.BRRip.x264.AAC5.1-MP4&tr=udp%3A%2F%2Ftracker.coppersurfer.tk%3A6969%2Fannounce&tr=udp%3A%2F%2F9.rarbg.to%3A2920%2Fannounce&tr=udp%3A%2F%2Ftracker.opentrackr.org%3A1337&tr=udp%3A%2F%2Ftracker.internetwarriors.net%3A1337%2Fannounce&tr=udp%3A%2F%2Ftracker.leechers-paradise.org%3A6969%2Fannounce&tr=udp%3A%2F%2Ftracker.coppersurfer.tk%3A6969%2Fannounce&tr=udp%3A%2F%2Ftracker.pirateparty.gr%3A6969%2Fannounce&tr=udp%3A%2F%2Ftracker.cyberia.is%3A6969%2Fannounce",
        "seeder": "668",
        "leecher": "68"
    },
    {
        "rank": "61",
        "title": "Take.Back.2021.720p.WEBRip.800MB.x264-GalaxyRG",
        "link": "magnet:?xt=urn:btih:249FD4903528F85C0F75C63EE7576B37897737FA&dn=Take.Back.2021.720p.WEBRip.800MB.x264-GalaxyRG&tr=udp%3A%2F%2Ftracker.coppersurfer.tk%3A6969%2Fannounce&tr=udp%3A%2F%2F9.rarbg.to%3A2920%2Fannounce&tr=udp%3A%2F%2Ftracker.opentrackr.org%3A1337&tr=udp%3A%2F%2Ftracker.internetwarriors.net%3A1337%2Fannounce&tr=udp%3A%2F%2Ftracker.leechers-paradise.org%3A6969%2Fannounce&tr=udp%3A%2F%2Ftracker.coppersurfer.tk%3A6969%2Fannounce&tr=udp%3A%2F%2Ftracker.pirateparty.gr%3A6969%2Fannounce&tr=udp%3A%2F%2Ftracker.cyberia.is%3A6969%2Fannounce",
        "seeder": "665",
        "leecher": "77"
    },
    {
        "rank": "62",
        "title": "Minari.2021.1080p.WEB-DL.X264.AC3-EVO[TGx]",
        "link": "magnet:?xt=urn:btih:AEC71E9A5CC8F5BC27C05DBDCEEB75889B4D7182&dn=Minari.2021.1080p.WEB-DL.X264.AC3-EVO%5BTGx%5D&tr=udp%3A%2F%2Ftracker.coppersurfer.tk%3A6969%2Fannounce&tr=udp%3A%2F%2F9.rarbg.to%3A2920%2Fannounce&tr=udp%3A%2F%2Ftracker.opentrackr.org%3A1337&tr=udp%3A%2F%2Ftracker.internetwarriors.net%3A1337%2Fannounce&tr=udp%3A%2F%2Ftracker.leechers-paradise.org%3A6969%2Fannounce&tr=udp%3A%2F%2Ftracker.coppersurfer.tk%3A6969%2Fannounce&tr=udp%3A%2F%2Ftracker.pirateparty.gr%3A6969%2Fannounce&tr=udp%3A%2F%2Ftracker.cyberia.is%3A6969%2Fannounce",
        "seeder": "662",
        "leecher": "175"
    },
    {
        "rank": "63",
        "title": "The Witches (2020) [1080p] [WEBRip] [5.1]",
        "link": "magnet:?xt=urn:btih:DD45D797D4180B49A92B1A7AE57A77504816A8DF&dn=The+Witches+%282020%29+%5B1080p%5D+%5BWEBRip%5D+%5B5.1%5D&tr=udp%3A%2F%2Ftracker.coppersurfer.tk%3A6969%2Fannounce&tr=udp%3A%2F%2F9.rarbg.to%3A2920%2Fannounce&tr=udp%3A%2F%2Ftracker.opentrackr.org%3A1337&tr=udp%3A%2F%2Ftracker.internetwarriors.net%3A1337%2Fannounce&tr=udp%3A%2F%2Ftracker.leechers-paradise.org%3A6969%2Fannounce&tr=udp%3A%2F%2Ftracker.coppersurfer.tk%3A6969%2Fannounce&tr=udp%3A%2F%2Ftracker.pirateparty.gr%3A6969%2Fannounce&tr=udp%3A%2F%2Ftracker.cyberia.is%3A6969%2Fannounce",
        "seeder": "660",
        "leecher": "82"
    },
    {
        "rank": "64",
        "title": "Once.Upon.a.Time.in.Hollywood.2019.1080p.BRRip.x264-MP4",
        "link": "magnet:?xt=urn:btih:2B68B4DFEE0D1CC403D6B5B7A08E745FA45CB603&dn=Once.Upon.a.Time.in.Hollywood.2019.1080p.BRRip.x264-MP4&tr=udp%3A%2F%2Ftracker.coppersurfer.tk%3A6969%2Fannounce&tr=udp%3A%2F%2F9.rarbg.to%3A2920%2Fannounce&tr=udp%3A%2F%2Ftracker.opentrackr.org%3A1337&tr=udp%3A%2F%2Ftracker.internetwarriors.net%3A1337%2Fannounce&tr=udp%3A%2F%2Ftracker.leechers-paradise.org%3A6969%2Fannounce&tr=udp%3A%2F%2Ftracker.coppersurfer.tk%3A6969%2Fannounce&tr=udp%3A%2F%2Ftracker.pirateparty.gr%3A6969%2Fannounce&tr=udp%3A%2F%2Ftracker.cyberia.is%3A6969%2Fannounce",
        "seeder": "655",
        "leecher": "69"
    },
    {
        "rank": "65",
        "title": "Every.Breath.You.Take.2021.720p.WEBRip.800MB.x264-GalaxyRG",
        "link": "magnet:?xt=urn:btih:8F7F24C4721D9AED9AD79DFCFEC5DAACC6EF5155&dn=Every.Breath.You.Take.2021.720p.WEBRip.800MB.x264-GalaxyRG&tr=udp%3A%2F%2Ftracker.coppersurfer.tk%3A6969%2Fannounce&tr=udp%3A%2F%2F9.rarbg.to%3A2920%2Fannounce&tr=udp%3A%2F%2Ftracker.opentrackr.org%3A1337&tr=udp%3A%2F%2Ftracker.internetwarriors.net%3A1337%2Fannounce&tr=udp%3A%2F%2Ftracker.leechers-paradise.org%3A6969%2Fannounce&tr=udp%3A%2F%2Ftracker.coppersurfer.tk%3A6969%2Fannounce&tr=udp%3A%2F%2Ftracker.pirateparty.gr%3A6969%2Fannounce&tr=udp%3A%2F%2Ftracker.cyberia.is%3A6969%2Fannounce",
        "seeder": "620",
        "leecher": "159"
    },
    {
        "rank": "66",
        "title": "Soul (2020) [720p] [BluRay]",
        "link": "magnet:?xt=urn:btih:298A20DFC24855D3D1B366F25BDF247A0AF160D3&dn=Soul+%282020%29+%5B720p%5D+%5BBluRay%5D&tr=udp%3A%2F%2Ftracker.coppersurfer.tk%3A6969%2Fannounce&tr=udp%3A%2F%2F9.rarbg.to%3A2920%2Fannounce&tr=udp%3A%2F%2Ftracker.opentrackr.org%3A1337&tr=udp%3A%2F%2Ftracker.internetwarriors.net%3A1337%2Fannounce&tr=udp%3A%2F%2Ftracker.leechers-paradise.org%3A6969%2Fannounce&tr=udp%3A%2F%2Ftracker.coppersurfer.tk%3A6969%2Fannounce&tr=udp%3A%2F%2Ftracker.pirateparty.gr%3A6969%2Fannounce&tr=udp%3A%2F%2Ftracker.cyberia.is%3A6969%2Fannounce",
        "seeder": "613",
        "leecher": "48"
    },
    {
        "rank": "67",
        "title": "Harry Potter and the Chamber of Secrets (2002) 1080p BrRip x264",
        "link": "magnet:?xt=urn:btih:8D172817F4B39A12B07F64DFA2F3544B89772635&dn=Harry+Potter+and+the+Chamber+of+Secrets+%282002%29+1080p+BrRip+x264&tr=udp%3A%2F%2Ftracker.coppersurfer.tk%3A6969%2Fannounce&tr=udp%3A%2F%2F9.rarbg.to%3A2920%2Fannounce&tr=udp%3A%2F%2Ftracker.opentrackr.org%3A1337&tr=udp%3A%2F%2Ftracker.internetwarriors.net%3A1337%2Fannounce&tr=udp%3A%2F%2Ftracker.leechers-paradise.org%3A6969%2Fannounce&tr=udp%3A%2F%2Ftracker.coppersurfer.tk%3A6969%2Fannounce&tr=udp%3A%2F%2Ftracker.pirateparty.gr%3A6969%2Fannounce&tr=udp%3A%2F%2Ftracker.cyberia.is%3A6969%2Fannounce",
        "seeder": "605",
        "leecher": "157"
    },
    {
        "rank": "68",
        "title": "Way.Down.2021.720p.WEBRip.800MB.x264-GalaxyRG",
        "link": "magnet:?xt=urn:btih:4C868A02FE966A53F818E36B254F3C40959C0315&dn=Way.Down.2021.720p.WEBRip.800MB.x264-GalaxyRG&tr=udp%3A%2F%2Ftracker.coppersurfer.tk%3A6969%2Fannounce&tr=udp%3A%2F%2F9.rarbg.to%3A2920%2Fannounce&tr=udp%3A%2F%2Ftracker.opentrackr.org%3A1337&tr=udp%3A%2F%2Ftracker.internetwarriors.net%3A1337%2Fannounce&tr=udp%3A%2F%2Ftracker.leechers-paradise.org%3A6969%2Fannounce&tr=udp%3A%2F%2Ftracker.coppersurfer.tk%3A6969%2Fannounce&tr=udp%3A%2F%2Ftracker.pirateparty.gr%3A6969%2Fannounce&tr=udp%3A%2F%2Ftracker.cyberia.is%3A6969%2Fannounce",
        "seeder": "603",
        "leecher": "87"
    },
    {
        "rank": "69",
        "title": "Hamilton (2020) [1080p] [WEBRip] [5.1]",
        "link": "magnet:?xt=urn:btih:C0374D3C5C40E8FBBA43EB6DA676A301A9E83E80&dn=Hamilton+%282020%29+%5B1080p%5D+%5BWEBRip%5D+%5B5.1%5D&tr=udp%3A%2F%2Ftracker.coppersurfer.tk%3A6969%2Fannounce&tr=udp%3A%2F%2F9.rarbg.to%3A2920%2Fannounce&tr=udp%3A%2F%2Ftracker.opentrackr.org%3A1337&tr=udp%3A%2F%2Ftracker.internetwarriors.net%3A1337%2Fannounce&tr=udp%3A%2F%2Ftracker.leechers-paradise.org%3A6969%2Fannounce&tr=udp%3A%2F%2Ftracker.coppersurfer.tk%3A6969%2Fannounce&tr=udp%3A%2F%2Ftracker.pirateparty.gr%3A6969%2Fannounce&tr=udp%3A%2F%2Ftracker.cyberia.is%3A6969%2Fannounce",
        "seeder": "603",
        "leecher": "40"
    },
    {
        "rank": "70",
        "title": "The.Mauritanian.2021.720p.WEBRip.800MB.x264-GalaxyRG",
        "link": "magnet:?xt=urn:btih:12C522C07AB965BE0A73FB357BF0CCEFF58FFC32&dn=The.Mauritanian.2021.720p.WEBRip.800MB.x264-GalaxyRG&tr=udp%3A%2F%2Ftracker.coppersurfer.tk%3A6969%2Fannounce&tr=udp%3A%2F%2F9.rarbg.to%3A2920%2Fannounce&tr=udp%3A%2F%2Ftracker.opentrackr.org%3A1337&tr=udp%3A%2F%2Ftracker.internetwarriors.net%3A1337%2Fannounce&tr=udp%3A%2F%2Ftracker.leechers-paradise.org%3A6969%2Fannounce&tr=udp%3A%2F%2Ftracker.coppersurfer.tk%3A6969%2Fannounce&tr=udp%3A%2F%2Ftracker.pirateparty.gr%3A6969%2Fannounce&tr=udp%3A%2F%2Ftracker.cyberia.is%3A6969%2Fannounce",
        "seeder": "597",
        "leecher": "70"
    },
    {
        "rank": "71",
        "title": "Tenet.2020.1080p.HDRip.X264.AC3-EVO",
        "link": "magnet:?xt=urn:btih:7759B7A53A7A4FD47185CA303F9BA2096A08A33A&dn=Tenet.2020.1080p.HDRip.X264.AC3-EVO&tr=udp%3A%2F%2Ftracker.coppersurfer.tk%3A6969%2Fannounce&tr=udp%3A%2F%2F9.rarbg.to%3A2920%2Fannounce&tr=udp%3A%2F%2Ftracker.opentrackr.org%3A1337&tr=udp%3A%2F%2Ftracker.internetwarriors.net%3A1337%2Fannounce&tr=udp%3A%2F%2Ftracker.leechers-paradise.org%3A6969%2Fannounce&tr=udp%3A%2F%2Ftracker.coppersurfer.tk%3A6969%2Fannounce&tr=udp%3A%2F%2Ftracker.pirateparty.gr%3A6969%2Fannounce&tr=udp%3A%2F%2Ftracker.cyberia.is%3A6969%2Fannounce",
        "seeder": "590",
        "leecher": "22"
    },
    {
        "rank": "72",
        "title": "The New Mutants (2020) [1080p] [BluRay] [5.1]",
        "link": "magnet:?xt=urn:btih:E2EE80A5CBED2A6C23BFCA52F0379586EDA1B06B&dn=The+New+Mutants+%282020%29+%5B1080p%5D+%5BBluRay%5D+%5B5.1%5D&tr=udp%3A%2F%2Ftracker.coppersurfer.tk%3A6969%2Fannounce&tr=udp%3A%2F%2F9.rarbg.to%3A2920%2Fannounce&tr=udp%3A%2F%2Ftracker.opentrackr.org%3A1337&tr=udp%3A%2F%2Ftracker.internetwarriors.net%3A1337%2Fannounce&tr=udp%3A%2F%2Ftracker.leechers-paradise.org%3A6969%2Fannounce&tr=udp%3A%2F%2Ftracker.coppersurfer.tk%3A6969%2Fannounce&tr=udp%3A%2F%2Ftracker.pirateparty.gr%3A6969%2Fannounce&tr=udp%3A%2F%2Ftracker.cyberia.is%3A6969%2Fannounce",
        "seeder": "588",
        "leecher": "68"
    },
    {
        "rank": "73",
        "title": "Harry Potter and the Goblet of Fire (2005) 1080p BrRip x264 - 2.",
        "link": "magnet:?xt=urn:btih:196CFBE40F9AFA8866681AD5E73D159F50C580AA&dn=Harry+Potter+and+the+Goblet+of+Fire+%282005%29+1080p+BrRip+x264+-+2.&tr=udp%3A%2F%2Ftracker.coppersurfer.tk%3A6969%2Fannounce&tr=udp%3A%2F%2F9.rarbg.to%3A2920%2Fannounce&tr=udp%3A%2F%2Ftracker.opentrackr.org%3A1337&tr=udp%3A%2F%2Ftracker.internetwarriors.net%3A1337%2Fannounce&tr=udp%3A%2F%2Ftracker.leechers-paradise.org%3A6969%2Fannounce&tr=udp%3A%2F%2Ftracker.coppersurfer.tk%3A6969%2Fannounce&tr=udp%3A%2F%2Ftracker.pirateparty.gr%3A6969%2Fannounce&tr=udp%3A%2F%2Ftracker.cyberia.is%3A6969%2Fannounce",
        "seeder": "588",
        "leecher": "137"
    },
    {
        "rank": "74",
        "title": "Harry Potter and the Sorcerers Stone (2001) 1080p BrRip x264 - 1",
        "link": "magnet:?xt=urn:btih:B47882A62EEDEC7767AA86B7A866F1DD846C5357&dn=Harry+Potter+and+the+Sorcerers+Stone+%282001%29+1080p+BrRip+x264+-+1&tr=udp%3A%2F%2Ftracker.coppersurfer.tk%3A6969%2Fannounce&tr=udp%3A%2F%2F9.rarbg.to%3A2920%2Fannounce&tr=udp%3A%2F%2Ftracker.opentrackr.org%3A1337&tr=udp%3A%2F%2Ftracker.internetwarriors.net%3A1337%2Fannounce&tr=udp%3A%2F%2Ftracker.leechers-paradise.org%3A6969%2Fannounce&tr=udp%3A%2F%2Ftracker.coppersurfer.tk%3A6969%2Fannounce&tr=udp%3A%2F%2Ftracker.pirateparty.gr%3A6969%2Fannounce&tr=udp%3A%2F%2Ftracker.cyberia.is%3A6969%2Fannounce",
        "seeder": "579",
        "leecher": "173"
    },
    {
        "rank": "75",
        "title": "Harry Potter and the Order of the Phoenix (2007) 1080p BrRip x26",
        "link": "magnet:?xt=urn:btih:47B8246D2245615B754CC2F023F3AC646B9DEE6F&dn=Harry+Potter+and+the+Order+of+the+Phoenix+%282007%29+1080p+BrRip+x26&tr=udp%3A%2F%2Ftracker.coppersurfer.tk%3A6969%2Fannounce&tr=udp%3A%2F%2F9.rarbg.to%3A2920%2Fannounce&tr=udp%3A%2F%2Ftracker.opentrackr.org%3A1337&tr=udp%3A%2F%2Ftracker.internetwarriors.net%3A1337%2Fannounce&tr=udp%3A%2F%2Ftracker.leechers-paradise.org%3A6969%2Fannounce&tr=udp%3A%2F%2Ftracker.coppersurfer.tk%3A6969%2Fannounce&tr=udp%3A%2F%2Ftracker.pirateparty.gr%3A6969%2Fannounce&tr=udp%3A%2F%2Ftracker.cyberia.is%3A6969%2Fannounce",
        "seeder": "576",
        "leecher": "127"
    },
    {
        "rank": "76",
        "title": "SAS.Red.Notice.2021.720p.HDRip.800MB.x264-GalaxyRG",
        "link": "magnet:?xt=urn:btih:F6646E00E519E9DB90D2D7511354A57FB6D3B5E2&dn=SAS.Red.Notice.2021.720p.HDRip.800MB.x264-GalaxyRG&tr=udp%3A%2F%2Ftracker.coppersurfer.tk%3A6969%2Fannounce&tr=udp%3A%2F%2F9.rarbg.to%3A2920%2Fannounce&tr=udp%3A%2F%2Ftracker.opentrackr.org%3A1337&tr=udp%3A%2F%2Ftracker.internetwarriors.net%3A1337%2Fannounce&tr=udp%3A%2F%2Ftracker.leechers-paradise.org%3A6969%2Fannounce&tr=udp%3A%2F%2Ftracker.coppersurfer.tk%3A6969%2Fannounce&tr=udp%3A%2F%2Ftracker.pirateparty.gr%3A6969%2Fannounce&tr=udp%3A%2F%2Ftracker.cyberia.is%3A6969%2Fannounce",
        "seeder": "575",
        "leecher": "29"
    },
    {
        "rank": "77",
        "title": "Mulan (2020) [720p] [WEBRip]",
        "link": "magnet:?xt=urn:btih:C57CCE48819E127D8542EADB5314215D0376BF8A&dn=Mulan+%282020%29+%5B720p%5D+%5BWEBRip%5D&tr=udp%3A%2F%2Ftracker.coppersurfer.tk%3A6969%2Fannounce&tr=udp%3A%2F%2F9.rarbg.to%3A2920%2Fannounce&tr=udp%3A%2F%2Ftracker.opentrackr.org%3A1337&tr=udp%3A%2F%2Ftracker.internetwarriors.net%3A1337%2Fannounce&tr=udp%3A%2F%2Ftracker.leechers-paradise.org%3A6969%2Fannounce&tr=udp%3A%2F%2Ftracker.coppersurfer.tk%3A6969%2Fannounce&tr=udp%3A%2F%2Ftracker.pirateparty.gr%3A6969%2Fannounce&tr=udp%3A%2F%2Ftracker.cyberia.is%3A6969%2Fannounce",
        "seeder": "574",
        "leecher": "30"
    },
    {
        "rank": "78",
        "title": "Spider.Man.Far.From.Home.2019.1080p.BRRip.x264-MP4",
        "link": "magnet:?xt=urn:btih:510AADAA88CA9473470CA31C7696977C5BE57DEF&dn=Spider.Man.Far.From.Home.2019.1080p.BRRip.x264-MP4&tr=udp%3A%2F%2Ftracker.coppersurfer.tk%3A6969%2Fannounce&tr=udp%3A%2F%2F9.rarbg.to%3A2920%2Fannounce&tr=udp%3A%2F%2Ftracker.opentrackr.org%3A1337&tr=udp%3A%2F%2Ftracker.internetwarriors.net%3A1337%2Fannounce&tr=udp%3A%2F%2Ftracker.leechers-paradise.org%3A6969%2Fannounce&tr=udp%3A%2F%2Ftracker.coppersurfer.tk%3A6969%2Fannounce&tr=udp%3A%2F%2Ftracker.pirateparty.gr%3A6969%2Fannounce&tr=udp%3A%2F%2Ftracker.cyberia.is%3A6969%2Fannounce",
        "seeder": "568",
        "leecher": "143"
    },
    {
        "rank": "79",
        "title": "Harry Potter and the Half Blood Prince (2009) 1080p BrRip x264 -",
        "link": "magnet:?xt=urn:btih:661F29D8B536AE69919BC96FAFFF553D4A698460&dn=Harry+Potter+and+the+Half+Blood+Prince+%282009%29+1080p+BrRip+x264+-&tr=udp%3A%2F%2Ftracker.coppersurfer.tk%3A6969%2Fannounce&tr=udp%3A%2F%2F9.rarbg.to%3A2920%2Fannounce&tr=udp%3A%2F%2Ftracker.opentrackr.org%3A1337&tr=udp%3A%2F%2Ftracker.internetwarriors.net%3A1337%2Fannounce&tr=udp%3A%2F%2Ftracker.leechers-paradise.org%3A6969%2Fannounce&tr=udp%3A%2F%2Ftracker.coppersurfer.tk%3A6969%2Fannounce&tr=udp%3A%2F%2Ftracker.pirateparty.gr%3A6969%2Fannounce&tr=udp%3A%2F%2Ftracker.cyberia.is%3A6969%2Fannounce",
        "seeder": "564",
        "leecher": "162"
    },
    {
        "rank": "80",
        "title": "Concrete.Cowboy.2021.720p.WEBRip.800MB.x264-GalaxyRG",
        "link": "magnet:?xt=urn:btih:096BBA02FC0240FB92FDC622D054B4A9830915D4&dn=Concrete.Cowboy.2021.720p.WEBRip.800MB.x264-GalaxyRG&tr=udp%3A%2F%2Ftracker.coppersurfer.tk%3A6969%2Fannounce&tr=udp%3A%2F%2F9.rarbg.to%3A2920%2Fannounce&tr=udp%3A%2F%2Ftracker.opentrackr.org%3A1337&tr=udp%3A%2F%2Ftracker.internetwarriors.net%3A1337%2Fannounce&tr=udp%3A%2F%2Ftracker.leechers-paradise.org%3A6969%2Fannounce&tr=udp%3A%2F%2Ftracker.coppersurfer.tk%3A6969%2Fannounce&tr=udp%3A%2F%2Ftracker.pirateparty.gr%3A6969%2Fannounce&tr=udp%3A%2F%2Ftracker.cyberia.is%3A6969%2Fannounce",
        "seeder": "563",
        "leecher": "192"
    },
    {
        "rank": "81",
        "title": "Honest Thief (2020) [720p] [BluRay]",
        "link": "magnet:?xt=urn:btih:CD067A59D4824763859B15AEBEA85A849F3CDC08&dn=Honest+Thief+%282020%29+%5B720p%5D+%5BBluRay%5D&tr=udp%3A%2F%2Ftracker.coppersurfer.tk%3A6969%2Fannounce&tr=udp%3A%2F%2F9.rarbg.to%3A2920%2Fannounce&tr=udp%3A%2F%2Ftracker.opentrackr.org%3A1337&tr=udp%3A%2F%2Ftracker.internetwarriors.net%3A1337%2Fannounce&tr=udp%3A%2F%2Ftracker.leechers-paradise.org%3A6969%2Fannounce&tr=udp%3A%2F%2Ftracker.coppersurfer.tk%3A6969%2Fannounce&tr=udp%3A%2F%2Ftracker.pirateparty.gr%3A6969%2Fannounce&tr=udp%3A%2F%2Ftracker.cyberia.is%3A6969%2Fannounce",
        "seeder": "560",
        "leecher": "117"
    },
    {
        "rank": "82",
        "title": "Palm Springs (2020) [1080p] [WEBRip] [5.1]",
        "link": "magnet:?xt=urn:btih:A6F2C735533600DF4425E279C828B4B30F01E1E9&dn=Palm+Springs+%282020%29+%5B1080p%5D+%5BWEBRip%5D+%5B5.1%5D&tr=udp%3A%2F%2Ftracker.coppersurfer.tk%3A6969%2Fannounce&tr=udp%3A%2F%2F9.rarbg.to%3A2920%2Fannounce&tr=udp%3A%2F%2Ftracker.opentrackr.org%3A1337&tr=udp%3A%2F%2Ftracker.internetwarriors.net%3A1337%2Fannounce&tr=udp%3A%2F%2Ftracker.leechers-paradise.org%3A6969%2Fannounce&tr=udp%3A%2F%2Ftracker.coppersurfer.tk%3A6969%2Fannounce&tr=udp%3A%2F%2Ftracker.pirateparty.gr%3A6969%2Fannounce&tr=udp%3A%2F%2Ftracker.cyberia.is%3A6969%2Fannounce",
        "seeder": "552",
        "leecher": "97"
    },
    {
        "rank": "83",
        "title": "Avengers.Infinity.War.2018.1080p.BRRip.x264-MP4",
        "link": "magnet:?xt=urn:btih:866BDCFA006930A718ADBC21D8CAE1F2C7F9D8B3&dn=Avengers.Infinity.War.2018.1080p.BRRip.x264-MP4&tr=udp%3A%2F%2Ftracker.coppersurfer.tk%3A6969%2Fannounce&tr=udp%3A%2F%2F9.rarbg.to%3A2920%2Fannounce&tr=udp%3A%2F%2Ftracker.opentrackr.org%3A1337&tr=udp%3A%2F%2Ftracker.internetwarriors.net%3A1337%2Fannounce&tr=udp%3A%2F%2Ftracker.leechers-paradise.org%3A6969%2Fannounce&tr=udp%3A%2F%2Ftracker.coppersurfer.tk%3A6969%2Fannounce&tr=udp%3A%2F%2Ftracker.pirateparty.gr%3A6969%2Fannounce&tr=udp%3A%2F%2Ftracker.cyberia.is%3A6969%2Fannounce",
        "seeder": "552",
        "leecher": "53"
    },
    {
        "rank": "84",
        "title": "The.Father.2021.REPACK.720p.WEBRip.800MB.x264-GalaxyRG",
        "link": "magnet:?xt=urn:btih:659C7AEF8AA2DD17BEEB6BFB780BB533D2BD7417&dn=The.Father.2021.REPACK.720p.WEBRip.800MB.x264-GalaxyRG&tr=udp%3A%2F%2Ftracker.coppersurfer.tk%3A6969%2Fannounce&tr=udp%3A%2F%2F9.rarbg.to%3A2920%2Fannounce&tr=udp%3A%2F%2Ftracker.opentrackr.org%3A1337&tr=udp%3A%2F%2Ftracker.internetwarriors.net%3A1337%2Fannounce&tr=udp%3A%2F%2Ftracker.leechers-paradise.org%3A6969%2Fannounce&tr=udp%3A%2F%2Ftracker.coppersurfer.tk%3A6969%2Fannounce&tr=udp%3A%2F%2Ftracker.pirateparty.gr%3A6969%2Fannounce&tr=udp%3A%2F%2Ftracker.cyberia.is%3A6969%2Fannounce",
        "seeder": "539",
        "leecher": "114"
    },
    {
        "rank": "85",
        "title": "Bram.Stokers.Van.Helsing.2021.720p.WEBRip.800MB.x264-GalaxyRG",
        "link": "magnet:?xt=urn:btih:8405CB33CB1EECAB3171D432C73E5A678E1419C3&dn=Bram.Stokers.Van.Helsing.2021.720p.WEBRip.800MB.x264-GalaxyRG&tr=udp%3A%2F%2Ftracker.coppersurfer.tk%3A6969%2Fannounce&tr=udp%3A%2F%2F9.rarbg.to%3A2920%2Fannounce&tr=udp%3A%2F%2Ftracker.opentrackr.org%3A1337&tr=udp%3A%2F%2Ftracker.internetwarriors.net%3A1337%2Fannounce&tr=udp%3A%2F%2Ftracker.leechers-paradise.org%3A6969%2Fannounce&tr=udp%3A%2F%2Ftracker.coppersurfer.tk%3A6969%2Fannounce&tr=udp%3A%2F%2Ftracker.pirateparty.gr%3A6969%2Fannounce&tr=udp%3A%2F%2Ftracker.cyberia.is%3A6969%2Fannounce",
        "seeder": "534",
        "leecher": "73"
    },
    {
        "rank": "86",
        "title": "Godzilla.vs.Kong.2021.1080p.HMAX.WEBRip.DDP5.1.Atmos.x264-MRCS",
        "link": "magnet:?xt=urn:btih:8BFB9B2DCAFE9EFCED9FCA3232F3C25C5E989E43&dn=Godzilla.vs.Kong.2021.1080p.HMAX.WEBRip.DDP5.1.Atmos.x264-MRCS&tr=udp%3A%2F%2Ftracker.coppersurfer.tk%3A6969%2Fannounce&tr=udp%3A%2F%2F9.rarbg.to%3A2920%2Fannounce&tr=udp%3A%2F%2Ftracker.opentrackr.org%3A1337&tr=udp%3A%2F%2Ftracker.internetwarriors.net%3A1337%2Fannounce&tr=udp%3A%2F%2Ftracker.leechers-paradise.org%3A6969%2Fannounce&tr=udp%3A%2F%2Ftracker.coppersurfer.tk%3A6969%2Fannounce&tr=udp%3A%2F%2Ftracker.pirateparty.gr%3A6969%2Fannounce&tr=udp%3A%2F%2Ftracker.cyberia.is%3A6969%2Fannounce",
        "seeder": "529",
        "leecher": "774"
    },
    {
        "rank": "87",
        "title": "The Old Guard (2020) [1080p] [WEBRip] [5.1]",
        "link": "magnet:?xt=urn:btih:E9C667FBED735AD0C6602748EB5CDC7709CC42AA&dn=The+Old+Guard+%282020%29+%5B1080p%5D+%5BWEBRip%5D+%5B5.1%5D&tr=udp%3A%2F%2Ftracker.coppersurfer.tk%3A6969%2Fannounce&tr=udp%3A%2F%2F9.rarbg.to%3A2920%2Fannounce&tr=udp%3A%2F%2Ftracker.opentrackr.org%3A1337&tr=udp%3A%2F%2Ftracker.internetwarriors.net%3A1337%2Fannounce&tr=udp%3A%2F%2Ftracker.leechers-paradise.org%3A6969%2Fannounce&tr=udp%3A%2F%2Ftracker.coppersurfer.tk%3A6969%2Fannounce&tr=udp%3A%2F%2Ftracker.pirateparty.gr%3A6969%2Fannounce&tr=udp%3A%2F%2Ftracker.cyberia.is%3A6969%2Fannounce",
        "seeder": "525",
        "leecher": "64"
    },
    {
        "rank": "88",
        "title": "The Old Guard (2020) [720p] [WEBRip]",
        "link": "magnet:?xt=urn:btih:6ECBD1C6AD35857CA0ED802D7DE41C30A90920C5&dn=The+Old+Guard+%282020%29+%5B720p%5D+%5BWEBRip%5D&tr=udp%3A%2F%2Ftracker.coppersurfer.tk%3A6969%2Fannounce&tr=udp%3A%2F%2F9.rarbg.to%3A2920%2Fannounce&tr=udp%3A%2F%2Ftracker.opentrackr.org%3A1337&tr=udp%3A%2F%2Ftracker.internetwarriors.net%3A1337%2Fannounce&tr=udp%3A%2F%2Ftracker.leechers-paradise.org%3A6969%2Fannounce&tr=udp%3A%2F%2Ftracker.coppersurfer.tk%3A6969%2Fannounce&tr=udp%3A%2F%2Ftracker.pirateparty.gr%3A6969%2Fannounce&tr=udp%3A%2F%2Ftracker.cyberia.is%3A6969%2Fannounce",
        "seeder": "521",
        "leecher": "73"
    },
    {
        "rank": "89",
        "title": "Justice.League.Snyders.Cut.2021.WEBRip.720p",
        "link": "magnet:?xt=urn:btih:E8F7F17668A33452C9ACAFAB2F571F3CF45C1EC3&dn=Justice.League.Snyders.Cut.2021.WEBRip.720p&tr=udp%3A%2F%2Ftracker.coppersurfer.tk%3A6969%2Fannounce&tr=udp%3A%2F%2F9.rarbg.to%3A2920%2Fannounce&tr=udp%3A%2F%2Ftracker.opentrackr.org%3A1337&tr=udp%3A%2F%2Ftracker.internetwarriors.net%3A1337%2Fannounce&tr=udp%3A%2F%2Ftracker.leechers-paradise.org%3A6969%2Fannounce&tr=udp%3A%2F%2Ftracker.coppersurfer.tk%3A6969%2Fannounce&tr=udp%3A%2F%2Ftracker.pirateparty.gr%3A6969%2Fannounce&tr=udp%3A%2F%2Ftracker.cyberia.is%3A6969%2Fannounce",
        "seeder": "520",
        "leecher": "32"
    },
    {
        "rank": "90",
        "title": "The Mauritanian (2021) [1080p] [BluRay] [5.1]",
        "link": "magnet:?xt=urn:btih:A9D12BE8BBB0C6576F7FFBB32067E61C7A3D982A&dn=The+Mauritanian+%282021%29+%5B1080p%5D+%5BBluRay%5D+%5B5.1%5D&tr=udp%3A%2F%2Ftracker.coppersurfer.tk%3A6969%2Fannounce&tr=udp%3A%2F%2F9.rarbg.to%3A2920%2Fannounce&tr=udp%3A%2F%2Ftracker.opentrackr.org%3A1337&tr=udp%3A%2F%2Ftracker.internetwarriors.net%3A1337%2Fannounce&tr=udp%3A%2F%2Ftracker.leechers-paradise.org%3A6969%2Fannounce&tr=udp%3A%2F%2Ftracker.coppersurfer.tk%3A6969%2Fannounce&tr=udp%3A%2F%2Ftracker.pirateparty.gr%3A6969%2Fannounce&tr=udp%3A%2F%2Ftracker.cyberia.is%3A6969%2Fannounce",
        "seeder": "516",
        "leecher": "489"
    },
    {
        "rank": "91",
        "title": "I.Care.a.Lot.2020.720p.WEBRip.800MB.x264-GalaxyRG",
        "link": "magnet:?xt=urn:btih:49FB07557F3FE9C3D6DB0B0B3D1216B3742A0BD1&dn=I.Care.a.Lot.2020.720p.WEBRip.800MB.x264-GalaxyRG&tr=udp%3A%2F%2Ftracker.coppersurfer.tk%3A6969%2Fannounce&tr=udp%3A%2F%2F9.rarbg.to%3A2920%2Fannounce&tr=udp%3A%2F%2Ftracker.opentrackr.org%3A1337&tr=udp%3A%2F%2Ftracker.internetwarriors.net%3A1337%2Fannounce&tr=udp%3A%2F%2Ftracker.leechers-paradise.org%3A6969%2Fannounce&tr=udp%3A%2F%2Ftracker.coppersurfer.tk%3A6969%2Fannounce&tr=udp%3A%2F%2Ftracker.pirateparty.gr%3A6969%2Fannounce&tr=udp%3A%2F%2Ftracker.cyberia.is%3A6969%2Fannounce",
        "seeder": "497",
        "leecher": "74"
    },
    {
        "rank": "92",
        "title": "Chaos.Walking.2021.1080p.WEBRip.1400MB.DD5.1.x264-GalaxyRG",
        "link": "magnet:?xt=urn:btih:DE352A06B98C412BA7F605DD34B19414F1A40128&dn=Chaos.Walking.2021.1080p.WEBRip.1400MB.DD5.1.x264-GalaxyRG&tr=udp%3A%2F%2Ftracker.coppersurfer.tk%3A6969%2Fannounce&tr=udp%3A%2F%2F9.rarbg.to%3A2920%2Fannounce&tr=udp%3A%2F%2Ftracker.opentrackr.org%3A1337&tr=udp%3A%2F%2Ftracker.internetwarriors.net%3A1337%2Fannounce&tr=udp%3A%2F%2Ftracker.leechers-paradise.org%3A6969%2Fannounce&tr=udp%3A%2F%2Ftracker.coppersurfer.tk%3A6969%2Fannounce&tr=udp%3A%2F%2Ftracker.pirateparty.gr%3A6969%2Fannounce&tr=udp%3A%2F%2Ftracker.cyberia.is%3A6969%2Fannounce",
        "seeder": "494",
        "leecher": "107"
    },
    {
        "rank": "93",
        "title": "Boss Level (2020) [720p] [BluRay]",
        "link": "magnet:?xt=urn:btih:05328A1B83D243F90A471E531543FAC8CF300891&dn=Boss+Level+%282020%29+%5B720p%5D+%5BBluRay%5D&tr=udp%3A%2F%2Ftracker.coppersurfer.tk%3A6969%2Fannounce&tr=udp%3A%2F%2F9.rarbg.to%3A2920%2Fannounce&tr=udp%3A%2F%2Ftracker.opentrackr.org%3A1337&tr=udp%3A%2F%2Ftracker.internetwarriors.net%3A1337%2Fannounce&tr=udp%3A%2F%2Ftracker.leechers-paradise.org%3A6969%2Fannounce&tr=udp%3A%2F%2Ftracker.coppersurfer.tk%3A6969%2Fannounce&tr=udp%3A%2F%2Ftracker.pirateparty.gr%3A6969%2Fannounce&tr=udp%3A%2F%2Ftracker.cyberia.is%3A6969%2Fannounce",
        "seeder": "494",
        "leecher": "58"
    },
    {
        "rank": "94",
        "title": "Dawn.of.the.Beast.2021.720p.WEBRip.800MB.x264-GalaxyRG",
        "link": "magnet:?xt=urn:btih:124ADE194187A2F3017DCCD392426A05406BE6AD&dn=Dawn.of.the.Beast.2021.720p.WEBRip.800MB.x264-GalaxyRG&tr=udp%3A%2F%2Ftracker.coppersurfer.tk%3A6969%2Fannounce&tr=udp%3A%2F%2F9.rarbg.to%3A2920%2Fannounce&tr=udp%3A%2F%2Ftracker.opentrackr.org%3A1337&tr=udp%3A%2F%2Ftracker.internetwarriors.net%3A1337%2Fannounce&tr=udp%3A%2F%2Ftracker.leechers-paradise.org%3A6969%2Fannounce&tr=udp%3A%2F%2Ftracker.coppersurfer.tk%3A6969%2Fannounce&tr=udp%3A%2F%2Ftracker.pirateparty.gr%3A6969%2Fannounce&tr=udp%3A%2F%2Ftracker.cyberia.is%3A6969%2Fannounce",
        "seeder": "484",
        "leecher": "146"
    },
    {
        "rank": "95",
        "title": "The.Croods.A.New.Age.2020.720p.WEBRip.800MB.x264-GalaxyRG",
        "link": "magnet:?xt=urn:btih:B8097B0CFFE31D794362D1EC83D3604158908C47&dn=The.Croods.A.New.Age.2020.720p.WEBRip.800MB.x264-GalaxyRG&tr=udp%3A%2F%2Ftracker.coppersurfer.tk%3A6969%2Fannounce&tr=udp%3A%2F%2F9.rarbg.to%3A2920%2Fannounce&tr=udp%3A%2F%2Ftracker.opentrackr.org%3A1337&tr=udp%3A%2F%2Ftracker.internetwarriors.net%3A1337%2Fannounce&tr=udp%3A%2F%2Ftracker.leechers-paradise.org%3A6969%2Fannounce&tr=udp%3A%2F%2Ftracker.coppersurfer.tk%3A6969%2Fannounce&tr=udp%3A%2F%2Ftracker.pirateparty.gr%3A6969%2Fannounce&tr=udp%3A%2F%2Ftracker.cyberia.is%3A6969%2Fannounce",
        "seeder": "482",
        "leecher": "43"
    },
    {
        "rank": "96",
        "title": "Ford.V.Ferrari.2019.1080p.BRRip.x264.AAC5.1-MP4",
        "link": "magnet:?xt=urn:btih:2361C5A76F5904B6A781A8B61DE3D98F0641BBFE&dn=Ford.V.Ferrari.2019.1080p.BRRip.x264.AAC5.1-MP4&tr=udp%3A%2F%2Ftracker.coppersurfer.tk%3A6969%2Fannounce&tr=udp%3A%2F%2F9.rarbg.to%3A2920%2Fannounce&tr=udp%3A%2F%2Ftracker.opentrackr.org%3A1337&tr=udp%3A%2F%2Ftracker.internetwarriors.net%3A1337%2Fannounce&tr=udp%3A%2F%2Ftracker.leechers-paradise.org%3A6969%2Fannounce&tr=udp%3A%2F%2Ftracker.coppersurfer.tk%3A6969%2Fannounce&tr=udp%3A%2F%2Ftracker.pirateparty.gr%3A6969%2Fannounce&tr=udp%3A%2F%2Ftracker.cyberia.is%3A6969%2Fannounce",
        "seeder": "467",
        "leecher": "67"
    },
    {
        "rank": "97",
        "title": "Crisis (2021) [720p] [WEBRip]",
        "link": "magnet:?xt=urn:btih:37618A430CC6D1A373ACB3E99474CDE10F3B8D28&dn=Crisis+%282021%29+%5B720p%5D+%5BWEBRip%5D&tr=udp%3A%2F%2Ftracker.coppersurfer.tk%3A6969%2Fannounce&tr=udp%3A%2F%2F9.rarbg.to%3A2920%2Fannounce&tr=udp%3A%2F%2Ftracker.opentrackr.org%3A1337&tr=udp%3A%2F%2Ftracker.internetwarriors.net%3A1337%2Fannounce&tr=udp%3A%2F%2Ftracker.leechers-paradise.org%3A6969%2Fannounce&tr=udp%3A%2F%2Ftracker.coppersurfer.tk%3A6969%2Fannounce&tr=udp%3A%2F%2Ftracker.pirateparty.gr%3A6969%2Fannounce&tr=udp%3A%2F%2Ftracker.cyberia.is%3A6969%2Fannounce",
        "seeder": "466",
        "leecher": "34"
    },
    {
        "rank": "98",
        "title": "Secret.Magic.Control.Agency.2021.720p.WEBRip.800MB.x264-GalaxyRG",
        "link": "magnet:?xt=urn:btih:C0DA4C1B86FECAE17C260C9951384A3F9547C892&dn=Secret.Magic.Control.Agency.2021.720p.WEBRip.800MB.x264-GalaxyRG&tr=udp%3A%2F%2Ftracker.coppersurfer.tk%3A6969%2Fannounce&tr=udp%3A%2F%2F9.rarbg.to%3A2920%2Fannounce&tr=udp%3A%2F%2Ftracker.opentrackr.org%3A1337&tr=udp%3A%2F%2Ftracker.internetwarriors.net%3A1337%2Fannounce&tr=udp%3A%2F%2Ftracker.leechers-paradise.org%3A6969%2Fannounce&tr=udp%3A%2F%2Ftracker.coppersurfer.tk%3A6969%2Fannounce&tr=udp%3A%2F%2Ftracker.pirateparty.gr%3A6969%2Fannounce&tr=udp%3A%2F%2Ftracker.cyberia.is%3A6969%2Fannounce",
        "seeder": "465",
        "leecher": "56"
    },
    {
        "rank": "99",
        "title": "Parasite.2019.1080p.HDRip.X264.AC3-EVO[TGx]",
        "link": "magnet:?xt=urn:btih:CA22D8AF344FEFB24EDC6EF861A71CE71C0A50E6&dn=Parasite.2019.1080p.HDRip.X264.AC3-EVO%5BTGx%5D&tr=udp%3A%2F%2Ftracker.coppersurfer.tk%3A6969%2Fannounce&tr=udp%3A%2F%2F9.rarbg.to%3A2920%2Fannounce&tr=udp%3A%2F%2Ftracker.opentrackr.org%3A1337&tr=udp%3A%2F%2Ftracker.internetwarriors.net%3A1337%2Fannounce&tr=udp%3A%2F%2Ftracker.leechers-paradise.org%3A6969%2Fannounce&tr=udp%3A%2F%2Ftracker.coppersurfer.tk%3A6969%2Fannounce&tr=udp%3A%2F%2Ftracker.pirateparty.gr%3A6969%2Fannounce&tr=udp%3A%2F%2Ftracker.cyberia.is%3A6969%2Fannounce",
        "seeder": "462",
        "leecher": "36"
    },
    {
        "rank": "100",
        "title": "The Wolf of Wall Street (2013) 1080p BrRip x264 - YIFY",
        "link": "magnet:?xt=urn:btih:4B642D022980E5EBAA7CF4B6E1CC93769921CB42&dn=The+Wolf+of+Wall+Street+%282013%29+1080p+BrRip+x264+-+YIFY&tr=udp%3A%2F%2Ftracker.coppersurfer.tk%3A6969%2Fannounce&tr=udp%3A%2F%2F9.rarbg.to%3A2920%2Fannounce&tr=udp%3A%2F%2Ftracker.opentrackr.org%3A1337&tr=udp%3A%2F%2Ftracker.internetwarriors.net%3A1337%2Fannounce&tr=udp%3A%2F%2Ftracker.leechers-paradise.org%3A6969%2Fannounce&tr=udp%3A%2F%2Ftracker.coppersurfer.tk%3A6969%2Fannounce&tr=udp%3A%2F%2Ftracker.pirateparty.gr%3A6969%2Fannounce&tr=udp%3A%2F%2Ftracker.cyberia.is%3A6969%2Fannounce",
        "seeder": "461",
        "leecher": "74"
    }
]
