[
    {
        "rank": "1",
        "title": "The.Falcon.and.the.Winter.Soldier.S01E02.1080p.DSNP.WEB-DL.Atmos",
        "link": "magnet:?xt=urn:btih:F0C987794781F862B6B02EE824DA5F31D5D4D043&dn=The.Falcon.and.the.Winter.Soldier.S01E02.1080p.DSNP.WEB-DL.Atmos&tr=udp%3A%2F%2Ftracker.coppersurfer.tk%3A6969%2Fannounce&tr=udp%3A%2F%2F9.rarbg.to%3A2920%2Fannounce&tr=udp%3A%2F%2Ftracker.opentrackr.org%3A1337&tr=udp%3A%2F%2Ftracker.internetwarriors.net%3A1337%2Fannounce&tr=udp%3A%2F%2Ftracker.leechers-paradise.org%3A6969%2Fannounce&tr=udp%3A%2F%2Ftracker.coppersurfer.tk%3A6969%2Fannounce&tr=udp%3A%2F%2Ftracker.pirateparty.gr%3A6969%2Fannounce&tr=udp%3A%2F%2Ftracker.cyberia.is%3A6969%2Fannounce",
        "seeder": "3587",
        "leecher": "852"
    },
    {
        "rank": "2",
        "title": "The.Falcon.and.the.Winter.Soldier.S01E01.1080p.DSNP.WEB-DL.Atmos",
        "link": "magnet:?xt=urn:btih:73B5F475FDFB02122FAF67337FC05757E36C1120&dn=The.Falcon.and.the.Winter.Soldier.S01E01.1080p.DSNP.WEB-DL.Atmos&tr=udp%3A%2F%2Ftracker.coppersurfer.tk%3A6969%2Fannounce&tr=udp%3A%2F%2F9.rarbg.to%3A2920%2Fannounce&tr=udp%3A%2F%2Ftracker.opentrackr.org%3A1337&tr=udp%3A%2F%2Ftracker.internetwarriors.net%3A1337%2Fannounce&tr=udp%3A%2F%2Ftracker.leechers-paradise.org%3A6969%2Fannounce&tr=udp%3A%2F%2Ftracker.coppersurfer.tk%3A6969%2Fannounce&tr=udp%3A%2F%2Ftracker.pirateparty.gr%3A6969%2Fannounce&tr=udp%3A%2F%2Ftracker.cyberia.is%3A6969%2Fannounce",
        "seeder": "2911",
        "leecher": "1008"
    },
    {
        "rank": "3",
        "title": "The.Falcon.and.The.Winter.Soldier.S01E03.Power.Broker.1080p.DSNP",
        "link": "magnet:?xt=urn:btih:DA806EC9C3AB02DDD54669FBD4A03A4C09017C9B&dn=The.Falcon.and.The.Winter.Soldier.S01E03.Power.Broker.1080p.DSNP&tr=udp%3A%2F%2Ftracker.coppersurfer.tk%3A6969%2Fannounce&tr=udp%3A%2F%2F9.rarbg.to%3A2920%2Fannounce&tr=udp%3A%2F%2Ftracker.opentrackr.org%3A1337&tr=udp%3A%2F%2Ftracker.internetwarriors.net%3A1337%2Fannounce&tr=udp%3A%2F%2Ftracker.leechers-paradise.org%3A6969%2Fannounce&tr=udp%3A%2F%2Ftracker.coppersurfer.tk%3A6969%2Fannounce&tr=udp%3A%2F%2Ftracker.pirateparty.gr%3A6969%2Fannounce&tr=udp%3A%2F%2Ftracker.cyberia.is%3A6969%2Fannounce",
        "seeder": "2837",
        "leecher": "576"
    },
    {
        "rank": "4",
        "title": "The.Falcon.and.the.Winter.Soldier.S01E02.720p.WEBRip.x265-MiNX[T",
        "link": "magnet:?xt=urn:btih:2D016C3F4C99A329753A0B5E2E16570BB08DD0EB&dn=The.Falcon.and.the.Winter.Soldier.S01E02.720p.WEBRip.x265-MiNX%5BT&tr=udp%3A%2F%2Ftracker.coppersurfer.tk%3A6969%2Fannounce&tr=udp%3A%2F%2F9.rarbg.to%3A2920%2Fannounce&tr=udp%3A%2F%2Ftracker.opentrackr.org%3A1337&tr=udp%3A%2F%2Ftracker.internetwarriors.net%3A1337%2Fannounce&tr=udp%3A%2F%2Ftracker.leechers-paradise.org%3A6969%2Fannounce&tr=udp%3A%2F%2Ftracker.coppersurfer.tk%3A6969%2Fannounce&tr=udp%3A%2F%2Ftracker.pirateparty.gr%3A6969%2Fannounce&tr=udp%3A%2F%2Ftracker.cyberia.is%3A6969%2Fannounce",
        "seeder": "2362",
        "leecher": "554"
    },
    {
        "rank": "5",
        "title": "The.Falcon.and.The.Winter.Soldier.S01E03.720p.WEB.x265-MiNX[TGx]",
        "link": "magnet:?xt=urn:btih:F5063F8EF9167947F6478657FC86B956AADE3765&dn=The.Falcon.and.The.Winter.Soldier.S01E03.720p.WEB.x265-MiNX%5BTGx%5D&tr=udp%3A%2F%2Ftracker.coppersurfer.tk%3A6969%2Fannounce&tr=udp%3A%2F%2F9.rarbg.to%3A2920%2Fannounce&tr=udp%3A%2F%2Ftracker.opentrackr.org%3A1337&tr=udp%3A%2F%2Ftracker.internetwarriors.net%3A1337%2Fannounce&tr=udp%3A%2F%2Ftracker.leechers-paradise.org%3A6969%2Fannounce&tr=udp%3A%2F%2Ftracker.coppersurfer.tk%3A6969%2Fannounce&tr=udp%3A%2F%2Ftracker.pirateparty.gr%3A6969%2Fannounce&tr=udp%3A%2F%2Ftracker.cyberia.is%3A6969%2Fannounce",
        "seeder": "1766",
        "leecher": "388"
    },
    {
        "rank": "6",
        "title": "The.Falcon.and.the.Winter.Soldier.S01E01.720p.WEBRip.x265-MiNX[T",
        "link": "magnet:?xt=urn:btih:143E320795E72F57834ABAFF465E5229ECD3A11E&dn=The.Falcon.and.the.Winter.Soldier.S01E01.720p.WEBRip.x265-MiNX%5BT&tr=udp%3A%2F%2Ftracker.coppersurfer.tk%3A6969%2Fannounce&tr=udp%3A%2F%2F9.rarbg.to%3A2920%2Fannounce&tr=udp%3A%2F%2Ftracker.opentrackr.org%3A1337&tr=udp%3A%2F%2Ftracker.internetwarriors.net%3A1337%2Fannounce&tr=udp%3A%2F%2Ftracker.leechers-paradise.org%3A6969%2Fannounce&tr=udp%3A%2F%2Ftracker.coppersurfer.tk%3A6969%2Fannounce&tr=udp%3A%2F%2Ftracker.pirateparty.gr%3A6969%2Fannounce&tr=udp%3A%2F%2Ftracker.cyberia.is%3A6969%2Fannounce",
        "seeder": "1176",
        "leecher": "334"
    },
    {
        "rank": "7",
        "title": "WandaVision.S01E09.The.Series.Finale.1080p.DSNP.WEB-DL.DDP5.1.H.",
        "link": "magnet:?xt=urn:btih:9DF50B473D1AFB46E5735651838A01F05BF5187B&dn=WandaVision.S01E09.The.Series.Finale.1080p.DSNP.WEB-DL.DDP5.1.H.&tr=udp%3A%2F%2Ftracker.coppersurfer.tk%3A6969%2Fannounce&tr=udp%3A%2F%2F9.rarbg.to%3A2920%2Fannounce&tr=udp%3A%2F%2Ftracker.opentrackr.org%3A1337&tr=udp%3A%2F%2Ftracker.internetwarriors.net%3A1337%2Fannounce&tr=udp%3A%2F%2Ftracker.leechers-paradise.org%3A6969%2Fannounce&tr=udp%3A%2F%2Ftracker.coppersurfer.tk%3A6969%2Fannounce&tr=udp%3A%2F%2Ftracker.pirateparty.gr%3A6969%2Fannounce&tr=udp%3A%2F%2Ftracker.cyberia.is%3A6969%2Fannounce",
        "seeder": "1173",
        "leecher": "122"
    },
    {
        "rank": "8",
        "title": "The Mandalorian - Season 2 - Mp4 x264 AC3 1080p",
        "link": "magnet:?xt=urn:btih:A1D53F1F4B76AF71F41145A193267CE89FE96275&dn=The+Mandalorian+-+Season+2+-+Mp4+x264+AC3+1080p&tr=udp%3A%2F%2Ftracker.coppersurfer.tk%3A6969%2Fannounce&tr=udp%3A%2F%2F9.rarbg.to%3A2920%2Fannounce&tr=udp%3A%2F%2Ftracker.opentrackr.org%3A1337&tr=udp%3A%2F%2Ftracker.internetwarriors.net%3A1337%2Fannounce&tr=udp%3A%2F%2Ftracker.leechers-paradise.org%3A6969%2Fannounce&tr=udp%3A%2F%2Ftracker.coppersurfer.tk%3A6969%2Fannounce&tr=udp%3A%2F%2Ftracker.pirateparty.gr%3A6969%2Fannounce&tr=udp%3A%2F%2Ftracker.cyberia.is%3A6969%2Fannounce",
        "seeder": "1147",
        "leecher": "316"
    },
    {
        "rank": "9",
        "title": "WandaVision.S01E05.1080p.WEB-DL.H264.Atmos-EVO",
        "link": "magnet:?xt=urn:btih:E3C7269A956097D955417215F87EC580B0444320&dn=WandaVision.S01E05.1080p.WEB-DL.H264.Atmos-EVO&tr=udp%3A%2F%2Ftracker.coppersurfer.tk%3A6969%2Fannounce&tr=udp%3A%2F%2F9.rarbg.to%3A2920%2Fannounce&tr=udp%3A%2F%2Ftracker.opentrackr.org%3A1337&tr=udp%3A%2F%2Ftracker.internetwarriors.net%3A1337%2Fannounce&tr=udp%3A%2F%2Ftracker.leechers-paradise.org%3A6969%2Fannounce&tr=udp%3A%2F%2Ftracker.coppersurfer.tk%3A6969%2Fannounce&tr=udp%3A%2F%2Ftracker.pirateparty.gr%3A6969%2Fannounce&tr=udp%3A%2F%2Ftracker.cyberia.is%3A6969%2Fannounce",
        "seeder": "988",
        "leecher": "121"
    },
    {
        "rank": "10",
        "title": "WandaVision.S01E03.1080p.DSNP.WEB-DL.DDP5.1.Atmos.H.264-CMRG",
        "link": "magnet:?xt=urn:btih:AF11C52EA518DE19A1C73ADBC07417CB80CF52B5&dn=WandaVision.S01E03.1080p.DSNP.WEB-DL.DDP5.1.Atmos.H.264-CMRG&tr=udp%3A%2F%2Ftracker.coppersurfer.tk%3A6969%2Fannounce&tr=udp%3A%2F%2F9.rarbg.to%3A2920%2Fannounce&tr=udp%3A%2F%2Ftracker.opentrackr.org%3A1337&tr=udp%3A%2F%2Ftracker.internetwarriors.net%3A1337%2Fannounce&tr=udp%3A%2F%2Ftracker.leechers-paradise.org%3A6969%2Fannounce&tr=udp%3A%2F%2Ftracker.coppersurfer.tk%3A6969%2Fannounce&tr=udp%3A%2F%2Ftracker.pirateparty.gr%3A6969%2Fannounce&tr=udp%3A%2F%2Ftracker.cyberia.is%3A6969%2Fannounce",
        "seeder": "957",
        "leecher": "150"
    },
    {
        "rank": "11",
        "title": "The.Falcon.and.the.Winter.Soldier.S01E03.1080p.DSNP.WEB-DL.Atmos",
        "link": "magnet:?xt=urn:btih:96D11A2BDF9FB1C5AF34F716303D4B52AE4E4B57&dn=The.Falcon.and.the.Winter.Soldier.S01E03.1080p.DSNP.WEB-DL.Atmos&tr=udp%3A%2F%2Ftracker.coppersurfer.tk%3A6969%2Fannounce&tr=udp%3A%2F%2F9.rarbg.to%3A2920%2Fannounce&tr=udp%3A%2F%2Ftracker.opentrackr.org%3A1337&tr=udp%3A%2F%2Ftracker.internetwarriors.net%3A1337%2Fannounce&tr=udp%3A%2F%2Ftracker.leechers-paradise.org%3A6969%2Fannounce&tr=udp%3A%2F%2Ftracker.coppersurfer.tk%3A6969%2Fannounce&tr=udp%3A%2F%2Ftracker.pirateparty.gr%3A6969%2Fannounce&tr=udp%3A%2F%2Ftracker.cyberia.is%3A6969%2Fannounce",
        "seeder": "931",
        "leecher": "258"
    },
    {
        "rank": "12",
        "title": "WandaVision.S01.COMPLETE.720p.DSNP.WEBRip.x264-GalaxyTV",
        "link": "magnet:?xt=urn:btih:076F846E797B3AB2B5B1D3F2A5BA1C50A1A8CEF4&dn=WandaVision.S01.COMPLETE.720p.DSNP.WEBRip.x264-GalaxyTV&tr=udp%3A%2F%2Ftracker.coppersurfer.tk%3A6969%2Fannounce&tr=udp%3A%2F%2F9.rarbg.to%3A2920%2Fannounce&tr=udp%3A%2F%2Ftracker.opentrackr.org%3A1337&tr=udp%3A%2F%2Ftracker.internetwarriors.net%3A1337%2Fannounce&tr=udp%3A%2F%2Ftracker.leechers-paradise.org%3A6969%2Fannounce&tr=udp%3A%2F%2Ftracker.coppersurfer.tk%3A6969%2Fannounce&tr=udp%3A%2F%2Ftracker.pirateparty.gr%3A6969%2Fannounce&tr=udp%3A%2F%2Ftracker.cyberia.is%3A6969%2Fannounce",
        "seeder": "929",
        "leecher": "371"
    },
    {
        "rank": "13",
        "title": "WandaVision.S01E07.1080p.WEBDL.H264.Atmos-EVO[TGx]",
        "link": "magnet:?xt=urn:btih:31D1B690B3173F9CA0ED21FCD19ABA9B112E0F31&dn=WandaVision.S01E07.1080p.WEBDL.H264.Atmos-EVO%5BTGx%5D&tr=udp%3A%2F%2Ftracker.coppersurfer.tk%3A6969%2Fannounce&tr=udp%3A%2F%2F9.rarbg.to%3A2920%2Fannounce&tr=udp%3A%2F%2Ftracker.opentrackr.org%3A1337&tr=udp%3A%2F%2Ftracker.internetwarriors.net%3A1337%2Fannounce&tr=udp%3A%2F%2Ftracker.leechers-paradise.org%3A6969%2Fannounce&tr=udp%3A%2F%2Ftracker.coppersurfer.tk%3A6969%2Fannounce&tr=udp%3A%2F%2Ftracker.pirateparty.gr%3A6969%2Fannounce&tr=udp%3A%2F%2Ftracker.cyberia.is%3A6969%2Fannounce",
        "seeder": "903",
        "leecher": "66"
    },
    {
        "rank": "14",
        "title": "South.Park.S24E00.South.ParQ.Vaccination.Special.1080p.WEB.h264-",
        "link": "magnet:?xt=urn:btih:B27C60DF166245B25B0E3E72ED0D650C54EDAF54&dn=South.Park.S24E00.South.ParQ.Vaccination.Special.1080p.WEB.h264-&tr=udp%3A%2F%2Ftracker.coppersurfer.tk%3A6969%2Fannounce&tr=udp%3A%2F%2F9.rarbg.to%3A2920%2Fannounce&tr=udp%3A%2F%2Ftracker.opentrackr.org%3A1337&tr=udp%3A%2F%2Ftracker.internetwarriors.net%3A1337%2Fannounce&tr=udp%3A%2F%2Ftracker.leechers-paradise.org%3A6969%2Fannounce&tr=udp%3A%2F%2Ftracker.coppersurfer.tk%3A6969%2Fannounce&tr=udp%3A%2F%2Ftracker.pirateparty.gr%3A6969%2Fannounce&tr=udp%3A%2F%2Ftracker.cyberia.is%3A6969%2Fannounce",
        "seeder": "891",
        "leecher": "88"
    },
    {
        "rank": "15",
        "title": "The.Irregulars.S01.COMPLETE.720p.NF.WEBRip.x264-GalaxyTV",
        "link": "magnet:?xt=urn:btih:71A0B2E7D865D0EAD465D7246DA977CE2ECFEFA8&dn=The.Irregulars.S01.COMPLETE.720p.NF.WEBRip.x264-GalaxyTV&tr=udp%3A%2F%2Ftracker.coppersurfer.tk%3A6969%2Fannounce&tr=udp%3A%2F%2F9.rarbg.to%3A2920%2Fannounce&tr=udp%3A%2F%2Ftracker.opentrackr.org%3A1337&tr=udp%3A%2F%2Ftracker.internetwarriors.net%3A1337%2Fannounce&tr=udp%3A%2F%2Ftracker.leechers-paradise.org%3A6969%2Fannounce&tr=udp%3A%2F%2Ftracker.coppersurfer.tk%3A6969%2Fannounce&tr=udp%3A%2F%2Ftracker.pirateparty.gr%3A6969%2Fannounce&tr=udp%3A%2F%2Ftracker.cyberia.is%3A6969%2Fannounce",
        "seeder": "861",
        "leecher": "209"
    },
    {
        "rank": "16",
        "title": "WandaVision.S01E08.1080p.DSNP.WEB-DL.DDP5.1.H.264-NOGRP",
        "link": "magnet:?xt=urn:btih:1ABDC4658FEEC9A7FFFA6E63DD3C4355F175E1DC&dn=WandaVision.S01E08.1080p.DSNP.WEB-DL.DDP5.1.H.264-NOGRP&tr=udp%3A%2F%2Ftracker.coppersurfer.tk%3A6969%2Fannounce&tr=udp%3A%2F%2F9.rarbg.to%3A2920%2Fannounce&tr=udp%3A%2F%2Ftracker.opentrackr.org%3A1337&tr=udp%3A%2F%2Ftracker.internetwarriors.net%3A1337%2Fannounce&tr=udp%3A%2F%2Ftracker.leechers-paradise.org%3A6969%2Fannounce&tr=udp%3A%2F%2Ftracker.coppersurfer.tk%3A6969%2Fannounce&tr=udp%3A%2F%2Ftracker.pirateparty.gr%3A6969%2Fannounce&tr=udp%3A%2F%2Ftracker.cyberia.is%3A6969%2Fannounce",
        "seeder": "843",
        "leecher": "125"
    },
    {
        "rank": "17",
        "title": "WandaVision.S01E06.1080p.DSNP.WEB-DL.DDP5.1.H.264-TOMMY",
        "link": "magnet:?xt=urn:btih:FA65C43523BBB890997F2D4A97E44BA0C575D530&dn=WandaVision.S01E06.1080p.DSNP.WEB-DL.DDP5.1.H.264-TOMMY&tr=udp%3A%2F%2Ftracker.coppersurfer.tk%3A6969%2Fannounce&tr=udp%3A%2F%2F9.rarbg.to%3A2920%2Fannounce&tr=udp%3A%2F%2Ftracker.opentrackr.org%3A1337&tr=udp%3A%2F%2Ftracker.internetwarriors.net%3A1337%2Fannounce&tr=udp%3A%2F%2Ftracker.leechers-paradise.org%3A6969%2Fannounce&tr=udp%3A%2F%2Ftracker.coppersurfer.tk%3A6969%2Fannounce&tr=udp%3A%2F%2Ftracker.pirateparty.gr%3A6969%2Fannounce&tr=udp%3A%2F%2Ftracker.cyberia.is%3A6969%2Fannounce",
        "seeder": "817",
        "leecher": "149"
    },
    {
        "rank": "18",
        "title": "The Mandalorian - Season 1 - Mp4 x264 AC3 1080p",
        "link": "magnet:?xt=urn:btih:BC69D296323D0C54C0DFF5ED138D0782910C5E70&dn=The+Mandalorian+-+Season+1+-+Mp4+x264+AC3+1080p&tr=udp%3A%2F%2Ftracker.coppersurfer.tk%3A6969%2Fannounce&tr=udp%3A%2F%2F9.rarbg.to%3A2920%2Fannounce&tr=udp%3A%2F%2Ftracker.opentrackr.org%3A1337&tr=udp%3A%2F%2Ftracker.internetwarriors.net%3A1337%2Fannounce&tr=udp%3A%2F%2Ftracker.leechers-paradise.org%3A6969%2Fannounce&tr=udp%3A%2F%2Ftracker.coppersurfer.tk%3A6969%2Fannounce&tr=udp%3A%2F%2Ftracker.pirateparty.gr%3A6969%2Fannounce&tr=udp%3A%2F%2Ftracker.cyberia.is%3A6969%2Fannounce",
        "seeder": "800",
        "leecher": "229"
    },
    {
        "rank": "19",
        "title": "Invincible.2021.S01E02.720p.WEBRip.x265-MiNX[TGx]",
        "link": "magnet:?xt=urn:btih:E9297A4102F5F221C7DD108FAD0234C3830D4A7B&dn=Invincible.2021.S01E02.720p.WEBRip.x265-MiNX%5BTGx%5D&tr=udp%3A%2F%2Ftracker.coppersurfer.tk%3A6969%2Fannounce&tr=udp%3A%2F%2F9.rarbg.to%3A2920%2Fannounce&tr=udp%3A%2F%2Ftracker.opentrackr.org%3A1337&tr=udp%3A%2F%2Ftracker.internetwarriors.net%3A1337%2Fannounce&tr=udp%3A%2F%2Ftracker.leechers-paradise.org%3A6969%2Fannounce&tr=udp%3A%2F%2Ftracker.coppersurfer.tk%3A6969%2Fannounce&tr=udp%3A%2F%2Ftracker.pirateparty.gr%3A6969%2Fannounce&tr=udp%3A%2F%2Ftracker.cyberia.is%3A6969%2Fannounce",
        "seeder": "797",
        "leecher": "151"
    },
    {
        "rank": "20",
        "title": "WandaVision.S01E04.1080p.WEB-DL.H264.Atmos-EVO",
        "link": "magnet:?xt=urn:btih:88F9E251E2E72548FC14AFE4BAE7F2F56FA9E674&dn=WandaVision.S01E04.1080p.WEB-DL.H264.Atmos-EVO&tr=udp%3A%2F%2Ftracker.coppersurfer.tk%3A6969%2Fannounce&tr=udp%3A%2F%2F9.rarbg.to%3A2920%2Fannounce&tr=udp%3A%2F%2Ftracker.opentrackr.org%3A1337&tr=udp%3A%2F%2Ftracker.internetwarriors.net%3A1337%2Fannounce&tr=udp%3A%2F%2Ftracker.leechers-paradise.org%3A6969%2Fannounce&tr=udp%3A%2F%2Ftracker.coppersurfer.tk%3A6969%2Fannounce&tr=udp%3A%2F%2Ftracker.pirateparty.gr%3A6969%2Fannounce&tr=udp%3A%2F%2Ftracker.cyberia.is%3A6969%2Fannounce",
        "seeder": "796",
        "leecher": "75"
    },
    {
        "rank": "21",
        "title": "The.Mandalorian.S02E08.Chapter.16.The.Rescue.1080p.WEB-DL.X264.A",
        "link": "magnet:?xt=urn:btih:1F7E6E3DAA24AE96E280D66961747E15B67D3221&dn=The.Mandalorian.S02E08.Chapter.16.The.Rescue.1080p.WEB-DL.X264.A&tr=udp%3A%2F%2Ftracker.coppersurfer.tk%3A6969%2Fannounce&tr=udp%3A%2F%2F9.rarbg.to%3A2920%2Fannounce&tr=udp%3A%2F%2Ftracker.opentrackr.org%3A1337&tr=udp%3A%2F%2Ftracker.internetwarriors.net%3A1337%2Fannounce&tr=udp%3A%2F%2Ftracker.leechers-paradise.org%3A6969%2Fannounce&tr=udp%3A%2F%2Ftracker.coppersurfer.tk%3A6969%2Fannounce&tr=udp%3A%2F%2Ftracker.pirateparty.gr%3A6969%2Fannounce&tr=udp%3A%2F%2Ftracker.cyberia.is%3A6969%2Fannounce",
        "seeder": "792",
        "leecher": "38"
    },
    {
        "rank": "22",
        "title": "Scam 1992 the Harshad Mehta Story S01 WebRip 720p Hindi A",
        "link": "magnet:?xt=urn:btih:8F923AFB6A8EE28483729D42B5A2DD35F8BC90CE&dn=Scam+1992+the+Harshad+Mehta+Story+S01+WebRip+720p+Hindi+A&tr=udp%3A%2F%2Ftracker.coppersurfer.tk%3A6969%2Fannounce&tr=udp%3A%2F%2F9.rarbg.to%3A2920%2Fannounce&tr=udp%3A%2F%2Ftracker.opentrackr.org%3A1337&tr=udp%3A%2F%2Ftracker.internetwarriors.net%3A1337%2Fannounce&tr=udp%3A%2F%2Ftracker.leechers-paradise.org%3A6969%2Fannounce&tr=udp%3A%2F%2Ftracker.coppersurfer.tk%3A6969%2Fannounce&tr=udp%3A%2F%2Ftracker.pirateparty.gr%3A6969%2Fannounce&tr=udp%3A%2F%2Ftracker.cyberia.is%3A6969%2Fannounce",
        "seeder": "787",
        "leecher": "108"
    },
    {
        "rank": "23",
        "title": "Invincible.2021.S01E01.720p.WEB.x265-MiNX[TGx]",
        "link": "magnet:?xt=urn:btih:C86D73EB2B675E806AD81B42D2118E8028F05654&dn=Invincible.2021.S01E01.720p.WEB.x265-MiNX%5BTGx%5D&tr=udp%3A%2F%2Ftracker.coppersurfer.tk%3A6969%2Fannounce&tr=udp%3A%2F%2F9.rarbg.to%3A2920%2Fannounce&tr=udp%3A%2F%2Ftracker.opentrackr.org%3A1337&tr=udp%3A%2F%2Ftracker.internetwarriors.net%3A1337%2Fannounce&tr=udp%3A%2F%2Ftracker.leechers-paradise.org%3A6969%2Fannounce&tr=udp%3A%2F%2Ftracker.coppersurfer.tk%3A6969%2Fannounce&tr=udp%3A%2F%2Ftracker.pirateparty.gr%3A6969%2Fannounce&tr=udp%3A%2F%2Ftracker.cyberia.is%3A6969%2Fannounce",
        "seeder": "768",
        "leecher": "142"
    },
    {
        "rank": "24",
        "title": "The.Mandalorian.S02E07.Chapter.15.The.Believer.1080p.WEB-DL.X264",
        "link": "magnet:?xt=urn:btih:A8B01F827739DDB81608D59BEEA59A921A7F509E&dn=The.Mandalorian.S02E07.Chapter.15.The.Believer.1080p.WEB-DL.X264&tr=udp%3A%2F%2Ftracker.coppersurfer.tk%3A6969%2Fannounce&tr=udp%3A%2F%2F9.rarbg.to%3A2920%2Fannounce&tr=udp%3A%2F%2Ftracker.opentrackr.org%3A1337&tr=udp%3A%2F%2Ftracker.internetwarriors.net%3A1337%2Fannounce&tr=udp%3A%2F%2Ftracker.leechers-paradise.org%3A6969%2Fannounce&tr=udp%3A%2F%2Ftracker.coppersurfer.tk%3A6969%2Fannounce&tr=udp%3A%2F%2Ftracker.pirateparty.gr%3A6969%2Fannounce&tr=udp%3A%2F%2Ftracker.cyberia.is%3A6969%2Fannounce",
        "seeder": "743",
        "leecher": "37"
    },
    {
        "rank": "25",
        "title": "Invincible.2021.S01E03.720p.WEB.x265-MiNX[TGx]",
        "link": "magnet:?xt=urn:btih:F07D3BDE20CD81CDB4D3FA67413C5FFFED434642&dn=Invincible.2021.S01E03.720p.WEB.x265-MiNX%5BTGx%5D&tr=udp%3A%2F%2Ftracker.coppersurfer.tk%3A6969%2Fannounce&tr=udp%3A%2F%2F9.rarbg.to%3A2920%2Fannounce&tr=udp%3A%2F%2Ftracker.opentrackr.org%3A1337&tr=udp%3A%2F%2Ftracker.internetwarriors.net%3A1337%2Fannounce&tr=udp%3A%2F%2Ftracker.leechers-paradise.org%3A6969%2Fannounce&tr=udp%3A%2F%2Ftracker.coppersurfer.tk%3A6969%2Fannounce&tr=udp%3A%2F%2Ftracker.pirateparty.gr%3A6969%2Fannounce&tr=udp%3A%2F%2Ftracker.cyberia.is%3A6969%2Fannounce",
        "seeder": "720",
        "leecher": "128"
    },
    {
        "rank": "26",
        "title": "The.Mandalorian.S02E05.Chapter.13.The.Jedi.2020.1080p.WEB-DL.X26",
        "link": "magnet:?xt=urn:btih:4AEE012597EBEA65840A96F62CEBE9926F8ECE5D&dn=The.Mandalorian.S02E05.Chapter.13.The.Jedi.2020.1080p.WEB-DL.X26&tr=udp%3A%2F%2Ftracker.coppersurfer.tk%3A6969%2Fannounce&tr=udp%3A%2F%2F9.rarbg.to%3A2920%2Fannounce&tr=udp%3A%2F%2Ftracker.opentrackr.org%3A1337&tr=udp%3A%2F%2Ftracker.internetwarriors.net%3A1337%2Fannounce&tr=udp%3A%2F%2Ftracker.leechers-paradise.org%3A6969%2Fannounce&tr=udp%3A%2F%2Ftracker.coppersurfer.tk%3A6969%2Fannounce&tr=udp%3A%2F%2Ftracker.pirateparty.gr%3A6969%2Fannounce&tr=udp%3A%2F%2Ftracker.cyberia.is%3A6969%2Fannounce",
        "seeder": "677",
        "leecher": "18"
    },
    {
        "rank": "27",
        "title": "The.Walking.Dead.S10E20.1080p.WEB.H264-GLHF",
        "link": "magnet:?xt=urn:btih:4ACC57E2F054C013C24CECD85BB36ABD2414FA63&dn=The.Walking.Dead.S10E20.1080p.WEB.H264-GLHF&tr=udp%3A%2F%2Ftracker.coppersurfer.tk%3A6969%2Fannounce&tr=udp%3A%2F%2F9.rarbg.to%3A2920%2Fannounce&tr=udp%3A%2F%2Ftracker.opentrackr.org%3A1337&tr=udp%3A%2F%2Ftracker.internetwarriors.net%3A1337%2Fannounce&tr=udp%3A%2F%2Ftracker.leechers-paradise.org%3A6969%2Fannounce&tr=udp%3A%2F%2Ftracker.coppersurfer.tk%3A6969%2Fannounce&tr=udp%3A%2F%2Ftracker.pirateparty.gr%3A6969%2Fannounce&tr=udp%3A%2F%2Ftracker.cyberia.is%3A6969%2Fannounce",
        "seeder": "670",
        "leecher": "195"
    },
    {
        "rank": "28",
        "title": "Chernobyl.COMPLETE.Season.1.S01.1080p.AMZN.WEB-DL.x265-HETeam",
        "link": "magnet:?xt=urn:btih:95E8D04E47F0D9CB8BF00EC8775C926126A65236&dn=Chernobyl.COMPLETE.Season.1.S01.1080p.AMZN.WEB-DL.x265-HETeam&tr=udp%3A%2F%2Ftracker.coppersurfer.tk%3A6969%2Fannounce&tr=udp%3A%2F%2F9.rarbg.to%3A2920%2Fannounce&tr=udp%3A%2F%2Ftracker.opentrackr.org%3A1337&tr=udp%3A%2F%2Ftracker.internetwarriors.net%3A1337%2Fannounce&tr=udp%3A%2F%2Ftracker.leechers-paradise.org%3A6969%2Fannounce&tr=udp%3A%2F%2Ftracker.coppersurfer.tk%3A6969%2Fannounce&tr=udp%3A%2F%2Ftracker.pirateparty.gr%3A6969%2Fannounce&tr=udp%3A%2F%2Ftracker.cyberia.is%3A6969%2Fannounce",
        "seeder": "664",
        "leecher": "200"
    },
    {
        "rank": "29",
        "title": "The.Walking.Dead.S10E21.1080p.WEB.H264-GGWP",
        "link": "magnet:?xt=urn:btih:89E7CBD0E4FFB189A9C579222DE43541502C2865&dn=The.Walking.Dead.S10E21.1080p.WEB.H264-GGWP&tr=udp%3A%2F%2Ftracker.coppersurfer.tk%3A6969%2Fannounce&tr=udp%3A%2F%2F9.rarbg.to%3A2920%2Fannounce&tr=udp%3A%2F%2Ftracker.opentrackr.org%3A1337&tr=udp%3A%2F%2Ftracker.internetwarriors.net%3A1337%2Fannounce&tr=udp%3A%2F%2Ftracker.leechers-paradise.org%3A6969%2Fannounce&tr=udp%3A%2F%2Ftracker.coppersurfer.tk%3A6969%2Fannounce&tr=udp%3A%2F%2Ftracker.pirateparty.gr%3A6969%2Fannounce&tr=udp%3A%2F%2Ftracker.cyberia.is%3A6969%2Fannounce",
        "seeder": "649",
        "leecher": "237"
    },
    {
        "rank": "30",
        "title": "Bridgerton.S01.COMPLETE.720p.NF.WEBRip.x264-GalaxyTV",
        "link": "magnet:?xt=urn:btih:CE43F445E6D15A1B2B669BF4C605F86409512237&dn=Bridgerton.S01.COMPLETE.720p.NF.WEBRip.x264-GalaxyTV&tr=udp%3A%2F%2Ftracker.coppersurfer.tk%3A6969%2Fannounce&tr=udp%3A%2F%2F9.rarbg.to%3A2920%2Fannounce&tr=udp%3A%2F%2Ftracker.opentrackr.org%3A1337&tr=udp%3A%2F%2Ftracker.internetwarriors.net%3A1337%2Fannounce&tr=udp%3A%2F%2Ftracker.leechers-paradise.org%3A6969%2Fannounce&tr=udp%3A%2F%2Ftracker.coppersurfer.tk%3A6969%2Fannounce&tr=udp%3A%2F%2Ftracker.pirateparty.gr%3A6969%2Fannounce&tr=udp%3A%2F%2Ftracker.cyberia.is%3A6969%2Fannounce",
        "seeder": "635",
        "leecher": "125"
    },
    {
        "rank": "31",
        "title": "The.Queens.Gambit.S01.COMPLETE.720p.NF.WEBRip.x264-GalaxyTV",
        "link": "magnet:?xt=urn:btih:0A9AC7CAFFE91E86105A83484D1B1269E0D1DD6B&dn=The.Queens.Gambit.S01.COMPLETE.720p.NF.WEBRip.x264-GalaxyTV&tr=udp%3A%2F%2Ftracker.coppersurfer.tk%3A6969%2Fannounce&tr=udp%3A%2F%2F9.rarbg.to%3A2920%2Fannounce&tr=udp%3A%2F%2Ftracker.opentrackr.org%3A1337&tr=udp%3A%2F%2Ftracker.internetwarriors.net%3A1337%2Fannounce&tr=udp%3A%2F%2Ftracker.leechers-paradise.org%3A6969%2Fannounce&tr=udp%3A%2F%2Ftracker.coppersurfer.tk%3A6969%2Fannounce&tr=udp%3A%2F%2Ftracker.pirateparty.gr%3A6969%2Fannounce&tr=udp%3A%2F%2Ftracker.cyberia.is%3A6969%2Fannounce",
        "seeder": "623",
        "leecher": "68"
    },
    {
        "rank": "32",
        "title": "WandaVision.S01E01.1080p.DSNP.WEB-DL.DDP5.1.Atmos.H.264-CMRG",
        "link": "magnet:?xt=urn:btih:82360B56A95E06FF5312DDE5AA7BE7ECB417B466&dn=WandaVision.S01E01.1080p.DSNP.WEB-DL.DDP5.1.Atmos.H.264-CMRG&tr=udp%3A%2F%2Ftracker.coppersurfer.tk%3A6969%2Fannounce&tr=udp%3A%2F%2F9.rarbg.to%3A2920%2Fannounce&tr=udp%3A%2F%2Ftracker.opentrackr.org%3A1337&tr=udp%3A%2F%2Ftracker.internetwarriors.net%3A1337%2Fannounce&tr=udp%3A%2F%2Ftracker.leechers-paradise.org%3A6969%2Fannounce&tr=udp%3A%2F%2Ftracker.coppersurfer.tk%3A6969%2Fannounce&tr=udp%3A%2F%2Ftracker.pirateparty.gr%3A6969%2Fannounce&tr=udp%3A%2F%2Ftracker.cyberia.is%3A6969%2Fannounce",
        "seeder": "617",
        "leecher": "139"
    },
    {
        "rank": "33",
        "title": "WandaVision.S01E02.1080p.DSNP.WEB-DL.DDP5.1.Atmos.H.264-CMRG",
        "link": "magnet:?xt=urn:btih:ECC6BD9546BD812515BF1CC3B52F3A2483F34448&dn=WandaVision.S01E02.1080p.DSNP.WEB-DL.DDP5.1.Atmos.H.264-CMRG&tr=udp%3A%2F%2Ftracker.coppersurfer.tk%3A6969%2Fannounce&tr=udp%3A%2F%2F9.rarbg.to%3A2920%2Fannounce&tr=udp%3A%2F%2Ftracker.opentrackr.org%3A1337&tr=udp%3A%2F%2Ftracker.internetwarriors.net%3A1337%2Fannounce&tr=udp%3A%2F%2Ftracker.leechers-paradise.org%3A6969%2Fannounce&tr=udp%3A%2F%2Ftracker.coppersurfer.tk%3A6969%2Fannounce&tr=udp%3A%2F%2Ftracker.pirateparty.gr%3A6969%2Fannounce&tr=udp%3A%2F%2Ftracker.cyberia.is%3A6969%2Fannounce",
        "seeder": "605",
        "leecher": "92"
    },
    {
        "rank": "34",
        "title": "The.Flight.Attendant.S01.COMPLETE.720p.HMAX.WEBRip.x264-GalaxyTV",
        "link": "magnet:?xt=urn:btih:965D1DDBB1083B1FCED41E013E18FEA5CA141EA7&dn=The.Flight.Attendant.S01.COMPLETE.720p.HMAX.WEBRip.x264-GalaxyTV&tr=udp%3A%2F%2Ftracker.coppersurfer.tk%3A6969%2Fannounce&tr=udp%3A%2F%2F9.rarbg.to%3A2920%2Fannounce&tr=udp%3A%2F%2Ftracker.opentrackr.org%3A1337&tr=udp%3A%2F%2Ftracker.internetwarriors.net%3A1337%2Fannounce&tr=udp%3A%2F%2Ftracker.leechers-paradise.org%3A6969%2Fannounce&tr=udp%3A%2F%2Ftracker.coppersurfer.tk%3A6969%2Fannounce&tr=udp%3A%2F%2Ftracker.pirateparty.gr%3A6969%2Fannounce&tr=udp%3A%2F%2Ftracker.cyberia.is%3A6969%2Fannounce",
        "seeder": "570",
        "leecher": "146"
    },
    {
        "rank": "35",
        "title": "The.Mandalorian.S02E06.Chapter.14.The.Tragedy.1080p.WEB-DL.X264.",
        "link": "magnet:?xt=urn:btih:BECEA690E6AED556F173388380720F830C6A988C&dn=The.Mandalorian.S02E06.Chapter.14.The.Tragedy.1080p.WEB-DL.X264.&tr=udp%3A%2F%2Ftracker.coppersurfer.tk%3A6969%2Fannounce&tr=udp%3A%2F%2F9.rarbg.to%3A2920%2Fannounce&tr=udp%3A%2F%2Ftracker.opentrackr.org%3A1337&tr=udp%3A%2F%2Ftracker.internetwarriors.net%3A1337%2Fannounce&tr=udp%3A%2F%2Ftracker.leechers-paradise.org%3A6969%2Fannounce&tr=udp%3A%2F%2Ftracker.coppersurfer.tk%3A6969%2Fannounce&tr=udp%3A%2F%2Ftracker.pirateparty.gr%3A6969%2Fannounce&tr=udp%3A%2F%2Ftracker.cyberia.is%3A6969%2Fannounce",
        "seeder": "566",
        "leecher": "16"
    },
    {
        "rank": "36",
        "title": "Invincible.2021.S01E04.720p.WEBRip.x265-MiNX[TGx]",
        "link": "magnet:?xt=urn:btih:30029D7B533C2E95C5956ED4779A4606D36AC00B&dn=Invincible.2021.S01E04.720p.WEBRip.x265-MiNX%5BTGx%5D&tr=udp%3A%2F%2Ftracker.coppersurfer.tk%3A6969%2Fannounce&tr=udp%3A%2F%2F9.rarbg.to%3A2920%2Fannounce&tr=udp%3A%2F%2Ftracker.opentrackr.org%3A1337&tr=udp%3A%2F%2Ftracker.internetwarriors.net%3A1337%2Fannounce&tr=udp%3A%2F%2Ftracker.leechers-paradise.org%3A6969%2Fannounce&tr=udp%3A%2F%2Ftracker.coppersurfer.tk%3A6969%2Fannounce&tr=udp%3A%2F%2Ftracker.pirateparty.gr%3A6969%2Fannounce&tr=udp%3A%2F%2Ftracker.cyberia.is%3A6969%2Fannounce",
        "seeder": "543",
        "leecher": "154"
    },
    {
        "rank": "37",
        "title": "WandaVision.S01E01.1080p.DSNP.WEB-DL.DDP5.1.Atmos.H.264-CMRG",
        "link": "magnet:?xt=urn:btih:BB58A6D74736172386585E710DDC5B2C7DBAFF7D&dn=WandaVision.S01E01.1080p.DSNP.WEB-DL.DDP5.1.Atmos.H.264-CMRG&tr=udp%3A%2F%2Ftracker.coppersurfer.tk%3A6969%2Fannounce&tr=udp%3A%2F%2F9.rarbg.to%3A2920%2Fannounce&tr=udp%3A%2F%2Ftracker.opentrackr.org%3A1337&tr=udp%3A%2F%2Ftracker.internetwarriors.net%3A1337%2Fannounce&tr=udp%3A%2F%2Ftracker.leechers-paradise.org%3A6969%2Fannounce&tr=udp%3A%2F%2Ftracker.coppersurfer.tk%3A6969%2Fannounce&tr=udp%3A%2F%2Ftracker.pirateparty.gr%3A6969%2Fannounce&tr=udp%3A%2F%2Ftracker.cyberia.is%3A6969%2Fannounce",
        "seeder": "503",
        "leecher": "82"
    },
    {
        "rank": "38",
        "title": "CBS.Presents.Oprah.with.Meghan.and.Harry.2021.720p.CBS.WEB-DL.AA",
        "link": "magnet:?xt=urn:btih:3B9090470C8358E44A2D69842FBB6EBB398D3182&dn=CBS.Presents.Oprah.with.Meghan.and.Harry.2021.720p.CBS.WEB-DL.AA&tr=udp%3A%2F%2Ftracker.coppersurfer.tk%3A6969%2Fannounce&tr=udp%3A%2F%2F9.rarbg.to%3A2920%2Fannounce&tr=udp%3A%2F%2Ftracker.opentrackr.org%3A1337&tr=udp%3A%2F%2Ftracker.internetwarriors.net%3A1337%2Fannounce&tr=udp%3A%2F%2Ftracker.leechers-paradise.org%3A6969%2Fannounce&tr=udp%3A%2F%2Ftracker.coppersurfer.tk%3A6969%2Fannounce&tr=udp%3A%2F%2Ftracker.pirateparty.gr%3A6969%2Fannounce&tr=udp%3A%2F%2Ftracker.cyberia.is%3A6969%2Fannounce",
        "seeder": "498",
        "leecher": "52"
    },
    {
        "rank": "39",
        "title": "Peaky Blinders Season 1 Complete 720p HDTV x264 [i_c]",
        "link": "magnet:?xt=urn:btih:71A9BDAB7D93F4A1DA02DB09937A60696B9591D1&dn=Peaky+Blinders+Season+1+Complete+720p+HDTV+x264+%5Bi_c%5D&tr=udp%3A%2F%2Ftracker.coppersurfer.tk%3A6969%2Fannounce&tr=udp%3A%2F%2F9.rarbg.to%3A2920%2Fannounce&tr=udp%3A%2F%2Ftracker.opentrackr.org%3A1337&tr=udp%3A%2F%2Ftracker.internetwarriors.net%3A1337%2Fannounce&tr=udp%3A%2F%2Ftracker.leechers-paradise.org%3A6969%2Fannounce&tr=udp%3A%2F%2Ftracker.coppersurfer.tk%3A6969%2Fannounce&tr=udp%3A%2F%2Ftracker.pirateparty.gr%3A6969%2Fannounce&tr=udp%3A%2F%2Ftracker.cyberia.is%3A6969%2Fannounce",
        "seeder": "492",
        "leecher": "101"
    },
    {
        "rank": "40",
        "title": "The.Boys.S02.COMPLETE.720p.AMZN.WEBRip.x264-GalaxyTV",
        "link": "magnet:?xt=urn:btih:2152FEDE4B34A46051F86518BDCFF493FA03FE0C&dn=The.Boys.S02.COMPLETE.720p.AMZN.WEBRip.x264-GalaxyTV&tr=udp%3A%2F%2Ftracker.coppersurfer.tk%3A6969%2Fannounce&tr=udp%3A%2F%2F9.rarbg.to%3A2920%2Fannounce&tr=udp%3A%2F%2Ftracker.opentrackr.org%3A1337&tr=udp%3A%2F%2Ftracker.internetwarriors.net%3A1337%2Fannounce&tr=udp%3A%2F%2Ftracker.leechers-paradise.org%3A6969%2Fannounce&tr=udp%3A%2F%2Ftracker.coppersurfer.tk%3A6969%2Fannounce&tr=udp%3A%2F%2Ftracker.pirateparty.gr%3A6969%2Fannounce&tr=udp%3A%2F%2Ftracker.cyberia.is%3A6969%2Fannounce",
        "seeder": "491",
        "leecher": "131"
    },
    {
        "rank": "41",
        "title": "Solar.Opposites.S02.COMPLETE.720p.HULU.WEBRip.x264-GalaxyTV",
        "link": "magnet:?xt=urn:btih:7D4D1AB160A7E0C2C3B9A7ABC7DE2982179E3576&dn=Solar.Opposites.S02.COMPLETE.720p.HULU.WEBRip.x264-GalaxyTV&tr=udp%3A%2F%2Ftracker.coppersurfer.tk%3A6969%2Fannounce&tr=udp%3A%2F%2F9.rarbg.to%3A2920%2Fannounce&tr=udp%3A%2F%2Ftracker.opentrackr.org%3A1337&tr=udp%3A%2F%2Ftracker.internetwarriors.net%3A1337%2Fannounce&tr=udp%3A%2F%2Ftracker.leechers-paradise.org%3A6969%2Fannounce&tr=udp%3A%2F%2Ftracker.coppersurfer.tk%3A6969%2Fannounce&tr=udp%3A%2F%2Ftracker.pirateparty.gr%3A6969%2Fannounce&tr=udp%3A%2F%2Ftracker.cyberia.is%3A6969%2Fannounce",
        "seeder": "475",
        "leecher": "211"
    },
    {
        "rank": "42",
        "title": "WandaVision.S01E04.720p.WEB.x265-MiNX[TGx]",
        "link": "magnet:?xt=urn:btih:D56DA06B03C56E8F915A78389C2A46408CB1FF50&dn=WandaVision.S01E04.720p.WEB.x265-MiNX%5BTGx%5D&tr=udp%3A%2F%2Ftracker.coppersurfer.tk%3A6969%2Fannounce&tr=udp%3A%2F%2F9.rarbg.to%3A2920%2Fannounce&tr=udp%3A%2F%2Ftracker.opentrackr.org%3A1337&tr=udp%3A%2F%2Ftracker.internetwarriors.net%3A1337%2Fannounce&tr=udp%3A%2F%2Ftracker.leechers-paradise.org%3A6969%2Fannounce&tr=udp%3A%2F%2Ftracker.coppersurfer.tk%3A6969%2Fannounce&tr=udp%3A%2F%2Ftracker.pirateparty.gr%3A6969%2Fannounce&tr=udp%3A%2F%2Ftracker.cyberia.is%3A6969%2Fannounce",
        "seeder": "458",
        "leecher": "29"
    },
    {
        "rank": "43",
        "title": "WandaVision.S01E02.1080p.DSNP.WEB-DL.DDP5.1.Atmos.H.264-CMRG",
        "link": "magnet:?xt=urn:btih:0A6C4A3E1080327EC624318358589C0992AD8AEF&dn=WandaVision.S01E02.1080p.DSNP.WEB-DL.DDP5.1.Atmos.H.264-CMRG&tr=udp%3A%2F%2Ftracker.coppersurfer.tk%3A6969%2Fannounce&tr=udp%3A%2F%2F9.rarbg.to%3A2920%2Fannounce&tr=udp%3A%2F%2Ftracker.opentrackr.org%3A1337&tr=udp%3A%2F%2Ftracker.internetwarriors.net%3A1337%2Fannounce&tr=udp%3A%2F%2Ftracker.leechers-paradise.org%3A6969%2Fannounce&tr=udp%3A%2F%2Ftracker.coppersurfer.tk%3A6969%2Fannounce&tr=udp%3A%2F%2Ftracker.pirateparty.gr%3A6969%2Fannounce&tr=udp%3A%2F%2Ftracker.cyberia.is%3A6969%2Fannounce",
        "seeder": "454",
        "leecher": "60"
    },
    {
        "rank": "44",
        "title": "Behind.Her.Eyes.S01.COMPLETE.720p.NF.WEBRip.x264-GalaxyTV",
        "link": "magnet:?xt=urn:btih:AF2C9241ACF1763F712A1267C5E051988C79C642&dn=Behind.Her.Eyes.S01.COMPLETE.720p.NF.WEBRip.x264-GalaxyTV&tr=udp%3A%2F%2Ftracker.coppersurfer.tk%3A6969%2Fannounce&tr=udp%3A%2F%2F9.rarbg.to%3A2920%2Fannounce&tr=udp%3A%2F%2Ftracker.opentrackr.org%3A1337&tr=udp%3A%2F%2Ftracker.internetwarriors.net%3A1337%2Fannounce&tr=udp%3A%2F%2Ftracker.leechers-paradise.org%3A6969%2Fannounce&tr=udp%3A%2F%2Ftracker.coppersurfer.tk%3A6969%2Fannounce&tr=udp%3A%2F%2Ftracker.pirateparty.gr%3A6969%2Fannounce&tr=udp%3A%2F%2Ftracker.cyberia.is%3A6969%2Fannounce",
        "seeder": "449",
        "leecher": "93"
    },
    {
        "rank": "45",
        "title": "The.Mandalorian.S02E03.Chapter.11.The.Heiress.2020.1080p.WEB-DL.",
        "link": "magnet:?xt=urn:btih:30578DBEBF139918EE5656C4F31803E9B127984E&dn=The.Mandalorian.S02E03.Chapter.11.The.Heiress.2020.1080p.WEB-DL.&tr=udp%3A%2F%2Ftracker.coppersurfer.tk%3A6969%2Fannounce&tr=udp%3A%2F%2F9.rarbg.to%3A2920%2Fannounce&tr=udp%3A%2F%2Ftracker.opentrackr.org%3A1337&tr=udp%3A%2F%2Ftracker.internetwarriors.net%3A1337%2Fannounce&tr=udp%3A%2F%2Ftracker.leechers-paradise.org%3A6969%2Fannounce&tr=udp%3A%2F%2Ftracker.coppersurfer.tk%3A6969%2Fannounce&tr=udp%3A%2F%2Ftracker.pirateparty.gr%3A6969%2Fannounce&tr=udp%3A%2F%2Ftracker.cyberia.is%3A6969%2Fannounce",
        "seeder": "444",
        "leecher": "12"
    },
    {
        "rank": "46",
        "title": "The.Mandalorian.S02E02.1080p.DSNP.WEB-DL.DDP.5.1.Atmos.H.264-PHO",
        "link": "magnet:?xt=urn:btih:3A7C3A5DD0B0FB5E3C86F9AC7137F958B7A4928F&dn=The.Mandalorian.S02E02.1080p.DSNP.WEB-DL.DDP.5.1.Atmos.H.264-PHO&tr=udp%3A%2F%2Ftracker.coppersurfer.tk%3A6969%2Fannounce&tr=udp%3A%2F%2F9.rarbg.to%3A2920%2Fannounce&tr=udp%3A%2F%2Ftracker.opentrackr.org%3A1337&tr=udp%3A%2F%2Ftracker.internetwarriors.net%3A1337%2Fannounce&tr=udp%3A%2F%2Ftracker.leechers-paradise.org%3A6969%2Fannounce&tr=udp%3A%2F%2Ftracker.coppersurfer.tk%3A6969%2Fannounce&tr=udp%3A%2F%2Ftracker.pirateparty.gr%3A6969%2Fannounce&tr=udp%3A%2F%2Ftracker.cyberia.is%3A6969%2Fannounce",
        "seeder": "437",
        "leecher": "16"
    },
    {
        "rank": "47",
        "title": "Attack.on.Titan.Shingeki.no.Kyojin.S04E15.E74.Eng.Sub.1080p.x264",
        "link": "magnet:?xt=urn:btih:D3B9E8F8F3C687B1AD1294A281D1DDEBE63EAF53&dn=Attack.on.Titan.Shingeki.no.Kyojin.S04E15.E74.Eng.Sub.1080p.x264&tr=udp%3A%2F%2Ftracker.coppersurfer.tk%3A6969%2Fannounce&tr=udp%3A%2F%2F9.rarbg.to%3A2920%2Fannounce&tr=udp%3A%2F%2Ftracker.opentrackr.org%3A1337&tr=udp%3A%2F%2Ftracker.internetwarriors.net%3A1337%2Fannounce&tr=udp%3A%2F%2Ftracker.leechers-paradise.org%3A6969%2Fannounce&tr=udp%3A%2F%2Ftracker.coppersurfer.tk%3A6969%2Fannounce&tr=udp%3A%2F%2Ftracker.pirateparty.gr%3A6969%2Fannounce&tr=udp%3A%2F%2Ftracker.cyberia.is%3A6969%2Fannounce",
        "seeder": "429",
        "leecher": "40"
    },
    {
        "rank": "48",
        "title": "Game of Thrones Season 1 S01 720p BluRay x264",
        "link": "magnet:?xt=urn:btih:04BBA4E2F593241AC407CA83B2B44F3849039F76&dn=Game+of+Thrones+Season+1+S01+720p+BluRay+x264&tr=udp%3A%2F%2Ftracker.coppersurfer.tk%3A6969%2Fannounce&tr=udp%3A%2F%2F9.rarbg.to%3A2920%2Fannounce&tr=udp%3A%2F%2Ftracker.opentrackr.org%3A1337&tr=udp%3A%2F%2Ftracker.internetwarriors.net%3A1337%2Fannounce&tr=udp%3A%2F%2Ftracker.leechers-paradise.org%3A6969%2Fannounce&tr=udp%3A%2F%2Ftracker.coppersurfer.tk%3A6969%2Fannounce&tr=udp%3A%2F%2Ftracker.pirateparty.gr%3A6969%2Fannounce&tr=udp%3A%2F%2Ftracker.cyberia.is%3A6969%2Fannounce",
        "seeder": "418",
        "leecher": "256"
    },
    {
        "rank": "49",
        "title": "The.Mandalorian.S02E04.Chapter.12.The.Siege.2020.1080p.WEB-DL.X2",
        "link": "magnet:?xt=urn:btih:BF91DF50150F154EBF33BC78A6722D923102E329&dn=The.Mandalorian.S02E04.Chapter.12.The.Siege.2020.1080p.WEB-DL.X2&tr=udp%3A%2F%2Ftracker.coppersurfer.tk%3A6969%2Fannounce&tr=udp%3A%2F%2F9.rarbg.to%3A2920%2Fannounce&tr=udp%3A%2F%2Ftracker.opentrackr.org%3A1337&tr=udp%3A%2F%2Ftracker.internetwarriors.net%3A1337%2Fannounce&tr=udp%3A%2F%2Ftracker.leechers-paradise.org%3A6969%2Fannounce&tr=udp%3A%2F%2Ftracker.coppersurfer.tk%3A6969%2Fannounce&tr=udp%3A%2F%2Ftracker.pirateparty.gr%3A6969%2Fannounce&tr=udp%3A%2F%2Ftracker.cyberia.is%3A6969%2Fannounce",
        "seeder": "409",
        "leecher": "9"
    },
    {
        "rank": "50",
        "title": "Game of Thrones - Season 2 - 720p BluRay - x264 - ShAaNiG",
        "link": "magnet:?xt=urn:btih:6698E0950DCD257A6B03AF2E8B068B7FF9D4619D&dn=Game+of+Thrones+-+Season+2+-+720p+BluRay+-+x264+-+ShAaNiG&tr=udp%3A%2F%2Ftracker.coppersurfer.tk%3A6969%2Fannounce&tr=udp%3A%2F%2F9.rarbg.to%3A2920%2Fannounce&tr=udp%3A%2F%2Ftracker.opentrackr.org%3A1337&tr=udp%3A%2F%2Ftracker.internetwarriors.net%3A1337%2Fannounce&tr=udp%3A%2F%2Ftracker.leechers-paradise.org%3A6969%2Fannounce&tr=udp%3A%2F%2Ftracker.coppersurfer.tk%3A6969%2Fannounce&tr=udp%3A%2F%2Ftracker.pirateparty.gr%3A6969%2Fannounce&tr=udp%3A%2F%2Ftracker.cyberia.is%3A6969%2Fannounce",
        "seeder": "397",
        "leecher": "204"
    },
    {
        "rank": "51",
        "title": "Solar.Opposites.S01.COMPLETE.720p.HULU.WEBRip.x264-GalaxyTV",
        "link": "magnet:?xt=urn:btih:419B296C23BE2CBEAEE058D2316ECF9516C0B10A&dn=Solar.Opposites.S01.COMPLETE.720p.HULU.WEBRip.x264-GalaxyTV&tr=udp%3A%2F%2Ftracker.coppersurfer.tk%3A6969%2Fannounce&tr=udp%3A%2F%2F9.rarbg.to%3A2920%2Fannounce&tr=udp%3A%2F%2Ftracker.opentrackr.org%3A1337&tr=udp%3A%2F%2Ftracker.internetwarriors.net%3A1337%2Fannounce&tr=udp%3A%2F%2Ftracker.leechers-paradise.org%3A6969%2Fannounce&tr=udp%3A%2F%2Ftracker.coppersurfer.tk%3A6969%2Fannounce&tr=udp%3A%2F%2Ftracker.pirateparty.gr%3A6969%2Fannounce&tr=udp%3A%2F%2Ftracker.cyberia.is%3A6969%2Fannounce",
        "seeder": "396",
        "leecher": "94"
    },
    {
        "rank": "52",
        "title": "The.Walking.Dead.S10E17.720p.WEB.x265-MiNX[TGx]",
        "link": "magnet:?xt=urn:btih:CB2493F6B9F01A579415C3E1D6C043AFA11F03E9&dn=The.Walking.Dead.S10E17.720p.WEB.x265-MiNX%5BTGx%5D&tr=udp%3A%2F%2Ftracker.coppersurfer.tk%3A6969%2Fannounce&tr=udp%3A%2F%2F9.rarbg.to%3A2920%2Fannounce&tr=udp%3A%2F%2Ftracker.opentrackr.org%3A1337&tr=udp%3A%2F%2Ftracker.internetwarriors.net%3A1337%2Fannounce&tr=udp%3A%2F%2Ftracker.leechers-paradise.org%3A6969%2Fannounce&tr=udp%3A%2F%2Ftracker.coppersurfer.tk%3A6969%2Fannounce&tr=udp%3A%2F%2Ftracker.pirateparty.gr%3A6969%2Fannounce&tr=udp%3A%2F%2Ftracker.cyberia.is%3A6969%2Fannounce",
        "seeder": "392",
        "leecher": "95"
    },
    {
        "rank": "53",
        "title": "Vikings.S06.COMPLETE.720p.WEBRip.x264-GalaxyTV",
        "link": "magnet:?xt=urn:btih:51A26479CDE0D208D5B36D2F3F72BD319F95C7A0&dn=Vikings.S06.COMPLETE.720p.WEBRip.x264-GalaxyTV&tr=udp%3A%2F%2Ftracker.coppersurfer.tk%3A6969%2Fannounce&tr=udp%3A%2F%2F9.rarbg.to%3A2920%2Fannounce&tr=udp%3A%2F%2Ftracker.opentrackr.org%3A1337&tr=udp%3A%2F%2Ftracker.internetwarriors.net%3A1337%2Fannounce&tr=udp%3A%2F%2Ftracker.leechers-paradise.org%3A6969%2Fannounce&tr=udp%3A%2F%2Ftracker.coppersurfer.tk%3A6969%2Fannounce&tr=udp%3A%2F%2Ftracker.pirateparty.gr%3A6969%2Fannounce&tr=udp%3A%2F%2Ftracker.cyberia.is%3A6969%2Fannounce",
        "seeder": "389",
        "leecher": "343"
    },
    {
        "rank": "54",
        "title": "South.Park.S00E42.The.Pandemic.Special.1080p.AAC.2.0-PRiCK[TGx]",
        "link": "magnet:?xt=urn:btih:2A47ED88C5178A5CC6B78FA14F27C0BE5B25168E&dn=South.Park.S00E42.The.Pandemic.Special.1080p.AAC.2.0-PRiCK%5BTGx%5D&tr=udp%3A%2F%2Ftracker.coppersurfer.tk%3A6969%2Fannounce&tr=udp%3A%2F%2F9.rarbg.to%3A2920%2Fannounce&tr=udp%3A%2F%2Ftracker.opentrackr.org%3A1337&tr=udp%3A%2F%2Ftracker.internetwarriors.net%3A1337%2Fannounce&tr=udp%3A%2F%2Ftracker.leechers-paradise.org%3A6969%2Fannounce&tr=udp%3A%2F%2Ftracker.coppersurfer.tk%3A6969%2Fannounce&tr=udp%3A%2F%2Ftracker.pirateparty.gr%3A6969%2Fannounce&tr=udp%3A%2F%2Ftracker.cyberia.is%3A6969%2Fannounce",
        "seeder": "386",
        "leecher": "25"
    },
    {
        "rank": "55",
        "title": "DOTA.Dragons.Blood.S01.COMPLETE.720p.NF.WEBRip.x264-GalaxyTV",
        "link": "magnet:?xt=urn:btih:CFDC42DCD2FC2F90DAC871E5B53422623A02BE3A&dn=DOTA.Dragons.Blood.S01.COMPLETE.720p.NF.WEBRip.x264-GalaxyTV&tr=udp%3A%2F%2Ftracker.coppersurfer.tk%3A6969%2Fannounce&tr=udp%3A%2F%2F9.rarbg.to%3A2920%2Fannounce&tr=udp%3A%2F%2Ftracker.opentrackr.org%3A1337&tr=udp%3A%2F%2Ftracker.internetwarriors.net%3A1337%2Fannounce&tr=udp%3A%2F%2Ftracker.leechers-paradise.org%3A6969%2Fannounce&tr=udp%3A%2F%2Ftracker.coppersurfer.tk%3A6969%2Fannounce&tr=udp%3A%2F%2Ftracker.pirateparty.gr%3A6969%2Fannounce&tr=udp%3A%2F%2Ftracker.cyberia.is%3A6969%2Fannounce",
        "seeder": "385",
        "leecher": "81"
    },
    {
        "rank": "56",
        "title": "Shameless.US.S11E10.720p.WEB.x265-MiNX[TGx]",
        "link": "magnet:?xt=urn:btih:CF544B37803E0B0B8C5B24EDE3F7A90935AF45B2&dn=Shameless.US.S11E10.720p.WEB.x265-MiNX%5BTGx%5D&tr=udp%3A%2F%2Ftracker.coppersurfer.tk%3A6969%2Fannounce&tr=udp%3A%2F%2F9.rarbg.to%3A2920%2Fannounce&tr=udp%3A%2F%2Ftracker.opentrackr.org%3A1337&tr=udp%3A%2F%2Ftracker.internetwarriors.net%3A1337%2Fannounce&tr=udp%3A%2F%2Ftracker.leechers-paradise.org%3A6969%2Fannounce&tr=udp%3A%2F%2Ftracker.coppersurfer.tk%3A6969%2Fannounce&tr=udp%3A%2F%2Ftracker.pirateparty.gr%3A6969%2Fannounce&tr=udp%3A%2F%2Ftracker.cyberia.is%3A6969%2Fannounce",
        "seeder": "383",
        "leecher": "54"
    },
    {
        "rank": "57",
        "title": "WandaVision - Season 1 S01 - 2021 1080p NF WEBRip AAC5.1 x264-R",
        "link": "magnet:?xt=urn:btih:D092757F64F056C04645B56DDB966EBCA08A25B0&dn=WandaVision+-+Season+1+S01+-+2021+1080p+NF+WEBRip+AAC5.1+x264-R&tr=udp%3A%2F%2Ftracker.coppersurfer.tk%3A6969%2Fannounce&tr=udp%3A%2F%2F9.rarbg.to%3A2920%2Fannounce&tr=udp%3A%2F%2Ftracker.opentrackr.org%3A1337&tr=udp%3A%2F%2Ftracker.internetwarriors.net%3A1337%2Fannounce&tr=udp%3A%2F%2Ftracker.leechers-paradise.org%3A6969%2Fannounce&tr=udp%3A%2F%2Ftracker.coppersurfer.tk%3A6969%2Fannounce&tr=udp%3A%2F%2Ftracker.pirateparty.gr%3A6969%2Fannounce&tr=udp%3A%2F%2Ftracker.cyberia.is%3A6969%2Fannounce",
        "seeder": "383",
        "leecher": "156"
    },
    {
        "rank": "58",
        "title": "Your.Honor.US.S01.COMPLETE.720p.AMZN.WEBRip.x264-GalaxyTV",
        "link": "magnet:?xt=urn:btih:1729E4ECB97157E4674CDA9028963AC0C85D1EC4&dn=Your.Honor.US.S01.COMPLETE.720p.AMZN.WEBRip.x264-GalaxyTV&tr=udp%3A%2F%2Ftracker.coppersurfer.tk%3A6969%2Fannounce&tr=udp%3A%2F%2F9.rarbg.to%3A2920%2Fannounce&tr=udp%3A%2F%2Ftracker.opentrackr.org%3A1337&tr=udp%3A%2F%2Ftracker.internetwarriors.net%3A1337%2Fannounce&tr=udp%3A%2F%2Ftracker.leechers-paradise.org%3A6969%2Fannounce&tr=udp%3A%2F%2Ftracker.coppersurfer.tk%3A6969%2Fannounce&tr=udp%3A%2F%2Ftracker.pirateparty.gr%3A6969%2Fannounce&tr=udp%3A%2F%2Ftracker.cyberia.is%3A6969%2Fannounce",
        "seeder": "381",
        "leecher": "151"
    },
    {
        "rank": "59",
        "title": "Resident.Alien.S01.COMPLETE.720p.AMZN.WEBRip.x264-GalaxyTV",
        "link": "magnet:?xt=urn:btih:117C6D4D5981A82790C0A52511A23E208122A64E&dn=Resident.Alien.S01.COMPLETE.720p.AMZN.WEBRip.x264-GalaxyTV&tr=udp%3A%2F%2Ftracker.coppersurfer.tk%3A6969%2Fannounce&tr=udp%3A%2F%2F9.rarbg.to%3A2920%2Fannounce&tr=udp%3A%2F%2Ftracker.opentrackr.org%3A1337&tr=udp%3A%2F%2Ftracker.internetwarriors.net%3A1337%2Fannounce&tr=udp%3A%2F%2Ftracker.leechers-paradise.org%3A6969%2Fannounce&tr=udp%3A%2F%2Ftracker.coppersurfer.tk%3A6969%2Fannounce&tr=udp%3A%2F%2Ftracker.pirateparty.gr%3A6969%2Fannounce&tr=udp%3A%2F%2Ftracker.cyberia.is%3A6969%2Fannounce",
        "seeder": "379",
        "leecher": "174"
    },
    {
        "rank": "60",
        "title": "WandaVision.S01E05.720p.WEB.x265-MiNX[TGx]",
        "link": "magnet:?xt=urn:btih:3B762F7C250C997D24CB59A6A38B07D0FEFB2A82&dn=WandaVision.S01E05.720p.WEB.x265-MiNX%5BTGx%5D&tr=udp%3A%2F%2Ftracker.coppersurfer.tk%3A6969%2Fannounce&tr=udp%3A%2F%2F9.rarbg.to%3A2920%2Fannounce&tr=udp%3A%2F%2Ftracker.opentrackr.org%3A1337&tr=udp%3A%2F%2Ftracker.internetwarriors.net%3A1337%2Fannounce&tr=udp%3A%2F%2Ftracker.leechers-paradise.org%3A6969%2Fannounce&tr=udp%3A%2F%2Ftracker.coppersurfer.tk%3A6969%2Fannounce&tr=udp%3A%2F%2Ftracker.pirateparty.gr%3A6969%2Fannounce&tr=udp%3A%2F%2Ftracker.cyberia.is%3A6969%2Fannounce",
        "seeder": "376",
        "leecher": "28"
    },
    {
        "rank": "61",
        "title": "The.Undoing.S01.COMPLETE.720p.AMZN.WEBRip.x264-GalaxyTV",
        "link": "magnet:?xt=urn:btih:981F3BFBC5F411876810601F59F761FDEBE87E29&dn=The.Undoing.S01.COMPLETE.720p.AMZN.WEBRip.x264-GalaxyTV&tr=udp%3A%2F%2Ftracker.coppersurfer.tk%3A6969%2Fannounce&tr=udp%3A%2F%2F9.rarbg.to%3A2920%2Fannounce&tr=udp%3A%2F%2Ftracker.opentrackr.org%3A1337&tr=udp%3A%2F%2Ftracker.internetwarriors.net%3A1337%2Fannounce&tr=udp%3A%2F%2Ftracker.leechers-paradise.org%3A6969%2Fannounce&tr=udp%3A%2F%2Ftracker.coppersurfer.tk%3A6969%2Fannounce&tr=udp%3A%2F%2Ftracker.pirateparty.gr%3A6969%2Fannounce&tr=udp%3A%2F%2Ftracker.cyberia.is%3A6969%2Fannounce",
        "seeder": "376",
        "leecher": "69"
    },
    {
        "rank": "62",
        "title": "Attack.on.Titan.Shingeki.no.Kyojin.S04E14.E73.Eng.Sub.1080p.x264",
        "link": "magnet:?xt=urn:btih:98630D996F31B13EB36151886F5DC0463774D583&dn=Attack.on.Titan.Shingeki.no.Kyojin.S04E14.E73.Eng.Sub.1080p.x264&tr=udp%3A%2F%2Ftracker.coppersurfer.tk%3A6969%2Fannounce&tr=udp%3A%2F%2F9.rarbg.to%3A2920%2Fannounce&tr=udp%3A%2F%2Ftracker.opentrackr.org%3A1337&tr=udp%3A%2F%2Ftracker.internetwarriors.net%3A1337%2Fannounce&tr=udp%3A%2F%2Ftracker.leechers-paradise.org%3A6969%2Fannounce&tr=udp%3A%2F%2Ftracker.coppersurfer.tk%3A6969%2Fannounce&tr=udp%3A%2F%2Ftracker.pirateparty.gr%3A6969%2Fannounce&tr=udp%3A%2F%2Ftracker.cyberia.is%3A6969%2Fannounce",
        "seeder": "372",
        "leecher": "35"
    },
    {
        "rank": "63",
        "title": "Normal.People.S01.COMPLETE.720p.STAN.WEBRip.x264-GalaxyTV",
        "link": "magnet:?xt=urn:btih:CF909A58F8F8E0825AA00145A7E0576505CA6F92&dn=Normal.People.S01.COMPLETE.720p.STAN.WEBRip.x264-GalaxyTV&tr=udp%3A%2F%2Ftracker.coppersurfer.tk%3A6969%2Fannounce&tr=udp%3A%2F%2F9.rarbg.to%3A2920%2Fannounce&tr=udp%3A%2F%2Ftracker.opentrackr.org%3A1337&tr=udp%3A%2F%2Ftracker.internetwarriors.net%3A1337%2Fannounce&tr=udp%3A%2F%2Ftracker.leechers-paradise.org%3A6969%2Fannounce&tr=udp%3A%2F%2Ftracker.coppersurfer.tk%3A6969%2Fannounce&tr=udp%3A%2F%2Ftracker.pirateparty.gr%3A6969%2Fannounce&tr=udp%3A%2F%2Ftracker.cyberia.is%3A6969%2Fannounce",
        "seeder": "367",
        "leecher": "108"
    },
    {
        "rank": "64",
        "title": "WandaVision.S01E09.720p.WEB.x265-MiNX[TGx]",
        "link": "magnet:?xt=urn:btih:D65ECE6057D9A4E06B68955DEA43B8E3F50D246D&dn=WandaVision.S01E09.720p.WEB.x265-MiNX%5BTGx%5D&tr=udp%3A%2F%2Ftracker.coppersurfer.tk%3A6969%2Fannounce&tr=udp%3A%2F%2F9.rarbg.to%3A2920%2Fannounce&tr=udp%3A%2F%2Ftracker.opentrackr.org%3A1337&tr=udp%3A%2F%2Ftracker.internetwarriors.net%3A1337%2Fannounce&tr=udp%3A%2F%2Ftracker.leechers-paradise.org%3A6969%2Fannounce&tr=udp%3A%2F%2Ftracker.coppersurfer.tk%3A6969%2Fannounce&tr=udp%3A%2F%2Ftracker.pirateparty.gr%3A6969%2Fannounce&tr=udp%3A%2F%2Ftracker.cyberia.is%3A6969%2Fannounce",
        "seeder": "364",
        "leecher": "50"
    },
    {
        "rank": "65",
        "title": "Invincible.2021.S01E01.Its.About.Time.1080p.AMZN.WEBRip.DDP5.1.x",
        "link": "magnet:?xt=urn:btih:674F498B80D1328A4CA59FFC80ACFB06596E4955&dn=Invincible.2021.S01E01.Its.About.Time.1080p.AMZN.WEBRip.DDP5.1.x&tr=udp%3A%2F%2Ftracker.coppersurfer.tk%3A6969%2Fannounce&tr=udp%3A%2F%2F9.rarbg.to%3A2920%2Fannounce&tr=udp%3A%2F%2Ftracker.opentrackr.org%3A1337&tr=udp%3A%2F%2Ftracker.internetwarriors.net%3A1337%2Fannounce&tr=udp%3A%2F%2Ftracker.leechers-paradise.org%3A6969%2Fannounce&tr=udp%3A%2F%2Ftracker.coppersurfer.tk%3A6969%2Fannounce&tr=udp%3A%2F%2Ftracker.pirateparty.gr%3A6969%2Fannounce&tr=udp%3A%2F%2Ftracker.cyberia.is%3A6969%2Fannounce",
        "seeder": "357",
        "leecher": "117"
    },
    {
        "rank": "66",
        "title": "The Boys - Season 2 S02 - 2020 - 1080p AMZN WEBRip AAC5.1 x264-R",
        "link": "magnet:?xt=urn:btih:85B31DC630A3D98241AE1A85B3943DD4572C1F04&dn=The+Boys+-+Season+2+S02+-+2020+-+1080p+AMZN+WEBRip+AAC5.1+x264-R&tr=udp%3A%2F%2Ftracker.coppersurfer.tk%3A6969%2Fannounce&tr=udp%3A%2F%2F9.rarbg.to%3A2920%2Fannounce&tr=udp%3A%2F%2Ftracker.opentrackr.org%3A1337&tr=udp%3A%2F%2Ftracker.internetwarriors.net%3A1337%2Fannounce&tr=udp%3A%2F%2Ftracker.leechers-paradise.org%3A6969%2Fannounce&tr=udp%3A%2F%2Ftracker.coppersurfer.tk%3A6969%2Fannounce&tr=udp%3A%2F%2Ftracker.pirateparty.gr%3A6969%2Fannounce&tr=udp%3A%2F%2Ftracker.cyberia.is%3A6969%2Fannounce",
        "seeder": "356",
        "leecher": "147"
    },
    {
        "rank": "67",
        "title": "Friends Season 1 COMPLETE 720p.BRrip.sujaidr (pimprg)",
        "link": "magnet:?xt=urn:btih:1DF3B55A3C4FF2CC1DE22012CA18C548AFCECF8E&dn=Friends+Season+1+COMPLETE+720p.BRrip.sujaidr+%28pimprg%29&tr=udp%3A%2F%2Ftracker.coppersurfer.tk%3A6969%2Fannounce&tr=udp%3A%2F%2F9.rarbg.to%3A2920%2Fannounce&tr=udp%3A%2F%2Ftracker.opentrackr.org%3A1337&tr=udp%3A%2F%2Ftracker.internetwarriors.net%3A1337%2Fannounce&tr=udp%3A%2F%2Ftracker.leechers-paradise.org%3A6969%2Fannounce&tr=udp%3A%2F%2Ftracker.coppersurfer.tk%3A6969%2Fannounce&tr=udp%3A%2F%2Ftracker.pirateparty.gr%3A6969%2Fannounce&tr=udp%3A%2F%2Ftracker.cyberia.is%3A6969%2Fannounce",
        "seeder": "353",
        "leecher": "210"
    },
    {
        "rank": "68",
        "title": "WandaVision.S01E07.720p.WEB.x265-MiNX[TGx]",
        "link": "magnet:?xt=urn:btih:2005C6707977D59A503C92E4E594A282D17EACB0&dn=WandaVision.S01E07.720p.WEB.x265-MiNX%5BTGx%5D&tr=udp%3A%2F%2Ftracker.coppersurfer.tk%3A6969%2Fannounce&tr=udp%3A%2F%2F9.rarbg.to%3A2920%2Fannounce&tr=udp%3A%2F%2Ftracker.opentrackr.org%3A1337&tr=udp%3A%2F%2Ftracker.internetwarriors.net%3A1337%2Fannounce&tr=udp%3A%2F%2Ftracker.leechers-paradise.org%3A6969%2Fannounce&tr=udp%3A%2F%2Ftracker.coppersurfer.tk%3A6969%2Fannounce&tr=udp%3A%2F%2Ftracker.pirateparty.gr%3A6969%2Fannounce&tr=udp%3A%2F%2Ftracker.cyberia.is%3A6969%2Fannounce",
        "seeder": "350",
        "leecher": "19"
    },
    {
        "rank": "69",
        "title": "WandaVision.S01E06.720p.WEBRip.x265-MiNX[TGx]",
        "link": "magnet:?xt=urn:btih:6336B7F25BB1895F351D0361AD74A32407106287&dn=WandaVision.S01E06.720p.WEBRip.x265-MiNX%5BTGx%5D&tr=udp%3A%2F%2Ftracker.coppersurfer.tk%3A6969%2Fannounce&tr=udp%3A%2F%2F9.rarbg.to%3A2920%2Fannounce&tr=udp%3A%2F%2Ftracker.opentrackr.org%3A1337&tr=udp%3A%2F%2Ftracker.internetwarriors.net%3A1337%2Fannounce&tr=udp%3A%2F%2Ftracker.leechers-paradise.org%3A6969%2Fannounce&tr=udp%3A%2F%2Ftracker.coppersurfer.tk%3A6969%2Fannounce&tr=udp%3A%2F%2Ftracker.pirateparty.gr%3A6969%2Fannounce&tr=udp%3A%2F%2Ftracker.cyberia.is%3A6969%2Fannounce",
        "seeder": "350",
        "leecher": "17"
    },
    {
        "rank": "70",
        "title": "Attack on Titan Season 2 Shingeki no Kyojin Dual Audio 720p",
        "link": "magnet:?xt=urn:btih:17ED929C58FCE05D7A7A90259B38D46543376746&dn=Attack+on+Titan+Season+2+Shingeki+no+Kyojin+Dual+Audio+720p&tr=udp%3A%2F%2Ftracker.coppersurfer.tk%3A6969%2Fannounce&tr=udp%3A%2F%2F9.rarbg.to%3A2920%2Fannounce&tr=udp%3A%2F%2Ftracker.opentrackr.org%3A1337&tr=udp%3A%2F%2Ftracker.internetwarriors.net%3A1337%2Fannounce&tr=udp%3A%2F%2Ftracker.leechers-paradise.org%3A6969%2Fannounce&tr=udp%3A%2F%2Ftracker.coppersurfer.tk%3A6969%2Fannounce&tr=udp%3A%2F%2Ftracker.pirateparty.gr%3A6969%2Fannounce&tr=udp%3A%2F%2Ftracker.cyberia.is%3A6969%2Fannounce",
        "seeder": "348",
        "leecher": "114"
    },
    {
        "rank": "71",
        "title": "The.Walking.Dead.S10E22.1080p.WEB.H264-GGWP[TGx]",
        "link": "magnet:?xt=urn:btih:5361852A64DF7E5E165CD5F3E8143C6CA89E7039&dn=The.Walking.Dead.S10E22.1080p.WEB.H264-GGWP%5BTGx%5D&tr=udp%3A%2F%2Ftracker.coppersurfer.tk%3A6969%2Fannounce&tr=udp%3A%2F%2F9.rarbg.to%3A2920%2Fannounce&tr=udp%3A%2F%2Ftracker.opentrackr.org%3A1337&tr=udp%3A%2F%2Ftracker.internetwarriors.net%3A1337%2Fannounce&tr=udp%3A%2F%2Ftracker.leechers-paradise.org%3A6969%2Fannounce&tr=udp%3A%2F%2Ftracker.coppersurfer.tk%3A6969%2Fannounce&tr=udp%3A%2F%2Ftracker.pirateparty.gr%3A6969%2Fannounce&tr=udp%3A%2F%2Ftracker.cyberia.is%3A6969%2Fannounce",
        "seeder": "347",
        "leecher": "41"
    },
    {
        "rank": "72",
        "title": "The.Falcon.and.The.Winter.Soldier.S01E03.Power.Broker.720p.DSNP.",
        "link": "magnet:?xt=urn:btih:02D30E926D2E360B0B85BAD48500799038D0F0C7&dn=The.Falcon.and.The.Winter.Soldier.S01E03.Power.Broker.720p.DSNP.&tr=udp%3A%2F%2Ftracker.coppersurfer.tk%3A6969%2Fannounce&tr=udp%3A%2F%2F9.rarbg.to%3A2920%2Fannounce&tr=udp%3A%2F%2Ftracker.opentrackr.org%3A1337&tr=udp%3A%2F%2Ftracker.internetwarriors.net%3A1337%2Fannounce&tr=udp%3A%2F%2Ftracker.leechers-paradise.org%3A6969%2Fannounce&tr=udp%3A%2F%2Ftracker.coppersurfer.tk%3A6969%2Fannounce&tr=udp%3A%2F%2Ftracker.pirateparty.gr%3A6969%2Fannounce&tr=udp%3A%2F%2Ftracker.cyberia.is%3A6969%2Fannounce",
        "seeder": "345",
        "leecher": "89"
    },
    {
        "rank": "73",
        "title": "Game of Thrones S07 Complete Season 7 720p x264 AC3 5.1 (MP4)",
        "link": "magnet:?xt=urn:btih:4F9B0D42CC170B43A3816279A2DC24CBB9DAC107&dn=Game+of+Thrones+S07+Complete+Season+7+720p+x264+AC3+5.1+%28MP4%29&tr=udp%3A%2F%2Ftracker.coppersurfer.tk%3A6969%2Fannounce&tr=udp%3A%2F%2F9.rarbg.to%3A2920%2Fannounce&tr=udp%3A%2F%2Ftracker.opentrackr.org%3A1337&tr=udp%3A%2F%2Ftracker.internetwarriors.net%3A1337%2Fannounce&tr=udp%3A%2F%2Ftracker.leechers-paradise.org%3A6969%2Fannounce&tr=udp%3A%2F%2Ftracker.coppersurfer.tk%3A6969%2Fannounce&tr=udp%3A%2F%2Ftracker.pirateparty.gr%3A6969%2Fannounce&tr=udp%3A%2F%2Ftracker.cyberia.is%3A6969%2Fannounce",
        "seeder": "343",
        "leecher": "111"
    },
    {
        "rank": "74",
        "title": "The.Mandalorian.S01.COMPLETE.1080p.WEBRiP.x264-MIXED[TGx]",
        "link": "magnet:?xt=urn:btih:E857C6C6AB8DBBD91E477B9BDA25F8BB80BBD046&dn=The.Mandalorian.S01.COMPLETE.1080p.WEBRiP.x264-MIXED%5BTGx%5D&tr=udp%3A%2F%2Ftracker.coppersurfer.tk%3A6969%2Fannounce&tr=udp%3A%2F%2F9.rarbg.to%3A2920%2Fannounce&tr=udp%3A%2F%2Ftracker.opentrackr.org%3A1337&tr=udp%3A%2F%2Ftracker.internetwarriors.net%3A1337%2Fannounce&tr=udp%3A%2F%2Ftracker.leechers-paradise.org%3A6969%2Fannounce&tr=udp%3A%2F%2Ftracker.coppersurfer.tk%3A6969%2Fannounce&tr=udp%3A%2F%2Ftracker.pirateparty.gr%3A6969%2Fannounce&tr=udp%3A%2F%2Ftracker.cyberia.is%3A6969%2Fannounce",
        "seeder": "341",
        "leecher": "69"
    },
    {
        "rank": "75",
        "title": "The.Witcher.S01.COMPLETE.720p.NF.WEBRip.x264-GalaxyTV",
        "link": "magnet:?xt=urn:btih:20D0B46B041E66D7D0FF149C52EEF95E71FCA810&dn=The.Witcher.S01.COMPLETE.720p.NF.WEBRip.x264-GalaxyTV&tr=udp%3A%2F%2Ftracker.coppersurfer.tk%3A6969%2Fannounce&tr=udp%3A%2F%2F9.rarbg.to%3A2920%2Fannounce&tr=udp%3A%2F%2Ftracker.opentrackr.org%3A1337&tr=udp%3A%2F%2Ftracker.internetwarriors.net%3A1337%2Fannounce&tr=udp%3A%2F%2Ftracker.leechers-paradise.org%3A6969%2Fannounce&tr=udp%3A%2F%2Ftracker.coppersurfer.tk%3A6969%2Fannounce&tr=udp%3A%2F%2Ftracker.pirateparty.gr%3A6969%2Fannounce&tr=udp%3A%2F%2Ftracker.cyberia.is%3A6969%2Fannounce",
        "seeder": "340",
        "leecher": "81"
    },
    {
        "rank": "76",
        "title": "ufc.260.ppv.720p.web.h264-verum[TGx]",
        "link": "magnet:?xt=urn:btih:856292D6201EB7F5F8CA86ED35EEDB44B7CE90EF&dn=ufc.260.ppv.720p.web.h264-verum%5BTGx%5D&tr=udp%3A%2F%2Ftracker.coppersurfer.tk%3A6969%2Fannounce&tr=udp%3A%2F%2F9.rarbg.to%3A2920%2Fannounce&tr=udp%3A%2F%2Ftracker.opentrackr.org%3A1337&tr=udp%3A%2F%2Ftracker.internetwarriors.net%3A1337%2Fannounce&tr=udp%3A%2F%2Ftracker.leechers-paradise.org%3A6969%2Fannounce&tr=udp%3A%2F%2Ftracker.coppersurfer.tk%3A6969%2Fannounce&tr=udp%3A%2F%2Ftracker.pirateparty.gr%3A6969%2Fannounce&tr=udp%3A%2F%2Ftracker.cyberia.is%3A6969%2Fannounce",
        "seeder": "339",
        "leecher": "8"
    },
    {
        "rank": "77",
        "title": "Resident.Alien.S01E03.720p.WEB.x265-MiNX[TGx]",
        "link": "magnet:?xt=urn:btih:7A0FE6DCFCD8F3AE6AAF2621F25AD51FF1FD2A69&dn=Resident.Alien.S01E03.720p.WEB.x265-MiNX%5BTGx%5D&tr=udp%3A%2F%2Ftracker.coppersurfer.tk%3A6969%2Fannounce&tr=udp%3A%2F%2F9.rarbg.to%3A2920%2Fannounce&tr=udp%3A%2F%2Ftracker.opentrackr.org%3A1337&tr=udp%3A%2F%2Ftracker.internetwarriors.net%3A1337%2Fannounce&tr=udp%3A%2F%2Ftracker.leechers-paradise.org%3A6969%2Fannounce&tr=udp%3A%2F%2Ftracker.coppersurfer.tk%3A6969%2Fannounce&tr=udp%3A%2F%2Ftracker.pirateparty.gr%3A6969%2Fannounce&tr=udp%3A%2F%2Ftracker.cyberia.is%3A6969%2Fannounce",
        "seeder": "339",
        "leecher": "105"
    },
    {
        "rank": "78",
        "title": "DOTA.Dragons.Blood.S01.COMPLETE.1080p.WEB.h264-PALEALE[TGx]",
        "link": "magnet:?xt=urn:btih:2E15538B6D8DEFCC47CFA237E7A3AE5FBF48F346&dn=DOTA.Dragons.Blood.S01.COMPLETE.1080p.WEB.h264-PALEALE%5BTGx%5D&tr=udp%3A%2F%2Ftracker.coppersurfer.tk%3A6969%2Fannounce&tr=udp%3A%2F%2F9.rarbg.to%3A2920%2Fannounce&tr=udp%3A%2F%2Ftracker.opentrackr.org%3A1337&tr=udp%3A%2F%2Ftracker.internetwarriors.net%3A1337%2Fannounce&tr=udp%3A%2F%2Ftracker.leechers-paradise.org%3A6969%2Fannounce&tr=udp%3A%2F%2Ftracker.coppersurfer.tk%3A6969%2Fannounce&tr=udp%3A%2F%2Ftracker.pirateparty.gr%3A6969%2Fannounce&tr=udp%3A%2F%2Ftracker.cyberia.is%3A6969%2Fannounce",
        "seeder": "337",
        "leecher": "111"
    },
    {
        "rank": "79",
        "title": "Invincible.2021.S01E03.Who.You.Calling.Ugly.1080p.AMZN.WEBRip.DD",
        "link": "magnet:?xt=urn:btih:C5848FB29D124B5579894D563F7F4912A691B278&dn=Invincible.2021.S01E03.Who.You.Calling.Ugly.1080p.AMZN.WEBRip.DD&tr=udp%3A%2F%2Ftracker.coppersurfer.tk%3A6969%2Fannounce&tr=udp%3A%2F%2F9.rarbg.to%3A2920%2Fannounce&tr=udp%3A%2F%2Ftracker.opentrackr.org%3A1337&tr=udp%3A%2F%2Ftracker.internetwarriors.net%3A1337%2Fannounce&tr=udp%3A%2F%2Ftracker.leechers-paradise.org%3A6969%2Fannounce&tr=udp%3A%2F%2Ftracker.coppersurfer.tk%3A6969%2Fannounce&tr=udp%3A%2F%2Ftracker.pirateparty.gr%3A6969%2Fannounce&tr=udp%3A%2F%2Ftracker.cyberia.is%3A6969%2Fannounce",
        "seeder": "334",
        "leecher": "77"
    },
    {
        "rank": "80",
        "title": "The Expanse - Complete Season 1 S01 - 720p HDTV x264 (+ Subs)",
        "link": "magnet:?xt=urn:btih:B41A7D341A53966B64DDB7D7BD67911A43F6B722&dn=The+Expanse+-+Complete+Season+1+S01+-+720p+HDTV+x264+%28%2B+Subs%29&tr=udp%3A%2F%2Ftracker.coppersurfer.tk%3A6969%2Fannounce&tr=udp%3A%2F%2F9.rarbg.to%3A2920%2Fannounce&tr=udp%3A%2F%2Ftracker.opentrackr.org%3A1337&tr=udp%3A%2F%2Ftracker.internetwarriors.net%3A1337%2Fannounce&tr=udp%3A%2F%2Ftracker.leechers-paradise.org%3A6969%2Fannounce&tr=udp%3A%2F%2Ftracker.coppersurfer.tk%3A6969%2Fannounce&tr=udp%3A%2F%2Ftracker.pirateparty.gr%3A6969%2Fannounce&tr=udp%3A%2F%2Ftracker.cyberia.is%3A6969%2Fannounce",
        "seeder": "333",
        "leecher": "62"
    },
    {
        "rank": "81",
        "title": "The.Walking.Dead.S10E18.1080p.WEB.H264-GLHF",
        "link": "magnet:?xt=urn:btih:AFC634F60782AE4EA51D2BBFF506479F613CF761&dn=The.Walking.Dead.S10E18.1080p.WEB.H264-GLHF&tr=udp%3A%2F%2Ftracker.coppersurfer.tk%3A6969%2Fannounce&tr=udp%3A%2F%2F9.rarbg.to%3A2920%2Fannounce&tr=udp%3A%2F%2Ftracker.opentrackr.org%3A1337&tr=udp%3A%2F%2Ftracker.internetwarriors.net%3A1337%2Fannounce&tr=udp%3A%2F%2Ftracker.leechers-paradise.org%3A6969%2Fannounce&tr=udp%3A%2F%2Ftracker.coppersurfer.tk%3A6969%2Fannounce&tr=udp%3A%2F%2Ftracker.pirateparty.gr%3A6969%2Fannounce&tr=udp%3A%2F%2Ftracker.cyberia.is%3A6969%2Fannounce",
        "seeder": "331",
        "leecher": "93"
    },
    {
        "rank": "82",
        "title": "A.Discovery.of.Witches.S02.COMPLETE.720p.WEBRip.x264-GalaxyTV",
        "link": "magnet:?xt=urn:btih:E67434285B23529B20449CE8F760F005DEE84C8C&dn=A.Discovery.of.Witches.S02.COMPLETE.720p.WEBRip.x264-GalaxyTV&tr=udp%3A%2F%2Ftracker.coppersurfer.tk%3A6969%2Fannounce&tr=udp%3A%2F%2F9.rarbg.to%3A2920%2Fannounce&tr=udp%3A%2F%2Ftracker.opentrackr.org%3A1337&tr=udp%3A%2F%2Ftracker.internetwarriors.net%3A1337%2Fannounce&tr=udp%3A%2F%2Ftracker.leechers-paradise.org%3A6969%2Fannounce&tr=udp%3A%2F%2Ftracker.coppersurfer.tk%3A6969%2Fannounce&tr=udp%3A%2F%2Ftracker.pirateparty.gr%3A6969%2Fannounce&tr=udp%3A%2F%2Ftracker.cyberia.is%3A6969%2Fannounce",
        "seeder": "328",
        "leecher": "108"
    },
    {
        "rank": "83",
        "title": "Attack.on.Titan.Shingeki.no.Kyojin.S04E11.E70.Eng.Sub.1080p.x264",
        "link": "magnet:?xt=urn:btih:95F2C0A408D64BFA4A825D829B35C46006962A95&dn=Attack.on.Titan.Shingeki.no.Kyojin.S04E11.E70.Eng.Sub.1080p.x264&tr=udp%3A%2F%2Ftracker.coppersurfer.tk%3A6969%2Fannounce&tr=udp%3A%2F%2F9.rarbg.to%3A2920%2Fannounce&tr=udp%3A%2F%2Ftracker.opentrackr.org%3A1337&tr=udp%3A%2F%2Ftracker.internetwarriors.net%3A1337%2Fannounce&tr=udp%3A%2F%2Ftracker.leechers-paradise.org%3A6969%2Fannounce&tr=udp%3A%2F%2Ftracker.coppersurfer.tk%3A6969%2Fannounce&tr=udp%3A%2F%2Ftracker.pirateparty.gr%3A6969%2Fannounce&tr=udp%3A%2F%2Ftracker.cyberia.is%3A6969%2Fannounce",
        "seeder": "321",
        "leecher": "24"
    },
    {
        "rank": "84",
        "title": "[Erai-raws] Shingeki no Kyojin - The Final Season - 01 [1080p][M",
        "link": "magnet:?xt=urn:btih:D829891969B9971E1D698DC0A4224362D4E0CB95&dn=%5BErai-raws%5D+Shingeki+no+Kyojin+-+The+Final+Season+-+01+%5B1080p%5D%5BM&tr=udp%3A%2F%2Ftracker.coppersurfer.tk%3A6969%2Fannounce&tr=udp%3A%2F%2F9.rarbg.to%3A2920%2Fannounce&tr=udp%3A%2F%2Ftracker.opentrackr.org%3A1337&tr=udp%3A%2F%2Ftracker.internetwarriors.net%3A1337%2Fannounce&tr=udp%3A%2F%2Ftracker.leechers-paradise.org%3A6969%2Fannounce&tr=udp%3A%2F%2Ftracker.coppersurfer.tk%3A6969%2Fannounce&tr=udp%3A%2F%2Ftracker.pirateparty.gr%3A6969%2Fannounce&tr=udp%3A%2F%2Ftracker.cyberia.is%3A6969%2Fannounce",
        "seeder": "321",
        "leecher": "79"
    },
    {
        "rank": "85",
        "title": "Attack.on.Titan.Shingeki.no.Kyojin.S04E10.E68.Eng.Sub.1080p.x264",
        "link": "magnet:?xt=urn:btih:95908F7BA213D6344397518F9D798FE7B65AADEA&dn=Attack.on.Titan.Shingeki.no.Kyojin.S04E10.E68.Eng.Sub.1080p.x264&tr=udp%3A%2F%2Ftracker.coppersurfer.tk%3A6969%2Fannounce&tr=udp%3A%2F%2F9.rarbg.to%3A2920%2Fannounce&tr=udp%3A%2F%2Ftracker.opentrackr.org%3A1337&tr=udp%3A%2F%2Ftracker.internetwarriors.net%3A1337%2Fannounce&tr=udp%3A%2F%2Ftracker.leechers-paradise.org%3A6969%2Fannounce&tr=udp%3A%2F%2Ftracker.coppersurfer.tk%3A6969%2Fannounce&tr=udp%3A%2F%2Ftracker.pirateparty.gr%3A6969%2Fannounce&tr=udp%3A%2F%2Ftracker.cyberia.is%3A6969%2Fannounce",
        "seeder": "320",
        "leecher": "24"
    },
    {
        "rank": "86",
        "title": "Gangs.Of.London.S01.COMPLETE.720p.HDTV.x264-GalaxyTV",
        "link": "magnet:?xt=urn:btih:97F1DA02ECBC0DBC51EBF859AB14B651886B9772&dn=Gangs.Of.London.S01.COMPLETE.720p.HDTV.x264-GalaxyTV&tr=udp%3A%2F%2Ftracker.coppersurfer.tk%3A6969%2Fannounce&tr=udp%3A%2F%2F9.rarbg.to%3A2920%2Fannounce&tr=udp%3A%2F%2Ftracker.opentrackr.org%3A1337&tr=udp%3A%2F%2Ftracker.internetwarriors.net%3A1337%2Fannounce&tr=udp%3A%2F%2Ftracker.leechers-paradise.org%3A6969%2Fannounce&tr=udp%3A%2F%2Ftracker.coppersurfer.tk%3A6969%2Fannounce&tr=udp%3A%2F%2Ftracker.pirateparty.gr%3A6969%2Fannounce&tr=udp%3A%2F%2Ftracker.cyberia.is%3A6969%2Fannounce",
        "seeder": "319",
        "leecher": "60"
    },
    {
        "rank": "87",
        "title": "Ginny.and.Georgia.S01.COMPLETE.720p.NF.WEBRip.x264-GalaxyTV",
        "link": "magnet:?xt=urn:btih:BD55344BBB1741240DEFA4551416A35593DA4565&dn=Ginny.and.Georgia.S01.COMPLETE.720p.NF.WEBRip.x264-GalaxyTV&tr=udp%3A%2F%2Ftracker.coppersurfer.tk%3A6969%2Fannounce&tr=udp%3A%2F%2F9.rarbg.to%3A2920%2Fannounce&tr=udp%3A%2F%2Ftracker.opentrackr.org%3A1337&tr=udp%3A%2F%2Ftracker.internetwarriors.net%3A1337%2Fannounce&tr=udp%3A%2F%2Ftracker.leechers-paradise.org%3A6969%2Fannounce&tr=udp%3A%2F%2Ftracker.coppersurfer.tk%3A6969%2Fannounce&tr=udp%3A%2F%2Ftracker.pirateparty.gr%3A6969%2Fannounce&tr=udp%3A%2F%2Ftracker.cyberia.is%3A6969%2Fannounce",
        "seeder": "318",
        "leecher": "219"
    },
    {
        "rank": "88",
        "title": "Mirzapur (2020) Hindi S02 Complete 720p AMZN WEBRip",
        "link": "magnet:?xt=urn:btih:262B853A46E25FDFF71C073DA9865CC2885FC0FC&dn=Mirzapur+%282020%29+Hindi+S02+Complete+720p+AMZN+WEBRip&tr=udp%3A%2F%2Ftracker.coppersurfer.tk%3A6969%2Fannounce&tr=udp%3A%2F%2F9.rarbg.to%3A2920%2Fannounce&tr=udp%3A%2F%2Ftracker.opentrackr.org%3A1337&tr=udp%3A%2F%2Ftracker.internetwarriors.net%3A1337%2Fannounce&tr=udp%3A%2F%2Ftracker.leechers-paradise.org%3A6969%2Fannounce&tr=udp%3A%2F%2Ftracker.coppersurfer.tk%3A6969%2Fannounce&tr=udp%3A%2F%2Ftracker.pirateparty.gr%3A6969%2Fannounce&tr=udp%3A%2F%2Ftracker.cyberia.is%3A6969%2Fannounce",
        "seeder": "318",
        "leecher": "31"
    },
    {
        "rank": "89",
        "title": "The.Walking.Dead.S10E16.720p.WEBRip.x265-MiNX[TGx]",
        "link": "magnet:?xt=urn:btih:24A523DB1948B726F11A4CFC876C71FC349C6CDE&dn=The.Walking.Dead.S10E16.720p.WEBRip.x265-MiNX%5BTGx%5D&tr=udp%3A%2F%2Ftracker.coppersurfer.tk%3A6969%2Fannounce&tr=udp%3A%2F%2F9.rarbg.to%3A2920%2Fannounce&tr=udp%3A%2F%2Ftracker.opentrackr.org%3A1337&tr=udp%3A%2F%2Ftracker.internetwarriors.net%3A1337%2Fannounce&tr=udp%3A%2F%2Ftracker.leechers-paradise.org%3A6969%2Fannounce&tr=udp%3A%2F%2Ftracker.coppersurfer.tk%3A6969%2Fannounce&tr=udp%3A%2F%2Ftracker.pirateparty.gr%3A6969%2Fannounce&tr=udp%3A%2F%2Ftracker.cyberia.is%3A6969%2Fannounce",
        "seeder": "318",
        "leecher": "74"
    },
    {
        "rank": "90",
        "title": "Game of Thrones - Season 5 - 720p BluRay - x264 - ShAaNiG",
        "link": "magnet:?xt=urn:btih:5AD72DE4793DF54FA40ADFC1249D30D80D1A5649&dn=Game+of+Thrones+-+Season+5+-+720p+BluRay+-+x264+-+ShAaNiG&tr=udp%3A%2F%2Ftracker.coppersurfer.tk%3A6969%2Fannounce&tr=udp%3A%2F%2F9.rarbg.to%3A2920%2Fannounce&tr=udp%3A%2F%2Ftracker.opentrackr.org%3A1337&tr=udp%3A%2F%2Ftracker.internetwarriors.net%3A1337%2Fannounce&tr=udp%3A%2F%2Ftracker.leechers-paradise.org%3A6969%2Fannounce&tr=udp%3A%2F%2Ftracker.coppersurfer.tk%3A6969%2Fannounce&tr=udp%3A%2F%2Ftracker.pirateparty.gr%3A6969%2Fannounce&tr=udp%3A%2F%2Ftracker.cyberia.is%3A6969%2Fannounce",
        "seeder": "314",
        "leecher": "166"
    },
    {
        "rank": "91",
        "title": "Game of Thrones - Season 4 - 720p BluRay - x264 - ShAaNiG",
        "link": "magnet:?xt=urn:btih:5A8AB73D09B5CEED22243C21CF3FDD6EC5803D7E&dn=Game+of+Thrones+-+Season+4+-+720p+BluRay+-+x264+-+ShAaNiG&tr=udp%3A%2F%2Ftracker.coppersurfer.tk%3A6969%2Fannounce&tr=udp%3A%2F%2F9.rarbg.to%3A2920%2Fannounce&tr=udp%3A%2F%2Ftracker.opentrackr.org%3A1337&tr=udp%3A%2F%2Ftracker.internetwarriors.net%3A1337%2Fannounce&tr=udp%3A%2F%2Ftracker.leechers-paradise.org%3A6969%2Fannounce&tr=udp%3A%2F%2Ftracker.coppersurfer.tk%3A6969%2Fannounce&tr=udp%3A%2F%2Ftracker.pirateparty.gr%3A6969%2Fannounce&tr=udp%3A%2F%2Ftracker.cyberia.is%3A6969%2Fannounce",
        "seeder": "312",
        "leecher": "150"
    },
    {
        "rank": "92",
        "title": "Snowpiercer.S02E09.720p.WEB.x265-MiNX[TGx]",
        "link": "magnet:?xt=urn:btih:A0708B6580D753EBA322341CD85CF8137BBA340C&dn=Snowpiercer.S02E09.720p.WEB.x265-MiNX%5BTGx%5D&tr=udp%3A%2F%2Ftracker.coppersurfer.tk%3A6969%2Fannounce&tr=udp%3A%2F%2F9.rarbg.to%3A2920%2Fannounce&tr=udp%3A%2F%2Ftracker.opentrackr.org%3A1337&tr=udp%3A%2F%2Ftracker.internetwarriors.net%3A1337%2Fannounce&tr=udp%3A%2F%2Ftracker.leechers-paradise.org%3A6969%2Fannounce&tr=udp%3A%2F%2Ftracker.coppersurfer.tk%3A6969%2Fannounce&tr=udp%3A%2F%2Ftracker.pirateparty.gr%3A6969%2Fannounce&tr=udp%3A%2F%2Ftracker.cyberia.is%3A6969%2Fannounce",
        "seeder": "310",
        "leecher": "76"
    },
    {
        "rank": "93",
        "title": "WandaVision.S01E08.720p.WEB.x265-MiNX[TGx]",
        "link": "magnet:?xt=urn:btih:10CE972D8E2EB8EF3250A8E16A88026B72C872CB&dn=WandaVision.S01E08.720p.WEB.x265-MiNX%5BTGx%5D&tr=udp%3A%2F%2Ftracker.coppersurfer.tk%3A6969%2Fannounce&tr=udp%3A%2F%2F9.rarbg.to%3A2920%2Fannounce&tr=udp%3A%2F%2Ftracker.opentrackr.org%3A1337&tr=udp%3A%2F%2Ftracker.internetwarriors.net%3A1337%2Fannounce&tr=udp%3A%2F%2Ftracker.leechers-paradise.org%3A6969%2Fannounce&tr=udp%3A%2F%2Ftracker.coppersurfer.tk%3A6969%2Fannounce&tr=udp%3A%2F%2Ftracker.pirateparty.gr%3A6969%2Fannounce&tr=udp%3A%2F%2Ftracker.cyberia.is%3A6969%2Fannounce",
        "seeder": "305",
        "leecher": "30"
    },
    {
        "rank": "94",
        "title": "The.Mandalorian.S02E01.Chapter.9.1080p.DSNP.WEB-DL.DDP.5.1.Atmos",
        "link": "magnet:?xt=urn:btih:86EA1A184D1DCA09E25CD4EA326355EF571D2444&dn=The.Mandalorian.S02E01.Chapter.9.1080p.DSNP.WEB-DL.DDP.5.1.Atmos&tr=udp%3A%2F%2Ftracker.coppersurfer.tk%3A6969%2Fannounce&tr=udp%3A%2F%2F9.rarbg.to%3A2920%2Fannounce&tr=udp%3A%2F%2Ftracker.opentrackr.org%3A1337&tr=udp%3A%2F%2Ftracker.internetwarriors.net%3A1337%2Fannounce&tr=udp%3A%2F%2Ftracker.leechers-paradise.org%3A6969%2Fannounce&tr=udp%3A%2F%2Ftracker.coppersurfer.tk%3A6969%2Fannounce&tr=udp%3A%2F%2Ftracker.pirateparty.gr%3A6969%2Fannounce&tr=udp%3A%2F%2Ftracker.cyberia.is%3A6969%2Fannounce",
        "seeder": "304",
        "leecher": "6"
    },
    {
        "rank": "95",
        "title": "Euphoria.US.S01.COMPLETE.720p.AMZN.WEBRip.x264-GalaxyTV",
        "link": "magnet:?xt=urn:btih:707EC60D116E30B84DF24E09E3E1304F6B5BEA96&dn=Euphoria.US.S01.COMPLETE.720p.AMZN.WEBRip.x264-GalaxyTV&tr=udp%3A%2F%2Ftracker.coppersurfer.tk%3A6969%2Fannounce&tr=udp%3A%2F%2F9.rarbg.to%3A2920%2Fannounce&tr=udp%3A%2F%2Ftracker.opentrackr.org%3A1337&tr=udp%3A%2F%2Ftracker.internetwarriors.net%3A1337%2Fannounce&tr=udp%3A%2F%2Ftracker.leechers-paradise.org%3A6969%2Fannounce&tr=udp%3A%2F%2Ftracker.coppersurfer.tk%3A6969%2Fannounce&tr=udp%3A%2F%2Ftracker.pirateparty.gr%3A6969%2Fannounce&tr=udp%3A%2F%2Ftracker.cyberia.is%3A6969%2Fannounce",
        "seeder": "299",
        "leecher": "145"
    },
    {
        "rank": "96",
        "title": "Attack.on.Titan.Shingeki.no.Kyojin.S04E13.E72.Eng.Sub.1080p.x264",
        "link": "magnet:?xt=urn:btih:D177EE7DDA403F757AA97B2BAF199A8A03E7BD8E&dn=Attack.on.Titan.Shingeki.no.Kyojin.S04E13.E72.Eng.Sub.1080p.x264&tr=udp%3A%2F%2Ftracker.coppersurfer.tk%3A6969%2Fannounce&tr=udp%3A%2F%2F9.rarbg.to%3A2920%2Fannounce&tr=udp%3A%2F%2Ftracker.opentrackr.org%3A1337&tr=udp%3A%2F%2Ftracker.internetwarriors.net%3A1337%2Fannounce&tr=udp%3A%2F%2Ftracker.leechers-paradise.org%3A6969%2Fannounce&tr=udp%3A%2F%2Ftracker.coppersurfer.tk%3A6969%2Fannounce&tr=udp%3A%2F%2Ftracker.pirateparty.gr%3A6969%2Fannounce&tr=udp%3A%2F%2Ftracker.cyberia.is%3A6969%2Fannounce",
        "seeder": "298",
        "leecher": "23"
    },
    {
        "rank": "97",
        "title": "Invincible.2021.S01E04.Neil.Armstrong.Eat.Your.Heart.Out.1080p.A",
        "link": "magnet:?xt=urn:btih:9C9348C4EB3FC62097AB7C42C309B15FE844B059&dn=Invincible.2021.S01E04.Neil.Armstrong.Eat.Your.Heart.Out.1080p.A&tr=udp%3A%2F%2Ftracker.coppersurfer.tk%3A6969%2Fannounce&tr=udp%3A%2F%2F9.rarbg.to%3A2920%2Fannounce&tr=udp%3A%2F%2Ftracker.opentrackr.org%3A1337&tr=udp%3A%2F%2Ftracker.internetwarriors.net%3A1337%2Fannounce&tr=udp%3A%2F%2Ftracker.leechers-paradise.org%3A6969%2Fannounce&tr=udp%3A%2F%2Ftracker.coppersurfer.tk%3A6969%2Fannounce&tr=udp%3A%2F%2Ftracker.pirateparty.gr%3A6969%2Fannounce&tr=udp%3A%2F%2Ftracker.cyberia.is%3A6969%2Fannounce",
        "seeder": "297",
        "leecher": "51"
    },
    {
        "rank": "98",
        "title": "Raised.by.Wolves.2020.S01.COMPLETE.720p.HMAX.WEBRip.x264-GalaxyT",
        "link": "magnet:?xt=urn:btih:51FF9E1074B02318D6AC0E6A6EDE8A4B23431989&dn=Raised.by.Wolves.2020.S01.COMPLETE.720p.HMAX.WEBRip.x264-GalaxyT&tr=udp%3A%2F%2Ftracker.coppersurfer.tk%3A6969%2Fannounce&tr=udp%3A%2F%2F9.rarbg.to%3A2920%2Fannounce&tr=udp%3A%2F%2Ftracker.opentrackr.org%3A1337&tr=udp%3A%2F%2Ftracker.internetwarriors.net%3A1337%2Fannounce&tr=udp%3A%2F%2Ftracker.leechers-paradise.org%3A6969%2Fannounce&tr=udp%3A%2F%2Ftracker.coppersurfer.tk%3A6969%2Fannounce&tr=udp%3A%2F%2Ftracker.pirateparty.gr%3A6969%2Fannounce&tr=udp%3A%2F%2Ftracker.cyberia.is%3A6969%2Fannounce",
        "seeder": "294",
        "leecher": "71"
    },
    {
        "rank": "99",
        "title": "Cobra.Kai.S03.COMPLETE.720p.WEBRip.x264-GalaxyTV",
        "link": "magnet:?xt=urn:btih:29FFF7467BEC59742E58943F714039F217C32EB7&dn=Cobra.Kai.S03.COMPLETE.720p.WEBRip.x264-GalaxyTV&tr=udp%3A%2F%2Ftracker.coppersurfer.tk%3A6969%2Fannounce&tr=udp%3A%2F%2F9.rarbg.to%3A2920%2Fannounce&tr=udp%3A%2F%2Ftracker.opentrackr.org%3A1337&tr=udp%3A%2F%2Ftracker.internetwarriors.net%3A1337%2Fannounce&tr=udp%3A%2F%2Ftracker.leechers-paradise.org%3A6969%2Fannounce&tr=udp%3A%2F%2Ftracker.coppersurfer.tk%3A6969%2Fannounce&tr=udp%3A%2F%2Ftracker.pirateparty.gr%3A6969%2Fannounce&tr=udp%3A%2F%2Ftracker.cyberia.is%3A6969%2Fannounce",
        "seeder": "292",
        "leecher": "77"
    },
    {
        "rank": "100",
        "title": "Ted.Lasso.S01.COMPLETE.REPACK.720p.ATVP.WEBRip.x264-GalaxyTV",
        "link": "magnet:?xt=urn:btih:A4C388846E68BFCB73386646CF134BD1D84B4B60&dn=Ted.Lasso.S01.COMPLETE.REPACK.720p.ATVP.WEBRip.x264-GalaxyTV&tr=udp%3A%2F%2Ftracker.coppersurfer.tk%3A6969%2Fannounce&tr=udp%3A%2F%2F9.rarbg.to%3A2920%2Fannounce&tr=udp%3A%2F%2Ftracker.opentrackr.org%3A1337&tr=udp%3A%2F%2Ftracker.internetwarriors.net%3A1337%2Fannounce&tr=udp%3A%2F%2Ftracker.leechers-paradise.org%3A6969%2Fannounce&tr=udp%3A%2F%2Ftracker.coppersurfer.tk%3A6969%2Fannounce&tr=udp%3A%2F%2Ftracker.pirateparty.gr%3A6969%2Fannounce&tr=udp%3A%2F%2Ftracker.cyberia.is%3A6969%2Fannounce",
        "seeder": "292",
        "leecher": "85"
    }
]
