[
    {
        "rank": "1",
        "title": "Microsoft Office for Mac 2016 v15.13.3 Multi [TechTools]",
        "link": "magnet:?xt=urn:btih:99F16DECA598F7AEEEA255DDF89B68103DEE8B03&dn=Microsoft+Office+for+Mac+2016+v15.13.3+Multi+%5BTechTools%5D&tr=udp%3A%2F%2Ftracker.coppersurfer.tk%3A6969%2Fannounce&tr=udp%3A%2F%2F9.rarbg.to%3A2920%2Fannounce&tr=udp%3A%2F%2Ftracker.opentrackr.org%3A1337&tr=udp%3A%2F%2Ftracker.internetwarriors.net%3A1337%2Fannounce&tr=udp%3A%2F%2Ftracker.leechers-paradise.org%3A6969%2Fannounce&tr=udp%3A%2F%2Ftracker.coppersurfer.tk%3A6969%2Fannounce&tr=udp%3A%2F%2Ftracker.pirateparty.gr%3A6969%2Fannounce&tr=udp%3A%2F%2Ftracker.cyberia.is%3A6969%2Fannounce",
        "seeder": "161",
        "leecher": "2"
    },
    {
        "rank": "2",
        "title": "Apple Logic Pro X 10.4.1 macOS [TNT][dada]",
        "link": "magnet:?xt=urn:btih:BD84E5553CC69B5858DCBF969DB7A2A7C1793AF6&dn=Apple+Logic+Pro+X+10.4.1+macOS+%5BTNT%5D%5Bdada%5D&tr=udp%3A%2F%2Ftracker.coppersurfer.tk%3A6969%2Fannounce&tr=udp%3A%2F%2F9.rarbg.to%3A2920%2Fannounce&tr=udp%3A%2F%2Ftracker.opentrackr.org%3A1337&tr=udp%3A%2F%2Ftracker.internetwarriors.net%3A1337%2Fannounce&tr=udp%3A%2F%2Ftracker.leechers-paradise.org%3A6969%2Fannounce&tr=udp%3A%2F%2Ftracker.coppersurfer.tk%3A6969%2Fannounce&tr=udp%3A%2F%2Ftracker.pirateparty.gr%3A6969%2Fannounce&tr=udp%3A%2F%2Ftracker.cyberia.is%3A6969%2Fannounce",
        "seeder": "110",
        "leecher": "4"
    },
    {
        "rank": "3",
        "title": "Adobe Photoshop 2020 v21.2.2 + Patch (macOS) - [haxNode]",
        "link": "magnet:?xt=urn:btih:758586F12739239EF4F1EE5488161F2E2B3DDA5E&dn=Adobe+Photoshop+2020+v21.2.2+%2B+Patch+%28macOS%29+-+%5BhaxNode%5D&tr=udp%3A%2F%2Ftracker.coppersurfer.tk%3A6969%2Fannounce&tr=udp%3A%2F%2F9.rarbg.to%3A2920%2Fannounce&tr=udp%3A%2F%2Ftracker.opentrackr.org%3A1337&tr=udp%3A%2F%2Ftracker.internetwarriors.net%3A1337%2Fannounce&tr=udp%3A%2F%2Ftracker.leechers-paradise.org%3A6969%2Fannounce&tr=udp%3A%2F%2Ftracker.coppersurfer.tk%3A6969%2Fannounce&tr=udp%3A%2F%2Ftracker.pirateparty.gr%3A6969%2Fannounce&tr=udp%3A%2F%2Ftracker.cyberia.is%3A6969%2Fannounce",
        "seeder": "104",
        "leecher": "2"
    },
    {
        "rank": "4",
        "title": "Microsoft Office 2019 for Mac v16.41 VL Patched (macOS) - [hN]",
        "link": "magnet:?xt=urn:btih:F3823630ABF97245AD333E03C5D0B2242D708705&dn=Microsoft+Office+2019+for+Mac+v16.41+VL+Patched+%28macOS%29+-+%5BhN%5D&tr=udp%3A%2F%2Ftracker.coppersurfer.tk%3A6969%2Fannounce&tr=udp%3A%2F%2F9.rarbg.to%3A2920%2Fannounce&tr=udp%3A%2F%2Ftracker.opentrackr.org%3A1337&tr=udp%3A%2F%2Ftracker.internetwarriors.net%3A1337%2Fannounce&tr=udp%3A%2F%2Ftracker.leechers-paradise.org%3A6969%2Fannounce&tr=udp%3A%2F%2Ftracker.coppersurfer.tk%3A6969%2Fannounce&tr=udp%3A%2F%2Ftracker.pirateparty.gr%3A6969%2Fannounce&tr=udp%3A%2F%2Ftracker.cyberia.is%3A6969%2Fannounce",
        "seeder": "88",
        "leecher": "4"
    },
    {
        "rank": "5",
        "title": "Logic Pro X 10.3.2 macOS [TNT][dada]",
        "link": "magnet:?xt=urn:btih:67E25A42CCB6CCF0161A21C8ED472DD70E9AEAD9&dn=Logic+Pro+X+10.3.2+macOS+%5BTNT%5D%5Bdada%5D&tr=udp%3A%2F%2Ftracker.coppersurfer.tk%3A6969%2Fannounce&tr=udp%3A%2F%2F9.rarbg.to%3A2920%2Fannounce&tr=udp%3A%2F%2Ftracker.opentrackr.org%3A1337&tr=udp%3A%2F%2Ftracker.internetwarriors.net%3A1337%2Fannounce&tr=udp%3A%2F%2Ftracker.leechers-paradise.org%3A6969%2Fannounce&tr=udp%3A%2F%2Ftracker.coppersurfer.tk%3A6969%2Fannounce&tr=udp%3A%2F%2Ftracker.pirateparty.gr%3A6969%2Fannounce&tr=udp%3A%2F%2Ftracker.cyberia.is%3A6969%2Fannounce",
        "seeder": "74",
        "leecher": "7"
    },
    {
        "rank": "6",
        "title": "Adobe Photoshop 2021 v22.0.1 Final + Patch (macOS) - [haxNode]",
        "link": "magnet:?xt=urn:btih:BB0BAAF78A8977596EB07451956A8EF31DE91A79&dn=Adobe+Photoshop+2021+v22.0.1+Final+%2B+Patch+%28macOS%29+-+%5BhaxNode%5D&tr=udp%3A%2F%2Ftracker.coppersurfer.tk%3A6969%2Fannounce&tr=udp%3A%2F%2F9.rarbg.to%3A2920%2Fannounce&tr=udp%3A%2F%2Ftracker.opentrackr.org%3A1337&tr=udp%3A%2F%2Ftracker.internetwarriors.net%3A1337%2Fannounce&tr=udp%3A%2F%2Ftracker.leechers-paradise.org%3A6969%2Fannounce&tr=udp%3A%2F%2Ftracker.coppersurfer.tk%3A6969%2Fannounce&tr=udp%3A%2F%2Ftracker.pirateparty.gr%3A6969%2Fannounce&tr=udp%3A%2F%2Ftracker.cyberia.is%3A6969%2Fannounce",
        "seeder": "71",
        "leecher": "5"
    },
    {
        "rank": "7",
        "title": "Parallels Desktop Business Edition v16.0.0-48916 Patched (macOS)",
        "link": "magnet:?xt=urn:btih:C9E3D1FC39462604C27BFBDD0EB8B349F11D7B72&dn=Parallels+Desktop+Business+Edition+v16.0.0-48916+Patched+%28macOS%29&tr=udp%3A%2F%2Ftracker.coppersurfer.tk%3A6969%2Fannounce&tr=udp%3A%2F%2F9.rarbg.to%3A2920%2Fannounce&tr=udp%3A%2F%2Ftracker.opentrackr.org%3A1337&tr=udp%3A%2F%2Ftracker.internetwarriors.net%3A1337%2Fannounce&tr=udp%3A%2F%2Ftracker.leechers-paradise.org%3A6969%2Fannounce&tr=udp%3A%2F%2Ftracker.coppersurfer.tk%3A6969%2Fannounce&tr=udp%3A%2F%2Ftracker.pirateparty.gr%3A6969%2Fannounce&tr=udp%3A%2F%2Ftracker.cyberia.is%3A6969%2Fannounce",
        "seeder": "71",
        "leecher": "1"
    },
    {
        "rank": "8",
        "title": "Apple Final Cut Pro X 10.2.1 Mac OS X Cracked - [FirstUploads]",
        "link": "magnet:?xt=urn:btih:BFC6B1F172EA757512168D6929A2C9B481B65E69&dn=Apple+Final+Cut+Pro+X+10.2.1+Mac+OS+X+Cracked+-+%5BFirstUploads%5D&tr=udp%3A%2F%2Ftracker.coppersurfer.tk%3A6969%2Fannounce&tr=udp%3A%2F%2F9.rarbg.to%3A2920%2Fannounce&tr=udp%3A%2F%2Ftracker.opentrackr.org%3A1337&tr=udp%3A%2F%2Ftracker.internetwarriors.net%3A1337%2Fannounce&tr=udp%3A%2F%2Ftracker.leechers-paradise.org%3A6969%2Fannounce&tr=udp%3A%2F%2Ftracker.coppersurfer.tk%3A6969%2Fannounce&tr=udp%3A%2F%2Ftracker.pirateparty.gr%3A6969%2Fannounce&tr=udp%3A%2F%2Ftracker.cyberia.is%3A6969%2Fannounce",
        "seeder": "69",
        "leecher": "7"
    },
    {
        "rank": "9",
        "title": "Microsoft Office 2019 for Mac v16.42 VL + License - [haxNode]",
        "link": "magnet:?xt=urn:btih:9275F6DDB820D2961BE6477C6FCA441374179CF6&dn=Microsoft+Office+2019+for+Mac+v16.42+VL+%2B+License+-+%5BhaxNode%5D&tr=udp%3A%2F%2Ftracker.coppersurfer.tk%3A6969%2Fannounce&tr=udp%3A%2F%2F9.rarbg.to%3A2920%2Fannounce&tr=udp%3A%2F%2Ftracker.opentrackr.org%3A1337&tr=udp%3A%2F%2Ftracker.internetwarriors.net%3A1337%2Fannounce&tr=udp%3A%2F%2Ftracker.leechers-paradise.org%3A6969%2Fannounce&tr=udp%3A%2F%2Ftracker.coppersurfer.tk%3A6969%2Fannounce&tr=udp%3A%2F%2Ftracker.pirateparty.gr%3A6969%2Fannounce&tr=udp%3A%2F%2Ftracker.cyberia.is%3A6969%2Fannounce",
        "seeder": "57",
        "leecher": "2"
    },
    {
        "rank": "10",
        "title": "VMware Fusion Pro v12.0.0 Build 16880131 + Serial (macOS) - [hN]",
        "link": "magnet:?xt=urn:btih:01C26AC49A6A2A7843BB8D4D5D0945A9A1A139BE&dn=VMware+Fusion+Pro+v12.0.0+Build+16880131+%2B+Serial+%28macOS%29+-+%5BhN%5D&tr=udp%3A%2F%2Ftracker.coppersurfer.tk%3A6969%2Fannounce&tr=udp%3A%2F%2F9.rarbg.to%3A2920%2Fannounce&tr=udp%3A%2F%2Ftracker.opentrackr.org%3A1337&tr=udp%3A%2F%2Ftracker.internetwarriors.net%3A1337%2Fannounce&tr=udp%3A%2F%2Ftracker.leechers-paradise.org%3A6969%2Fannounce&tr=udp%3A%2F%2Ftracker.coppersurfer.tk%3A6969%2Fannounce&tr=udp%3A%2F%2Ftracker.pirateparty.gr%3A6969%2Fannounce&tr=udp%3A%2F%2Ftracker.cyberia.is%3A6969%2Fannounce",
        "seeder": "56",
        "leecher": "4"
    },
    {
        "rank": "11",
        "title": "Microsoft Office 2019 Mac OS v16.27 VL Multilingual {B4tman}",
        "link": "magnet:?xt=urn:btih:6D4150A9B759EDF6B8856193F3EF7DDE89EB769D&dn=Microsoft+Office+2019+Mac+OS+v16.27+VL+Multilingual+%7BB4tman%7D&tr=udp%3A%2F%2Ftracker.coppersurfer.tk%3A6969%2Fannounce&tr=udp%3A%2F%2F9.rarbg.to%3A2920%2Fannounce&tr=udp%3A%2F%2Ftracker.opentrackr.org%3A1337&tr=udp%3A%2F%2Ftracker.internetwarriors.net%3A1337%2Fannounce&tr=udp%3A%2F%2Ftracker.leechers-paradise.org%3A6969%2Fannounce&tr=udp%3A%2F%2Ftracker.coppersurfer.tk%3A6969%2Fannounce&tr=udp%3A%2F%2Ftracker.pirateparty.gr%3A6969%2Fannounce&tr=udp%3A%2F%2Ftracker.cyberia.is%3A6969%2Fannounce",
        "seeder": "54",
        "leecher": "2"
    },
    {
        "rank": "12",
        "title": "Final Cut Pro v10.4.9 Patched (macOS) - [haxNode]",
        "link": "magnet:?xt=urn:btih:689F7758827ACC25D8EBC636E9339890F87F347F&dn=Final+Cut+Pro+v10.4.9+Patched+%28macOS%29+-+%5BhaxNode%5D&tr=udp%3A%2F%2Ftracker.coppersurfer.tk%3A6969%2Fannounce&tr=udp%3A%2F%2F9.rarbg.to%3A2920%2Fannounce&tr=udp%3A%2F%2Ftracker.opentrackr.org%3A1337&tr=udp%3A%2F%2Ftracker.internetwarriors.net%3A1337%2Fannounce&tr=udp%3A%2F%2Ftracker.leechers-paradise.org%3A6969%2Fannounce&tr=udp%3A%2F%2Ftracker.coppersurfer.tk%3A6969%2Fannounce&tr=udp%3A%2F%2Ftracker.pirateparty.gr%3A6969%2Fannounce&tr=udp%3A%2F%2Ftracker.cyberia.is%3A6969%2Fannounce",
        "seeder": "52",
        "leecher": "5"
    },
    {
        "rank": "13",
        "title": "Adobe Photoshop CS6 13.0 Final (English Japanese)  Mac Os X [Chi",
        "link": "magnet:?xt=urn:btih:0963A653F6E6C062ABF33FADB14C63D606137007&dn=Adobe+Photoshop+CS6+13.0+Final+%28English+Japanese%29++Mac+Os+X+%5BChi&tr=udp%3A%2F%2Ftracker.coppersurfer.tk%3A6969%2Fannounce&tr=udp%3A%2F%2F9.rarbg.to%3A2920%2Fannounce&tr=udp%3A%2F%2Ftracker.opentrackr.org%3A1337&tr=udp%3A%2F%2Ftracker.internetwarriors.net%3A1337%2Fannounce&tr=udp%3A%2F%2Ftracker.leechers-paradise.org%3A6969%2Fannounce&tr=udp%3A%2F%2Ftracker.coppersurfer.tk%3A6969%2Fannounce&tr=udp%3A%2F%2Ftracker.pirateparty.gr%3A6969%2Fannounce&tr=udp%3A%2F%2Ftracker.cyberia.is%3A6969%2Fannounce",
        "seeder": "47",
        "leecher": "2"
    },
    {
        "rank": "14",
        "title": "Adobe Illustrator CS6 16.0.0 Final (Eng Jpn)  Mac Os X [ChingLiu",
        "link": "magnet:?xt=urn:btih:128247245D76BA2DBF91E769FF6A23AE8B348FA3&dn=Adobe+Illustrator+CS6+16.0.0+Final+%28Eng+Jpn%29++Mac+Os+X+%5BChingLiu&tr=udp%3A%2F%2Ftracker.coppersurfer.tk%3A6969%2Fannounce&tr=udp%3A%2F%2F9.rarbg.to%3A2920%2Fannounce&tr=udp%3A%2F%2Ftracker.opentrackr.org%3A1337&tr=udp%3A%2F%2Ftracker.internetwarriors.net%3A1337%2Fannounce&tr=udp%3A%2F%2Ftracker.leechers-paradise.org%3A6969%2Fannounce&tr=udp%3A%2F%2Ftracker.coppersurfer.tk%3A6969%2Fannounce&tr=udp%3A%2F%2Ftracker.pirateparty.gr%3A6969%2Fannounce&tr=udp%3A%2F%2Ftracker.cyberia.is%3A6969%2Fannounce",
        "seeder": "43",
        "leecher": "0"
    },
    {
        "rank": "15",
        "title": "Mac OS X 10.7 Lion (Final Retail)",
        "link": "magnet:?xt=urn:btih:9A91E80F9EF0D12476EFF2E22857296ED82D6439&dn=Mac+OS+X+10.7+Lion+%28Final+Retail%29&tr=udp%3A%2F%2Ftracker.coppersurfer.tk%3A6969%2Fannounce&tr=udp%3A%2F%2F9.rarbg.to%3A2920%2Fannounce&tr=udp%3A%2F%2Ftracker.opentrackr.org%3A1337&tr=udp%3A%2F%2Ftracker.internetwarriors.net%3A1337%2Fannounce&tr=udp%3A%2F%2Ftracker.leechers-paradise.org%3A6969%2Fannounce&tr=udp%3A%2F%2Ftracker.coppersurfer.tk%3A6969%2Fannounce&tr=udp%3A%2F%2Ftracker.pirateparty.gr%3A6969%2Fannounce&tr=udp%3A%2F%2Ftracker.cyberia.is%3A6969%2Fannounce",
        "seeder": "41",
        "leecher": "1"
    },
    {
        "rank": "16",
        "title": "SketchUp Pro 2020.2 v20.2.171 Patched (macOS) - [haxNode]",
        "link": "magnet:?xt=urn:btih:00603685E61E5FA87A4332D8448A123B96913BBE&dn=SketchUp+Pro+2020.2+v20.2.171+Patched+%28macOS%29+-+%5BhaxNode%5D&tr=udp%3A%2F%2Ftracker.coppersurfer.tk%3A6969%2Fannounce&tr=udp%3A%2F%2F9.rarbg.to%3A2920%2Fannounce&tr=udp%3A%2F%2Ftracker.opentrackr.org%3A1337&tr=udp%3A%2F%2Ftracker.internetwarriors.net%3A1337%2Fannounce&tr=udp%3A%2F%2Ftracker.leechers-paradise.org%3A6969%2Fannounce&tr=udp%3A%2F%2Ftracker.coppersurfer.tk%3A6969%2Fannounce&tr=udp%3A%2F%2Ftracker.pirateparty.gr%3A6969%2Fannounce&tr=udp%3A%2F%2Ftracker.cyberia.is%3A6969%2Fannounce",
        "seeder": "35",
        "leecher": "1"
    },
    {
        "rank": "17",
        "title": "SketchUp Pro 2018 v18.1 3D Designer Mac OS X {B4tman}",
        "link": "magnet:?xt=urn:btih:13C558657C66CCB47A23D27D2D4196ADB7D8A3BA&dn=SketchUp+Pro+2018+v18.1+3D+Designer+Mac+OS+X+%7BB4tman%7D&tr=udp%3A%2F%2Ftracker.coppersurfer.tk%3A6969%2Fannounce&tr=udp%3A%2F%2F9.rarbg.to%3A2920%2Fannounce&tr=udp%3A%2F%2Ftracker.opentrackr.org%3A1337&tr=udp%3A%2F%2Ftracker.internetwarriors.net%3A1337%2Fannounce&tr=udp%3A%2F%2Ftracker.leechers-paradise.org%3A6969%2Fannounce&tr=udp%3A%2F%2Ftracker.coppersurfer.tk%3A6969%2Fannounce&tr=udp%3A%2F%2Ftracker.pirateparty.gr%3A6969%2Fannounce&tr=udp%3A%2F%2Ftracker.cyberia.is%3A6969%2Fannounce",
        "seeder": "34",
        "leecher": "0"
    },
    {
        "rank": "18",
        "title": "Antares Auto-Tune v7.6.8 AU.VST3 macOS [HOOK][dada]",
        "link": "magnet:?xt=urn:btih:8CCA1FA7265BA9F4DA7BAE52676C732A0454D05F&dn=Antares+Auto-Tune+v7.6.8+AU.VST3+macOS+%5BHOOK%5D%5Bdada%5D&tr=udp%3A%2F%2Ftracker.coppersurfer.tk%3A6969%2Fannounce&tr=udp%3A%2F%2F9.rarbg.to%3A2920%2Fannounce&tr=udp%3A%2F%2Ftracker.opentrackr.org%3A1337&tr=udp%3A%2F%2Ftracker.internetwarriors.net%3A1337%2Fannounce&tr=udp%3A%2F%2Ftracker.leechers-paradise.org%3A6969%2Fannounce&tr=udp%3A%2F%2Ftracker.coppersurfer.tk%3A6969%2Fannounce&tr=udp%3A%2F%2Ftracker.pirateparty.gr%3A6969%2Fannounce&tr=udp%3A%2F%2Ftracker.cyberia.is%3A6969%2Fannounce",
        "seeder": "34",
        "leecher": "2"
    },
    {
        "rank": "19",
        "title": "Ableton Live Suit 10 v10.1.30 macOS [dada].zip",
        "link": "magnet:?xt=urn:btih:390ED22D89C9524C01AA996BBA3BB5479A1EEC05&dn=Ableton+Live+Suit+10+v10.1.30+macOS+%5Bdada%5D.zip&tr=udp%3A%2F%2Ftracker.coppersurfer.tk%3A6969%2Fannounce&tr=udp%3A%2F%2F9.rarbg.to%3A2920%2Fannounce&tr=udp%3A%2F%2Ftracker.opentrackr.org%3A1337&tr=udp%3A%2F%2Ftracker.internetwarriors.net%3A1337%2Fannounce&tr=udp%3A%2F%2Ftracker.leechers-paradise.org%3A6969%2Fannounce&tr=udp%3A%2F%2Ftracker.coppersurfer.tk%3A6969%2Fannounce&tr=udp%3A%2F%2Ftracker.pirateparty.gr%3A6969%2Fannounce&tr=udp%3A%2F%2Ftracker.cyberia.is%3A6969%2Fannounce",
        "seeder": "33",
        "leecher": "2"
    },
    {
        "rank": "20",
        "title": "Microsoft Office 2011 14.0.0 Final for Mac {Glint}-ThumperDC",
        "link": "magnet:?xt=urn:btih:D0E4BCF980F7B6BB2B4CC3D8BF6DFE4EB5F8F4A9&dn=Microsoft+Office+2011+14.0.0+Final+for+Mac+%7BGlint%7D-ThumperDC&tr=udp%3A%2F%2Ftracker.coppersurfer.tk%3A6969%2Fannounce&tr=udp%3A%2F%2F9.rarbg.to%3A2920%2Fannounce&tr=udp%3A%2F%2Ftracker.opentrackr.org%3A1337&tr=udp%3A%2F%2Ftracker.internetwarriors.net%3A1337%2Fannounce&tr=udp%3A%2F%2Ftracker.leechers-paradise.org%3A6969%2Fannounce&tr=udp%3A%2F%2Ftracker.coppersurfer.tk%3A6969%2Fannounce&tr=udp%3A%2F%2Ftracker.pirateparty.gr%3A6969%2Fannounce&tr=udp%3A%2F%2Ftracker.cyberia.is%3A6969%2Fannounce",
        "seeder": "33",
        "leecher": "0"
    },
    {
        "rank": "21",
        "title": "Mac OS X 10.6 Snow Leopard (Final Retail)",
        "link": "magnet:?xt=urn:btih:066BDBA0AACCE2B82B74076B11B6F7851250FAAD&dn=Mac+OS+X+10.6+Snow+Leopard+%28Final+Retail%29&tr=udp%3A%2F%2Ftracker.coppersurfer.tk%3A6969%2Fannounce&tr=udp%3A%2F%2F9.rarbg.to%3A2920%2Fannounce&tr=udp%3A%2F%2Ftracker.opentrackr.org%3A1337&tr=udp%3A%2F%2Ftracker.internetwarriors.net%3A1337%2Fannounce&tr=udp%3A%2F%2Ftracker.leechers-paradise.org%3A6969%2Fannounce&tr=udp%3A%2F%2Ftracker.coppersurfer.tk%3A6969%2Fannounce&tr=udp%3A%2F%2Ftracker.pirateparty.gr%3A6969%2Fannounce&tr=udp%3A%2F%2Ftracker.cyberia.is%3A6969%2Fannounce",
        "seeder": "32",
        "leecher": "2"
    },
    {
        "rank": "22",
        "title": "Ableton Live 10 Suite 10.1.2 macOS  [HCiSO][dada].zip",
        "link": "magnet:?xt=urn:btih:96E77806008B9958DD39E022AB23D8807DB256E0&dn=Ableton+Live+10+Suite+10.1.2+macOS++%5BHCiSO%5D%5Bdada%5D.zip&tr=udp%3A%2F%2Ftracker.coppersurfer.tk%3A6969%2Fannounce&tr=udp%3A%2F%2F9.rarbg.to%3A2920%2Fannounce&tr=udp%3A%2F%2Ftracker.opentrackr.org%3A1337&tr=udp%3A%2F%2Ftracker.internetwarriors.net%3A1337%2Fannounce&tr=udp%3A%2F%2Ftracker.leechers-paradise.org%3A6969%2Fannounce&tr=udp%3A%2F%2Ftracker.coppersurfer.tk%3A6969%2Fannounce&tr=udp%3A%2F%2Ftracker.pirateparty.gr%3A6969%2Fannounce&tr=udp%3A%2F%2Ftracker.cyberia.is%3A6969%2Fannounce",
        "seeder": "31",
        "leecher": "4"
    },
    {
        "rank": "23",
        "title": "Omnispere 2.6 Complete (The Pirate)",
        "link": "magnet:?xt=urn:btih:4786B9674253FA7D08321C723C67A66EDC911D32&dn=Omnispere+2.6+Complete+%28The+Pirate%29&tr=udp%3A%2F%2Ftracker.coppersurfer.tk%3A6969%2Fannounce&tr=udp%3A%2F%2F9.rarbg.to%3A2920%2Fannounce&tr=udp%3A%2F%2Ftracker.opentrackr.org%3A1337&tr=udp%3A%2F%2Ftracker.internetwarriors.net%3A1337%2Fannounce&tr=udp%3A%2F%2Ftracker.leechers-paradise.org%3A6969%2Fannounce&tr=udp%3A%2F%2Ftracker.coppersurfer.tk%3A6969%2Fannounce&tr=udp%3A%2F%2Ftracker.pirateparty.gr%3A6969%2Fannounce&tr=udp%3A%2F%2Ftracker.cyberia.is%3A6969%2Fannounce",
        "seeder": "31",
        "leecher": "12"
    },
    {
        "rank": "24",
        "title": "FabFilter Total Bundle 2019.03.13 macOS [R2R][dada].zip",
        "link": "magnet:?xt=urn:btih:8E3681AFB4CE4AC88A3DFB0B2EABDAAA8C1C195A&dn=FabFilter+Total+Bundle+2019.03.13+macOS+%5BR2R%5D%5Bdada%5D.zip&tr=udp%3A%2F%2Ftracker.coppersurfer.tk%3A6969%2Fannounce&tr=udp%3A%2F%2F9.rarbg.to%3A2920%2Fannounce&tr=udp%3A%2F%2Ftracker.opentrackr.org%3A1337&tr=udp%3A%2F%2Ftracker.internetwarriors.net%3A1337%2Fannounce&tr=udp%3A%2F%2Ftracker.leechers-paradise.org%3A6969%2Fannounce&tr=udp%3A%2F%2Ftracker.coppersurfer.tk%3A6969%2Fannounce&tr=udp%3A%2F%2Ftracker.pirateparty.gr%3A6969%2Fannounce&tr=udp%3A%2F%2Ftracker.cyberia.is%3A6969%2Fannounce",
        "seeder": "31",
        "leecher": "0"
    },
    {
        "rank": "25",
        "title": "Native Instruments - Kontakt 5 v5.6.0 UNLOCKED FiXED OS X [dada]",
        "link": "magnet:?xt=urn:btih:5157D7AC76523CCABBB81ABBA2F16A91D8977E4C&dn=Native+Instruments+-+Kontakt+5+v5.6.0+UNLOCKED+FiXED+OS+X+%5Bdada%5D&tr=udp%3A%2F%2Ftracker.coppersurfer.tk%3A6969%2Fannounce&tr=udp%3A%2F%2F9.rarbg.to%3A2920%2Fannounce&tr=udp%3A%2F%2Ftracker.opentrackr.org%3A1337&tr=udp%3A%2F%2Ftracker.internetwarriors.net%3A1337%2Fannounce&tr=udp%3A%2F%2Ftracker.leechers-paradise.org%3A6969%2Fannounce&tr=udp%3A%2F%2Ftracker.coppersurfer.tk%3A6969%2Fannounce&tr=udp%3A%2F%2Ftracker.pirateparty.gr%3A6969%2Fannounce&tr=udp%3A%2F%2Ftracker.cyberia.is%3A6969%2Fannounce",
        "seeder": "30",
        "leecher": "1"
    },
    {
        "rank": "26",
        "title": "Xfer.Records  - SerumFX v1.0.9.b6 and Serum v1.0.9.b9 OS X [PiTc",
        "link": "magnet:?xt=urn:btih:901D20D2F2E2E8A764986E9E11872AB5541A3E7A&dn=Xfer.Records++-+SerumFX+v1.0.9.b6+and+Serum+v1.0.9.b9+OS+X+%5BPiTc&tr=udp%3A%2F%2Ftracker.coppersurfer.tk%3A6969%2Fannounce&tr=udp%3A%2F%2F9.rarbg.to%3A2920%2Fannounce&tr=udp%3A%2F%2Ftracker.opentrackr.org%3A1337&tr=udp%3A%2F%2Ftracker.internetwarriors.net%3A1337%2Fannounce&tr=udp%3A%2F%2Ftracker.leechers-paradise.org%3A6969%2Fannounce&tr=udp%3A%2F%2Ftracker.coppersurfer.tk%3A6969%2Fannounce&tr=udp%3A%2F%2Ftracker.pirateparty.gr%3A6969%2Fannounce&tr=udp%3A%2F%2Ftracker.cyberia.is%3A6969%2Fannounce",
        "seeder": "30",
        "leecher": "1"
    },
    {
        "rank": "27",
        "title": "Little Snitch 4.5 Mac OS + Serial {B4tman}",
        "link": "magnet:?xt=urn:btih:F9585A2B99918B8FD4F8723404352B890A3DA0F3&dn=Little+Snitch+4.5+Mac+OS+%2B+Serial+%7BB4tman%7D&tr=udp%3A%2F%2Ftracker.coppersurfer.tk%3A6969%2Fannounce&tr=udp%3A%2F%2F9.rarbg.to%3A2920%2Fannounce&tr=udp%3A%2F%2Ftracker.opentrackr.org%3A1337&tr=udp%3A%2F%2Ftracker.internetwarriors.net%3A1337%2Fannounce&tr=udp%3A%2F%2Ftracker.leechers-paradise.org%3A6969%2Fannounce&tr=udp%3A%2F%2Ftracker.coppersurfer.tk%3A6969%2Fannounce&tr=udp%3A%2F%2Ftracker.pirateparty.gr%3A6969%2Fannounce&tr=udp%3A%2F%2Ftracker.cyberia.is%3A6969%2Fannounce",
        "seeder": "29",
        "leecher": "1"
    },
    {
        "rank": "28",
        "title": "Disk Drill Enterprise v4.0.130 Final Patched (macOS) - [haxNode]",
        "link": "magnet:?xt=urn:btih:6F0E4E0B54D93FD27F501E86FCA59E4C4F0D0BF6&dn=Disk+Drill+Enterprise+v4.0.130+Final+Patched+%28macOS%29+-+%5BhaxNode%5D&tr=udp%3A%2F%2Ftracker.coppersurfer.tk%3A6969%2Fannounce&tr=udp%3A%2F%2F9.rarbg.to%3A2920%2Fannounce&tr=udp%3A%2F%2Ftracker.opentrackr.org%3A1337&tr=udp%3A%2F%2Ftracker.internetwarriors.net%3A1337%2Fannounce&tr=udp%3A%2F%2Ftracker.leechers-paradise.org%3A6969%2Fannounce&tr=udp%3A%2F%2Ftracker.coppersurfer.tk%3A6969%2Fannounce&tr=udp%3A%2F%2Ftracker.pirateparty.gr%3A6969%2Fannounce&tr=udp%3A%2F%2Ftracker.cyberia.is%3A6969%2Fannounce",
        "seeder": "29",
        "leecher": "0"
    },
    {
        "rank": "29",
        "title": "Waves 10 Complete (2019.04.16) macOS [dada].zip",
        "link": "magnet:?xt=urn:btih:F5E196411A4236E652E166106819815317E049B7&dn=Waves+10+Complete+%282019.04.16%29+macOS+%5Bdada%5D.zip&tr=udp%3A%2F%2Ftracker.coppersurfer.tk%3A6969%2Fannounce&tr=udp%3A%2F%2F9.rarbg.to%3A2920%2Fannounce&tr=udp%3A%2F%2Ftracker.opentrackr.org%3A1337&tr=udp%3A%2F%2Ftracker.internetwarriors.net%3A1337%2Fannounce&tr=udp%3A%2F%2Ftracker.leechers-paradise.org%3A6969%2Fannounce&tr=udp%3A%2F%2Ftracker.coppersurfer.tk%3A6969%2Fannounce&tr=udp%3A%2F%2Ftracker.pirateparty.gr%3A6969%2Fannounce&tr=udp%3A%2F%2Ftracker.cyberia.is%3A6969%2Fannounce",
        "seeder": "28",
        "leecher": "3"
    },
    {
        "rank": "30",
        "title": "Paragon NTFS v15.2.312 Mac OS X {B4tman}",
        "link": "magnet:?xt=urn:btih:2EB969E9B9FC5D4806FE21394CD20D7682C5D483&dn=Paragon+NTFS+v15.2.312+Mac+OS+X+%7BB4tman%7D&tr=udp%3A%2F%2Ftracker.coppersurfer.tk%3A6969%2Fannounce&tr=udp%3A%2F%2F9.rarbg.to%3A2920%2Fannounce&tr=udp%3A%2F%2Ftracker.opentrackr.org%3A1337&tr=udp%3A%2F%2Ftracker.internetwarriors.net%3A1337%2Fannounce&tr=udp%3A%2F%2Ftracker.leechers-paradise.org%3A6969%2Fannounce&tr=udp%3A%2F%2Ftracker.coppersurfer.tk%3A6969%2Fannounce&tr=udp%3A%2F%2Ftracker.pirateparty.gr%3A6969%2Fannounce&tr=udp%3A%2F%2Ftracker.cyberia.is%3A6969%2Fannounce",
        "seeder": "27",
        "leecher": "1"
    },
    {
        "rank": "31",
        "title": "Adobe Lightroom Classic v9.4 + Patch (macOS) - [haxNode]",
        "link": "magnet:?xt=urn:btih:95A27133B4B871C5256031C2A4CD352C4C907126&dn=Adobe+Lightroom+Classic+v9.4+%2B+Patch+%28macOS%29+-+%5BhaxNode%5D&tr=udp%3A%2F%2Ftracker.coppersurfer.tk%3A6969%2Fannounce&tr=udp%3A%2F%2F9.rarbg.to%3A2920%2Fannounce&tr=udp%3A%2F%2Ftracker.opentrackr.org%3A1337&tr=udp%3A%2F%2Ftracker.internetwarriors.net%3A1337%2Fannounce&tr=udp%3A%2F%2Ftracker.leechers-paradise.org%3A6969%2Fannounce&tr=udp%3A%2F%2Ftracker.coppersurfer.tk%3A6969%2Fannounce&tr=udp%3A%2F%2Ftracker.pirateparty.gr%3A6969%2Fannounce&tr=udp%3A%2F%2Ftracker.cyberia.is%3A6969%2Fannounce",
        "seeder": "27",
        "leecher": "2"
    },
    {
        "rank": "32",
        "title": "Wondershare Filmora v9.0.5.1 Mac OS X {B4tman}",
        "link": "magnet:?xt=urn:btih:DA632D471CAF706093290BD7C6BBE7D0EF69C407&dn=Wondershare+Filmora+v9.0.5.1+Mac+OS+X+%7BB4tman%7D&tr=udp%3A%2F%2Ftracker.coppersurfer.tk%3A6969%2Fannounce&tr=udp%3A%2F%2F9.rarbg.to%3A2920%2Fannounce&tr=udp%3A%2F%2Ftracker.opentrackr.org%3A1337&tr=udp%3A%2F%2Ftracker.internetwarriors.net%3A1337%2Fannounce&tr=udp%3A%2F%2Ftracker.leechers-paradise.org%3A6969%2Fannounce&tr=udp%3A%2F%2Ftracker.coppersurfer.tk%3A6969%2Fannounce&tr=udp%3A%2F%2Ftracker.pirateparty.gr%3A6969%2Fannounce&tr=udp%3A%2F%2Ftracker.cyberia.is%3A6969%2Fannounce",
        "seeder": "26",
        "leecher": "1"
    },
    {
        "rank": "33",
        "title": "Parallels Desktop Business Edition v16.0.1-48919 Patched (macOS)",
        "link": "magnet:?xt=urn:btih:901E60A3637E54F16F30F7D2E801F2D9C82C9CAE&dn=Parallels+Desktop+Business+Edition+v16.0.1-48919+Patched+%28macOS%29&tr=udp%3A%2F%2Ftracker.coppersurfer.tk%3A6969%2Fannounce&tr=udp%3A%2F%2F9.rarbg.to%3A2920%2Fannounce&tr=udp%3A%2F%2Ftracker.opentrackr.org%3A1337&tr=udp%3A%2F%2Ftracker.internetwarriors.net%3A1337%2Fannounce&tr=udp%3A%2F%2Ftracker.leechers-paradise.org%3A6969%2Fannounce&tr=udp%3A%2F%2Ftracker.coppersurfer.tk%3A6969%2Fannounce&tr=udp%3A%2F%2Ftracker.pirateparty.gr%3A6969%2Fannounce&tr=udp%3A%2F%2Ftracker.cyberia.is%3A6969%2Fannounce",
        "seeder": "25",
        "leecher": "0"
    },
    {
        "rank": "34",
        "title": "Adobe Acrobat XI Pro 11.0.3 Multilanguage Mac OS X [ChingLiu]",
        "link": "magnet:?xt=urn:btih:86999BA228E434BF52C2B9EBC3842AB9593EA75D&dn=Adobe+Acrobat+XI+Pro+11.0.3+Multilanguage+Mac+OS+X+%5BChingLiu%5D&tr=udp%3A%2F%2Ftracker.coppersurfer.tk%3A6969%2Fannounce&tr=udp%3A%2F%2F9.rarbg.to%3A2920%2Fannounce&tr=udp%3A%2F%2Ftracker.opentrackr.org%3A1337&tr=udp%3A%2F%2Ftracker.internetwarriors.net%3A1337%2Fannounce&tr=udp%3A%2F%2Ftracker.leechers-paradise.org%3A6969%2Fannounce&tr=udp%3A%2F%2Ftracker.coppersurfer.tk%3A6969%2Fannounce&tr=udp%3A%2F%2Ftracker.pirateparty.gr%3A6969%2Fannounce&tr=udp%3A%2F%2Ftracker.cyberia.is%3A6969%2Fannounce",
        "seeder": "24",
        "leecher": "1"
    },
    {
        "rank": "35",
        "title": "ABLETON LiVE PLUGiNS PACK (01) [dada]",
        "link": "magnet:?xt=urn:btih:D7F33864CC1DBD1CF093250A812ED7DF4B46F720&dn=ABLETON+LiVE+PLUGiNS+PACK+%2801%29+%5Bdada%5D&tr=udp%3A%2F%2Ftracker.coppersurfer.tk%3A6969%2Fannounce&tr=udp%3A%2F%2F9.rarbg.to%3A2920%2Fannounce&tr=udp%3A%2F%2Ftracker.opentrackr.org%3A1337&tr=udp%3A%2F%2Ftracker.internetwarriors.net%3A1337%2Fannounce&tr=udp%3A%2F%2Ftracker.leechers-paradise.org%3A6969%2Fannounce&tr=udp%3A%2F%2Ftracker.coppersurfer.tk%3A6969%2Fannounce&tr=udp%3A%2F%2Ftracker.pirateparty.gr%3A6969%2Fannounce&tr=udp%3A%2F%2Ftracker.cyberia.is%3A6969%2Fannounce",
        "seeder": "24",
        "leecher": "0"
    },
    {
        "rank": "36",
        "title": "Adobe Premiere Pro 2020 v14.3.2 + Patch (macOS) - [haxNode]",
        "link": "magnet:?xt=urn:btih:3859B7C547B581E7B33509FE06BC30286FA3E650&dn=Adobe+Premiere+Pro+2020+v14.3.2+%2B+Patch+%28macOS%29+-+%5BhaxNode%5D&tr=udp%3A%2F%2Ftracker.coppersurfer.tk%3A6969%2Fannounce&tr=udp%3A%2F%2F9.rarbg.to%3A2920%2Fannounce&tr=udp%3A%2F%2Ftracker.opentrackr.org%3A1337&tr=udp%3A%2F%2Ftracker.internetwarriors.net%3A1337%2Fannounce&tr=udp%3A%2F%2Ftracker.leechers-paradise.org%3A6969%2Fannounce&tr=udp%3A%2F%2Ftracker.coppersurfer.tk%3A6969%2Fannounce&tr=udp%3A%2F%2Ftracker.pirateparty.gr%3A6969%2Fannounce&tr=udp%3A%2F%2Ftracker.cyberia.is%3A6969%2Fannounce",
        "seeder": "23",
        "leecher": "0"
    },
    {
        "rank": "37",
        "title": "CleanMyMac X v4.6.12 Patched (macOS) - [haxNode]",
        "link": "magnet:?xt=urn:btih:85E7A6FA09F23A923B73A0C137EC2D8C081250FD&dn=CleanMyMac+X+v4.6.12+Patched+%28macOS%29+-+%5BhaxNode%5D&tr=udp%3A%2F%2Ftracker.coppersurfer.tk%3A6969%2Fannounce&tr=udp%3A%2F%2F9.rarbg.to%3A2920%2Fannounce&tr=udp%3A%2F%2Ftracker.opentrackr.org%3A1337&tr=udp%3A%2F%2Ftracker.internetwarriors.net%3A1337%2Fannounce&tr=udp%3A%2F%2Ftracker.leechers-paradise.org%3A6969%2Fannounce&tr=udp%3A%2F%2Ftracker.coppersurfer.tk%3A6969%2Fannounce&tr=udp%3A%2F%2Ftracker.pirateparty.gr%3A6969%2Fannounce&tr=udp%3A%2F%2Ftracker.cyberia.is%3A6969%2Fannounce",
        "seeder": "22",
        "leecher": "0"
    },
    {
        "rank": "38",
        "title": "Adobe Photoshop 2021 v22.0 + Patch (macOS) - [haxNode]",
        "link": "magnet:?xt=urn:btih:6F4966DE3FEB1793F6C347FA10C7382E618EC19E&dn=Adobe+Photoshop+2021+v22.0+%2B+Patch+%28macOS%29+-+%5BhaxNode%5D&tr=udp%3A%2F%2Ftracker.coppersurfer.tk%3A6969%2Fannounce&tr=udp%3A%2F%2F9.rarbg.to%3A2920%2Fannounce&tr=udp%3A%2F%2Ftracker.opentrackr.org%3A1337&tr=udp%3A%2F%2Ftracker.internetwarriors.net%3A1337%2Fannounce&tr=udp%3A%2F%2Ftracker.leechers-paradise.org%3A6969%2Fannounce&tr=udp%3A%2F%2Ftracker.coppersurfer.tk%3A6969%2Fannounce&tr=udp%3A%2F%2Ftracker.pirateparty.gr%3A6969%2Fannounce&tr=udp%3A%2F%2Ftracker.cyberia.is%3A6969%2Fannounce",
        "seeder": "22",
        "leecher": "1"
    },
    {
        "rank": "39",
        "title": "Adobe Photoshop Lightroom 5.6 Final Mac OS X [ChingLiu]",
        "link": "magnet:?xt=urn:btih:7A52A1E34863C726E7A7AC7A0F5A79A085A8A58D&dn=Adobe+Photoshop+Lightroom+5.6+Final+Mac+OS+X+%5BChingLiu%5D&tr=udp%3A%2F%2Ftracker.coppersurfer.tk%3A6969%2Fannounce&tr=udp%3A%2F%2F9.rarbg.to%3A2920%2Fannounce&tr=udp%3A%2F%2Ftracker.opentrackr.org%3A1337&tr=udp%3A%2F%2Ftracker.internetwarriors.net%3A1337%2Fannounce&tr=udp%3A%2F%2Ftracker.leechers-paradise.org%3A6969%2Fannounce&tr=udp%3A%2F%2Ftracker.coppersurfer.tk%3A6969%2Fannounce&tr=udp%3A%2F%2Ftracker.pirateparty.gr%3A6969%2Fannounce&tr=udp%3A%2F%2Ftracker.cyberia.is%3A6969%2Fannounce",
        "seeder": "22",
        "leecher": "1"
    },
    {
        "rank": "40",
        "title": "CrossOver v20.0b1 Patched (macOS) - [haxNode]",
        "link": "magnet:?xt=urn:btih:D025988E89B17BD8B596F22D5FD80901F2996CA3&dn=CrossOver+v20.0b1+Patched+%28macOS%29+-+%5BhaxNode%5D&tr=udp%3A%2F%2Ftracker.coppersurfer.tk%3A6969%2Fannounce&tr=udp%3A%2F%2F9.rarbg.to%3A2920%2Fannounce&tr=udp%3A%2F%2Ftracker.opentrackr.org%3A1337&tr=udp%3A%2F%2Ftracker.internetwarriors.net%3A1337%2Fannounce&tr=udp%3A%2F%2Ftracker.leechers-paradise.org%3A6969%2Fannounce&tr=udp%3A%2F%2Ftracker.coppersurfer.tk%3A6969%2Fannounce&tr=udp%3A%2F%2Ftracker.pirateparty.gr%3A6969%2Fannounce&tr=udp%3A%2F%2Ftracker.cyberia.is%3A6969%2Fannounce",
        "seeder": "22",
        "leecher": "0"
    },
    {
        "rank": "41",
        "title": "Ableton Live 9 Suite 9.1 Mac OS X (64 bit) (crack XForce) [Ching",
        "link": "magnet:?xt=urn:btih:E708DB935247BB5C5E81D83F28516C5BD0638F39&dn=Ableton+Live+9+Suite+9.1+Mac+OS+X+%2864+bit%29+%28crack+XForce%29+%5BChing&tr=udp%3A%2F%2Ftracker.coppersurfer.tk%3A6969%2Fannounce&tr=udp%3A%2F%2F9.rarbg.to%3A2920%2Fannounce&tr=udp%3A%2F%2Ftracker.opentrackr.org%3A1337&tr=udp%3A%2F%2Ftracker.internetwarriors.net%3A1337%2Fannounce&tr=udp%3A%2F%2Ftracker.leechers-paradise.org%3A6969%2Fannounce&tr=udp%3A%2F%2Ftracker.coppersurfer.tk%3A6969%2Fannounce&tr=udp%3A%2F%2Ftracker.pirateparty.gr%3A6969%2Fannounce&tr=udp%3A%2F%2Ftracker.cyberia.is%3A6969%2Fannounce",
        "seeder": "21",
        "leecher": "1"
    },
    {
        "rank": "42",
        "title": "WinZip Mac v6.5.4149 Mac OS X {B4tman}",
        "link": "magnet:?xt=urn:btih:CF7ABA8A425F6F4B86C57F29E76512887837E662&dn=WinZip+Mac+v6.5.4149+Mac+OS+X+%7BB4tman%7D&tr=udp%3A%2F%2Ftracker.coppersurfer.tk%3A6969%2Fannounce&tr=udp%3A%2F%2F9.rarbg.to%3A2920%2Fannounce&tr=udp%3A%2F%2Ftracker.opentrackr.org%3A1337&tr=udp%3A%2F%2Ftracker.internetwarriors.net%3A1337%2Fannounce&tr=udp%3A%2F%2Ftracker.leechers-paradise.org%3A6969%2Fannounce&tr=udp%3A%2F%2Ftracker.coppersurfer.tk%3A6969%2Fannounce&tr=udp%3A%2F%2Ftracker.pirateparty.gr%3A6969%2Fannounce&tr=udp%3A%2F%2Ftracker.cyberia.is%3A6969%2Fannounce",
        "seeder": "21",
        "leecher": "2"
    },
    {
        "rank": "43",
        "title": "Ableton Live 10 Suite 10.1.1 [HCiSO][dada].zip",
        "link": "magnet:?xt=urn:btih:259DF80DFB32556CEB9DD62E0DE26F6DD593F03B&dn=Ableton+Live+10+Suite+10.1.1+%5BHCiSO%5D%5Bdada%5D.zip&tr=udp%3A%2F%2Ftracker.coppersurfer.tk%3A6969%2Fannounce&tr=udp%3A%2F%2F9.rarbg.to%3A2920%2Fannounce&tr=udp%3A%2F%2Ftracker.opentrackr.org%3A1337&tr=udp%3A%2F%2Ftracker.internetwarriors.net%3A1337%2Fannounce&tr=udp%3A%2F%2Ftracker.leechers-paradise.org%3A6969%2Fannounce&tr=udp%3A%2F%2Ftracker.coppersurfer.tk%3A6969%2Fannounce&tr=udp%3A%2F%2Ftracker.pirateparty.gr%3A6969%2Fannounce&tr=udp%3A%2F%2Ftracker.cyberia.is%3A6969%2Fannounce",
        "seeder": "21",
        "leecher": "0"
    },
    {
        "rank": "44",
        "title": "Adobe Acrobat DC v20.012.20041 Final + Patch (macOS) - [haxNode]",
        "link": "magnet:?xt=urn:btih:9B8444472A46F1FA4BBDF3E07BE2C5DD458FF71D&dn=Adobe+Acrobat+DC+v20.012.20041+Final+%2B+Patch+%28macOS%29+-+%5BhaxNode%5D&tr=udp%3A%2F%2Ftracker.coppersurfer.tk%3A6969%2Fannounce&tr=udp%3A%2F%2F9.rarbg.to%3A2920%2Fannounce&tr=udp%3A%2F%2Ftracker.opentrackr.org%3A1337&tr=udp%3A%2F%2Ftracker.internetwarriors.net%3A1337%2Fannounce&tr=udp%3A%2F%2Ftracker.leechers-paradise.org%3A6969%2Fannounce&tr=udp%3A%2F%2Ftracker.coppersurfer.tk%3A6969%2Fannounce&tr=udp%3A%2F%2Ftracker.pirateparty.gr%3A6969%2Fannounce&tr=udp%3A%2F%2Ftracker.cyberia.is%3A6969%2Fannounce",
        "seeder": "21",
        "leecher": "0"
    },
    {
        "rank": "45",
        "title": "Spectrasonics - Omnisphere 2 v2.3.1 UPDATE macOS [dada]",
        "link": "magnet:?xt=urn:btih:9DE531F881EEAC3584A027FF4BD01F91F0EB16DD&dn=Spectrasonics+-+Omnisphere+2+v2.3.1+UPDATE+macOS+%5Bdada%5D&tr=udp%3A%2F%2Ftracker.coppersurfer.tk%3A6969%2Fannounce&tr=udp%3A%2F%2F9.rarbg.to%3A2920%2Fannounce&tr=udp%3A%2F%2Ftracker.opentrackr.org%3A1337&tr=udp%3A%2F%2Ftracker.internetwarriors.net%3A1337%2Fannounce&tr=udp%3A%2F%2Ftracker.leechers-paradise.org%3A6969%2Fannounce&tr=udp%3A%2F%2Ftracker.coppersurfer.tk%3A6969%2Fannounce&tr=udp%3A%2F%2Ftracker.pirateparty.gr%3A6969%2Fannounce&tr=udp%3A%2F%2Ftracker.cyberia.is%3A6969%2Fannounce",
        "seeder": "21",
        "leecher": "2"
    },
    {
        "rank": "46",
        "title": "Waves All Plugins Bundle v9r22 OS X [R2R][dada]",
        "link": "magnet:?xt=urn:btih:AB671B552A33B5E7B3D14B41516441A6A3BED395&dn=Waves+All+Plugins+Bundle+v9r22+OS+X+%5BR2R%5D%5Bdada%5D&tr=udp%3A%2F%2Ftracker.coppersurfer.tk%3A6969%2Fannounce&tr=udp%3A%2F%2F9.rarbg.to%3A2920%2Fannounce&tr=udp%3A%2F%2Ftracker.opentrackr.org%3A1337&tr=udp%3A%2F%2Ftracker.internetwarriors.net%3A1337%2Fannounce&tr=udp%3A%2F%2Ftracker.leechers-paradise.org%3A6969%2Fannounce&tr=udp%3A%2F%2Ftracker.coppersurfer.tk%3A6969%2Fannounce&tr=udp%3A%2F%2Ftracker.pirateparty.gr%3A6969%2Fannounce&tr=udp%3A%2F%2Ftracker.cyberia.is%3A6969%2Fannounce",
        "seeder": "20",
        "leecher": "1"
    },
    {
        "rank": "47",
        "title": "Native Instruments - Kontakt 6 v6.2.1 macOS [dada].zip",
        "link": "magnet:?xt=urn:btih:5A4E37D3A3AB162D719E1BB32C109F22740C7C6C&dn=Native+Instruments+-+Kontakt+6+v6.2.1+macOS+%5Bdada%5D.zip&tr=udp%3A%2F%2Ftracker.coppersurfer.tk%3A6969%2Fannounce&tr=udp%3A%2F%2F9.rarbg.to%3A2920%2Fannounce&tr=udp%3A%2F%2Ftracker.opentrackr.org%3A1337&tr=udp%3A%2F%2Ftracker.internetwarriors.net%3A1337%2Fannounce&tr=udp%3A%2F%2Ftracker.leechers-paradise.org%3A6969%2Fannounce&tr=udp%3A%2F%2Ftracker.coppersurfer.tk%3A6969%2Fannounce&tr=udp%3A%2F%2Ftracker.pirateparty.gr%3A6969%2Fannounce&tr=udp%3A%2F%2Ftracker.cyberia.is%3A6969%2Fannounce",
        "seeder": "20",
        "leecher": "1"
    },
    {
        "rank": "48",
        "title": "CorelDRAW Graphics Suite 2021 - Corporate v23.0.0.363 Patched",
        "link": "magnet:?xt=urn:btih:C87E0B6B5643C8E013B49C82D84175E1F9827557&dn=CorelDRAW+Graphics+Suite+2021+-+Corporate+v23.0.0.363+Patched&tr=udp%3A%2F%2Ftracker.coppersurfer.tk%3A6969%2Fannounce&tr=udp%3A%2F%2F9.rarbg.to%3A2920%2Fannounce&tr=udp%3A%2F%2Ftracker.opentrackr.org%3A1337&tr=udp%3A%2F%2Ftracker.internetwarriors.net%3A1337%2Fannounce&tr=udp%3A%2F%2Ftracker.leechers-paradise.org%3A6969%2Fannounce&tr=udp%3A%2F%2Ftracker.coppersurfer.tk%3A6969%2Fannounce&tr=udp%3A%2F%2Ftracker.pirateparty.gr%3A6969%2Fannounce&tr=udp%3A%2F%2Ftracker.cyberia.is%3A6969%2Fannounce",
        "seeder": "20",
        "leecher": "0"
    },
    {
        "rank": "49",
        "title": "ScreenFlow v8.2.2 (Screen Recorder) Mac OS X {B4tman}",
        "link": "magnet:?xt=urn:btih:957CBA93702A1FAAEC32A63F156FA7BCBB9B25B1&dn=ScreenFlow+v8.2.2+%28Screen+Recorder%29+Mac+OS+X+%7BB4tman%7D&tr=udp%3A%2F%2Ftracker.coppersurfer.tk%3A6969%2Fannounce&tr=udp%3A%2F%2F9.rarbg.to%3A2920%2Fannounce&tr=udp%3A%2F%2Ftracker.opentrackr.org%3A1337&tr=udp%3A%2F%2Ftracker.internetwarriors.net%3A1337%2Fannounce&tr=udp%3A%2F%2Ftracker.leechers-paradise.org%3A6969%2Fannounce&tr=udp%3A%2F%2Ftracker.coppersurfer.tk%3A6969%2Fannounce&tr=udp%3A%2F%2Ftracker.pirateparty.gr%3A6969%2Fannounce&tr=udp%3A%2F%2Ftracker.cyberia.is%3A6969%2Fannounce",
        "seeder": "19",
        "leecher": "0"
    },
    {
        "rank": "50",
        "title": "Adobe Photoshop CS6 [Mac] xCYBERPIRATENx",
        "link": "magnet:?xt=urn:btih:63EE592118E27E4325EFB94AC49F51860A852237&dn=Adobe+Photoshop+CS6+%5BMac%5D+xCYBERPIRATENx&tr=udp%3A%2F%2Ftracker.coppersurfer.tk%3A6969%2Fannounce&tr=udp%3A%2F%2F9.rarbg.to%3A2920%2Fannounce&tr=udp%3A%2F%2Ftracker.opentrackr.org%3A1337&tr=udp%3A%2F%2Ftracker.internetwarriors.net%3A1337%2Fannounce&tr=udp%3A%2F%2Ftracker.leechers-paradise.org%3A6969%2Fannounce&tr=udp%3A%2F%2Ftracker.coppersurfer.tk%3A6969%2Fannounce&tr=udp%3A%2F%2Ftracker.pirateparty.gr%3A6969%2Fannounce&tr=udp%3A%2F%2Ftracker.cyberia.is%3A6969%2Fannounce",
        "seeder": "18",
        "leecher": "0"
    },
    {
        "rank": "51",
        "title": "Native Instruments - Guitar Rig Pro 5",
        "link": "magnet:?xt=urn:btih:423C48EF3342E41A93A3B455E80B48E05BDDC69A&dn=Native+Instruments+-+Guitar+Rig+Pro+5&tr=udp%3A%2F%2Ftracker.coppersurfer.tk%3A6969%2Fannounce&tr=udp%3A%2F%2F9.rarbg.to%3A2920%2Fannounce&tr=udp%3A%2F%2Ftracker.opentrackr.org%3A1337&tr=udp%3A%2F%2Ftracker.internetwarriors.net%3A1337%2Fannounce&tr=udp%3A%2F%2Ftracker.leechers-paradise.org%3A6969%2Fannounce&tr=udp%3A%2F%2Ftracker.coppersurfer.tk%3A6969%2Fannounce&tr=udp%3A%2F%2Ftracker.pirateparty.gr%3A6969%2Fannounce&tr=udp%3A%2F%2Ftracker.cyberia.is%3A6969%2Fannounce",
        "seeder": "18",
        "leecher": "0"
    },
    {
        "rank": "52",
        "title": "Serum Presets Pack (1) OS X [dada]",
        "link": "magnet:?xt=urn:btih:7084269227E88A0AC920147641FF6AEEBB380AB2&dn=Serum+Presets+Pack+%281%29+OS+X+%5Bdada%5D&tr=udp%3A%2F%2Ftracker.coppersurfer.tk%3A6969%2Fannounce&tr=udp%3A%2F%2F9.rarbg.to%3A2920%2Fannounce&tr=udp%3A%2F%2Ftracker.opentrackr.org%3A1337&tr=udp%3A%2F%2Ftracker.internetwarriors.net%3A1337%2Fannounce&tr=udp%3A%2F%2Ftracker.leechers-paradise.org%3A6969%2Fannounce&tr=udp%3A%2F%2Ftracker.coppersurfer.tk%3A6969%2Fannounce&tr=udp%3A%2F%2Ftracker.pirateparty.gr%3A6969%2Fannounce&tr=udp%3A%2F%2Ftracker.cyberia.is%3A6969%2Fannounce",
        "seeder": "18",
        "leecher": "0"
    },
    {
        "rank": "53",
        "title": "Arturia V Collection 7 v7.1.1 macOS [CASHMERE][dada]",
        "link": "magnet:?xt=urn:btih:46BCB32448BF337844B2CEB517E4900A6FA14E34&dn=Arturia+V+Collection+7+v7.1.1+macOS+%5BCASHMERE%5D%5Bdada%5D&tr=udp%3A%2F%2Ftracker.coppersurfer.tk%3A6969%2Fannounce&tr=udp%3A%2F%2F9.rarbg.to%3A2920%2Fannounce&tr=udp%3A%2F%2Ftracker.opentrackr.org%3A1337&tr=udp%3A%2F%2Ftracker.internetwarriors.net%3A1337%2Fannounce&tr=udp%3A%2F%2Ftracker.leechers-paradise.org%3A6969%2Fannounce&tr=udp%3A%2F%2Ftracker.coppersurfer.tk%3A6969%2Fannounce&tr=udp%3A%2F%2Ftracker.pirateparty.gr%3A6969%2Fannounce&tr=udp%3A%2F%2Ftracker.cyberia.is%3A6969%2Fannounce",
        "seeder": "17",
        "leecher": "3"
    },
    {
        "rank": "54",
        "title": "Cinema 4D R23 + Arnold v3.2.0 macOS [dada].zip",
        "link": "magnet:?xt=urn:btih:0B633490AE502E175BC9771C2FE8EBE15F99F197&dn=Cinema+4D+R23+%2B+Arnold+v3.2.0+macOS+%5Bdada%5D.zip&tr=udp%3A%2F%2Ftracker.coppersurfer.tk%3A6969%2Fannounce&tr=udp%3A%2F%2F9.rarbg.to%3A2920%2Fannounce&tr=udp%3A%2F%2Ftracker.opentrackr.org%3A1337&tr=udp%3A%2F%2Ftracker.internetwarriors.net%3A1337%2Fannounce&tr=udp%3A%2F%2Ftracker.leechers-paradise.org%3A6969%2Fannounce&tr=udp%3A%2F%2Ftracker.coppersurfer.tk%3A6969%2Fannounce&tr=udp%3A%2F%2Ftracker.pirateparty.gr%3A6969%2Fannounce&tr=udp%3A%2F%2Ftracker.cyberia.is%3A6969%2Fannounce",
        "seeder": "16",
        "leecher": "0"
    },
    {
        "rank": "55",
        "title": "Parallels Desktop v14.1.0 Mac OS X {B4tman}",
        "link": "magnet:?xt=urn:btih:7AF7A34440D94A106BCDF03DA533E1BCDEB341FB&dn=Parallels+Desktop+v14.1.0+Mac+OS+X+%7BB4tman%7D&tr=udp%3A%2F%2Ftracker.coppersurfer.tk%3A6969%2Fannounce&tr=udp%3A%2F%2F9.rarbg.to%3A2920%2Fannounce&tr=udp%3A%2F%2Ftracker.opentrackr.org%3A1337&tr=udp%3A%2F%2Ftracker.internetwarriors.net%3A1337%2Fannounce&tr=udp%3A%2F%2Ftracker.leechers-paradise.org%3A6969%2Fannounce&tr=udp%3A%2F%2Ftracker.coppersurfer.tk%3A6969%2Fannounce&tr=udp%3A%2F%2Ftracker.pirateparty.gr%3A6969%2Fannounce&tr=udp%3A%2F%2Ftracker.cyberia.is%3A6969%2Fannounce",
        "seeder": "16",
        "leecher": "1"
    },
    {
        "rank": "56",
        "title": "ABLETON LiVE PLUGiNS PACK (02) [dada]",
        "link": "magnet:?xt=urn:btih:A1D733615FA4AFE78D990AAFF012FD382E4EE43E&dn=ABLETON+LiVE+PLUGiNS+PACK+%2802%29+%5Bdada%5D&tr=udp%3A%2F%2Ftracker.coppersurfer.tk%3A6969%2Fannounce&tr=udp%3A%2F%2F9.rarbg.to%3A2920%2Fannounce&tr=udp%3A%2F%2Ftracker.opentrackr.org%3A1337&tr=udp%3A%2F%2Ftracker.internetwarriors.net%3A1337%2Fannounce&tr=udp%3A%2F%2Ftracker.leechers-paradise.org%3A6969%2Fannounce&tr=udp%3A%2F%2Ftracker.coppersurfer.tk%3A6969%2Fannounce&tr=udp%3A%2F%2Ftracker.pirateparty.gr%3A6969%2Fannounce&tr=udp%3A%2F%2Ftracker.cyberia.is%3A6969%2Fannounce",
        "seeder": "16",
        "leecher": "1"
    },
    {
        "rank": "57",
        "title": "Adobe Illustrator 2020 v24.2.3 + Patch (macOS) - [haxNode]",
        "link": "magnet:?xt=urn:btih:2C7C9AEFC820EDF0C171947AF745F251D0FE795C&dn=Adobe+Illustrator+2020+v24.2.3+%2B+Patch+%28macOS%29+-+%5BhaxNode%5D&tr=udp%3A%2F%2Ftracker.coppersurfer.tk%3A6969%2Fannounce&tr=udp%3A%2F%2F9.rarbg.to%3A2920%2Fannounce&tr=udp%3A%2F%2Ftracker.opentrackr.org%3A1337&tr=udp%3A%2F%2Ftracker.internetwarriors.net%3A1337%2Fannounce&tr=udp%3A%2F%2Ftracker.leechers-paradise.org%3A6969%2Fannounce&tr=udp%3A%2F%2Ftracker.coppersurfer.tk%3A6969%2Fannounce&tr=udp%3A%2F%2Ftracker.pirateparty.gr%3A6969%2Fannounce&tr=udp%3A%2F%2Ftracker.cyberia.is%3A6969%2Fannounce",
        "seeder": "16",
        "leecher": "1"
    },
    {
        "rank": "58",
        "title": "iMazing v2.12.7 Final Patched (macOS) - [haxNode]",
        "link": "magnet:?xt=urn:btih:EF7C0D1A315B3F7DC718947BF0C7BF9437C52128&dn=iMazing+v2.12.7+Final+Patched+%28macOS%29+-+%5BhaxNode%5D&tr=udp%3A%2F%2Ftracker.coppersurfer.tk%3A6969%2Fannounce&tr=udp%3A%2F%2F9.rarbg.to%3A2920%2Fannounce&tr=udp%3A%2F%2Ftracker.opentrackr.org%3A1337&tr=udp%3A%2F%2Ftracker.internetwarriors.net%3A1337%2Fannounce&tr=udp%3A%2F%2Ftracker.leechers-paradise.org%3A6969%2Fannounce&tr=udp%3A%2F%2Ftracker.coppersurfer.tk%3A6969%2Fannounce&tr=udp%3A%2F%2Ftracker.pirateparty.gr%3A6969%2Fannounce&tr=udp%3A%2F%2Ftracker.cyberia.is%3A6969%2Fannounce",
        "seeder": "15",
        "leecher": "1"
    },
    {
        "rank": "59",
        "title": "WinRAR v5.21 and UnRarX 2.8.5 Mac OS X {B4tman}",
        "link": "magnet:?xt=urn:btih:A633A92F81897075A0761560FC0878CBD3F27AA4&dn=WinRAR+v5.21+and+UnRarX+2.8.5+Mac+OS+X+%7BB4tman%7D&tr=udp%3A%2F%2Ftracker.coppersurfer.tk%3A6969%2Fannounce&tr=udp%3A%2F%2F9.rarbg.to%3A2920%2Fannounce&tr=udp%3A%2F%2Ftracker.opentrackr.org%3A1337&tr=udp%3A%2F%2Ftracker.internetwarriors.net%3A1337%2Fannounce&tr=udp%3A%2F%2Ftracker.leechers-paradise.org%3A6969%2Fannounce&tr=udp%3A%2F%2Ftracker.coppersurfer.tk%3A6969%2Fannounce&tr=udp%3A%2F%2Ftracker.pirateparty.gr%3A6969%2Fannounce&tr=udp%3A%2F%2Ftracker.cyberia.is%3A6969%2Fannounce",
        "seeder": "14",
        "leecher": "0"
    },
    {
        "rank": "60",
        "title": "iZotope RX 7 Advanced v7.01n",
        "link": "magnet:?xt=urn:btih:36BB34E101F7A09A6C41A23BEDB1D6D7272CD5EA&dn=iZotope+RX+7+Advanced+v7.01n&tr=udp%3A%2F%2Ftracker.coppersurfer.tk%3A6969%2Fannounce&tr=udp%3A%2F%2F9.rarbg.to%3A2920%2Fannounce&tr=udp%3A%2F%2Ftracker.opentrackr.org%3A1337&tr=udp%3A%2F%2Ftracker.internetwarriors.net%3A1337%2Fannounce&tr=udp%3A%2F%2Ftracker.leechers-paradise.org%3A6969%2Fannounce&tr=udp%3A%2F%2Ftracker.coppersurfer.tk%3A6969%2Fannounce&tr=udp%3A%2F%2Ftracker.pirateparty.gr%3A6969%2Fannounce&tr=udp%3A%2F%2Ftracker.cyberia.is%3A6969%2Fannounce",
        "seeder": "14",
        "leecher": "0"
    },
    {
        "rank": "61",
        "title": "Mixed In Key v7.5.1 OS X [TNT][dada]",
        "link": "magnet:?xt=urn:btih:80EF2B4209EB2147112C9A6682F720AF5FC64511&dn=Mixed+In+Key+v7.5.1+OS+X+%5BTNT%5D%5Bdada%5D&tr=udp%3A%2F%2Ftracker.coppersurfer.tk%3A6969%2Fannounce&tr=udp%3A%2F%2F9.rarbg.to%3A2920%2Fannounce&tr=udp%3A%2F%2Ftracker.opentrackr.org%3A1337&tr=udp%3A%2F%2Ftracker.internetwarriors.net%3A1337%2Fannounce&tr=udp%3A%2F%2Ftracker.leechers-paradise.org%3A6969%2Fannounce&tr=udp%3A%2F%2Ftracker.coppersurfer.tk%3A6969%2Fannounce&tr=udp%3A%2F%2Ftracker.pirateparty.gr%3A6969%2Fannounce&tr=udp%3A%2F%2Ftracker.cyberia.is%3A6969%2Fannounce",
        "seeder": "14",
        "leecher": "0"
    },
    {
        "rank": "62",
        "title": "Sketch v52.6 Mac OS X {B4tman}",
        "link": "magnet:?xt=urn:btih:AEEB013632877BE11A1CB6C68B247C9081917D25&dn=Sketch+v52.6+Mac+OS+X+%7BB4tman%7D&tr=udp%3A%2F%2Ftracker.coppersurfer.tk%3A6969%2Fannounce&tr=udp%3A%2F%2F9.rarbg.to%3A2920%2Fannounce&tr=udp%3A%2F%2Ftracker.opentrackr.org%3A1337&tr=udp%3A%2F%2Ftracker.internetwarriors.net%3A1337%2Fannounce&tr=udp%3A%2F%2Ftracker.leechers-paradise.org%3A6969%2Fannounce&tr=udp%3A%2F%2Ftracker.coppersurfer.tk%3A6969%2Fannounce&tr=udp%3A%2F%2Ftracker.pirateparty.gr%3A6969%2Fannounce&tr=udp%3A%2F%2Ftracker.cyberia.is%3A6969%2Fannounce",
        "seeder": "14",
        "leecher": "0"
    },
    {
        "rank": "63",
        "title": "AnyTrans for iOS v8.8.0.20201012 Patched (macOS) - [haxNode]",
        "link": "magnet:?xt=urn:btih:10E4032B20E3AA08C9D1F179CFF448F383EFA564&dn=AnyTrans+for+iOS+v8.8.0.20201012+Patched+%28macOS%29+-+%5BhaxNode%5D&tr=udp%3A%2F%2Ftracker.coppersurfer.tk%3A6969%2Fannounce&tr=udp%3A%2F%2F9.rarbg.to%3A2920%2Fannounce&tr=udp%3A%2F%2Ftracker.opentrackr.org%3A1337&tr=udp%3A%2F%2Ftracker.internetwarriors.net%3A1337%2Fannounce&tr=udp%3A%2F%2Ftracker.leechers-paradise.org%3A6969%2Fannounce&tr=udp%3A%2F%2Ftracker.coppersurfer.tk%3A6969%2Fannounce&tr=udp%3A%2F%2Ftracker.pirateparty.gr%3A6969%2Fannounce&tr=udp%3A%2F%2Ftracker.cyberia.is%3A6969%2Fannounce",
        "seeder": "14",
        "leecher": "0"
    },
    {
        "rank": "64",
        "title": "PDF Expert v2.5.11 Patched (macOS) - [haxNode]",
        "link": "magnet:?xt=urn:btih:E8D2B1E0EE67527357CDADAAD8DB5B81082E1214&dn=PDF+Expert+v2.5.11+Patched+%28macOS%29+-+%5BhaxNode%5D&tr=udp%3A%2F%2Ftracker.coppersurfer.tk%3A6969%2Fannounce&tr=udp%3A%2F%2F9.rarbg.to%3A2920%2Fannounce&tr=udp%3A%2F%2Ftracker.opentrackr.org%3A1337&tr=udp%3A%2F%2Ftracker.internetwarriors.net%3A1337%2Fannounce&tr=udp%3A%2F%2Ftracker.leechers-paradise.org%3A6969%2Fannounce&tr=udp%3A%2F%2Ftracker.coppersurfer.tk%3A6969%2Fannounce&tr=udp%3A%2F%2Ftracker.pirateparty.gr%3A6969%2Fannounce&tr=udp%3A%2F%2Ftracker.cyberia.is%3A6969%2Fannounce",
        "seeder": "12",
        "leecher": "1"
    },
    {
        "rank": "65",
        "title": "Nik Collection 3 by DxO v3.0.8 Patched (macOS) - [haxNode]",
        "link": "magnet:?xt=urn:btih:D2421D13B8E6C3D7CBBF48B81879B335389B22C0&dn=Nik+Collection+3+by+DxO+v3.0.8+Patched+%28macOS%29+-+%5BhaxNode%5D&tr=udp%3A%2F%2Ftracker.coppersurfer.tk%3A6969%2Fannounce&tr=udp%3A%2F%2F9.rarbg.to%3A2920%2Fannounce&tr=udp%3A%2F%2Ftracker.opentrackr.org%3A1337&tr=udp%3A%2F%2Ftracker.internetwarriors.net%3A1337%2Fannounce&tr=udp%3A%2F%2Ftracker.leechers-paradise.org%3A6969%2Fannounce&tr=udp%3A%2F%2Ftracker.coppersurfer.tk%3A6969%2Fannounce&tr=udp%3A%2F%2Ftracker.pirateparty.gr%3A6969%2Fannounce&tr=udp%3A%2F%2Ftracker.cyberia.is%3A6969%2Fannounce",
        "seeder": "12",
        "leecher": "0"
    },
    {
        "rank": "66",
        "title": "Mac OS X Lion Retail Bootable .dmg",
        "link": "magnet:?xt=urn:btih:C72573A57AE82170BB1C9965B474DE53611915CC&dn=Mac+OS+X+Lion+Retail+Bootable+.dmg&tr=udp%3A%2F%2Ftracker.coppersurfer.tk%3A6969%2Fannounce&tr=udp%3A%2F%2F9.rarbg.to%3A2920%2Fannounce&tr=udp%3A%2F%2Ftracker.opentrackr.org%3A1337&tr=udp%3A%2F%2Ftracker.internetwarriors.net%3A1337%2Fannounce&tr=udp%3A%2F%2Ftracker.leechers-paradise.org%3A6969%2Fannounce&tr=udp%3A%2F%2Ftracker.coppersurfer.tk%3A6969%2Fannounce&tr=udp%3A%2F%2Ftracker.pirateparty.gr%3A6969%2Fannounce&tr=udp%3A%2F%2Ftracker.cyberia.is%3A6969%2Fannounce",
        "seeder": "12",
        "leecher": "0"
    },
    {
        "rank": "67",
        "title": "Apple Final Cut Pro X 10.4 [TNT][dada]",
        "link": "magnet:?xt=urn:btih:7EA9CC2B54A831FFE1DED903AEEBB6D717467959&dn=Apple+Final+Cut+Pro+X+10.4+%5BTNT%5D%5Bdada%5D&tr=udp%3A%2F%2Ftracker.coppersurfer.tk%3A6969%2Fannounce&tr=udp%3A%2F%2F9.rarbg.to%3A2920%2Fannounce&tr=udp%3A%2F%2Ftracker.opentrackr.org%3A1337&tr=udp%3A%2F%2Ftracker.internetwarriors.net%3A1337%2Fannounce&tr=udp%3A%2F%2Ftracker.leechers-paradise.org%3A6969%2Fannounce&tr=udp%3A%2F%2Ftracker.coppersurfer.tk%3A6969%2Fannounce&tr=udp%3A%2F%2Ftracker.pirateparty.gr%3A6969%2Fannounce&tr=udp%3A%2F%2Ftracker.cyberia.is%3A6969%2Fannounce",
        "seeder": "12",
        "leecher": "2"
    },
    {
        "rank": "68",
        "title": "FabFilter Total Bundle (2017.03.23) macOS [R2R][dada]",
        "link": "magnet:?xt=urn:btih:FB2318B352A0099CED5AAB32E0BFAAD4FF3B868E&dn=FabFilter+Total+Bundle+%282017.03.23%29+macOS+%5BR2R%5D%5Bdada%5D&tr=udp%3A%2F%2Ftracker.coppersurfer.tk%3A6969%2Fannounce&tr=udp%3A%2F%2F9.rarbg.to%3A2920%2Fannounce&tr=udp%3A%2F%2Ftracker.opentrackr.org%3A1337&tr=udp%3A%2F%2Ftracker.internetwarriors.net%3A1337%2Fannounce&tr=udp%3A%2F%2Ftracker.leechers-paradise.org%3A6969%2Fannounce&tr=udp%3A%2F%2Ftracker.coppersurfer.tk%3A6969%2Fannounce&tr=udp%3A%2F%2Ftracker.pirateparty.gr%3A6969%2Fannounce&tr=udp%3A%2F%2Ftracker.cyberia.is%3A6969%2Fannounce",
        "seeder": "12",
        "leecher": "2"
    },
    {
        "rank": "69",
        "title": "Wondershare Video Converter Ultimate v10.3.2.5 Mac {B4tman}",
        "link": "magnet:?xt=urn:btih:3C1A6F20483CC847F43DBCD43EF37825571F15D9&dn=Wondershare+Video+Converter+Ultimate+v10.3.2.5+Mac+%7BB4tman%7D&tr=udp%3A%2F%2Ftracker.coppersurfer.tk%3A6969%2Fannounce&tr=udp%3A%2F%2F9.rarbg.to%3A2920%2Fannounce&tr=udp%3A%2F%2Ftracker.opentrackr.org%3A1337&tr=udp%3A%2F%2Ftracker.internetwarriors.net%3A1337%2Fannounce&tr=udp%3A%2F%2Ftracker.leechers-paradise.org%3A6969%2Fannounce&tr=udp%3A%2F%2Ftracker.coppersurfer.tk%3A6969%2Fannounce&tr=udp%3A%2F%2Ftracker.pirateparty.gr%3A6969%2Fannounce&tr=udp%3A%2F%2Ftracker.cyberia.is%3A6969%2Fannounce",
        "seeder": "12",
        "leecher": "0"
    },
    {
        "rank": "70",
        "title": "Mac.OSX.Lion.10.7.2-ADDiCT",
        "link": "magnet:?xt=urn:btih:CCF786E28098197664F62B10DCE4B94A1F8A3355&dn=Mac.OSX.Lion.10.7.2-ADDiCT&tr=udp%3A%2F%2Ftracker.coppersurfer.tk%3A6969%2Fannounce&tr=udp%3A%2F%2F9.rarbg.to%3A2920%2Fannounce&tr=udp%3A%2F%2Ftracker.opentrackr.org%3A1337&tr=udp%3A%2F%2Ftracker.internetwarriors.net%3A1337%2Fannounce&tr=udp%3A%2F%2Ftracker.leechers-paradise.org%3A6969%2Fannounce&tr=udp%3A%2F%2Ftracker.coppersurfer.tk%3A6969%2Fannounce&tr=udp%3A%2F%2Ftracker.pirateparty.gr%3A6969%2Fannounce&tr=udp%3A%2F%2Ftracker.cyberia.is%3A6969%2Fannounce",
        "seeder": "12",
        "leecher": "0"
    },
    {
        "rank": "71",
        "title": "Native Instruments - Traktor Pro 3.1.1.8 [HCiSO][dada].zip",
        "link": "magnet:?xt=urn:btih:D6793E19CED0F315E2BCAF3B80C69B3DAFA2E85F&dn=Native+Instruments+-+Traktor+Pro+3.1.1.8+%5BHCiSO%5D%5Bdada%5D.zip&tr=udp%3A%2F%2Ftracker.coppersurfer.tk%3A6969%2Fannounce&tr=udp%3A%2F%2F9.rarbg.to%3A2920%2Fannounce&tr=udp%3A%2F%2Ftracker.opentrackr.org%3A1337&tr=udp%3A%2F%2Ftracker.internetwarriors.net%3A1337%2Fannounce&tr=udp%3A%2F%2Ftracker.leechers-paradise.org%3A6969%2Fannounce&tr=udp%3A%2F%2Ftracker.coppersurfer.tk%3A6969%2Fannounce&tr=udp%3A%2F%2Ftracker.pirateparty.gr%3A6969%2Fannounce&tr=udp%3A%2F%2Ftracker.cyberia.is%3A6969%2Fannounce",
        "seeder": "12",
        "leecher": "0"
    },
    {
        "rank": "72",
        "title": "Final Cut Pro X 10.3.4 macOS [MAS][dada]",
        "link": "magnet:?xt=urn:btih:112992517CC0BEFEAA3831F2B9018F762635B583&dn=Final+Cut+Pro+X+10.3.4+macOS+%5BMAS%5D%5Bdada%5D&tr=udp%3A%2F%2Ftracker.coppersurfer.tk%3A6969%2Fannounce&tr=udp%3A%2F%2F9.rarbg.to%3A2920%2Fannounce&tr=udp%3A%2F%2Ftracker.opentrackr.org%3A1337&tr=udp%3A%2F%2Ftracker.internetwarriors.net%3A1337%2Fannounce&tr=udp%3A%2F%2Ftracker.leechers-paradise.org%3A6969%2Fannounce&tr=udp%3A%2F%2Ftracker.coppersurfer.tk%3A6969%2Fannounce&tr=udp%3A%2F%2Ftracker.pirateparty.gr%3A6969%2Fannounce&tr=udp%3A%2F%2Ftracker.cyberia.is%3A6969%2Fannounce",
        "seeder": "11",
        "leecher": "1"
    },
    {
        "rank": "73",
        "title": "Serial Box 05.2020",
        "link": "magnet:?xt=urn:btih:DCC0174C5F0B17CCB2F1B057EC9835440C520FC8&dn=Serial+Box+05.2020&tr=udp%3A%2F%2Ftracker.coppersurfer.tk%3A6969%2Fannounce&tr=udp%3A%2F%2F9.rarbg.to%3A2920%2Fannounce&tr=udp%3A%2F%2Ftracker.opentrackr.org%3A1337&tr=udp%3A%2F%2Ftracker.internetwarriors.net%3A1337%2Fannounce&tr=udp%3A%2F%2Ftracker.leechers-paradise.org%3A6969%2Fannounce&tr=udp%3A%2F%2Ftracker.coppersurfer.tk%3A6969%2Fannounce&tr=udp%3A%2F%2Ftracker.pirateparty.gr%3A6969%2Fannounce&tr=udp%3A%2F%2Ftracker.cyberia.is%3A6969%2Fannounce",
        "seeder": "11",
        "leecher": "0"
    },
    {
        "rank": "74",
        "title": "Scrivener v3.1.1 Mac OS X {B4tman}",
        "link": "magnet:?xt=urn:btih:2DF948B99C599F494A6FD98CA8B5ECB000C543ED&dn=Scrivener+v3.1.1+Mac+OS+X+%7BB4tman%7D&tr=udp%3A%2F%2Ftracker.coppersurfer.tk%3A6969%2Fannounce&tr=udp%3A%2F%2F9.rarbg.to%3A2920%2Fannounce&tr=udp%3A%2F%2Ftracker.opentrackr.org%3A1337&tr=udp%3A%2F%2Ftracker.internetwarriors.net%3A1337%2Fannounce&tr=udp%3A%2F%2Ftracker.leechers-paradise.org%3A6969%2Fannounce&tr=udp%3A%2F%2Ftracker.coppersurfer.tk%3A6969%2Fannounce&tr=udp%3A%2F%2Ftracker.pirateparty.gr%3A6969%2Fannounce&tr=udp%3A%2F%2Ftracker.cyberia.is%3A6969%2Fannounce",
        "seeder": "11",
        "leecher": "1"
    },
    {
        "rank": "75",
        "title": "FabFilter Total Bundle 2019.02.19 macOS [dada].zip",
        "link": "magnet:?xt=urn:btih:59960A624E0AF68CE52EE347BBDA06FBC6FF7322&dn=FabFilter+Total+Bundle+2019.02.19+macOS+%5Bdada%5D.zip&tr=udp%3A%2F%2Ftracker.coppersurfer.tk%3A6969%2Fannounce&tr=udp%3A%2F%2F9.rarbg.to%3A2920%2Fannounce&tr=udp%3A%2F%2Ftracker.opentrackr.org%3A1337&tr=udp%3A%2F%2Ftracker.internetwarriors.net%3A1337%2Fannounce&tr=udp%3A%2F%2Ftracker.leechers-paradise.org%3A6969%2Fannounce&tr=udp%3A%2F%2Ftracker.coppersurfer.tk%3A6969%2Fannounce&tr=udp%3A%2F%2Ftracker.pirateparty.gr%3A6969%2Fannounce&tr=udp%3A%2F%2Ftracker.cyberia.is%3A6969%2Fannounce",
        "seeder": "11",
        "leecher": "0"
    },
    {
        "rank": "76",
        "title": "iZotope - VocalSynth v2.00 macOS [dada]",
        "link": "magnet:?xt=urn:btih:8759BB73199780630A38D79945EE80960E88D3E0&dn=iZotope+-+VocalSynth+v2.00+macOS+%5Bdada%5D&tr=udp%3A%2F%2Ftracker.coppersurfer.tk%3A6969%2Fannounce&tr=udp%3A%2F%2F9.rarbg.to%3A2920%2Fannounce&tr=udp%3A%2F%2Ftracker.opentrackr.org%3A1337&tr=udp%3A%2F%2Ftracker.internetwarriors.net%3A1337%2Fannounce&tr=udp%3A%2F%2Ftracker.leechers-paradise.org%3A6969%2Fannounce&tr=udp%3A%2F%2Ftracker.coppersurfer.tk%3A6969%2Fannounce&tr=udp%3A%2F%2Ftracker.pirateparty.gr%3A6969%2Fannounce&tr=udp%3A%2F%2Ftracker.cyberia.is%3A6969%2Fannounce",
        "seeder": "11",
        "leecher": "0"
    },
    {
        "rank": "77",
        "title": "Native Instruments - Battery 4 v4.1.6 macOS [dada]",
        "link": "magnet:?xt=urn:btih:C191EFD41241A95FC7A4E00FE69A7B6AFBC352D4&dn=Native+Instruments+-+Battery+4+v4.1.6+macOS+%5Bdada%5D&tr=udp%3A%2F%2Ftracker.coppersurfer.tk%3A6969%2Fannounce&tr=udp%3A%2F%2F9.rarbg.to%3A2920%2Fannounce&tr=udp%3A%2F%2Ftracker.opentrackr.org%3A1337&tr=udp%3A%2F%2Ftracker.internetwarriors.net%3A1337%2Fannounce&tr=udp%3A%2F%2Ftracker.leechers-paradise.org%3A6969%2Fannounce&tr=udp%3A%2F%2Ftracker.coppersurfer.tk%3A6969%2Fannounce&tr=udp%3A%2F%2Ftracker.pirateparty.gr%3A6969%2Fannounce&tr=udp%3A%2F%2Ftracker.cyberia.is%3A6969%2Fannounce",
        "seeder": "11",
        "leecher": "1"
    },
    {
        "rank": "78",
        "title": "Adobe After Effects CC 2014 (MAC) (64 bit) [ChingLiu]",
        "link": "magnet:?xt=urn:btih:FF40FEEE3D2F5DFA9A507F5286EA1479CF7EFD8C&dn=Adobe+After+Effects+CC+2014+%28MAC%29+%2864+bit%29+%5BChingLiu%5D&tr=udp%3A%2F%2Ftracker.coppersurfer.tk%3A6969%2Fannounce&tr=udp%3A%2F%2F9.rarbg.to%3A2920%2Fannounce&tr=udp%3A%2F%2Ftracker.opentrackr.org%3A1337&tr=udp%3A%2F%2Ftracker.internetwarriors.net%3A1337%2Fannounce&tr=udp%3A%2F%2Ftracker.leechers-paradise.org%3A6969%2Fannounce&tr=udp%3A%2F%2Ftracker.coppersurfer.tk%3A6969%2Fannounce&tr=udp%3A%2F%2Ftracker.pirateparty.gr%3A6969%2Fannounce&tr=udp%3A%2F%2Ftracker.cyberia.is%3A6969%2Fannounce",
        "seeder": "11",
        "leecher": "0"
    },
    {
        "rank": "79",
        "title": "Valhalla DSP Pack 2018.08.01 macOS [HEXWARS][dada]",
        "link": "magnet:?xt=urn:btih:79145D8E33133156E50304DD0986C164B249D31F&dn=Valhalla+DSP+Pack+2018.08.01+macOS+%5BHEXWARS%5D%5Bdada%5D&tr=udp%3A%2F%2Ftracker.coppersurfer.tk%3A6969%2Fannounce&tr=udp%3A%2F%2F9.rarbg.to%3A2920%2Fannounce&tr=udp%3A%2F%2Ftracker.opentrackr.org%3A1337&tr=udp%3A%2F%2Ftracker.internetwarriors.net%3A1337%2Fannounce&tr=udp%3A%2F%2Ftracker.leechers-paradise.org%3A6969%2Fannounce&tr=udp%3A%2F%2Ftracker.coppersurfer.tk%3A6969%2Fannounce&tr=udp%3A%2F%2Ftracker.pirateparty.gr%3A6969%2Fannounce&tr=udp%3A%2F%2Ftracker.cyberia.is%3A6969%2Fannounce",
        "seeder": "11",
        "leecher": "2"
    },
    {
        "rank": "80",
        "title": "FoneLab (iPhone Data Recovery) v9.1.28 Mac OX X {B4tman}",
        "link": "magnet:?xt=urn:btih:B5541C7E66E2B425F52D2A21402CDA982BB8A409&dn=FoneLab+%28iPhone+Data+Recovery%29+v9.1.28+Mac+OX+X+%7BB4tman%7D&tr=udp%3A%2F%2Ftracker.coppersurfer.tk%3A6969%2Fannounce&tr=udp%3A%2F%2F9.rarbg.to%3A2920%2Fannounce&tr=udp%3A%2F%2Ftracker.opentrackr.org%3A1337&tr=udp%3A%2F%2Ftracker.internetwarriors.net%3A1337%2Fannounce&tr=udp%3A%2F%2Ftracker.leechers-paradise.org%3A6969%2Fannounce&tr=udp%3A%2F%2Ftracker.coppersurfer.tk%3A6969%2Fannounce&tr=udp%3A%2F%2Ftracker.pirateparty.gr%3A6969%2Fannounce&tr=udp%3A%2F%2Ftracker.cyberia.is%3A6969%2Fannounce",
        "seeder": "11",
        "leecher": "0"
    },
    {
        "rank": "81",
        "title": "Wondershare Filmora X 10.0.1.3 Final Patched (macOS) - [haxNode]",
        "link": "magnet:?xt=urn:btih:730C3B42CFEC6BFADA8EFBD00A5A2A59E50C152A&dn=Wondershare+Filmora+X+10.0.1.3+Final+Patched+%28macOS%29+-+%5BhaxNode%5D&tr=udp%3A%2F%2Ftracker.coppersurfer.tk%3A6969%2Fannounce&tr=udp%3A%2F%2F9.rarbg.to%3A2920%2Fannounce&tr=udp%3A%2F%2Ftracker.opentrackr.org%3A1337&tr=udp%3A%2F%2Ftracker.internetwarriors.net%3A1337%2Fannounce&tr=udp%3A%2F%2Ftracker.leechers-paradise.org%3A6969%2Fannounce&tr=udp%3A%2F%2Ftracker.coppersurfer.tk%3A6969%2Fannounce&tr=udp%3A%2F%2Ftracker.pirateparty.gr%3A6969%2Fannounce&tr=udp%3A%2F%2Ftracker.cyberia.is%3A6969%2Fannounce",
        "seeder": "11",
        "leecher": "1"
    },
    {
        "rank": "82",
        "title": "Apple Logic Pro X 10.0.7 (Mac OS X) Retail CORE [ChingLiu]",
        "link": "magnet:?xt=urn:btih:5950521F639AF67C32C748E425D2B06224754202&dn=Apple+Logic+Pro+X+10.0.7+%28Mac+OS+X%29+Retail+CORE+%5BChingLiu%5D&tr=udp%3A%2F%2Ftracker.coppersurfer.tk%3A6969%2Fannounce&tr=udp%3A%2F%2F9.rarbg.to%3A2920%2Fannounce&tr=udp%3A%2F%2Ftracker.opentrackr.org%3A1337&tr=udp%3A%2F%2Ftracker.internetwarriors.net%3A1337%2Fannounce&tr=udp%3A%2F%2Ftracker.leechers-paradise.org%3A6969%2Fannounce&tr=udp%3A%2F%2Ftracker.coppersurfer.tk%3A6969%2Fannounce&tr=udp%3A%2F%2Ftracker.pirateparty.gr%3A6969%2Fannounce&tr=udp%3A%2F%2Ftracker.cyberia.is%3A6969%2Fannounce",
        "seeder": "10",
        "leecher": "0"
    },
    {
        "rank": "83",
        "title": "Audirvana 3.5.35 macOS.dmg",
        "link": "magnet:?xt=urn:btih:A0F6B270DA0D3E0356FBD8C7291630EA68CF56E1&dn=Audirvana+3.5.35+macOS.dmg&tr=udp%3A%2F%2Ftracker.coppersurfer.tk%3A6969%2Fannounce&tr=udp%3A%2F%2F9.rarbg.to%3A2920%2Fannounce&tr=udp%3A%2F%2Ftracker.opentrackr.org%3A1337&tr=udp%3A%2F%2Ftracker.internetwarriors.net%3A1337%2Fannounce&tr=udp%3A%2F%2Ftracker.leechers-paradise.org%3A6969%2Fannounce&tr=udp%3A%2F%2Ftracker.coppersurfer.tk%3A6969%2Fannounce&tr=udp%3A%2F%2Ftracker.pirateparty.gr%3A6969%2Fannounce&tr=udp%3A%2F%2Ftracker.cyberia.is%3A6969%2Fannounce",
        "seeder": "10",
        "leecher": "0"
    },
    {
        "rank": "84",
        "title": "Waves Complete V9 (2018.03.14) macOS [dada]",
        "link": "magnet:?xt=urn:btih:A3774117BEFBFE53CE75A40D4D5FC6AEC28B0C11&dn=Waves+Complete+V9+%282018.03.14%29+macOS+%5Bdada%5D&tr=udp%3A%2F%2Ftracker.coppersurfer.tk%3A6969%2Fannounce&tr=udp%3A%2F%2F9.rarbg.to%3A2920%2Fannounce&tr=udp%3A%2F%2Ftracker.opentrackr.org%3A1337&tr=udp%3A%2F%2Ftracker.internetwarriors.net%3A1337%2Fannounce&tr=udp%3A%2F%2Ftracker.leechers-paradise.org%3A6969%2Fannounce&tr=udp%3A%2F%2Ftracker.coppersurfer.tk%3A6969%2Fannounce&tr=udp%3A%2F%2Ftracker.pirateparty.gr%3A6969%2Fannounce&tr=udp%3A%2F%2Ftracker.cyberia.is%3A6969%2Fannounce",
        "seeder": "10",
        "leecher": "0"
    },
    {
        "rank": "85",
        "title": "Adobe Photoshop CC 2017 v18.0.1 Multilingual macOS",
        "link": "magnet:?xt=urn:btih:2FF53E8CF49BBA29AD61A63D8EAA392FE63D0826&dn=Adobe+Photoshop+CC+2017+v18.0.1+Multilingual+macOS&tr=udp%3A%2F%2Ftracker.coppersurfer.tk%3A6969%2Fannounce&tr=udp%3A%2F%2F9.rarbg.to%3A2920%2Fannounce&tr=udp%3A%2F%2Ftracker.opentrackr.org%3A1337&tr=udp%3A%2F%2Ftracker.internetwarriors.net%3A1337%2Fannounce&tr=udp%3A%2F%2Ftracker.leechers-paradise.org%3A6969%2Fannounce&tr=udp%3A%2F%2Ftracker.coppersurfer.tk%3A6969%2Fannounce&tr=udp%3A%2F%2Ftracker.pirateparty.gr%3A6969%2Fannounce&tr=udp%3A%2F%2Ftracker.cyberia.is%3A6969%2Fannounce",
        "seeder": "10",
        "leecher": "0"
    },
    {
        "rank": "86",
        "title": "ANTARES AUTOTUNE V7.0.8 MAC INTEL - DeGun 2011",
        "link": "magnet:?xt=urn:btih:84F0E2EBE9975845A4576CFF7B4DAEBFB837CF7D&dn=ANTARES+AUTOTUNE+V7.0.8+MAC+INTEL+-+DeGun+2011&tr=udp%3A%2F%2Ftracker.coppersurfer.tk%3A6969%2Fannounce&tr=udp%3A%2F%2F9.rarbg.to%3A2920%2Fannounce&tr=udp%3A%2F%2Ftracker.opentrackr.org%3A1337&tr=udp%3A%2F%2Ftracker.internetwarriors.net%3A1337%2Fannounce&tr=udp%3A%2F%2Ftracker.leechers-paradise.org%3A6969%2Fannounce&tr=udp%3A%2F%2Ftracker.coppersurfer.tk%3A6969%2Fannounce&tr=udp%3A%2F%2Ftracker.pirateparty.gr%3A6969%2Fannounce&tr=udp%3A%2F%2Ftracker.cyberia.is%3A6969%2Fannounce",
        "seeder": "10",
        "leecher": "1"
    },
    {
        "rank": "87",
        "title": "54.000 Massive Presets 02.2016 REPACK UP-DATE [dada]",
        "link": "magnet:?xt=urn:btih:5C73989C955C1F05A563462FF69FFE7DF6B9ABAD&dn=54.000+Massive+Presets+02.2016+REPACK+UP-DATE+%5Bdada%5D&tr=udp%3A%2F%2Ftracker.coppersurfer.tk%3A6969%2Fannounce&tr=udp%3A%2F%2F9.rarbg.to%3A2920%2Fannounce&tr=udp%3A%2F%2Ftracker.opentrackr.org%3A1337&tr=udp%3A%2F%2Ftracker.internetwarriors.net%3A1337%2Fannounce&tr=udp%3A%2F%2Ftracker.leechers-paradise.org%3A6969%2Fannounce&tr=udp%3A%2F%2Ftracker.coppersurfer.tk%3A6969%2Fannounce&tr=udp%3A%2F%2Ftracker.pirateparty.gr%3A6969%2Fannounce&tr=udp%3A%2F%2Ftracker.cyberia.is%3A6969%2Fannounce",
        "seeder": "10",
        "leecher": "0"
    },
    {
        "rank": "88",
        "title": "PLUGINS PACK 2021.01.16 macOS [dada]",
        "link": "magnet:?xt=urn:btih:8AEF09FB80C21F5A4DEDE4A1B6EF7BA5A99C3418&dn=PLUGINS+PACK+2021.01.16+macOS+%5Bdada%5D&tr=udp%3A%2F%2Ftracker.coppersurfer.tk%3A6969%2Fannounce&tr=udp%3A%2F%2F9.rarbg.to%3A2920%2Fannounce&tr=udp%3A%2F%2Ftracker.opentrackr.org%3A1337&tr=udp%3A%2F%2Ftracker.internetwarriors.net%3A1337%2Fannounce&tr=udp%3A%2F%2Ftracker.leechers-paradise.org%3A6969%2Fannounce&tr=udp%3A%2F%2Ftracker.coppersurfer.tk%3A6969%2Fannounce&tr=udp%3A%2F%2Ftracker.pirateparty.gr%3A6969%2Fannounce&tr=udp%3A%2F%2Ftracker.cyberia.is%3A6969%2Fannounce",
        "seeder": "10",
        "leecher": "3"
    },
    {
        "rank": "89",
        "title": "Adobe Photoshop CS5 Extended 12.0 Final For MAC [x.86 & x.64",
        "link": "magnet:?xt=urn:btih:2FDE9BE4B929B447241328856375091C08E8C564&dn=Adobe+Photoshop+CS5+Extended+12.0+Final+For+MAC+%5Bx.86+%26amp%3B+x.64&tr=udp%3A%2F%2Ftracker.coppersurfer.tk%3A6969%2Fannounce&tr=udp%3A%2F%2F9.rarbg.to%3A2920%2Fannounce&tr=udp%3A%2F%2Ftracker.opentrackr.org%3A1337&tr=udp%3A%2F%2Ftracker.internetwarriors.net%3A1337%2Fannounce&tr=udp%3A%2F%2Ftracker.leechers-paradise.org%3A6969%2Fannounce&tr=udp%3A%2F%2Ftracker.coppersurfer.tk%3A6969%2Fannounce&tr=udp%3A%2F%2Ftracker.pirateparty.gr%3A6969%2Fannounce&tr=udp%3A%2F%2Ftracker.cyberia.is%3A6969%2Fannounce",
        "seeder": "10",
        "leecher": "0"
    },
    {
        "rank": "90",
        "title": "PDF Editor Pro v. 1.5.0 pre[K]racked",
        "link": "magnet:?xt=urn:btih:7C114FF3CE6855C5F6650256E7593A3D211F56D2&dn=PDF+Editor+Pro+v.+1.5.0+pre%5BK%5Dracked&tr=udp%3A%2F%2Ftracker.coppersurfer.tk%3A6969%2Fannounce&tr=udp%3A%2F%2F9.rarbg.to%3A2920%2Fannounce&tr=udp%3A%2F%2Ftracker.opentrackr.org%3A1337&tr=udp%3A%2F%2Ftracker.internetwarriors.net%3A1337%2Fannounce&tr=udp%3A%2F%2Ftracker.leechers-paradise.org%3A6969%2Fannounce&tr=udp%3A%2F%2Ftracker.coppersurfer.tk%3A6969%2Fannounce&tr=udp%3A%2F%2Ftracker.pirateparty.gr%3A6969%2Fannounce&tr=udp%3A%2F%2Ftracker.cyberia.is%3A6969%2Fannounce",
        "seeder": "10",
        "leecher": "1"
    },
    {
        "rank": "91",
        "title": "CrossOver 19.0.0.32154~b1  [HCiSO][dada].zip",
        "link": "magnet:?xt=urn:btih:7B45DCDC12FC7DB3C0BBF4C0FA7AC5300122DC31&dn=CrossOver+19.0.0.32154%7Eb1++%5BHCiSO%5D%5Bdada%5D.zip&tr=udp%3A%2F%2Ftracker.coppersurfer.tk%3A6969%2Fannounce&tr=udp%3A%2F%2F9.rarbg.to%3A2920%2Fannounce&tr=udp%3A%2F%2Ftracker.opentrackr.org%3A1337&tr=udp%3A%2F%2Ftracker.internetwarriors.net%3A1337%2Fannounce&tr=udp%3A%2F%2Ftracker.leechers-paradise.org%3A6969%2Fannounce&tr=udp%3A%2F%2Ftracker.coppersurfer.tk%3A6969%2Fannounce&tr=udp%3A%2F%2Ftracker.pirateparty.gr%3A6969%2Fannounce&tr=udp%3A%2F%2Ftracker.cyberia.is%3A6969%2Fannounce",
        "seeder": "10",
        "leecher": "1"
    },
    {
        "rank": "92",
        "title": "Allavsoft Video Downloader Converter 3.23.3.7730 + Serial macOS",
        "link": "magnet:?xt=urn:btih:EFC176522CCE4A6948B3810018D1E9C0781584A3&dn=Allavsoft+Video+Downloader+Converter+3.23.3.7730+%2B+Serial+macOS&tr=udp%3A%2F%2Ftracker.coppersurfer.tk%3A6969%2Fannounce&tr=udp%3A%2F%2F9.rarbg.to%3A2920%2Fannounce&tr=udp%3A%2F%2Ftracker.opentrackr.org%3A1337&tr=udp%3A%2F%2Ftracker.internetwarriors.net%3A1337%2Fannounce&tr=udp%3A%2F%2Ftracker.leechers-paradise.org%3A6969%2Fannounce&tr=udp%3A%2F%2Ftracker.coppersurfer.tk%3A6969%2Fannounce&tr=udp%3A%2F%2Ftracker.pirateparty.gr%3A6969%2Fannounce&tr=udp%3A%2F%2Ftracker.cyberia.is%3A6969%2Fannounce",
        "seeder": "9",
        "leecher": "0"
    },
    {
        "rank": "93",
        "title": "Adobe Zii 2020 v5.2.6 Universal Patcher (macOS) - [haxNode]",
        "link": "magnet:?xt=urn:btih:3671C65C8ABBBB51BB17E93D2C5EEA5A8A4329F9&dn=Adobe+Zii+2020+v5.2.6+Universal+Patcher+%28macOS%29+-+%5BhaxNode%5D&tr=udp%3A%2F%2Ftracker.coppersurfer.tk%3A6969%2Fannounce&tr=udp%3A%2F%2F9.rarbg.to%3A2920%2Fannounce&tr=udp%3A%2F%2Ftracker.opentrackr.org%3A1337&tr=udp%3A%2F%2Ftracker.internetwarriors.net%3A1337%2Fannounce&tr=udp%3A%2F%2Ftracker.leechers-paradise.org%3A6969%2Fannounce&tr=udp%3A%2F%2Ftracker.coppersurfer.tk%3A6969%2Fannounce&tr=udp%3A%2F%2Ftracker.pirateparty.gr%3A6969%2Fannounce&tr=udp%3A%2F%2Ftracker.cyberia.is%3A6969%2Fannounce",
        "seeder": "9",
        "leecher": "0"
    },
    {
        "rank": "94",
        "title": "Toontrack - Superior Drummer v2.4.0 - OS X - R2R [packet-dada]",
        "link": "magnet:?xt=urn:btih:69D24181751665E3CF0179162DD6DAC67FACB356&dn=Toontrack+-+Superior+Drummer+v2.4.0+-+OS+X+-+R2R+%5Bpacket-dada%5D&tr=udp%3A%2F%2Ftracker.coppersurfer.tk%3A6969%2Fannounce&tr=udp%3A%2F%2F9.rarbg.to%3A2920%2Fannounce&tr=udp%3A%2F%2Ftracker.opentrackr.org%3A1337&tr=udp%3A%2F%2Ftracker.internetwarriors.net%3A1337%2Fannounce&tr=udp%3A%2F%2Ftracker.leechers-paradise.org%3A6969%2Fannounce&tr=udp%3A%2F%2Ftracker.coppersurfer.tk%3A6969%2Fannounce&tr=udp%3A%2F%2Ftracker.pirateparty.gr%3A6969%2Fannounce&tr=udp%3A%2F%2Ftracker.cyberia.is%3A6969%2Fannounce",
        "seeder": "9",
        "leecher": "0"
    },
    {
        "rank": "95",
        "title": "[Mac] Adobe Illustrator CS5 + Activation Instructions [ctang]",
        "link": "magnet:?xt=urn:btih:0C45F7CF34788EF0695913C12851DF7ED5575997&dn=%5BMac%5D+Adobe+Illustrator+CS5+%2B+Activation+Instructions+%5Bctang%5D&tr=udp%3A%2F%2Ftracker.coppersurfer.tk%3A6969%2Fannounce&tr=udp%3A%2F%2F9.rarbg.to%3A2920%2Fannounce&tr=udp%3A%2F%2Ftracker.opentrackr.org%3A1337&tr=udp%3A%2F%2Ftracker.internetwarriors.net%3A1337%2Fannounce&tr=udp%3A%2F%2Ftracker.leechers-paradise.org%3A6969%2Fannounce&tr=udp%3A%2F%2Ftracker.coppersurfer.tk%3A6969%2Fannounce&tr=udp%3A%2F%2Ftracker.pirateparty.gr%3A6969%2Fannounce&tr=udp%3A%2F%2Ftracker.cyberia.is%3A6969%2Fannounce",
        "seeder": "9",
        "leecher": "0"
    },
    {
        "rank": "96",
        "title": "VueScan Pro v9.6.24 (x32 & x64-bit) Mac OS X {B4tman}",
        "link": "magnet:?xt=urn:btih:EB0330D865765EEBB11E15F4DA30AB824AA36FEB&dn=VueScan+Pro+v9.6.24+%28x32+%26amp%3B+x64-bit%29+Mac+OS+X+%7BB4tman%7D&tr=udp%3A%2F%2Ftracker.coppersurfer.tk%3A6969%2Fannounce&tr=udp%3A%2F%2F9.rarbg.to%3A2920%2Fannounce&tr=udp%3A%2F%2Ftracker.opentrackr.org%3A1337&tr=udp%3A%2F%2Ftracker.internetwarriors.net%3A1337%2Fannounce&tr=udp%3A%2F%2Ftracker.leechers-paradise.org%3A6969%2Fannounce&tr=udp%3A%2F%2Ftracker.coppersurfer.tk%3A6969%2Fannounce&tr=udp%3A%2F%2Ftracker.pirateparty.gr%3A6969%2Fannounce&tr=udp%3A%2F%2Ftracker.cyberia.is%3A6969%2Fannounce",
        "seeder": "9",
        "leecher": "0"
    },
    {
        "rank": "97",
        "title": "Avid Sibelius v8.2.0 OS X [iND][dada]",
        "link": "magnet:?xt=urn:btih:B13E10DA3B1A4D529D1397A1E60FBD9B7AB9FFD9&dn=Avid+Sibelius+v8.2.0+OS+X+%5BiND%5D%5Bdada%5D&tr=udp%3A%2F%2Ftracker.coppersurfer.tk%3A6969%2Fannounce&tr=udp%3A%2F%2F9.rarbg.to%3A2920%2Fannounce&tr=udp%3A%2F%2Ftracker.opentrackr.org%3A1337&tr=udp%3A%2F%2Ftracker.internetwarriors.net%3A1337%2Fannounce&tr=udp%3A%2F%2Ftracker.leechers-paradise.org%3A6969%2Fannounce&tr=udp%3A%2F%2Ftracker.coppersurfer.tk%3A6969%2Fannounce&tr=udp%3A%2F%2Ftracker.pirateparty.gr%3A6969%2Fannounce&tr=udp%3A%2F%2Ftracker.cyberia.is%3A6969%2Fannounce",
        "seeder": "9",
        "leecher": "0"
    },
    {
        "rank": "98",
        "title": "Sonnox Elite Oxford Plugins AU VST RTAS MAC OSX INTEL.rar",
        "link": "magnet:?xt=urn:btih:48FBFA63B7E21D7A029EA0F050CA51E95A056DDB&dn=Sonnox+Elite+Oxford+Plugins+AU+VST+RTAS+MAC+OSX+INTEL.rar&tr=udp%3A%2F%2Ftracker.coppersurfer.tk%3A6969%2Fannounce&tr=udp%3A%2F%2F9.rarbg.to%3A2920%2Fannounce&tr=udp%3A%2F%2Ftracker.opentrackr.org%3A1337&tr=udp%3A%2F%2Ftracker.internetwarriors.net%3A1337%2Fannounce&tr=udp%3A%2F%2Ftracker.leechers-paradise.org%3A6969%2Fannounce&tr=udp%3A%2F%2Ftracker.coppersurfer.tk%3A6969%2Fannounce&tr=udp%3A%2F%2Ftracker.pirateparty.gr%3A6969%2Fannounce&tr=udp%3A%2F%2Ftracker.cyberia.is%3A6969%2Fannounce",
        "seeder": "9",
        "leecher": "0"
    },
    {
        "rank": "99",
        "title": "Native Instruments - Guitar Rig 5 v5.2.2 UPDATE UNLOCKED OS X [d",
        "link": "magnet:?xt=urn:btih:B232BD90BD54AD2F9CA725C0D2454265ECBA1439&dn=Native+Instruments+-+Guitar+Rig+5+v5.2.2+UPDATE+UNLOCKED+OS+X+%5Bd&tr=udp%3A%2F%2Ftracker.coppersurfer.tk%3A6969%2Fannounce&tr=udp%3A%2F%2F9.rarbg.to%3A2920%2Fannounce&tr=udp%3A%2F%2Ftracker.opentrackr.org%3A1337&tr=udp%3A%2F%2Ftracker.internetwarriors.net%3A1337%2Fannounce&tr=udp%3A%2F%2Ftracker.leechers-paradise.org%3A6969%2Fannounce&tr=udp%3A%2F%2Ftracker.coppersurfer.tk%3A6969%2Fannounce&tr=udp%3A%2F%2Ftracker.pirateparty.gr%3A6969%2Fannounce&tr=udp%3A%2F%2Ftracker.cyberia.is%3A6969%2Fannounce",
        "seeder": "9",
        "leecher": "0"
    },
    {
        "rank": "100",
        "title": "Adobe Lightroom Classic v10.0 + Patch (macOS) - [haxNode]",
        "link": "magnet:?xt=urn:btih:7B1DB7592C206EE40F5DCA006DCDDBD55F59CD5D&dn=Adobe+Lightroom+Classic+v10.0+%2B+Patch+%28macOS%29+-+%5BhaxNode%5D&tr=udp%3A%2F%2Ftracker.coppersurfer.tk%3A6969%2Fannounce&tr=udp%3A%2F%2F9.rarbg.to%3A2920%2Fannounce&tr=udp%3A%2F%2Ftracker.opentrackr.org%3A1337&tr=udp%3A%2F%2Ftracker.internetwarriors.net%3A1337%2Fannounce&tr=udp%3A%2F%2Ftracker.leechers-paradise.org%3A6969%2Fannounce&tr=udp%3A%2F%2Ftracker.coppersurfer.tk%3A6969%2Fannounce&tr=udp%3A%2F%2Ftracker.pirateparty.gr%3A6969%2Fannounce&tr=udp%3A%2F%2Ftracker.cyberia.is%3A6969%2Fannounce",
        "seeder": "9",
        "leecher": "0"
    }
]
