[
    {
        "rank": "1",
        "title": "Wonder Woman 1984.2020.IMAX.HDRip.XviD.AC3-EVO[TGx]",
        "link": "magnet:?xt=urn:btih:267BFC138BAC2DD17590E9A6DB5FC1494E9ADE7D&dn=Wonder+Woman+1984.2020.IMAX.HDRip.XviD.AC3-EVO%5BTGx%5D&tr=udp%3A%2F%2Ftracker.coppersurfer.tk%3A6969%2Fannounce&tr=udp%3A%2F%2F9.rarbg.to%3A2920%2Fannounce&tr=udp%3A%2F%2Ftracker.opentrackr.org%3A1337&tr=udp%3A%2F%2Ftracker.internetwarriors.net%3A1337%2Fannounce&tr=udp%3A%2F%2Ftracker.leechers-paradise.org%3A6969%2Fannounce&tr=udp%3A%2F%2Ftracker.coppersurfer.tk%3A6969%2Fannounce&tr=udp%3A%2F%2Ftracker.pirateparty.gr%3A6969%2Fannounce&tr=udp%3A%2F%2Ftracker.cyberia.is%3A6969%2Fannounce",
        "seeder": "2023",
        "leecher": "278"
    },
    {
        "rank": "2",
        "title": "Zack.Snyders.Justice.League.2021.HDRip.XviD.AC3-EVO",
        "link": "magnet:?xt=urn:btih:B25C1265713276E1052B9D750942EDF62B705C97&dn=Zack.Snyders.Justice.League.2021.HDRip.XviD.AC3-EVO&tr=udp%3A%2F%2Ftracker.coppersurfer.tk%3A6969%2Fannounce&tr=udp%3A%2F%2F9.rarbg.to%3A2920%2Fannounce&tr=udp%3A%2F%2Ftracker.opentrackr.org%3A1337&tr=udp%3A%2F%2Ftracker.internetwarriors.net%3A1337%2Fannounce&tr=udp%3A%2F%2Ftracker.leechers-paradise.org%3A6969%2Fannounce&tr=udp%3A%2F%2Ftracker.coppersurfer.tk%3A6969%2Fannounce&tr=udp%3A%2F%2Ftracker.pirateparty.gr%3A6969%2Fannounce&tr=udp%3A%2F%2Ftracker.cyberia.is%3A6969%2Fannounce",
        "seeder": "1634",
        "leecher": "282"
    },
    {
        "rank": "3",
        "title": "Godzilla.vs.Kong.2021.HDRip.XviD.AC3-EVO[TGx]",
        "link": "magnet:?xt=urn:btih:43F67415B78B7BFECFA6D4859E55E2845B98C80C&dn=Godzilla.vs.Kong.2021.HDRip.XviD.AC3-EVO%5BTGx%5D&tr=udp%3A%2F%2Ftracker.coppersurfer.tk%3A6969%2Fannounce&tr=udp%3A%2F%2F9.rarbg.to%3A2920%2Fannounce&tr=udp%3A%2F%2Ftracker.opentrackr.org%3A1337&tr=udp%3A%2F%2Ftracker.internetwarriors.net%3A1337%2Fannounce&tr=udp%3A%2F%2Ftracker.leechers-paradise.org%3A6969%2Fannounce&tr=udp%3A%2F%2Ftracker.coppersurfer.tk%3A6969%2Fannounce&tr=udp%3A%2F%2Ftracker.pirateparty.gr%3A6969%2Fannounce&tr=udp%3A%2F%2Ftracker.cyberia.is%3A6969%2Fannounce",
        "seeder": "1386",
        "leecher": "238"
    },
    {
        "rank": "4",
        "title": "The.Little.Things.2021.HDRip.XviD.AC3-EVO",
        "link": "magnet:?xt=urn:btih:2271A93F91B248053542E59273413E48DF7F4C29&dn=The.Little.Things.2021.HDRip.XviD.AC3-EVO&tr=udp%3A%2F%2Ftracker.coppersurfer.tk%3A6969%2Fannounce&tr=udp%3A%2F%2F9.rarbg.to%3A2920%2Fannounce&tr=udp%3A%2F%2Ftracker.opentrackr.org%3A1337&tr=udp%3A%2F%2Ftracker.internetwarriors.net%3A1337%2Fannounce&tr=udp%3A%2F%2Ftracker.leechers-paradise.org%3A6969%2Fannounce&tr=udp%3A%2F%2Ftracker.coppersurfer.tk%3A6969%2Fannounce&tr=udp%3A%2F%2Ftracker.pirateparty.gr%3A6969%2Fannounce&tr=udp%3A%2F%2Ftracker.cyberia.is%3A6969%2Fannounce",
        "seeder": "1343",
        "leecher": "277"
    },
    {
        "rank": "5",
        "title": "Raya.and.the.Last.Dragon.2021.HDRip.XviD.AC3-EVO",
        "link": "magnet:?xt=urn:btih:58918F0E92C265821C083CA4273178963A5137BB&dn=Raya.and.the.Last.Dragon.2021.HDRip.XviD.AC3-EVO&tr=udp%3A%2F%2Ftracker.coppersurfer.tk%3A6969%2Fannounce&tr=udp%3A%2F%2F9.rarbg.to%3A2920%2Fannounce&tr=udp%3A%2F%2Ftracker.opentrackr.org%3A1337&tr=udp%3A%2F%2Ftracker.internetwarriors.net%3A1337%2Fannounce&tr=udp%3A%2F%2Ftracker.leechers-paradise.org%3A6969%2Fannounce&tr=udp%3A%2F%2Ftracker.coppersurfer.tk%3A6969%2Fannounce&tr=udp%3A%2F%2Ftracker.pirateparty.gr%3A6969%2Fannounce&tr=udp%3A%2F%2Ftracker.cyberia.is%3A6969%2Fannounce",
        "seeder": "1082",
        "leecher": "150"
    },
    {
        "rank": "6",
        "title": "Monster.Hunter.2021.HDRip.XviD.AC3-EVO",
        "link": "magnet:?xt=urn:btih:2B58C8F218F15585D2C883AFB4670B84BFA25621&dn=Monster.Hunter.2021.HDRip.XviD.AC3-EVO&tr=udp%3A%2F%2Ftracker.coppersurfer.tk%3A6969%2Fannounce&tr=udp%3A%2F%2F9.rarbg.to%3A2920%2Fannounce&tr=udp%3A%2F%2Ftracker.opentrackr.org%3A1337&tr=udp%3A%2F%2Ftracker.internetwarriors.net%3A1337%2Fannounce&tr=udp%3A%2F%2Ftracker.leechers-paradise.org%3A6969%2Fannounce&tr=udp%3A%2F%2Ftracker.coppersurfer.tk%3A6969%2Fannounce&tr=udp%3A%2F%2Ftracker.pirateparty.gr%3A6969%2Fannounce&tr=udp%3A%2F%2Ftracker.cyberia.is%3A6969%2Fannounce",
        "seeder": "990",
        "leecher": "278"
    },
    {
        "rank": "7",
        "title": "Borat.2.Subsequent.Moviefilm.2020.HDRip.XviD.AC3-EVO[TGx]",
        "link": "magnet:?xt=urn:btih:AE6BBCF9270B44F3D2FD54F14E8933A7D68A4C84&dn=Borat.2.Subsequent.Moviefilm.2020.HDRip.XviD.AC3-EVO%5BTGx%5D&tr=udp%3A%2F%2Ftracker.coppersurfer.tk%3A6969%2Fannounce&tr=udp%3A%2F%2F9.rarbg.to%3A2920%2Fannounce&tr=udp%3A%2F%2Ftracker.opentrackr.org%3A1337&tr=udp%3A%2F%2Ftracker.internetwarriors.net%3A1337%2Fannounce&tr=udp%3A%2F%2Ftracker.leechers-paradise.org%3A6969%2Fannounce&tr=udp%3A%2F%2Ftracker.coppersurfer.tk%3A6969%2Fannounce&tr=udp%3A%2F%2Ftracker.pirateparty.gr%3A6969%2Fannounce&tr=udp%3A%2F%2Ftracker.cyberia.is%3A6969%2Fannounce",
        "seeder": "846",
        "leecher": "15"
    },
    {
        "rank": "8",
        "title": "Coming.2.America.2021.HDRip.XviD.AC3-EVO[TGx]",
        "link": "magnet:?xt=urn:btih:7495DF8C0704E9F40C29BEBB9E61BF344A3F93CB&dn=Coming.2.America.2021.HDRip.XviD.AC3-EVO%5BTGx%5D&tr=udp%3A%2F%2Ftracker.coppersurfer.tk%3A6969%2Fannounce&tr=udp%3A%2F%2F9.rarbg.to%3A2920%2Fannounce&tr=udp%3A%2F%2Ftracker.opentrackr.org%3A1337&tr=udp%3A%2F%2Ftracker.internetwarriors.net%3A1337%2Fannounce&tr=udp%3A%2F%2Ftracker.leechers-paradise.org%3A6969%2Fannounce&tr=udp%3A%2F%2Ftracker.coppersurfer.tk%3A6969%2Fannounce&tr=udp%3A%2F%2Ftracker.pirateparty.gr%3A6969%2Fannounce&tr=udp%3A%2F%2Ftracker.cyberia.is%3A6969%2Fannounce",
        "seeder": "705",
        "leecher": "73"
    },
    {
        "rank": "9",
        "title": "Boss.Level.2020.BRRip.XviD.AC3-EVO",
        "link": "magnet:?xt=urn:btih:34F0F4D2FF65CA1E391A0A3435973970E660F1A3&dn=Boss.Level.2020.BRRip.XviD.AC3-EVO&tr=udp%3A%2F%2Ftracker.coppersurfer.tk%3A6969%2Fannounce&tr=udp%3A%2F%2F9.rarbg.to%3A2920%2Fannounce&tr=udp%3A%2F%2Ftracker.opentrackr.org%3A1337&tr=udp%3A%2F%2Ftracker.internetwarriors.net%3A1337%2Fannounce&tr=udp%3A%2F%2Ftracker.leechers-paradise.org%3A6969%2Fannounce&tr=udp%3A%2F%2Ftracker.coppersurfer.tk%3A6969%2Fannounce&tr=udp%3A%2F%2Ftracker.pirateparty.gr%3A6969%2Fannounce&tr=udp%3A%2F%2Ftracker.cyberia.is%3A6969%2Fannounce",
        "seeder": "650",
        "leecher": "90"
    },
    {
        "rank": "10",
        "title": "Tom.and.Jerry.2021.HDRip.XviD.AC3-EVO[TGx]",
        "link": "magnet:?xt=urn:btih:46C6ABFDCFCC0A296AD108F41B7BA2E957BA05DC&dn=Tom.and.Jerry.2021.HDRip.XviD.AC3-EVO%5BTGx%5D&tr=udp%3A%2F%2Ftracker.coppersurfer.tk%3A6969%2Fannounce&tr=udp%3A%2F%2F9.rarbg.to%3A2920%2Fannounce&tr=udp%3A%2F%2Ftracker.opentrackr.org%3A1337&tr=udp%3A%2F%2Ftracker.internetwarriors.net%3A1337%2Fannounce&tr=udp%3A%2F%2Ftracker.leechers-paradise.org%3A6969%2Fannounce&tr=udp%3A%2F%2Ftracker.coppersurfer.tk%3A6969%2Fannounce&tr=udp%3A%2F%2Ftracker.pirateparty.gr%3A6969%2Fannounce&tr=udp%3A%2F%2Ftracker.cyberia.is%3A6969%2Fannounce",
        "seeder": "584",
        "leecher": "136"
    },
    {
        "rank": "11",
        "title": "The.Father.2021.HDRip.XviD.AC3-EVO",
        "link": "magnet:?xt=urn:btih:E0384DE1F31DD583AB3FFE2E644A4A58EAF6741E&dn=The.Father.2021.HDRip.XviD.AC3-EVO&tr=udp%3A%2F%2Ftracker.coppersurfer.tk%3A6969%2Fannounce&tr=udp%3A%2F%2F9.rarbg.to%3A2920%2Fannounce&tr=udp%3A%2F%2Ftracker.opentrackr.org%3A1337&tr=udp%3A%2F%2Ftracker.internetwarriors.net%3A1337%2Fannounce&tr=udp%3A%2F%2Ftracker.leechers-paradise.org%3A6969%2Fannounce&tr=udp%3A%2F%2Ftracker.coppersurfer.tk%3A6969%2Fannounce&tr=udp%3A%2F%2Ftracker.pirateparty.gr%3A6969%2Fannounce&tr=udp%3A%2F%2Ftracker.cyberia.is%3A6969%2Fannounce",
        "seeder": "579",
        "leecher": "75"
    },
    {
        "rank": "12",
        "title": "The.Penthouse.2021.DVDRip.850MB.x264-DMV[TGx]",
        "link": "magnet:?xt=urn:btih:ECFF639ECA5E997496FB7445B21B03A2D1037E31&dn=The.Penthouse.2021.DVDRip.850MB.x264-DMV%5BTGx%5D&tr=udp%3A%2F%2Ftracker.coppersurfer.tk%3A6969%2Fannounce&tr=udp%3A%2F%2F9.rarbg.to%3A2920%2Fannounce&tr=udp%3A%2F%2Ftracker.opentrackr.org%3A1337&tr=udp%3A%2F%2Ftracker.internetwarriors.net%3A1337%2Fannounce&tr=udp%3A%2F%2Ftracker.leechers-paradise.org%3A6969%2Fannounce&tr=udp%3A%2F%2Ftracker.coppersurfer.tk%3A6969%2Fannounce&tr=udp%3A%2F%2Ftracker.pirateparty.gr%3A6969%2Fannounce&tr=udp%3A%2F%2Ftracker.cyberia.is%3A6969%2Fannounce",
        "seeder": "519",
        "leecher": "220"
    },
    {
        "rank": "13",
        "title": "Judas and the Black Messiah.2021.HDRip.XviD.AC3-EVO",
        "link": "magnet:?xt=urn:btih:7E42ED4DDA25AC83ACC4C54BB615629B79D2A569&dn=Judas+and+the+Black+Messiah.2021.HDRip.XviD.AC3-EVO&tr=udp%3A%2F%2Ftracker.coppersurfer.tk%3A6969%2Fannounce&tr=udp%3A%2F%2F9.rarbg.to%3A2920%2Fannounce&tr=udp%3A%2F%2Ftracker.opentrackr.org%3A1337&tr=udp%3A%2F%2Ftracker.internetwarriors.net%3A1337%2Fannounce&tr=udp%3A%2F%2Ftracker.leechers-paradise.org%3A6969%2Fannounce&tr=udp%3A%2F%2Ftracker.coppersurfer.tk%3A6969%2Fannounce&tr=udp%3A%2F%2Ftracker.pirateparty.gr%3A6969%2Fannounce&tr=udp%3A%2F%2Ftracker.cyberia.is%3A6969%2Fannounce",
        "seeder": "513",
        "leecher": "112"
    },
    {
        "rank": "14",
        "title": "Train to Busan 2.Peninsula.2020.HDRip.XviD.AC3-EVO[TGx]",
        "link": "magnet:?xt=urn:btih:1D2D884C061F83B71884CD222B9D252BD95BC211&dn=Train+to+Busan+2.Peninsula.2020.HDRip.XviD.AC3-EVO%5BTGx%5D&tr=udp%3A%2F%2Ftracker.coppersurfer.tk%3A6969%2Fannounce&tr=udp%3A%2F%2F9.rarbg.to%3A2920%2Fannounce&tr=udp%3A%2F%2Ftracker.opentrackr.org%3A1337&tr=udp%3A%2F%2Ftracker.internetwarriors.net%3A1337%2Fannounce&tr=udp%3A%2F%2Ftracker.leechers-paradise.org%3A6969%2Fannounce&tr=udp%3A%2F%2Ftracker.coppersurfer.tk%3A6969%2Fannounce&tr=udp%3A%2F%2Ftracker.pirateparty.gr%3A6969%2Fannounce&tr=udp%3A%2F%2Ftracker.cyberia.is%3A6969%2Fannounce",
        "seeder": "511",
        "leecher": "21"
    },
    {
        "rank": "15",
        "title": "Soul.2020.HDRip.XviD.AC3-EVO",
        "link": "magnet:?xt=urn:btih:2B7AA1326EEF5D232CD00B8FCC17E529CA01EEAF&dn=Soul.2020.HDRip.XviD.AC3-EVO&tr=udp%3A%2F%2Ftracker.coppersurfer.tk%3A6969%2Fannounce&tr=udp%3A%2F%2F9.rarbg.to%3A2920%2Fannounce&tr=udp%3A%2F%2Ftracker.opentrackr.org%3A1337&tr=udp%3A%2F%2Ftracker.internetwarriors.net%3A1337%2Fannounce&tr=udp%3A%2F%2Ftracker.leechers-paradise.org%3A6969%2Fannounce&tr=udp%3A%2F%2Ftracker.coppersurfer.tk%3A6969%2Fannounce&tr=udp%3A%2F%2Ftracker.pirateparty.gr%3A6969%2Fannounce&tr=udp%3A%2F%2Ftracker.cyberia.is%3A6969%2Fannounce",
        "seeder": "494",
        "leecher": "231"
    },
    {
        "rank": "16",
        "title": "Extraction.2020.HDRip.XviD.AC3-EVO[TGx]",
        "link": "magnet:?xt=urn:btih:4388342AA5AF38BFB7FF48E3A3A353C6D0D8F5A5&dn=Extraction.2020.HDRip.XviD.AC3-EVO%5BTGx%5D&tr=udp%3A%2F%2Ftracker.coppersurfer.tk%3A6969%2Fannounce&tr=udp%3A%2F%2F9.rarbg.to%3A2920%2Fannounce&tr=udp%3A%2F%2Ftracker.opentrackr.org%3A1337&tr=udp%3A%2F%2Ftracker.internetwarriors.net%3A1337%2Fannounce&tr=udp%3A%2F%2Ftracker.leechers-paradise.org%3A6969%2Fannounce&tr=udp%3A%2F%2Ftracker.coppersurfer.tk%3A6969%2Fannounce&tr=udp%3A%2F%2Ftracker.pirateparty.gr%3A6969%2Fannounce&tr=udp%3A%2F%2Ftracker.cyberia.is%3A6969%2Fannounce",
        "seeder": "460",
        "leecher": "21"
    },
    {
        "rank": "17",
        "title": "Nomadland.2021.HDRip.XviD.AC3-EVO",
        "link": "magnet:?xt=urn:btih:2C6814500E4976BDB0D9A4B9BE605F7A89502625&dn=Nomadland.2021.HDRip.XviD.AC3-EVO&tr=udp%3A%2F%2Ftracker.coppersurfer.tk%3A6969%2Fannounce&tr=udp%3A%2F%2F9.rarbg.to%3A2920%2Fannounce&tr=udp%3A%2F%2Ftracker.opentrackr.org%3A1337&tr=udp%3A%2F%2Ftracker.internetwarriors.net%3A1337%2Fannounce&tr=udp%3A%2F%2Ftracker.leechers-paradise.org%3A6969%2Fannounce&tr=udp%3A%2F%2Ftracker.coppersurfer.tk%3A6969%2Fannounce&tr=udp%3A%2F%2Ftracker.pirateparty.gr%3A6969%2Fannounce&tr=udp%3A%2F%2Ftracker.cyberia.is%3A6969%2Fannounce",
        "seeder": "423",
        "leecher": "76"
    },
    {
        "rank": "18",
        "title": "SAS.Red.Notice.2021.HDRip.XviD.AC3-EVO",
        "link": "magnet:?xt=urn:btih:48ACD252ACC142FF24C8C4EC5FC29CF7EB7E810E&dn=SAS.Red.Notice.2021.HDRip.XviD.AC3-EVO&tr=udp%3A%2F%2Ftracker.coppersurfer.tk%3A6969%2Fannounce&tr=udp%3A%2F%2F9.rarbg.to%3A2920%2Fannounce&tr=udp%3A%2F%2Ftracker.opentrackr.org%3A1337&tr=udp%3A%2F%2Ftracker.internetwarriors.net%3A1337%2Fannounce&tr=udp%3A%2F%2Ftracker.leechers-paradise.org%3A6969%2Fannounce&tr=udp%3A%2F%2Ftracker.coppersurfer.tk%3A6969%2Fannounce&tr=udp%3A%2F%2Ftracker.pirateparty.gr%3A6969%2Fannounce&tr=udp%3A%2F%2Ftracker.cyberia.is%3A6969%2Fannounce",
        "seeder": "412",
        "leecher": "86"
    },
    {
        "rank": "19",
        "title": "News.of.the.World.2021.HDRip.XviD.AC3-EVO",
        "link": "magnet:?xt=urn:btih:F9E2253431D533C90A457212CE715E07F0CF32EE&dn=News.of.the.World.2021.HDRip.XviD.AC3-EVO&tr=udp%3A%2F%2Ftracker.coppersurfer.tk%3A6969%2Fannounce&tr=udp%3A%2F%2F9.rarbg.to%3A2920%2Fannounce&tr=udp%3A%2F%2Ftracker.opentrackr.org%3A1337&tr=udp%3A%2F%2Ftracker.internetwarriors.net%3A1337%2Fannounce&tr=udp%3A%2F%2Ftracker.leechers-paradise.org%3A6969%2Fannounce&tr=udp%3A%2F%2Ftracker.coppersurfer.tk%3A6969%2Fannounce&tr=udp%3A%2F%2Ftracker.pirateparty.gr%3A6969%2Fannounce&tr=udp%3A%2F%2Ftracker.cyberia.is%3A6969%2Fannounce",
        "seeder": "408",
        "leecher": "42"
    },
    {
        "rank": "20",
        "title": "The Mauritanian.2021.HDRip.XviD.AC3-EVO",
        "link": "magnet:?xt=urn:btih:7B8F169C03104828B3248B1BB7092BD5D4A6C21E&dn=The+Mauritanian.2021.HDRip.XviD.AC3-EVO&tr=udp%3A%2F%2Ftracker.coppersurfer.tk%3A6969%2Fannounce&tr=udp%3A%2F%2F9.rarbg.to%3A2920%2Fannounce&tr=udp%3A%2F%2Ftracker.opentrackr.org%3A1337&tr=udp%3A%2F%2Ftracker.internetwarriors.net%3A1337%2Fannounce&tr=udp%3A%2F%2Ftracker.leechers-paradise.org%3A6969%2Fannounce&tr=udp%3A%2F%2Ftracker.coppersurfer.tk%3A6969%2Fannounce&tr=udp%3A%2F%2Ftracker.pirateparty.gr%3A6969%2Fannounce&tr=udp%3A%2F%2Ftracker.cyberia.is%3A6969%2Fannounce",
        "seeder": "407",
        "leecher": "56"
    },
    {
        "rank": "21",
        "title": "Minari 2020 720p Korean WEBSCR HEVC H265 BONE",
        "link": "magnet:?xt=urn:btih:41A80F4C930B0157AAC357A4BD3E09B7A872B7BC&dn=Minari+2020+720p+Korean+WEBSCR+HEVC+H265+BONE&tr=udp%3A%2F%2Ftracker.coppersurfer.tk%3A6969%2Fannounce&tr=udp%3A%2F%2F9.rarbg.to%3A2920%2Fannounce&tr=udp%3A%2F%2Ftracker.opentrackr.org%3A1337&tr=udp%3A%2F%2Ftracker.internetwarriors.net%3A1337%2Fannounce&tr=udp%3A%2F%2Ftracker.leechers-paradise.org%3A6969%2Fannounce&tr=udp%3A%2F%2Ftracker.coppersurfer.tk%3A6969%2Fannounce&tr=udp%3A%2F%2Ftracker.pirateparty.gr%3A6969%2Fannounce&tr=udp%3A%2F%2Ftracker.cyberia.is%3A6969%2Fannounce",
        "seeder": "391",
        "leecher": "107"
    },
    {
        "rank": "22",
        "title": "Soul.2020.HDRip.XviD.AC3-EVO[TGx]",
        "link": "magnet:?xt=urn:btih:0E66E8D3C268F58076FE71F96750F978B3884384&dn=Soul.2020.HDRip.XviD.AC3-EVO%5BTGx%5D&tr=udp%3A%2F%2Ftracker.coppersurfer.tk%3A6969%2Fannounce&tr=udp%3A%2F%2F9.rarbg.to%3A2920%2Fannounce&tr=udp%3A%2F%2Ftracker.opentrackr.org%3A1337&tr=udp%3A%2F%2Ftracker.internetwarriors.net%3A1337%2Fannounce&tr=udp%3A%2F%2Ftracker.leechers-paradise.org%3A6969%2Fannounce&tr=udp%3A%2F%2Ftracker.coppersurfer.tk%3A6969%2Fannounce&tr=udp%3A%2F%2Ftracker.pirateparty.gr%3A6969%2Fannounce&tr=udp%3A%2F%2Ftracker.cyberia.is%3A6969%2Fannounce",
        "seeder": "389",
        "leecher": "5"
    },
    {
        "rank": "23",
        "title": "Chaos.Walking.2021.HDRip.XviD.AC3-EVO",
        "link": "magnet:?xt=urn:btih:41D5D478A7D5B3D12F6C2CF49821D22CB31901C8&dn=Chaos.Walking.2021.HDRip.XviD.AC3-EVO&tr=udp%3A%2F%2Ftracker.coppersurfer.tk%3A6969%2Fannounce&tr=udp%3A%2F%2F9.rarbg.to%3A2920%2Fannounce&tr=udp%3A%2F%2Ftracker.opentrackr.org%3A1337&tr=udp%3A%2F%2Ftracker.internetwarriors.net%3A1337%2Fannounce&tr=udp%3A%2F%2Ftracker.leechers-paradise.org%3A6969%2Fannounce&tr=udp%3A%2F%2Ftracker.coppersurfer.tk%3A6969%2Fannounce&tr=udp%3A%2F%2Ftracker.pirateparty.gr%3A6969%2Fannounce&tr=udp%3A%2F%2Ftracker.cyberia.is%3A6969%2Fannounce",
        "seeder": "384",
        "leecher": "56"
    },
    {
        "rank": "24",
        "title": "Palmer.2021.HDRip.XviD.AC3-EVO",
        "link": "magnet:?xt=urn:btih:676E46113FD74ED6A54D63AB9A29FFA84159EB24&dn=Palmer.2021.HDRip.XviD.AC3-EVO&tr=udp%3A%2F%2Ftracker.coppersurfer.tk%3A6969%2Fannounce&tr=udp%3A%2F%2F9.rarbg.to%3A2920%2Fannounce&tr=udp%3A%2F%2Ftracker.opentrackr.org%3A1337&tr=udp%3A%2F%2Ftracker.internetwarriors.net%3A1337%2Fannounce&tr=udp%3A%2F%2Ftracker.leechers-paradise.org%3A6969%2Fannounce&tr=udp%3A%2F%2Ftracker.coppersurfer.tk%3A6969%2Fannounce&tr=udp%3A%2F%2Ftracker.pirateparty.gr%3A6969%2Fannounce&tr=udp%3A%2F%2Ftracker.cyberia.is%3A6969%2Fannounce",
        "seeder": "374",
        "leecher": "69"
    },
    {
        "rank": "25",
        "title": "Mulan.2020.HDRip.XviD.AC3-EVO[TGx]",
        "link": "magnet:?xt=urn:btih:549936E2602D3D646F84982F53356EA2D0C94313&dn=Mulan.2020.HDRip.XviD.AC3-EVO%5BTGx%5D&tr=udp%3A%2F%2Ftracker.coppersurfer.tk%3A6969%2Fannounce&tr=udp%3A%2F%2F9.rarbg.to%3A2920%2Fannounce&tr=udp%3A%2F%2Ftracker.opentrackr.org%3A1337&tr=udp%3A%2F%2Ftracker.internetwarriors.net%3A1337%2Fannounce&tr=udp%3A%2F%2Ftracker.leechers-paradise.org%3A6969%2Fannounce&tr=udp%3A%2F%2Ftracker.coppersurfer.tk%3A6969%2Fannounce&tr=udp%3A%2F%2Ftracker.pirateparty.gr%3A6969%2Fannounce&tr=udp%3A%2F%2Ftracker.cyberia.is%3A6969%2Fannounce",
        "seeder": "368",
        "leecher": "10"
    },
    {
        "rank": "26",
        "title": "Bad Boys For Life 2020 NEW 720p HD-TS x264 HQ-CPG",
        "link": "magnet:?xt=urn:btih:547CB4083A691487F98F0DF155CD6EC719167D97&dn=Bad+Boys+For+Life+2020+NEW+720p+HD-TS+x264+HQ-CPG&tr=udp%3A%2F%2Ftracker.coppersurfer.tk%3A6969%2Fannounce&tr=udp%3A%2F%2F9.rarbg.to%3A2920%2Fannounce&tr=udp%3A%2F%2Ftracker.opentrackr.org%3A1337&tr=udp%3A%2F%2Ftracker.internetwarriors.net%3A1337%2Fannounce&tr=udp%3A%2F%2Ftracker.leechers-paradise.org%3A6969%2Fannounce&tr=udp%3A%2F%2Ftracker.coppersurfer.tk%3A6969%2Fannounce&tr=udp%3A%2F%2Ftracker.pirateparty.gr%3A6969%2Fannounce&tr=udp%3A%2F%2Ftracker.cyberia.is%3A6969%2Fannounce",
        "seeder": "336",
        "leecher": "61"
    },
    {
        "rank": "27",
        "title": "American.Pie.Presents.Girls.Rules.2020.DVDRip.850MB.x264-DMV[TGx",
        "link": "magnet:?xt=urn:btih:BAFE54311227E5731A4BDB7C90A404B88F225C21&dn=American.Pie.Presents.Girls.Rules.2020.DVDRip.850MB.x264-DMV%5BTGx&tr=udp%3A%2F%2Ftracker.coppersurfer.tk%3A6969%2Fannounce&tr=udp%3A%2F%2F9.rarbg.to%3A2920%2Fannounce&tr=udp%3A%2F%2Ftracker.opentrackr.org%3A1337&tr=udp%3A%2F%2Ftracker.internetwarriors.net%3A1337%2Fannounce&tr=udp%3A%2F%2Ftracker.leechers-paradise.org%3A6969%2Fannounce&tr=udp%3A%2F%2Ftracker.coppersurfer.tk%3A6969%2Fannounce&tr=udp%3A%2F%2Ftracker.pirateparty.gr%3A6969%2Fannounce&tr=udp%3A%2F%2Ftracker.cyberia.is%3A6969%2Fannounce",
        "seeder": "335",
        "leecher": "18"
    },
    {
        "rank": "28",
        "title": "The.King.Of.Staten.Island.2020.HDRip.XviD.AC3-EVO[TGx]",
        "link": "magnet:?xt=urn:btih:7976F5BD93F4239C0681BE6850A1B3750BB916C3&dn=The.King.Of.Staten.Island.2020.HDRip.XviD.AC3-EVO%5BTGx%5D&tr=udp%3A%2F%2Ftracker.coppersurfer.tk%3A6969%2Fannounce&tr=udp%3A%2F%2F9.rarbg.to%3A2920%2Fannounce&tr=udp%3A%2F%2Ftracker.opentrackr.org%3A1337&tr=udp%3A%2F%2Ftracker.internetwarriors.net%3A1337%2Fannounce&tr=udp%3A%2F%2Ftracker.leechers-paradise.org%3A6969%2Fannounce&tr=udp%3A%2F%2Ftracker.coppersurfer.tk%3A6969%2Fannounce&tr=udp%3A%2F%2Ftracker.pirateparty.gr%3A6969%2Fannounce&tr=udp%3A%2F%2Ftracker.cyberia.is%3A6969%2Fannounce",
        "seeder": "324",
        "leecher": "13"
    },
    {
        "rank": "29",
        "title": "Bill and Ted Face the Music.2020.HDRip.XviD.AC3-EVO",
        "link": "magnet:?xt=urn:btih:2992AA8AAF2D2A2C7CD4729AF0351E8A4A465E27&dn=Bill+and+Ted+Face+the+Music.2020.HDRip.XviD.AC3-EVO&tr=udp%3A%2F%2Ftracker.coppersurfer.tk%3A6969%2Fannounce&tr=udp%3A%2F%2F9.rarbg.to%3A2920%2Fannounce&tr=udp%3A%2F%2Ftracker.opentrackr.org%3A1337&tr=udp%3A%2F%2Ftracker.internetwarriors.net%3A1337%2Fannounce&tr=udp%3A%2F%2Ftracker.leechers-paradise.org%3A6969%2Fannounce&tr=udp%3A%2F%2Ftracker.coppersurfer.tk%3A6969%2Fannounce&tr=udp%3A%2F%2Ftracker.pirateparty.gr%3A6969%2Fannounce&tr=udp%3A%2F%2Ftracker.cyberia.is%3A6969%2Fannounce",
        "seeder": "320",
        "leecher": "9"
    },
    {
        "rank": "30",
        "title": "The.Unholy.2021.HDCAM.850MB.x264-SUNSCREEN[TGx]",
        "link": "magnet:?xt=urn:btih:890E14E4395CFDD78FD3D6A7E37B283B6B8FFE0B&dn=The.Unholy.2021.HDCAM.850MB.x264-SUNSCREEN%5BTGx%5D&tr=udp%3A%2F%2Ftracker.coppersurfer.tk%3A6969%2Fannounce&tr=udp%3A%2F%2F9.rarbg.to%3A2920%2Fannounce&tr=udp%3A%2F%2Ftracker.opentrackr.org%3A1337&tr=udp%3A%2F%2Ftracker.internetwarriors.net%3A1337%2Fannounce&tr=udp%3A%2F%2Ftracker.leechers-paradise.org%3A6969%2Fannounce&tr=udp%3A%2F%2Ftracker.coppersurfer.tk%3A6969%2Fannounce&tr=udp%3A%2F%2Ftracker.pirateparty.gr%3A6969%2Fannounce&tr=udp%3A%2F%2Ftracker.cyberia.is%3A6969%2Fannounce",
        "seeder": "309",
        "leecher": "115"
    },
    {
        "rank": "31",
        "title": "Another.Round.2020.HDRip.XviD.AC3-EVO",
        "link": "magnet:?xt=urn:btih:E25452FD1AE07AFE5C88BF1FBE078D50B8E5D4C8&dn=Another.Round.2020.HDRip.XviD.AC3-EVO&tr=udp%3A%2F%2Ftracker.coppersurfer.tk%3A6969%2Fannounce&tr=udp%3A%2F%2F9.rarbg.to%3A2920%2Fannounce&tr=udp%3A%2F%2Ftracker.opentrackr.org%3A1337&tr=udp%3A%2F%2Ftracker.internetwarriors.net%3A1337%2Fannounce&tr=udp%3A%2F%2Ftracker.leechers-paradise.org%3A6969%2Fannounce&tr=udp%3A%2F%2Ftracker.coppersurfer.tk%3A6969%2Fannounce&tr=udp%3A%2F%2Ftracker.pirateparty.gr%3A6969%2Fannounce&tr=udp%3A%2F%2Ftracker.cyberia.is%3A6969%2Fannounce",
        "seeder": "306",
        "leecher": "73"
    },
    {
        "rank": "32",
        "title": "The.New.Mutants.2020.1080p.BRRip.DD5.1.X.264-EVO",
        "link": "magnet:?xt=urn:btih:911E16EF0998382BED56CF59BADF64983F23D021&dn=The.New.Mutants.2020.1080p.BRRip.DD5.1.X.264-EVO&tr=udp%3A%2F%2Ftracker.coppersurfer.tk%3A6969%2Fannounce&tr=udp%3A%2F%2F9.rarbg.to%3A2920%2Fannounce&tr=udp%3A%2F%2Ftracker.opentrackr.org%3A1337&tr=udp%3A%2F%2Ftracker.internetwarriors.net%3A1337%2Fannounce&tr=udp%3A%2F%2Ftracker.leechers-paradise.org%3A6969%2Fannounce&tr=udp%3A%2F%2Ftracker.coppersurfer.tk%3A6969%2Fannounce&tr=udp%3A%2F%2Ftracker.pirateparty.gr%3A6969%2Fannounce&tr=udp%3A%2F%2Ftracker.cyberia.is%3A6969%2Fannounce",
        "seeder": "292",
        "leecher": "17"
    },
    {
        "rank": "33",
        "title": "Godzilla.vs.Kong.2021.HDCAM.850MB.x264-SUNSCREEN[TGx]",
        "link": "magnet:?xt=urn:btih:FC4C5C9A355628A4CCCB04A2B3BF4AB165D585BE&dn=Godzilla.vs.Kong.2021.HDCAM.850MB.x264-SUNSCREEN%5BTGx%5D&tr=udp%3A%2F%2Ftracker.coppersurfer.tk%3A6969%2Fannounce&tr=udp%3A%2F%2F9.rarbg.to%3A2920%2Fannounce&tr=udp%3A%2F%2Ftracker.opentrackr.org%3A1337&tr=udp%3A%2F%2Ftracker.internetwarriors.net%3A1337%2Fannounce&tr=udp%3A%2F%2Ftracker.leechers-paradise.org%3A6969%2Fannounce&tr=udp%3A%2F%2Ftracker.coppersurfer.tk%3A6969%2Fannounce&tr=udp%3A%2F%2Ftracker.pirateparty.gr%3A6969%2Fannounce&tr=udp%3A%2F%2Ftracker.cyberia.is%3A6969%2Fannounce",
        "seeder": "288",
        "leecher": "176"
    },
    {
        "rank": "34",
        "title": "Girl.In.The.Basement.2021.LIFETIME.720p.WEB-DL.AAC2.0.H264-LBR",
        "link": "magnet:?xt=urn:btih:EAE320105DD2A1110519E1B2387239C0621B346C&dn=Girl.In.The.Basement.2021.LIFETIME.720p.WEB-DL.AAC2.0.H264-LBR&tr=udp%3A%2F%2Ftracker.coppersurfer.tk%3A6969%2Fannounce&tr=udp%3A%2F%2F9.rarbg.to%3A2920%2Fannounce&tr=udp%3A%2F%2Ftracker.opentrackr.org%3A1337&tr=udp%3A%2F%2Ftracker.internetwarriors.net%3A1337%2Fannounce&tr=udp%3A%2F%2Ftracker.leechers-paradise.org%3A6969%2Fannounce&tr=udp%3A%2F%2Ftracker.coppersurfer.tk%3A6969%2Fannounce&tr=udp%3A%2F%2Ftracker.pirateparty.gr%3A6969%2Fannounce&tr=udp%3A%2F%2Ftracker.cyberia.is%3A6969%2Fannounce",
        "seeder": "287",
        "leecher": "86"
    },
    {
        "rank": "35",
        "title": "The.Marksman.HDCAM.850MB.c1nem4.x264-SUNSCREEN[TGx]",
        "link": "magnet:?xt=urn:btih:276ABF288D202BE7BD28FAF573DEAAE5F47F1824&dn=The.Marksman.HDCAM.850MB.c1nem4.x264-SUNSCREEN%5BTGx%5D&tr=udp%3A%2F%2Ftracker.coppersurfer.tk%3A6969%2Fannounce&tr=udp%3A%2F%2F9.rarbg.to%3A2920%2Fannounce&tr=udp%3A%2F%2Ftracker.opentrackr.org%3A1337&tr=udp%3A%2F%2Ftracker.internetwarriors.net%3A1337%2Fannounce&tr=udp%3A%2F%2Ftracker.leechers-paradise.org%3A6969%2Fannounce&tr=udp%3A%2F%2Ftracker.coppersurfer.tk%3A6969%2Fannounce&tr=udp%3A%2F%2Ftracker.pirateparty.gr%3A6969%2Fannounce&tr=udp%3A%2F%2Ftracker.cyberia.is%3A6969%2Fannounce",
        "seeder": "286",
        "leecher": "55"
    },
    {
        "rank": "36",
        "title": "Run Hide Fight.2021.HDRip.XviD.AC3-EVO",
        "link": "magnet:?xt=urn:btih:BB508FB65B6FF8D2EE029FA1B7934FDF967D3121&dn=Run+Hide+Fight.2021.HDRip.XviD.AC3-EVO&tr=udp%3A%2F%2Ftracker.coppersurfer.tk%3A6969%2Fannounce&tr=udp%3A%2F%2F9.rarbg.to%3A2920%2Fannounce&tr=udp%3A%2F%2Ftracker.opentrackr.org%3A1337&tr=udp%3A%2F%2Ftracker.internetwarriors.net%3A1337%2Fannounce&tr=udp%3A%2F%2Ftracker.leechers-paradise.org%3A6969%2Fannounce&tr=udp%3A%2F%2Ftracker.coppersurfer.tk%3A6969%2Fannounce&tr=udp%3A%2F%2Ftracker.pirateparty.gr%3A6969%2Fannounce&tr=udp%3A%2F%2Ftracker.cyberia.is%3A6969%2Fannounce",
        "seeder": "285",
        "leecher": "18"
    },
    {
        "rank": "37",
        "title": "Godzilla Vs Kong 2021 720p WEBRip HEVC X265-RMTeam",
        "link": "magnet:?xt=urn:btih:41B9D52217CE84C69125D8C89CF5C268F321BA1C&dn=Godzilla+Vs+Kong+2021+720p+WEBRip+HEVC+X265-RMTeam&tr=udp%3A%2F%2Ftracker.coppersurfer.tk%3A6969%2Fannounce&tr=udp%3A%2F%2F9.rarbg.to%3A2920%2Fannounce&tr=udp%3A%2F%2Ftracker.opentrackr.org%3A1337&tr=udp%3A%2F%2Ftracker.internetwarriors.net%3A1337%2Fannounce&tr=udp%3A%2F%2Ftracker.leechers-paradise.org%3A6969%2Fannounce&tr=udp%3A%2F%2Ftracker.coppersurfer.tk%3A6969%2Fannounce&tr=udp%3A%2F%2Ftracker.pirateparty.gr%3A6969%2Fannounce&tr=udp%3A%2F%2Ftracker.cyberia.is%3A6969%2Fannounce",
        "seeder": "283",
        "leecher": "466"
    },
    {
        "rank": "38",
        "title": "Cherry.2021.HDRip.XviD.AC3-EVO",
        "link": "magnet:?xt=urn:btih:3548A55C402D5E0AE66335D5C9AD53740FCA92B5&dn=Cherry.2021.HDRip.XviD.AC3-EVO&tr=udp%3A%2F%2Ftracker.coppersurfer.tk%3A6969%2Fannounce&tr=udp%3A%2F%2F9.rarbg.to%3A2920%2Fannounce&tr=udp%3A%2F%2Ftracker.opentrackr.org%3A1337&tr=udp%3A%2F%2Ftracker.internetwarriors.net%3A1337%2Fannounce&tr=udp%3A%2F%2Ftracker.leechers-paradise.org%3A6969%2Fannounce&tr=udp%3A%2F%2Ftracker.coppersurfer.tk%3A6969%2Fannounce&tr=udp%3A%2F%2Ftracker.pirateparty.gr%3A6969%2Fannounce&tr=udp%3A%2F%2Ftracker.cyberia.is%3A6969%2Fannounce",
        "seeder": "283",
        "leecher": "84"
    },
    {
        "rank": "39",
        "title": "Vanguard.2020.HC.HDRip.XviD.AC3-EVO[TGx]",
        "link": "magnet:?xt=urn:btih:630029F8A15C0CBC8C7958BDCAF48EFE3DE7CCB4&dn=Vanguard.2020.HC.HDRip.XviD.AC3-EVO%5BTGx%5D&tr=udp%3A%2F%2Ftracker.coppersurfer.tk%3A6969%2Fannounce&tr=udp%3A%2F%2F9.rarbg.to%3A2920%2Fannounce&tr=udp%3A%2F%2Ftracker.opentrackr.org%3A1337&tr=udp%3A%2F%2Ftracker.internetwarriors.net%3A1337%2Fannounce&tr=udp%3A%2F%2Ftracker.leechers-paradise.org%3A6969%2Fannounce&tr=udp%3A%2F%2Ftracker.coppersurfer.tk%3A6969%2Fannounce&tr=udp%3A%2F%2Ftracker.pirateparty.gr%3A6969%2Fannounce&tr=udp%3A%2F%2Ftracker.cyberia.is%3A6969%2Fannounce",
        "seeder": "280",
        "leecher": "16"
    },
    {
        "rank": "40",
        "title": "Sound.of.Metal.2020.1080p.AMZN.WEBRip.DD5.1.X.264-EVO",
        "link": "magnet:?xt=urn:btih:93CA43C806B8F9656F77BC69BF588EAABA0873DA&dn=Sound.of.Metal.2020.1080p.AMZN.WEBRip.DD5.1.X.264-EVO&tr=udp%3A%2F%2Ftracker.coppersurfer.tk%3A6969%2Fannounce&tr=udp%3A%2F%2F9.rarbg.to%3A2920%2Fannounce&tr=udp%3A%2F%2Ftracker.opentrackr.org%3A1337&tr=udp%3A%2F%2Ftracker.internetwarriors.net%3A1337%2Fannounce&tr=udp%3A%2F%2Ftracker.leechers-paradise.org%3A6969%2Fannounce&tr=udp%3A%2F%2Ftracker.coppersurfer.tk%3A6969%2Fannounce&tr=udp%3A%2F%2Ftracker.pirateparty.gr%3A6969%2Fannounce&tr=udp%3A%2F%2Ftracker.cyberia.is%3A6969%2Fannounce",
        "seeder": "279",
        "leecher": "46"
    },
    {
        "rank": "41",
        "title": "365.Days.2020.1080p.NF.WEBRip.DDP2.0.x264-NTb",
        "link": "magnet:?xt=urn:btih:1749DC45DFC52D3F3358DB289894151DC86D6AE1&dn=365.Days.2020.1080p.NF.WEBRip.DDP2.0.x264-NTb&tr=udp%3A%2F%2Ftracker.coppersurfer.tk%3A6969%2Fannounce&tr=udp%3A%2F%2F9.rarbg.to%3A2920%2Fannounce&tr=udp%3A%2F%2Ftracker.opentrackr.org%3A1337&tr=udp%3A%2F%2Ftracker.internetwarriors.net%3A1337%2Fannounce&tr=udp%3A%2F%2Ftracker.leechers-paradise.org%3A6969%2Fannounce&tr=udp%3A%2F%2Ftracker.coppersurfer.tk%3A6969%2Fannounce&tr=udp%3A%2F%2Ftracker.pirateparty.gr%3A6969%2Fannounce&tr=udp%3A%2F%2Ftracker.cyberia.is%3A6969%2Fannounce",
        "seeder": "279",
        "leecher": "27"
    },
    {
        "rank": "42",
        "title": "Tenet.2020.HDRip.XviD.AC3-EVO[TGx]",
        "link": "magnet:?xt=urn:btih:769DB334699777A4F963313735231785F13F1C21&dn=Tenet.2020.HDRip.XviD.AC3-EVO%5BTGx%5D&tr=udp%3A%2F%2Ftracker.coppersurfer.tk%3A6969%2Fannounce&tr=udp%3A%2F%2F9.rarbg.to%3A2920%2Fannounce&tr=udp%3A%2F%2Ftracker.opentrackr.org%3A1337&tr=udp%3A%2F%2Ftracker.internetwarriors.net%3A1337%2Fannounce&tr=udp%3A%2F%2Ftracker.leechers-paradise.org%3A6969%2Fannounce&tr=udp%3A%2F%2Ftracker.coppersurfer.tk%3A6969%2Fannounce&tr=udp%3A%2F%2Ftracker.pirateparty.gr%3A6969%2Fannounce&tr=udp%3A%2F%2Ftracker.cyberia.is%3A6969%2Fannounce",
        "seeder": "278",
        "leecher": "11"
    },
    {
        "rank": "43",
        "title": "Son.2021.HDRip.XviD.AC3-EVO",
        "link": "magnet:?xt=urn:btih:695419306E4B4DDC1204701E472E69C8F7344D73&dn=Son.2021.HDRip.XviD.AC3-EVO&tr=udp%3A%2F%2Ftracker.coppersurfer.tk%3A6969%2Fannounce&tr=udp%3A%2F%2F9.rarbg.to%3A2920%2Fannounce&tr=udp%3A%2F%2Ftracker.opentrackr.org%3A1337&tr=udp%3A%2F%2Ftracker.internetwarriors.net%3A1337%2Fannounce&tr=udp%3A%2F%2Ftracker.leechers-paradise.org%3A6969%2Fannounce&tr=udp%3A%2F%2Ftracker.coppersurfer.tk%3A6969%2Fannounce&tr=udp%3A%2F%2Ftracker.pirateparty.gr%3A6969%2Fannounce&tr=udp%3A%2F%2Ftracker.cyberia.is%3A6969%2Fannounce",
        "seeder": "277",
        "leecher": "28"
    },
    {
        "rank": "44",
        "title": "Godzilla vs. Kong (2021) 720p HDCAM [Dual Audio]x264 AAC.mkv",
        "link": "magnet:?xt=urn:btih:9215746F9CB2485253A0692FD539282D41022F1D&dn=Godzilla+vs.+Kong+%282021%29+720p+HDCAM+%5BDual+Audio%5Dx264+AAC.mkv&tr=udp%3A%2F%2Ftracker.coppersurfer.tk%3A6969%2Fannounce&tr=udp%3A%2F%2F9.rarbg.to%3A2920%2Fannounce&tr=udp%3A%2F%2Ftracker.opentrackr.org%3A1337&tr=udp%3A%2F%2Ftracker.internetwarriors.net%3A1337%2Fannounce&tr=udp%3A%2F%2Ftracker.leechers-paradise.org%3A6969%2Fannounce&tr=udp%3A%2F%2Ftracker.coppersurfer.tk%3A6969%2Fannounce&tr=udp%3A%2F%2Ftracker.pirateparty.gr%3A6969%2Fannounce&tr=udp%3A%2F%2Ftracker.cyberia.is%3A6969%2Fannounce",
        "seeder": "270",
        "leecher": "31"
    },
    {
        "rank": "45",
        "title": "The.Seventh.Day.2021.HDRip.XviD.AC3-EVO",
        "link": "magnet:?xt=urn:btih:8189925DEAEAB3E36BB21D46DB24C23EBD019CAB&dn=The.Seventh.Day.2021.HDRip.XviD.AC3-EVO&tr=udp%3A%2F%2Ftracker.coppersurfer.tk%3A6969%2Fannounce&tr=udp%3A%2F%2F9.rarbg.to%3A2920%2Fannounce&tr=udp%3A%2F%2Ftracker.opentrackr.org%3A1337&tr=udp%3A%2F%2Ftracker.internetwarriors.net%3A1337%2Fannounce&tr=udp%3A%2F%2Ftracker.leechers-paradise.org%3A6969%2Fannounce&tr=udp%3A%2F%2Ftracker.coppersurfer.tk%3A6969%2Fannounce&tr=udp%3A%2F%2Ftracker.pirateparty.gr%3A6969%2Fannounce&tr=udp%3A%2F%2Ftracker.cyberia.is%3A6969%2Fannounce",
        "seeder": "264",
        "leecher": "46"
    },
    {
        "rank": "46",
        "title": "Star Wars The Rise of Skywalker 2019 HDTS XViD-ETRG",
        "link": "magnet:?xt=urn:btih:9565C9E895E301873FC0CAAD6B5456B3AAB283AD&dn=Star+Wars+The+Rise+of+Skywalker+2019+HDTS+XViD-ETRG&tr=udp%3A%2F%2Ftracker.coppersurfer.tk%3A6969%2Fannounce&tr=udp%3A%2F%2F9.rarbg.to%3A2920%2Fannounce&tr=udp%3A%2F%2Ftracker.opentrackr.org%3A1337&tr=udp%3A%2F%2Ftracker.internetwarriors.net%3A1337%2Fannounce&tr=udp%3A%2F%2Ftracker.leechers-paradise.org%3A6969%2Fannounce&tr=udp%3A%2F%2Ftracker.coppersurfer.tk%3A6969%2Fannounce&tr=udp%3A%2F%2Ftracker.pirateparty.gr%3A6969%2Fannounce&tr=udp%3A%2F%2Ftracker.cyberia.is%3A6969%2Fannounce",
        "seeder": "255",
        "leecher": "29"
    },
    {
        "rank": "47",
        "title": "Godzilla.vs.Kong.2021.HDRip.XviD.AC3-EVO",
        "link": "magnet:?xt=urn:btih:8D3102336FD5E29E4767BC3C35C120617DFF8747&dn=Godzilla.vs.Kong.2021.HDRip.XviD.AC3-EVO&tr=udp%3A%2F%2Ftracker.coppersurfer.tk%3A6969%2Fannounce&tr=udp%3A%2F%2F9.rarbg.to%3A2920%2Fannounce&tr=udp%3A%2F%2Ftracker.opentrackr.org%3A1337&tr=udp%3A%2F%2Ftracker.internetwarriors.net%3A1337%2Fannounce&tr=udp%3A%2F%2Ftracker.leechers-paradise.org%3A6969%2Fannounce&tr=udp%3A%2F%2Ftracker.coppersurfer.tk%3A6969%2Fannounce&tr=udp%3A%2F%2Ftracker.pirateparty.gr%3A6969%2Fannounce&tr=udp%3A%2F%2Ftracker.cyberia.is%3A6969%2Fannounce",
        "seeder": "252",
        "leecher": "55"
    },
    {
        "rank": "48",
        "title": "Outside.the.Wire.2021.HDRip.XviD.AC3-EVO",
        "link": "magnet:?xt=urn:btih:22A1FACB5945D386B2575172D893B4DD694971A4&dn=Outside.the.Wire.2021.HDRip.XviD.AC3-EVO&tr=udp%3A%2F%2Ftracker.coppersurfer.tk%3A6969%2Fannounce&tr=udp%3A%2F%2F9.rarbg.to%3A2920%2Fannounce&tr=udp%3A%2F%2Ftracker.opentrackr.org%3A1337&tr=udp%3A%2F%2Ftracker.internetwarriors.net%3A1337%2Fannounce&tr=udp%3A%2F%2Ftracker.leechers-paradise.org%3A6969%2Fannounce&tr=udp%3A%2F%2Ftracker.coppersurfer.tk%3A6969%2Fannounce&tr=udp%3A%2F%2Ftracker.pirateparty.gr%3A6969%2Fannounce&tr=udp%3A%2F%2Ftracker.cyberia.is%3A6969%2Fannounce",
        "seeder": "241",
        "leecher": "58"
    },
    {
        "rank": "49",
        "title": "Venom.2018.1080p.HDRip.X264-EVO",
        "link": "magnet:?xt=urn:btih:C127DB41B6FCADA19B96DBEFAB667230E2F2F43B&dn=Venom.2018.1080p.HDRip.X264-EVO&tr=udp%3A%2F%2Ftracker.coppersurfer.tk%3A6969%2Fannounce&tr=udp%3A%2F%2F9.rarbg.to%3A2920%2Fannounce&tr=udp%3A%2F%2Ftracker.opentrackr.org%3A1337&tr=udp%3A%2F%2Ftracker.internetwarriors.net%3A1337%2Fannounce&tr=udp%3A%2F%2Ftracker.leechers-paradise.org%3A6969%2Fannounce&tr=udp%3A%2F%2Ftracker.coppersurfer.tk%3A6969%2Fannounce&tr=udp%3A%2F%2Ftracker.pirateparty.gr%3A6969%2Fannounce&tr=udp%3A%2F%2Ftracker.cyberia.is%3A6969%2Fannounce",
        "seeder": "228",
        "leecher": "48"
    },
    {
        "rank": "50",
        "title": "John.Wick.3.2019.HDRip.XviD.AC3-EVO",
        "link": "magnet:?xt=urn:btih:DBF21FC9A28D7C292B5CD9462683A1E150D4E0E3&dn=John.Wick.3.2019.HDRip.XviD.AC3-EVO&tr=udp%3A%2F%2Ftracker.coppersurfer.tk%3A6969%2Fannounce&tr=udp%3A%2F%2F9.rarbg.to%3A2920%2Fannounce&tr=udp%3A%2F%2Ftracker.opentrackr.org%3A1337&tr=udp%3A%2F%2Ftracker.internetwarriors.net%3A1337%2Fannounce&tr=udp%3A%2F%2Ftracker.leechers-paradise.org%3A6969%2Fannounce&tr=udp%3A%2F%2Ftracker.coppersurfer.tk%3A6969%2Fannounce&tr=udp%3A%2F%2Ftracker.pirateparty.gr%3A6969%2Fannounce&tr=udp%3A%2F%2Ftracker.cyberia.is%3A6969%2Fannounce",
        "seeder": "226",
        "leecher": "33"
    },
    {
        "rank": "51",
        "title": "Cosmic.Sin.2021.HDRip.XviD.AC3-EVO",
        "link": "magnet:?xt=urn:btih:AAC46F6DB47FD7580567A310844C4B116332B316&dn=Cosmic.Sin.2021.HDRip.XviD.AC3-EVO&tr=udp%3A%2F%2Ftracker.coppersurfer.tk%3A6969%2Fannounce&tr=udp%3A%2F%2F9.rarbg.to%3A2920%2Fannounce&tr=udp%3A%2F%2Ftracker.opentrackr.org%3A1337&tr=udp%3A%2F%2Ftracker.internetwarriors.net%3A1337%2Fannounce&tr=udp%3A%2F%2Ftracker.leechers-paradise.org%3A6969%2Fannounce&tr=udp%3A%2F%2Ftracker.coppersurfer.tk%3A6969%2Fannounce&tr=udp%3A%2F%2Ftracker.pirateparty.gr%3A6969%2Fannounce&tr=udp%3A%2F%2Ftracker.cyberia.is%3A6969%2Fannounce",
        "seeder": "215",
        "leecher": "39"
    },
    {
        "rank": "52",
        "title": "Wrong.Turn.2021.BDRip.XviD.AC3-EVO",
        "link": "magnet:?xt=urn:btih:31CC4A7D4FF60B80C689BF0825D108B6FBD9F571&dn=Wrong.Turn.2021.BDRip.XviD.AC3-EVO&tr=udp%3A%2F%2Ftracker.coppersurfer.tk%3A6969%2Fannounce&tr=udp%3A%2F%2F9.rarbg.to%3A2920%2Fannounce&tr=udp%3A%2F%2Ftracker.opentrackr.org%3A1337&tr=udp%3A%2F%2Ftracker.internetwarriors.net%3A1337%2Fannounce&tr=udp%3A%2F%2Ftracker.leechers-paradise.org%3A6969%2Fannounce&tr=udp%3A%2F%2Ftracker.coppersurfer.tk%3A6969%2Fannounce&tr=udp%3A%2F%2Ftracker.pirateparty.gr%3A6969%2Fannounce&tr=udp%3A%2F%2Ftracker.cyberia.is%3A6969%2Fannounce",
        "seeder": "215",
        "leecher": "36"
    },
    {
        "rank": "53",
        "title": "Hacker.2020.HDRip.XviD.AC3-EVO",
        "link": "magnet:?xt=urn:btih:85FEE1055C0DBF3F422AB50460806E2A4E887763&dn=Hacker.2020.HDRip.XviD.AC3-EVO&tr=udp%3A%2F%2Ftracker.coppersurfer.tk%3A6969%2Fannounce&tr=udp%3A%2F%2F9.rarbg.to%3A2920%2Fannounce&tr=udp%3A%2F%2Ftracker.opentrackr.org%3A1337&tr=udp%3A%2F%2Ftracker.internetwarriors.net%3A1337%2Fannounce&tr=udp%3A%2F%2Ftracker.leechers-paradise.org%3A6969%2Fannounce&tr=udp%3A%2F%2Ftracker.coppersurfer.tk%3A6969%2Fannounce&tr=udp%3A%2F%2Ftracker.pirateparty.gr%3A6969%2Fannounce&tr=udp%3A%2F%2Ftracker.cyberia.is%3A6969%2Fannounce",
        "seeder": "206",
        "leecher": "34"
    },
    {
        "rank": "54",
        "title": "Dawn.of.the.Beast.2021.HDRip.XviD.AC3-EVO",
        "link": "magnet:?xt=urn:btih:9C7BF7137865E76CACB1811ABDFE9E76A9ED5526&dn=Dawn.of.the.Beast.2021.HDRip.XviD.AC3-EVO&tr=udp%3A%2F%2Ftracker.coppersurfer.tk%3A6969%2Fannounce&tr=udp%3A%2F%2F9.rarbg.to%3A2920%2Fannounce&tr=udp%3A%2F%2Ftracker.opentrackr.org%3A1337&tr=udp%3A%2F%2Ftracker.internetwarriors.net%3A1337%2Fannounce&tr=udp%3A%2F%2Ftracker.leechers-paradise.org%3A6969%2Fannounce&tr=udp%3A%2F%2Ftracker.coppersurfer.tk%3A6969%2Fannounce&tr=udp%3A%2F%2Ftracker.pirateparty.gr%3A6969%2Fannounce&tr=udp%3A%2F%2Ftracker.cyberia.is%3A6969%2Fannounce",
        "seeder": "200",
        "leecher": "52"
    },
    {
        "rank": "55",
        "title": "Greenland.2020.HDRip.XviD.AC3-EVO[TGx]",
        "link": "magnet:?xt=urn:btih:327FB9B2165FFD5D91DD223235FED2CA55806F54&dn=Greenland.2020.HDRip.XviD.AC3-EVO%5BTGx%5D&tr=udp%3A%2F%2Ftracker.coppersurfer.tk%3A6969%2Fannounce&tr=udp%3A%2F%2F9.rarbg.to%3A2920%2Fannounce&tr=udp%3A%2F%2Ftracker.opentrackr.org%3A1337&tr=udp%3A%2F%2Ftracker.internetwarriors.net%3A1337%2Fannounce&tr=udp%3A%2F%2Ftracker.leechers-paradise.org%3A6969%2Fannounce&tr=udp%3A%2F%2Ftracker.coppersurfer.tk%3A6969%2Fannounce&tr=udp%3A%2F%2Ftracker.pirateparty.gr%3A6969%2Fannounce&tr=udp%3A%2F%2Ftracker.cyberia.is%3A6969%2Fannounce",
        "seeder": "199",
        "leecher": "4"
    },
    {
        "rank": "56",
        "title": "Zack.Snyders.Justice.League.2021.1080.AMZN.WEB-DL.DDP5.1.H.264-C",
        "link": "magnet:?xt=urn:btih:4618DEC18BA26F65B894D57866350B98939CB822&dn=Zack.Snyders.Justice.League.2021.1080.AMZN.WEB-DL.DDP5.1.H.264-C&tr=udp%3A%2F%2Ftracker.coppersurfer.tk%3A6969%2Fannounce&tr=udp%3A%2F%2F9.rarbg.to%3A2920%2Fannounce&tr=udp%3A%2F%2Ftracker.opentrackr.org%3A1337&tr=udp%3A%2F%2Ftracker.internetwarriors.net%3A1337%2Fannounce&tr=udp%3A%2F%2Ftracker.leechers-paradise.org%3A6969%2Fannounce&tr=udp%3A%2F%2Ftracker.coppersurfer.tk%3A6969%2Fannounce&tr=udp%3A%2F%2Ftracker.pirateparty.gr%3A6969%2Fannounce&tr=udp%3A%2F%2Ftracker.cyberia.is%3A6969%2Fannounce",
        "seeder": "197",
        "leecher": "25"
    },
    {
        "rank": "57",
        "title": "The.Croods.A.New.Age.2020.HDRip.XviD.AC3-EVO[TGx]",
        "link": "magnet:?xt=urn:btih:15C18278F84D5CE60FDD3B6A94F54C8B44C20FC5&dn=The.Croods.A.New.Age.2020.HDRip.XviD.AC3-EVO%5BTGx%5D&tr=udp%3A%2F%2Ftracker.coppersurfer.tk%3A6969%2Fannounce&tr=udp%3A%2F%2F9.rarbg.to%3A2920%2Fannounce&tr=udp%3A%2F%2Ftracker.opentrackr.org%3A1337&tr=udp%3A%2F%2Ftracker.internetwarriors.net%3A1337%2Fannounce&tr=udp%3A%2F%2Ftracker.leechers-paradise.org%3A6969%2Fannounce&tr=udp%3A%2F%2Ftracker.coppersurfer.tk%3A6969%2Fannounce&tr=udp%3A%2F%2Ftracker.pirateparty.gr%3A6969%2Fannounce&tr=udp%3A%2F%2Ftracker.cyberia.is%3A6969%2Fannounce",
        "seeder": "193",
        "leecher": "3"
    },
    {
        "rank": "58",
        "title": "Blade Runner 2049.HDRip.XviD.AC3-EVO",
        "link": "magnet:?xt=urn:btih:4C9D18E1CDE6DACD39F6443D76DDBA8E7E82A06B&dn=Blade+Runner+2049.HDRip.XviD.AC3-EVO&tr=udp%3A%2F%2Ftracker.coppersurfer.tk%3A6969%2Fannounce&tr=udp%3A%2F%2F9.rarbg.to%3A2920%2Fannounce&tr=udp%3A%2F%2Ftracker.opentrackr.org%3A1337&tr=udp%3A%2F%2Ftracker.internetwarriors.net%3A1337%2Fannounce&tr=udp%3A%2F%2Ftracker.leechers-paradise.org%3A6969%2Fannounce&tr=udp%3A%2F%2Ftracker.coppersurfer.tk%3A6969%2Fannounce&tr=udp%3A%2F%2Ftracker.pirateparty.gr%3A6969%2Fannounce&tr=udp%3A%2F%2Ftracker.cyberia.is%3A6969%2Fannounce",
        "seeder": "191",
        "leecher": "29"
    },
    {
        "rank": "59",
        "title": "The.White.Tiger.2021.HDRip.XviD.AC3-EVO",
        "link": "magnet:?xt=urn:btih:AD4B44EFCF84D2B857EA246555358BFD9964A9D0&dn=The.White.Tiger.2021.HDRip.XviD.AC3-EVO&tr=udp%3A%2F%2Ftracker.coppersurfer.tk%3A6969%2Fannounce&tr=udp%3A%2F%2F9.rarbg.to%3A2920%2Fannounce&tr=udp%3A%2F%2Ftracker.opentrackr.org%3A1337&tr=udp%3A%2F%2Ftracker.internetwarriors.net%3A1337%2Fannounce&tr=udp%3A%2F%2Ftracker.leechers-paradise.org%3A6969%2Fannounce&tr=udp%3A%2F%2Ftracker.coppersurfer.tk%3A6969%2Fannounce&tr=udp%3A%2F%2Ftracker.pirateparty.gr%3A6969%2Fannounce&tr=udp%3A%2F%2Ftracker.cyberia.is%3A6969%2Fannounce",
        "seeder": "182",
        "leecher": "17"
    },
    {
        "rank": "60",
        "title": "1917.2019.DVDSCR.x264-TOPKEK[TGx]",
        "link": "magnet:?xt=urn:btih:BF660C701D3BEE61B0188B38CE5A8A2782AFC210&dn=1917.2019.DVDSCR.x264-TOPKEK%5BTGx%5D&tr=udp%3A%2F%2Ftracker.coppersurfer.tk%3A6969%2Fannounce&tr=udp%3A%2F%2F9.rarbg.to%3A2920%2Fannounce&tr=udp%3A%2F%2Ftracker.opentrackr.org%3A1337&tr=udp%3A%2F%2Ftracker.internetwarriors.net%3A1337%2Fannounce&tr=udp%3A%2F%2Ftracker.leechers-paradise.org%3A6969%2Fannounce&tr=udp%3A%2F%2Ftracker.coppersurfer.tk%3A6969%2Fannounce&tr=udp%3A%2F%2Ftracker.pirateparty.gr%3A6969%2Fannounce&tr=udp%3A%2F%2Ftracker.cyberia.is%3A6969%2Fannounce",
        "seeder": "181",
        "leecher": "11"
    },
    {
        "rank": "61",
        "title": "King Arthur Legend of the Sword 2017 720p BluRay HEVC H265 BONE",
        "link": "magnet:?xt=urn:btih:98C68048735A26F918EB54665EED26C8610CC438&dn=King+Arthur+Legend+of+the+Sword+2017+720p+BluRay+HEVC+H265+BONE&tr=udp%3A%2F%2Ftracker.coppersurfer.tk%3A6969%2Fannounce&tr=udp%3A%2F%2F9.rarbg.to%3A2920%2Fannounce&tr=udp%3A%2F%2Ftracker.opentrackr.org%3A1337&tr=udp%3A%2F%2Ftracker.internetwarriors.net%3A1337%2Fannounce&tr=udp%3A%2F%2Ftracker.leechers-paradise.org%3A6969%2Fannounce&tr=udp%3A%2F%2Ftracker.coppersurfer.tk%3A6969%2Fannounce&tr=udp%3A%2F%2Ftracker.pirateparty.gr%3A6969%2Fannounce&tr=udp%3A%2F%2Ftracker.cyberia.is%3A6969%2Fannounce",
        "seeder": "178",
        "leecher": "21"
    },
    {
        "rank": "62",
        "title": "Adverse.2021.DVDRip.850MB.x264-DMV[TGx]",
        "link": "magnet:?xt=urn:btih:DE0C3AC067BA739B10A774AAF65489EA963C09D3&dn=Adverse.2021.DVDRip.850MB.x264-DMV%5BTGx%5D&tr=udp%3A%2F%2Ftracker.coppersurfer.tk%3A6969%2Fannounce&tr=udp%3A%2F%2F9.rarbg.to%3A2920%2Fannounce&tr=udp%3A%2F%2Ftracker.opentrackr.org%3A1337&tr=udp%3A%2F%2Ftracker.internetwarriors.net%3A1337%2Fannounce&tr=udp%3A%2F%2Ftracker.leechers-paradise.org%3A6969%2Fannounce&tr=udp%3A%2F%2Ftracker.coppersurfer.tk%3A6969%2Fannounce&tr=udp%3A%2F%2Ftracker.pirateparty.gr%3A6969%2Fannounce&tr=udp%3A%2F%2Ftracker.cyberia.is%3A6969%2Fannounce",
        "seeder": "175",
        "leecher": "6"
    },
    {
        "rank": "63",
        "title": "One.Night.in.Miami.2021.HDRip.XviD.AC3-EVO",
        "link": "magnet:?xt=urn:btih:C2EDF23C6DD151A7F6F53F25F8069D2D4C771A71&dn=One.Night.in.Miami.2021.HDRip.XviD.AC3-EVO&tr=udp%3A%2F%2Ftracker.coppersurfer.tk%3A6969%2Fannounce&tr=udp%3A%2F%2F9.rarbg.to%3A2920%2Fannounce&tr=udp%3A%2F%2Ftracker.opentrackr.org%3A1337&tr=udp%3A%2F%2Ftracker.internetwarriors.net%3A1337%2Fannounce&tr=udp%3A%2F%2Ftracker.leechers-paradise.org%3A6969%2Fannounce&tr=udp%3A%2F%2Ftracker.coppersurfer.tk%3A6969%2Fannounce&tr=udp%3A%2F%2Ftracker.pirateparty.gr%3A6969%2Fannounce&tr=udp%3A%2F%2Ftracker.cyberia.is%3A6969%2Fannounce",
        "seeder": "175",
        "leecher": "11"
    },
    {
        "rank": "64",
        "title": "Ad.Astra.2019.HDRip.XviD.AC3-EVO[TGx]",
        "link": "magnet:?xt=urn:btih:1EB64E7ADD04A2D8DCEE7B6A381908A6DA89945F&dn=Ad.Astra.2019.HDRip.XviD.AC3-EVO%5BTGx%5D&tr=udp%3A%2F%2Ftracker.coppersurfer.tk%3A6969%2Fannounce&tr=udp%3A%2F%2F9.rarbg.to%3A2920%2Fannounce&tr=udp%3A%2F%2Ftracker.opentrackr.org%3A1337&tr=udp%3A%2F%2Ftracker.internetwarriors.net%3A1337%2Fannounce&tr=udp%3A%2F%2Ftracker.leechers-paradise.org%3A6969%2Fannounce&tr=udp%3A%2F%2Ftracker.coppersurfer.tk%3A6969%2Fannounce&tr=udp%3A%2F%2Ftracker.pirateparty.gr%3A6969%2Fannounce&tr=udp%3A%2F%2Ftracker.cyberia.is%3A6969%2Fannounce",
        "seeder": "174",
        "leecher": "11"
    },
    {
        "rank": "65",
        "title": "Chaos.Walking.2021.HDRip.XviD.AC3-EVO[TGx]",
        "link": "magnet:?xt=urn:btih:CAD3C203D598E69BFEDEFD10790DBAB89B0F01AF&dn=Chaos.Walking.2021.HDRip.XviD.AC3-EVO%5BTGx%5D&tr=udp%3A%2F%2Ftracker.coppersurfer.tk%3A6969%2Fannounce&tr=udp%3A%2F%2F9.rarbg.to%3A2920%2Fannounce&tr=udp%3A%2F%2Ftracker.opentrackr.org%3A1337&tr=udp%3A%2F%2Ftracker.internetwarriors.net%3A1337%2Fannounce&tr=udp%3A%2F%2Ftracker.leechers-paradise.org%3A6969%2Fannounce&tr=udp%3A%2F%2Ftracker.coppersurfer.tk%3A6969%2Fannounce&tr=udp%3A%2F%2Ftracker.pirateparty.gr%3A6969%2Fannounce&tr=udp%3A%2F%2Ftracker.cyberia.is%3A6969%2Fannounce",
        "seeder": "173",
        "leecher": "31"
    },
    {
        "rank": "66",
        "title": "The.Empty.Man.2020.HDRip.XviD.AC3-EVO",
        "link": "magnet:?xt=urn:btih:551821D7055EB2A34D7C72358F3076C753C6FF45&dn=The.Empty.Man.2020.HDRip.XviD.AC3-EVO&tr=udp%3A%2F%2Ftracker.coppersurfer.tk%3A6969%2Fannounce&tr=udp%3A%2F%2F9.rarbg.to%3A2920%2Fannounce&tr=udp%3A%2F%2Ftracker.opentrackr.org%3A1337&tr=udp%3A%2F%2Ftracker.internetwarriors.net%3A1337%2Fannounce&tr=udp%3A%2F%2Ftracker.leechers-paradise.org%3A6969%2Fannounce&tr=udp%3A%2F%2Ftracker.coppersurfer.tk%3A6969%2Fannounce&tr=udp%3A%2F%2Ftracker.pirateparty.gr%3A6969%2Fannounce&tr=udp%3A%2F%2Ftracker.cyberia.is%3A6969%2Fannounce",
        "seeder": "170",
        "leecher": "27"
    },
    {
        "rank": "67",
        "title": "Scooby.Doo.The.Sword.And.The.Scoob.2021.DVDRip.XviD.AC3-EVO[TGx]",
        "link": "magnet:?xt=urn:btih:9B9CD3AD1211D63FFB2438CC4C580A09E6369CEE&dn=Scooby.Doo.The.Sword.And.The.Scoob.2021.DVDRip.XviD.AC3-EVO%5BTGx%5D&tr=udp%3A%2F%2Ftracker.coppersurfer.tk%3A6969%2Fannounce&tr=udp%3A%2F%2F9.rarbg.to%3A2920%2Fannounce&tr=udp%3A%2F%2Ftracker.opentrackr.org%3A1337&tr=udp%3A%2F%2Ftracker.internetwarriors.net%3A1337%2Fannounce&tr=udp%3A%2F%2Ftracker.leechers-paradise.org%3A6969%2Fannounce&tr=udp%3A%2F%2Ftracker.coppersurfer.tk%3A6969%2Fannounce&tr=udp%3A%2F%2Ftracker.pirateparty.gr%3A6969%2Fannounce&tr=udp%3A%2F%2Ftracker.cyberia.is%3A6969%2Fannounce",
        "seeder": "167",
        "leecher": "56"
    },
    {
        "rank": "68",
        "title": "Artemis.Fowl.2020.HDRip.XviD.AC3-EVO[TGx]",
        "link": "magnet:?xt=urn:btih:06C92BC2C1114DD0CA3305E3A45084D34075268F&dn=Artemis.Fowl.2020.HDRip.XviD.AC3-EVO%5BTGx%5D&tr=udp%3A%2F%2Ftracker.coppersurfer.tk%3A6969%2Fannounce&tr=udp%3A%2F%2F9.rarbg.to%3A2920%2Fannounce&tr=udp%3A%2F%2Ftracker.opentrackr.org%3A1337&tr=udp%3A%2F%2Ftracker.internetwarriors.net%3A1337%2Fannounce&tr=udp%3A%2F%2Ftracker.leechers-paradise.org%3A6969%2Fannounce&tr=udp%3A%2F%2Ftracker.coppersurfer.tk%3A6969%2Fannounce&tr=udp%3A%2F%2Ftracker.pirateparty.gr%3A6969%2Fannounce&tr=udp%3A%2F%2Ftracker.cyberia.is%3A6969%2Fannounce",
        "seeder": "167",
        "leecher": "4"
    },
    {
        "rank": "69",
        "title": "Angel.Has.Fallen.2019.HDRip.XviD.AC3-EVO",
        "link": "magnet:?xt=urn:btih:294727237E09BE24C1FBA92C3F20118397B9B7BA&dn=Angel.Has.Fallen.2019.HDRip.XviD.AC3-EVO&tr=udp%3A%2F%2Ftracker.coppersurfer.tk%3A6969%2Fannounce&tr=udp%3A%2F%2F9.rarbg.to%3A2920%2Fannounce&tr=udp%3A%2F%2Ftracker.opentrackr.org%3A1337&tr=udp%3A%2F%2Ftracker.internetwarriors.net%3A1337%2Fannounce&tr=udp%3A%2F%2Ftracker.leechers-paradise.org%3A6969%2Fannounce&tr=udp%3A%2F%2Ftracker.coppersurfer.tk%3A6969%2Fannounce&tr=udp%3A%2F%2Ftracker.pirateparty.gr%3A6969%2Fannounce&tr=udp%3A%2F%2Ftracker.cyberia.is%3A6969%2Fannounce",
        "seeder": "167",
        "leecher": "24"
    },
    {
        "rank": "70",
        "title": "Synchronic.2020.HDRip.XviD.AC3-EVO",
        "link": "magnet:?xt=urn:btih:8A3F5259856EF6554BF05690E8A50C141ED647ED&dn=Synchronic.2020.HDRip.XviD.AC3-EVO&tr=udp%3A%2F%2Ftracker.coppersurfer.tk%3A6969%2Fannounce&tr=udp%3A%2F%2F9.rarbg.to%3A2920%2Fannounce&tr=udp%3A%2F%2Ftracker.opentrackr.org%3A1337&tr=udp%3A%2F%2Ftracker.internetwarriors.net%3A1337%2Fannounce&tr=udp%3A%2F%2Ftracker.leechers-paradise.org%3A6969%2Fannounce&tr=udp%3A%2F%2Ftracker.coppersurfer.tk%3A6969%2Fannounce&tr=udp%3A%2F%2Ftracker.pirateparty.gr%3A6969%2Fannounce&tr=udp%3A%2F%2Ftracker.cyberia.is%3A6969%2Fannounce",
        "seeder": "165",
        "leecher": "8"
    },
    {
        "rank": "71",
        "title": "Sniper.Assassin's.End.2020.DVDRip.AC3.X264-CMRG[TGx]",
        "link": "magnet:?xt=urn:btih:50FE428CCA091574B6EC832782B584102E57BB9A&dn=Sniper.Assassin%27s.End.2020.DVDRip.AC3.X264-CMRG%5BTGx%5D&tr=udp%3A%2F%2Ftracker.coppersurfer.tk%3A6969%2Fannounce&tr=udp%3A%2F%2F9.rarbg.to%3A2920%2Fannounce&tr=udp%3A%2F%2Ftracker.opentrackr.org%3A1337&tr=udp%3A%2F%2Ftracker.internetwarriors.net%3A1337%2Fannounce&tr=udp%3A%2F%2Ftracker.leechers-paradise.org%3A6969%2Fannounce&tr=udp%3A%2F%2Ftracker.coppersurfer.tk%3A6969%2Fannounce&tr=udp%3A%2F%2Ftracker.pirateparty.gr%3A6969%2Fannounce&tr=udp%3A%2F%2Ftracker.cyberia.is%3A6969%2Fannounce",
        "seeder": "165",
        "leecher": "6"
    },
    {
        "rank": "72",
        "title": "Peter.Rabbit.2.The.Runaway.2021.HDCAM.850MB.x264-SUNSCREEN[TGx]",
        "link": "magnet:?xt=urn:btih:1558639014B25424CBFF7925B73401C39EDBB8EC&dn=Peter.Rabbit.2.The.Runaway.2021.HDCAM.850MB.x264-SUNSCREEN%5BTGx%5D&tr=udp%3A%2F%2Ftracker.coppersurfer.tk%3A6969%2Fannounce&tr=udp%3A%2F%2F9.rarbg.to%3A2920%2Fannounce&tr=udp%3A%2F%2Ftracker.opentrackr.org%3A1337&tr=udp%3A%2F%2Ftracker.internetwarriors.net%3A1337%2Fannounce&tr=udp%3A%2F%2Ftracker.leechers-paradise.org%3A6969%2Fannounce&tr=udp%3A%2F%2Ftracker.coppersurfer.tk%3A6969%2Fannounce&tr=udp%3A%2F%2Ftracker.pirateparty.gr%3A6969%2Fannounce&tr=udp%3A%2F%2Ftracker.cyberia.is%3A6969%2Fannounce",
        "seeder": "161",
        "leecher": "35"
    },
    {
        "rank": "73",
        "title": "The.Incredibles.2.2018.HDRip.XviD.AC3-EVO",
        "link": "magnet:?xt=urn:btih:C1CE06B0AEE58B9AE5FCE1DFC4A9D0EC8E015A12&dn=The.Incredibles.2.2018.HDRip.XviD.AC3-EVO&tr=udp%3A%2F%2Ftracker.coppersurfer.tk%3A6969%2Fannounce&tr=udp%3A%2F%2F9.rarbg.to%3A2920%2Fannounce&tr=udp%3A%2F%2Ftracker.opentrackr.org%3A1337&tr=udp%3A%2F%2Ftracker.internetwarriors.net%3A1337%2Fannounce&tr=udp%3A%2F%2Ftracker.leechers-paradise.org%3A6969%2Fannounce&tr=udp%3A%2F%2Ftracker.coppersurfer.tk%3A6969%2Fannounce&tr=udp%3A%2F%2Ftracker.pirateparty.gr%3A6969%2Fannounce&tr=udp%3A%2F%2Ftracker.cyberia.is%3A6969%2Fannounce",
        "seeder": "159",
        "leecher": "13"
    },
    {
        "rank": "74",
        "title": "The.Father.2020.HDCAM.850MB.c1nem4.x264-SUNSCREEN[TGx]",
        "link": "magnet:?xt=urn:btih:A51D8CFF1EA35ED34D97BEEE6011E2ED05521A87&dn=The.Father.2020.HDCAM.850MB.c1nem4.x264-SUNSCREEN%5BTGx%5D&tr=udp%3A%2F%2Ftracker.coppersurfer.tk%3A6969%2Fannounce&tr=udp%3A%2F%2F9.rarbg.to%3A2920%2Fannounce&tr=udp%3A%2F%2Ftracker.opentrackr.org%3A1337&tr=udp%3A%2F%2Ftracker.internetwarriors.net%3A1337%2Fannounce&tr=udp%3A%2F%2Ftracker.leechers-paradise.org%3A6969%2Fannounce&tr=udp%3A%2F%2Ftracker.coppersurfer.tk%3A6969%2Fannounce&tr=udp%3A%2F%2Ftracker.pirateparty.gr%3A6969%2Fannounce&tr=udp%3A%2F%2Ftracker.cyberia.is%3A6969%2Fannounce",
        "seeder": "158",
        "leecher": "105"
    },
    {
        "rank": "75",
        "title": "Chaos.Walking.2021.HDCAM.850MB.c1nem4.x264-SUNSCREEN[TGx]",
        "link": "magnet:?xt=urn:btih:FB1FD06043E9F251E88A7F804F7C82F17E0F80BB&dn=Chaos.Walking.2021.HDCAM.850MB.c1nem4.x264-SUNSCREEN%5BTGx%5D&tr=udp%3A%2F%2Ftracker.coppersurfer.tk%3A6969%2Fannounce&tr=udp%3A%2F%2F9.rarbg.to%3A2920%2Fannounce&tr=udp%3A%2F%2Ftracker.opentrackr.org%3A1337&tr=udp%3A%2F%2Ftracker.internetwarriors.net%3A1337%2Fannounce&tr=udp%3A%2F%2Ftracker.leechers-paradise.org%3A6969%2Fannounce&tr=udp%3A%2F%2Ftracker.coppersurfer.tk%3A6969%2Fannounce&tr=udp%3A%2F%2Ftracker.pirateparty.gr%3A6969%2Fannounce&tr=udp%3A%2F%2Ftracker.cyberia.is%3A6969%2Fannounce",
        "seeder": "157",
        "leecher": "85"
    },
    {
        "rank": "76",
        "title": "I.Care.a.Lot.2021.1080p.AMZN.WEBRip.DD5.1.X.264-EVO",
        "link": "magnet:?xt=urn:btih:E3185BAFB8420C78901DEEFC68B1BC837DD803FC&dn=I.Care.a.Lot.2021.1080p.AMZN.WEBRip.DD5.1.X.264-EVO&tr=udp%3A%2F%2Ftracker.coppersurfer.tk%3A6969%2Fannounce&tr=udp%3A%2F%2F9.rarbg.to%3A2920%2Fannounce&tr=udp%3A%2F%2Ftracker.opentrackr.org%3A1337&tr=udp%3A%2F%2Ftracker.internetwarriors.net%3A1337%2Fannounce&tr=udp%3A%2F%2Ftracker.leechers-paradise.org%3A6969%2Fannounce&tr=udp%3A%2F%2Ftracker.coppersurfer.tk%3A6969%2Fannounce&tr=udp%3A%2F%2Ftracker.pirateparty.gr%3A6969%2Fannounce&tr=udp%3A%2F%2Ftracker.cyberia.is%3A6969%2Fannounce",
        "seeder": "152",
        "leecher": "7"
    },
    {
        "rank": "77",
        "title": "The.Father.2021.HDRip.XviD.AC3-EVO[TGx]",
        "link": "magnet:?xt=urn:btih:B783611CC19E15B4E189744249388008CFA8B797&dn=The.Father.2021.HDRip.XviD.AC3-EVO%5BTGx%5D&tr=udp%3A%2F%2Ftracker.coppersurfer.tk%3A6969%2Fannounce&tr=udp%3A%2F%2F9.rarbg.to%3A2920%2Fannounce&tr=udp%3A%2F%2Ftracker.opentrackr.org%3A1337&tr=udp%3A%2F%2Ftracker.internetwarriors.net%3A1337%2Fannounce&tr=udp%3A%2F%2Ftracker.leechers-paradise.org%3A6969%2Fannounce&tr=udp%3A%2F%2Ftracker.coppersurfer.tk%3A6969%2Fannounce&tr=udp%3A%2F%2Ftracker.pirateparty.gr%3A6969%2Fannounce&tr=udp%3A%2F%2Ftracker.cyberia.is%3A6969%2Fannounce",
        "seeder": "150",
        "leecher": "10"
    },
    {
        "rank": "78",
        "title": "Dolittle.2020.HDRip.800MB.x264-GalaxyRG",
        "link": "magnet:?xt=urn:btih:8C796BCFD44AACB37D352C106D9EFBE4B0E48D4D&dn=Dolittle.2020.HDRip.800MB.x264-GalaxyRG&tr=udp%3A%2F%2Ftracker.coppersurfer.tk%3A6969%2Fannounce&tr=udp%3A%2F%2F9.rarbg.to%3A2920%2Fannounce&tr=udp%3A%2F%2Ftracker.opentrackr.org%3A1337&tr=udp%3A%2F%2Ftracker.internetwarriors.net%3A1337%2Fannounce&tr=udp%3A%2F%2Ftracker.leechers-paradise.org%3A6969%2Fannounce&tr=udp%3A%2F%2Ftracker.coppersurfer.tk%3A6969%2Fannounce&tr=udp%3A%2F%2Ftracker.pirateparty.gr%3A6969%2Fannounce&tr=udp%3A%2F%2Ftracker.cyberia.is%3A6969%2Fannounce",
        "seeder": "150",
        "leecher": "3"
    },
    {
        "rank": "79",
        "title": "The.Widow.2021.BRRip.XviD.AC3-EVO",
        "link": "magnet:?xt=urn:btih:FBA908A479CD932D7EFD9813A1E0C07595D9EF39&dn=The.Widow.2021.BRRip.XviD.AC3-EVO&tr=udp%3A%2F%2Ftracker.coppersurfer.tk%3A6969%2Fannounce&tr=udp%3A%2F%2F9.rarbg.to%3A2920%2Fannounce&tr=udp%3A%2F%2Ftracker.opentrackr.org%3A1337&tr=udp%3A%2F%2Ftracker.internetwarriors.net%3A1337%2Fannounce&tr=udp%3A%2F%2Ftracker.leechers-paradise.org%3A6969%2Fannounce&tr=udp%3A%2F%2Ftracker.coppersurfer.tk%3A6969%2Fannounce&tr=udp%3A%2F%2Ftracker.pirateparty.gr%3A6969%2Fannounce&tr=udp%3A%2F%2Ftracker.cyberia.is%3A6969%2Fannounce",
        "seeder": "149",
        "leecher": "148"
    },
    {
        "rank": "80",
        "title": "Vanguard.2020.HDRip.XviD.AC3-EVO",
        "link": "magnet:?xt=urn:btih:393FEAC3161639785478B576F9DD5478308E67D7&dn=Vanguard.2020.HDRip.XviD.AC3-EVO&tr=udp%3A%2F%2Ftracker.coppersurfer.tk%3A6969%2Fannounce&tr=udp%3A%2F%2F9.rarbg.to%3A2920%2Fannounce&tr=udp%3A%2F%2Ftracker.opentrackr.org%3A1337&tr=udp%3A%2F%2Ftracker.internetwarriors.net%3A1337%2Fannounce&tr=udp%3A%2F%2Ftracker.leechers-paradise.org%3A6969%2Fannounce&tr=udp%3A%2F%2Ftracker.coppersurfer.tk%3A6969%2Fannounce&tr=udp%3A%2F%2Ftracker.pirateparty.gr%3A6969%2Fannounce&tr=udp%3A%2F%2Ftracker.cyberia.is%3A6969%2Fannounce",
        "seeder": "149",
        "leecher": "41"
    },
    {
        "rank": "81",
        "title": "Bohemian.Rhapsody.2018.DVDScr.Xvid.AC3.SHive-CM8",
        "link": "magnet:?xt=urn:btih:8BD8B33EB516A245059B3FCF308C8DD8C6E604F2&dn=Bohemian.Rhapsody.2018.DVDScr.Xvid.AC3.SHive-CM8&tr=udp%3A%2F%2Ftracker.coppersurfer.tk%3A6969%2Fannounce&tr=udp%3A%2F%2F9.rarbg.to%3A2920%2Fannounce&tr=udp%3A%2F%2Ftracker.opentrackr.org%3A1337&tr=udp%3A%2F%2Ftracker.internetwarriors.net%3A1337%2Fannounce&tr=udp%3A%2F%2Ftracker.leechers-paradise.org%3A6969%2Fannounce&tr=udp%3A%2F%2Ftracker.coppersurfer.tk%3A6969%2Fannounce&tr=udp%3A%2F%2Ftracker.pirateparty.gr%3A6969%2Fannounce&tr=udp%3A%2F%2Ftracker.cyberia.is%3A6969%2Fannounce",
        "seeder": "149",
        "leecher": "34"
    },
    {
        "rank": "82",
        "title": "The.Courier.2021.HDCAM.850MB.x264-SUNSCREEN[TGx]",
        "link": "magnet:?xt=urn:btih:8E6B565CCDE40680A961F0EF5E82EFA14BE30808&dn=The.Courier.2021.HDCAM.850MB.x264-SUNSCREEN%5BTGx%5D&tr=udp%3A%2F%2Ftracker.coppersurfer.tk%3A6969%2Fannounce&tr=udp%3A%2F%2F9.rarbg.to%3A2920%2Fannounce&tr=udp%3A%2F%2Ftracker.opentrackr.org%3A1337&tr=udp%3A%2F%2Ftracker.internetwarriors.net%3A1337%2Fannounce&tr=udp%3A%2F%2Ftracker.leechers-paradise.org%3A6969%2Fannounce&tr=udp%3A%2F%2Ftracker.coppersurfer.tk%3A6969%2Fannounce&tr=udp%3A%2F%2Ftracker.pirateparty.gr%3A6969%2Fannounce&tr=udp%3A%2F%2Ftracker.cyberia.is%3A6969%2Fannounce",
        "seeder": "147",
        "leecher": "42"
    },
    {
        "rank": "83",
        "title": "Birds.of.Prey.And.the.Fantabulous.Emancipation.of.One.Harley.Qui",
        "link": "magnet:?xt=urn:btih:7B1146ABBB82D3C9BF9843A0137B16EB198FAD26&dn=Birds.of.Prey.And.the.Fantabulous.Emancipation.of.One.Harley.Qui&tr=udp%3A%2F%2Ftracker.coppersurfer.tk%3A6969%2Fannounce&tr=udp%3A%2F%2F9.rarbg.to%3A2920%2Fannounce&tr=udp%3A%2F%2Ftracker.opentrackr.org%3A1337&tr=udp%3A%2F%2Ftracker.internetwarriors.net%3A1337%2Fannounce&tr=udp%3A%2F%2Ftracker.leechers-paradise.org%3A6969%2Fannounce&tr=udp%3A%2F%2Ftracker.coppersurfer.tk%3A6969%2Fannounce&tr=udp%3A%2F%2Ftracker.pirateparty.gr%3A6969%2Fannounce&tr=udp%3A%2F%2Ftracker.cyberia.is%3A6969%2Fannounce",
        "seeder": "146",
        "leecher": "10"
    },
    {
        "rank": "84",
        "title": "Call Me By Your Name 2017 DVDSCR X264 CataVentos[EtMovies]",
        "link": "magnet:?xt=urn:btih:9FE8D477E2FA4245A6B3911D5ED7D18CB7510853&dn=Call+Me+By+Your+Name+2017+DVDSCR+X264+CataVentos%5BEtMovies%5D&tr=udp%3A%2F%2Ftracker.coppersurfer.tk%3A6969%2Fannounce&tr=udp%3A%2F%2F9.rarbg.to%3A2920%2Fannounce&tr=udp%3A%2F%2Ftracker.opentrackr.org%3A1337&tr=udp%3A%2F%2Ftracker.internetwarriors.net%3A1337%2Fannounce&tr=udp%3A%2F%2Ftracker.leechers-paradise.org%3A6969%2Fannounce&tr=udp%3A%2F%2Ftracker.coppersurfer.tk%3A6969%2Fannounce&tr=udp%3A%2F%2Ftracker.pirateparty.gr%3A6969%2Fannounce&tr=udp%3A%2F%2Ftracker.cyberia.is%3A6969%2Fannounce",
        "seeder": "146",
        "leecher": "15"
    },
    {
        "rank": "85",
        "title": "Andrei Tarkovsky's Stalker (1979) - 1080p x265 HEVC - RUS (ENG S",
        "link": "magnet:?xt=urn:btih:A08ADAB0CA7A4B40391109E781BB5ED2DF2E350E&dn=Andrei+Tarkovsky%27s+Stalker+%281979%29+-+1080p+x265+HEVC+-+RUS+%28ENG+S&tr=udp%3A%2F%2Ftracker.coppersurfer.tk%3A6969%2Fannounce&tr=udp%3A%2F%2F9.rarbg.to%3A2920%2Fannounce&tr=udp%3A%2F%2Ftracker.opentrackr.org%3A1337&tr=udp%3A%2F%2Ftracker.internetwarriors.net%3A1337%2Fannounce&tr=udp%3A%2F%2Ftracker.leechers-paradise.org%3A6969%2Fannounce&tr=udp%3A%2F%2Ftracker.coppersurfer.tk%3A6969%2Fannounce&tr=udp%3A%2F%2Ftracker.pirateparty.gr%3A6969%2Fannounce&tr=udp%3A%2F%2Ftracker.cyberia.is%3A6969%2Fannounce",
        "seeder": "144",
        "leecher": "15"
    },
    {
        "rank": "86",
        "title": "Enforcement.2021.HDRip.XviD.AC3-EVO",
        "link": "magnet:?xt=urn:btih:CA22FD2C244D78C3F2D0C1D3D62987E75606CB2E&dn=Enforcement.2021.HDRip.XviD.AC3-EVO&tr=udp%3A%2F%2Ftracker.coppersurfer.tk%3A6969%2Fannounce&tr=udp%3A%2F%2F9.rarbg.to%3A2920%2Fannounce&tr=udp%3A%2F%2Ftracker.opentrackr.org%3A1337&tr=udp%3A%2F%2Ftracker.internetwarriors.net%3A1337%2Fannounce&tr=udp%3A%2F%2Ftracker.leechers-paradise.org%3A6969%2Fannounce&tr=udp%3A%2F%2Ftracker.coppersurfer.tk%3A6969%2Fannounce&tr=udp%3A%2F%2Ftracker.pirateparty.gr%3A6969%2Fannounce&tr=udp%3A%2F%2Ftracker.cyberia.is%3A6969%2Fannounce",
        "seeder": "143",
        "leecher": "17"
    },
    {
        "rank": "87",
        "title": "Mission Possible 2021 720p Korean HDRip H264 BONE",
        "link": "magnet:?xt=urn:btih:2495CA557C1F928D6622BF250D5C370C7872D9AD&dn=Mission+Possible+2021+720p+Korean+HDRip+H264+BONE&tr=udp%3A%2F%2Ftracker.coppersurfer.tk%3A6969%2Fannounce&tr=udp%3A%2F%2F9.rarbg.to%3A2920%2Fannounce&tr=udp%3A%2F%2Ftracker.opentrackr.org%3A1337&tr=udp%3A%2F%2Ftracker.internetwarriors.net%3A1337%2Fannounce&tr=udp%3A%2F%2Ftracker.leechers-paradise.org%3A6969%2Fannounce&tr=udp%3A%2F%2Ftracker.coppersurfer.tk%3A6969%2Fannounce&tr=udp%3A%2F%2Ftracker.pirateparty.gr%3A6969%2Fannounce&tr=udp%3A%2F%2Ftracker.cyberia.is%3A6969%2Fannounce",
        "seeder": "141",
        "leecher": "16"
    },
    {
        "rank": "88",
        "title": "Legacy.of.Lies.2020.DVDRip.AC3.X264-CMRG[TGx]",
        "link": "magnet:?xt=urn:btih:A3526A58706BB5DA56CA595E5FD560563BE783E5&dn=Legacy.of.Lies.2020.DVDRip.AC3.X264-CMRG%5BTGx%5D&tr=udp%3A%2F%2Ftracker.coppersurfer.tk%3A6969%2Fannounce&tr=udp%3A%2F%2F9.rarbg.to%3A2920%2Fannounce&tr=udp%3A%2F%2Ftracker.opentrackr.org%3A1337&tr=udp%3A%2F%2Ftracker.internetwarriors.net%3A1337%2Fannounce&tr=udp%3A%2F%2Ftracker.leechers-paradise.org%3A6969%2Fannounce&tr=udp%3A%2F%2Ftracker.coppersurfer.tk%3A6969%2Fannounce&tr=udp%3A%2F%2Ftracker.pirateparty.gr%3A6969%2Fannounce&tr=udp%3A%2F%2Ftracker.cyberia.is%3A6969%2Fannounce",
        "seeder": "140",
        "leecher": "8"
    },
    {
        "rank": "89",
        "title": "The.Dry.2021.HDRip.XviD.AC3-EVO",
        "link": "magnet:?xt=urn:btih:BD8E8948184E5B1FAD30EABC4794D53D5D90942D&dn=The.Dry.2021.HDRip.XviD.AC3-EVO&tr=udp%3A%2F%2Ftracker.coppersurfer.tk%3A6969%2Fannounce&tr=udp%3A%2F%2F9.rarbg.to%3A2920%2Fannounce&tr=udp%3A%2F%2Ftracker.opentrackr.org%3A1337&tr=udp%3A%2F%2Ftracker.internetwarriors.net%3A1337%2Fannounce&tr=udp%3A%2F%2Ftracker.leechers-paradise.org%3A6969%2Fannounce&tr=udp%3A%2F%2Ftracker.coppersurfer.tk%3A6969%2Fannounce&tr=udp%3A%2F%2Ftracker.pirateparty.gr%3A6969%2Fannounce&tr=udp%3A%2F%2Ftracker.cyberia.is%3A6969%2Fannounce",
        "seeder": "138",
        "leecher": "18"
    },
    {
        "rank": "90",
        "title": "Hero.Dog.The.Journey.Home.2021.DVDRip.XviD.AC3-EVO",
        "link": "magnet:?xt=urn:btih:1B0A7232E20F4C50D0A297D422D6B87113B9C476&dn=Hero.Dog.The.Journey.Home.2021.DVDRip.XviD.AC3-EVO&tr=udp%3A%2F%2Ftracker.coppersurfer.tk%3A6969%2Fannounce&tr=udp%3A%2F%2F9.rarbg.to%3A2920%2Fannounce&tr=udp%3A%2F%2Ftracker.opentrackr.org%3A1337&tr=udp%3A%2F%2Ftracker.internetwarriors.net%3A1337%2Fannounce&tr=udp%3A%2F%2Ftracker.leechers-paradise.org%3A6969%2Fannounce&tr=udp%3A%2F%2Ftracker.coppersurfer.tk%3A6969%2Fannounce&tr=udp%3A%2F%2Ftracker.pirateparty.gr%3A6969%2Fannounce&tr=udp%3A%2F%2Ftracker.cyberia.is%3A6969%2Fannounce",
        "seeder": "137",
        "leecher": "19"
    },
    {
        "rank": "91",
        "title": "The.Penthouse.2021.DVDRip.XviD.AC3-EVO[TGx]",
        "link": "magnet:?xt=urn:btih:9636272E173D6FEA536EB8BFEE8EA2505EF85B83&dn=The.Penthouse.2021.DVDRip.XviD.AC3-EVO%5BTGx%5D&tr=udp%3A%2F%2Ftracker.coppersurfer.tk%3A6969%2Fannounce&tr=udp%3A%2F%2F9.rarbg.to%3A2920%2Fannounce&tr=udp%3A%2F%2Ftracker.opentrackr.org%3A1337&tr=udp%3A%2F%2Ftracker.internetwarriors.net%3A1337%2Fannounce&tr=udp%3A%2F%2Ftracker.leechers-paradise.org%3A6969%2Fannounce&tr=udp%3A%2F%2Ftracker.coppersurfer.tk%3A6969%2Fannounce&tr=udp%3A%2F%2Ftracker.pirateparty.gr%3A6969%2Fannounce&tr=udp%3A%2F%2Ftracker.cyberia.is%3A6969%2Fannounce",
        "seeder": "134",
        "leecher": "55"
    },
    {
        "rank": "92",
        "title": "Judas and the Black Messiah.2021.HDRip.XviD.AC3-EVO[TGx]",
        "link": "magnet:?xt=urn:btih:EF6731C723B7562279C7F7F8FA79E10DB9AA441D&dn=Judas+and+the+Black+Messiah.2021.HDRip.XviD.AC3-EVO%5BTGx%5D&tr=udp%3A%2F%2Ftracker.coppersurfer.tk%3A6969%2Fannounce&tr=udp%3A%2F%2F9.rarbg.to%3A2920%2Fannounce&tr=udp%3A%2F%2Ftracker.opentrackr.org%3A1337&tr=udp%3A%2F%2Ftracker.internetwarriors.net%3A1337%2Fannounce&tr=udp%3A%2F%2Ftracker.leechers-paradise.org%3A6969%2Fannounce&tr=udp%3A%2F%2Ftracker.coppersurfer.tk%3A6969%2Fannounce&tr=udp%3A%2F%2Ftracker.pirateparty.gr%3A6969%2Fannounce&tr=udp%3A%2F%2Ftracker.cyberia.is%3A6969%2Fannounce",
        "seeder": "133",
        "leecher": "7"
    },
    {
        "rank": "93",
        "title": "Every.Breath.You.Take.2021.HDRip.XviD.AC3-EVO",
        "link": "magnet:?xt=urn:btih:23357C1ED63BC14BF811D5A030BA1A9C8161D617&dn=Every.Breath.You.Take.2021.HDRip.XviD.AC3-EVO&tr=udp%3A%2F%2Ftracker.coppersurfer.tk%3A6969%2Fannounce&tr=udp%3A%2F%2F9.rarbg.to%3A2920%2Fannounce&tr=udp%3A%2F%2Ftracker.opentrackr.org%3A1337&tr=udp%3A%2F%2Ftracker.internetwarriors.net%3A1337%2Fannounce&tr=udp%3A%2F%2Ftracker.leechers-paradise.org%3A6969%2Fannounce&tr=udp%3A%2F%2Ftracker.coppersurfer.tk%3A6969%2Fannounce&tr=udp%3A%2F%2Ftracker.pirateparty.gr%3A6969%2Fannounce&tr=udp%3A%2F%2Ftracker.cyberia.is%3A6969%2Fannounce",
        "seeder": "132",
        "leecher": "42"
    },
    {
        "rank": "94",
        "title": "Monster.Hunter.2020.HDCAM.850MB.c1nem4.x264-SUNSCREEN[TGx]",
        "link": "magnet:?xt=urn:btih:51295086BDF423CA3B67244E93E0BA0942BA6307&dn=Monster.Hunter.2020.HDCAM.850MB.c1nem4.x264-SUNSCREEN%5BTGx%5D&tr=udp%3A%2F%2Ftracker.coppersurfer.tk%3A6969%2Fannounce&tr=udp%3A%2F%2F9.rarbg.to%3A2920%2Fannounce&tr=udp%3A%2F%2Ftracker.opentrackr.org%3A1337&tr=udp%3A%2F%2Ftracker.internetwarriors.net%3A1337%2Fannounce&tr=udp%3A%2F%2Ftracker.leechers-paradise.org%3A6969%2Fannounce&tr=udp%3A%2F%2Ftracker.coppersurfer.tk%3A6969%2Fannounce&tr=udp%3A%2F%2Ftracker.pirateparty.gr%3A6969%2Fannounce&tr=udp%3A%2F%2Ftracker.cyberia.is%3A6969%2Fannounce",
        "seeder": "131",
        "leecher": "7"
    },
    {
        "rank": "95",
        "title": "Capone.2020.HDRip.XviD.AC3-EVO[TGx]",
        "link": "magnet:?xt=urn:btih:8FF590B5EABA124D398F27C755846C38FE907B41&dn=Capone.2020.HDRip.XviD.AC3-EVO%5BTGx%5D&tr=udp%3A%2F%2Ftracker.coppersurfer.tk%3A6969%2Fannounce&tr=udp%3A%2F%2F9.rarbg.to%3A2920%2Fannounce&tr=udp%3A%2F%2Ftracker.opentrackr.org%3A1337&tr=udp%3A%2F%2Ftracker.internetwarriors.net%3A1337%2Fannounce&tr=udp%3A%2F%2Ftracker.leechers-paradise.org%3A6969%2Fannounce&tr=udp%3A%2F%2Ftracker.coppersurfer.tk%3A6969%2Fannounce&tr=udp%3A%2F%2Ftracker.pirateparty.gr%3A6969%2Fannounce&tr=udp%3A%2F%2Ftracker.cyberia.is%3A6969%2Fannounce",
        "seeder": "131",
        "leecher": "4"
    },
    {
        "rank": "96",
        "title": "Rambo.Last.Blood.2019.HC.HDRip.XviD.AC3-EVO[TGx]",
        "link": "magnet:?xt=urn:btih:99D7078E9713B464F303C76A175AFB7E0C9A267B&dn=Rambo.Last.Blood.2019.HC.HDRip.XviD.AC3-EVO%5BTGx%5D&tr=udp%3A%2F%2Ftracker.coppersurfer.tk%3A6969%2Fannounce&tr=udp%3A%2F%2F9.rarbg.to%3A2920%2Fannounce&tr=udp%3A%2F%2Ftracker.opentrackr.org%3A1337&tr=udp%3A%2F%2Ftracker.internetwarriors.net%3A1337%2Fannounce&tr=udp%3A%2F%2Ftracker.leechers-paradise.org%3A6969%2Fannounce&tr=udp%3A%2F%2Ftracker.coppersurfer.tk%3A6969%2Fannounce&tr=udp%3A%2F%2Ftracker.pirateparty.gr%3A6969%2Fannounce&tr=udp%3A%2F%2Ftracker.cyberia.is%3A6969%2Fannounce",
        "seeder": "130",
        "leecher": "16"
    },
    {
        "rank": "97",
        "title": "Honest.Thief.2020.BDRip.XviD.AC3-EVO",
        "link": "magnet:?xt=urn:btih:AA1D6E4F0CD182A26E2227E97532036951D0DC2A&dn=Honest.Thief.2020.BDRip.XviD.AC3-EVO&tr=udp%3A%2F%2Ftracker.coppersurfer.tk%3A6969%2Fannounce&tr=udp%3A%2F%2F9.rarbg.to%3A2920%2Fannounce&tr=udp%3A%2F%2Ftracker.opentrackr.org%3A1337&tr=udp%3A%2F%2Ftracker.internetwarriors.net%3A1337%2Fannounce&tr=udp%3A%2F%2Ftracker.leechers-paradise.org%3A6969%2Fannounce&tr=udp%3A%2F%2Ftracker.coppersurfer.tk%3A6969%2Fannounce&tr=udp%3A%2F%2Ftracker.pirateparty.gr%3A6969%2Fannounce&tr=udp%3A%2F%2Ftracker.cyberia.is%3A6969%2Fannounce",
        "seeder": "128",
        "leecher": "12"
    },
    {
        "rank": "98",
        "title": "The.Dig.2021.HDRip.XviD.AC3-EVO",
        "link": "magnet:?xt=urn:btih:BD5C4591FEB20DC69532154F514DE13961C0AA03&dn=The.Dig.2021.HDRip.XviD.AC3-EVO&tr=udp%3A%2F%2Ftracker.coppersurfer.tk%3A6969%2Fannounce&tr=udp%3A%2F%2F9.rarbg.to%3A2920%2Fannounce&tr=udp%3A%2F%2Ftracker.opentrackr.org%3A1337&tr=udp%3A%2F%2Ftracker.internetwarriors.net%3A1337%2Fannounce&tr=udp%3A%2F%2Ftracker.leechers-paradise.org%3A6969%2Fannounce&tr=udp%3A%2F%2Ftracker.coppersurfer.tk%3A6969%2Fannounce&tr=udp%3A%2F%2Ftracker.pirateparty.gr%3A6969%2Fannounce&tr=udp%3A%2F%2Ftracker.cyberia.is%3A6969%2Fannounce",
        "seeder": "127",
        "leecher": "10"
    },
    {
        "rank": "99",
        "title": "Doors.2021.HDRip.XviD.AC3-EVO",
        "link": "magnet:?xt=urn:btih:F346416E53E8F2D995CF6FF318CD3AE0C92FD86D&dn=Doors.2021.HDRip.XviD.AC3-EVO&tr=udp%3A%2F%2Ftracker.coppersurfer.tk%3A6969%2Fannounce&tr=udp%3A%2F%2F9.rarbg.to%3A2920%2Fannounce&tr=udp%3A%2F%2Ftracker.opentrackr.org%3A1337&tr=udp%3A%2F%2Ftracker.internetwarriors.net%3A1337%2Fannounce&tr=udp%3A%2F%2Ftracker.leechers-paradise.org%3A6969%2Fannounce&tr=udp%3A%2F%2Ftracker.coppersurfer.tk%3A6969%2Fannounce&tr=udp%3A%2F%2Ftracker.pirateparty.gr%3A6969%2Fannounce&tr=udp%3A%2F%2Ftracker.cyberia.is%3A6969%2Fannounce",
        "seeder": "126",
        "leecher": "26"
    },
    {
        "rank": "100",
        "title": "Way.Down.2021.HDRip.XviD.AC3-EVO",
        "link": "magnet:?xt=urn:btih:93B55A58FAC7A924E6B78C7DE6C08170B599140A&dn=Way.Down.2021.HDRip.XviD.AC3-EVO&tr=udp%3A%2F%2Ftracker.coppersurfer.tk%3A6969%2Fannounce&tr=udp%3A%2F%2F9.rarbg.to%3A2920%2Fannounce&tr=udp%3A%2F%2Ftracker.opentrackr.org%3A1337&tr=udp%3A%2F%2Ftracker.internetwarriors.net%3A1337%2Fannounce&tr=udp%3A%2F%2Ftracker.leechers-paradise.org%3A6969%2Fannounce&tr=udp%3A%2F%2Ftracker.coppersurfer.tk%3A6969%2Fannounce&tr=udp%3A%2F%2Ftracker.pirateparty.gr%3A6969%2Fannounce&tr=udp%3A%2F%2Ftracker.cyberia.is%3A6969%2Fannounce",
        "seeder": "125",
        "leecher": "14"
    }
]
