[
    {
        "rank": "1",
        "title": "VA - The Best 80s Car Songs Album In The World Ever (3CD) (2021)",
        "link": "magnet:?xt=urn:btih:A7DE8E0FE4490B384D11B07382B62D7F7CE01222&dn=VA+-+The+Best+80s+Car+Songs+Album+In+The+World+Ever+%283CD%29+%282021%29&tr=udp%3A%2F%2Ftracker.coppersurfer.tk%3A6969%2Fannounce&tr=udp%3A%2F%2F9.rarbg.to%3A2920%2Fannounce&tr=udp%3A%2F%2Ftracker.opentrackr.org%3A1337&tr=udp%3A%2F%2Ftracker.internetwarriors.net%3A1337%2Fannounce&tr=udp%3A%2F%2Ftracker.leechers-paradise.org%3A6969%2Fannounce&tr=udp%3A%2F%2Ftracker.coppersurfer.tk%3A6969%2Fannounce&tr=udp%3A%2F%2Ftracker.pirateparty.gr%3A6969%2Fannounce&tr=udp%3A%2F%2Ftracker.cyberia.is%3A6969%2Fannounce",
        "seeder": "348",
        "leecher": "25"
    },
    {
        "rank": "2",
        "title": "VA - Russian radio - TOP 100 rotations of January (2021) MP3",
        "link": "magnet:?xt=urn:btih:7B7B368CE70FF8D9060A3BFE8ADB676CB965555D&dn=VA+-+Russian+radio+-+TOP+100+rotations+of+January+%282021%29+MP3&tr=udp%3A%2F%2Ftracker.coppersurfer.tk%3A6969%2Fannounce&tr=udp%3A%2F%2F9.rarbg.to%3A2920%2Fannounce&tr=udp%3A%2F%2Ftracker.opentrackr.org%3A1337&tr=udp%3A%2F%2Ftracker.internetwarriors.net%3A1337%2Fannounce&tr=udp%3A%2F%2Ftracker.leechers-paradise.org%3A6969%2Fannounce&tr=udp%3A%2F%2Ftracker.coppersurfer.tk%3A6969%2Fannounce&tr=udp%3A%2F%2Ftracker.pirateparty.gr%3A6969%2Fannounce&tr=udp%3A%2F%2Ftracker.cyberia.is%3A6969%2Fannounce",
        "seeder": "301",
        "leecher": "8"
    },
    {
        "rank": "3",
        "title": "Evanescence - The Bitter Truth (2021) Mp3 320kbps CD-Rip",
        "link": "magnet:?xt=urn:btih:0558D61FE707FC7B2BBDB4E0DDA2C84C662007B7&dn=Evanescence+-+The+Bitter+Truth+%282021%29+Mp3+320kbps+CD-Rip&tr=udp%3A%2F%2Ftracker.coppersurfer.tk%3A6969%2Fannounce&tr=udp%3A%2F%2F9.rarbg.to%3A2920%2Fannounce&tr=udp%3A%2F%2Ftracker.opentrackr.org%3A1337&tr=udp%3A%2F%2Ftracker.internetwarriors.net%3A1337%2Fannounce&tr=udp%3A%2F%2Ftracker.leechers-paradise.org%3A6969%2Fannounce&tr=udp%3A%2F%2Ftracker.coppersurfer.tk%3A6969%2Fannounce&tr=udp%3A%2F%2Ftracker.pirateparty.gr%3A6969%2Fannounce&tr=udp%3A%2F%2Ftracker.cyberia.is%3A6969%2Fannounce",
        "seeder": "255",
        "leecher": "7"
    },
    {
        "rank": "4",
        "title": "NOW That's What I Call 12\u201d 80s (4CD) (2021) Mp3 320kbps",
        "link": "magnet:?xt=urn:btih:AD462798AD32B8793F0719B74D5F8B494C46D4EC&dn=NOW+That%27s+What+I+Call+12%26rdquo%3B+80s+%284CD%29+%282021%29+Mp3+320kbps&tr=udp%3A%2F%2Ftracker.coppersurfer.tk%3A6969%2Fannounce&tr=udp%3A%2F%2F9.rarbg.to%3A2920%2Fannounce&tr=udp%3A%2F%2Ftracker.opentrackr.org%3A1337&tr=udp%3A%2F%2Ftracker.internetwarriors.net%3A1337%2Fannounce&tr=udp%3A%2F%2Ftracker.leechers-paradise.org%3A6969%2Fannounce&tr=udp%3A%2F%2Ftracker.coppersurfer.tk%3A6969%2Fannounce&tr=udp%3A%2F%2Ftracker.pirateparty.gr%3A6969%2Fannounce&tr=udp%3A%2F%2Ftracker.cyberia.is%3A6969%2Fannounce",
        "seeder": "241",
        "leecher": "26"
    },
    {
        "rank": "5",
        "title": "Foo Fighters - Medicine At Midnight (2021) Mp3 320kbps",
        "link": "magnet:?xt=urn:btih:7A39AC4E1F12BAFE2A3EAE643D62B451B5BC77CA&dn=Foo+Fighters+-+Medicine+At+Midnight+%282021%29+Mp3+320kbps&tr=udp%3A%2F%2Ftracker.coppersurfer.tk%3A6969%2Fannounce&tr=udp%3A%2F%2F9.rarbg.to%3A2920%2Fannounce&tr=udp%3A%2F%2Ftracker.opentrackr.org%3A1337&tr=udp%3A%2F%2Ftracker.internetwarriors.net%3A1337%2Fannounce&tr=udp%3A%2F%2Ftracker.leechers-paradise.org%3A6969%2Fannounce&tr=udp%3A%2F%2Ftracker.coppersurfer.tk%3A6969%2Fannounce&tr=udp%3A%2F%2Ftracker.pirateparty.gr%3A6969%2Fannounce&tr=udp%3A%2F%2Ftracker.cyberia.is%3A6969%2Fannounce",
        "seeder": "239",
        "leecher": "9"
    },
    {
        "rank": "6",
        "title": "VA - 100 Greatest Songs from the Movies (2021) Mp3 320kbps",
        "link": "magnet:?xt=urn:btih:ABC10F8B10924F01C67861CD058773F6E0079F7F&dn=VA+-+100+Greatest+Songs+from+the+Movies+%282021%29+Mp3+320kbps&tr=udp%3A%2F%2Ftracker.coppersurfer.tk%3A6969%2Fannounce&tr=udp%3A%2F%2F9.rarbg.to%3A2920%2Fannounce&tr=udp%3A%2F%2Ftracker.opentrackr.org%3A1337&tr=udp%3A%2F%2Ftracker.internetwarriors.net%3A1337%2Fannounce&tr=udp%3A%2F%2Ftracker.leechers-paradise.org%3A6969%2Fannounce&tr=udp%3A%2F%2Ftracker.coppersurfer.tk%3A6969%2Fannounce&tr=udp%3A%2F%2Ftracker.pirateparty.gr%3A6969%2Fannounce&tr=udp%3A%2F%2Ftracker.cyberia.is%3A6969%2Fannounce",
        "seeder": "238",
        "leecher": "17"
    },
    {
        "rank": "7",
        "title": "Lana Del Rey - Chemtrails Over The Country Club (2021)",
        "link": "magnet:?xt=urn:btih:6E9C96A1C1407CE568436DF8BFBB88B11531B2DA&dn=Lana+Del+Rey+-+Chemtrails+Over+The+Country+Club+%282021%29&tr=udp%3A%2F%2Ftracker.coppersurfer.tk%3A6969%2Fannounce&tr=udp%3A%2F%2F9.rarbg.to%3A2920%2Fannounce&tr=udp%3A%2F%2Ftracker.opentrackr.org%3A1337&tr=udp%3A%2F%2Ftracker.internetwarriors.net%3A1337%2Fannounce&tr=udp%3A%2F%2Ftracker.leechers-paradise.org%3A6969%2Fannounce&tr=udp%3A%2F%2Ftracker.coppersurfer.tk%3A6969%2Fannounce&tr=udp%3A%2F%2Ftracker.pirateparty.gr%3A6969%2Fannounce&tr=udp%3A%2F%2Ftracker.cyberia.is%3A6969%2Fannounce",
        "seeder": "224",
        "leecher": "5"
    },
    {
        "rank": "8",
        "title": "Justin Bieber - Justice (2021) Mp3 (320kbps) [Hunter]",
        "link": "magnet:?xt=urn:btih:4D01E42B1344EF597B11836763C53187EBBC15F5&dn=Justin+Bieber+-+Justice+%282021%29+Mp3+%28320kbps%29+%5BHunter%5D&tr=udp%3A%2F%2Ftracker.coppersurfer.tk%3A6969%2Fannounce&tr=udp%3A%2F%2F9.rarbg.to%3A2920%2Fannounce&tr=udp%3A%2F%2Ftracker.opentrackr.org%3A1337&tr=udp%3A%2F%2Ftracker.internetwarriors.net%3A1337%2Fannounce&tr=udp%3A%2F%2Ftracker.leechers-paradise.org%3A6969%2Fannounce&tr=udp%3A%2F%2Ftracker.coppersurfer.tk%3A6969%2Fannounce&tr=udp%3A%2F%2Ftracker.pirateparty.gr%3A6969%2Fannounce&tr=udp%3A%2F%2Ftracker.cyberia.is%3A6969%2Fannounce",
        "seeder": "219",
        "leecher": "9"
    },
    {
        "rank": "9",
        "title": "The Official UK Top 100 Singles Chart (02-April-2021) Mp3 320kbp",
        "link": "magnet:?xt=urn:btih:64DE6B5FD8FBCF4EF6F7008A2858E5968CF77EB4&dn=The+Official+UK+Top+100+Singles+Chart+%2802-April-2021%29+Mp3+320kbp&tr=udp%3A%2F%2Ftracker.coppersurfer.tk%3A6969%2Fannounce&tr=udp%3A%2F%2F9.rarbg.to%3A2920%2Fannounce&tr=udp%3A%2F%2Ftracker.opentrackr.org%3A1337&tr=udp%3A%2F%2Ftracker.internetwarriors.net%3A1337%2Fannounce&tr=udp%3A%2F%2Ftracker.leechers-paradise.org%3A6969%2Fannounce&tr=udp%3A%2F%2Ftracker.coppersurfer.tk%3A6969%2Fannounce&tr=udp%3A%2F%2Ftracker.pirateparty.gr%3A6969%2Fannounce&tr=udp%3A%2F%2Ftracker.cyberia.is%3A6969%2Fannounce",
        "seeder": "214",
        "leecher": "45"
    },
    {
        "rank": "10",
        "title": "Billboard Hot 100 Singles Chart (27-March-2021) Mp3 320kbps",
        "link": "magnet:?xt=urn:btih:BC8D99B564285210B26241A068910F732D6CBA70&dn=Billboard+Hot+100+Singles+Chart+%2827-March-2021%29+Mp3+320kbps&tr=udp%3A%2F%2Ftracker.coppersurfer.tk%3A6969%2Fannounce&tr=udp%3A%2F%2F9.rarbg.to%3A2920%2Fannounce&tr=udp%3A%2F%2Ftracker.opentrackr.org%3A1337&tr=udp%3A%2F%2Ftracker.internetwarriors.net%3A1337%2Fannounce&tr=udp%3A%2F%2Ftracker.leechers-paradise.org%3A6969%2Fannounce&tr=udp%3A%2F%2Ftracker.coppersurfer.tk%3A6969%2Fannounce&tr=udp%3A%2F%2Ftracker.pirateparty.gr%3A6969%2Fannounce&tr=udp%3A%2F%2Ftracker.cyberia.is%3A6969%2Fannounce",
        "seeder": "214",
        "leecher": "17"
    },
    {
        "rank": "11",
        "title": "Now That's What I Call Music 108 (2021) Mp3 320kbps [PMEDIA] \u2b50\ufe0f",
        "link": "magnet:?xt=urn:btih:695483764BE686FB898FA088F621BC0EBB9E1E89&dn=Now+That%27s+What+I+Call+Music+108+%282021%29+Mp3+320kbps+%5BPMEDIA%5D+%E2%AD%90%EF%B8%8F&tr=udp%3A%2F%2Ftracker.coppersurfer.tk%3A6969%2Fannounce&tr=udp%3A%2F%2F9.rarbg.to%3A2920%2Fannounce&tr=udp%3A%2F%2Ftracker.opentrackr.org%3A1337&tr=udp%3A%2F%2Ftracker.internetwarriors.net%3A1337%2Fannounce&tr=udp%3A%2F%2Ftracker.leechers-paradise.org%3A6969%2Fannounce&tr=udp%3A%2F%2Ftracker.coppersurfer.tk%3A6969%2Fannounce&tr=udp%3A%2F%2Ftracker.pirateparty.gr%3A6969%2Fannounce&tr=udp%3A%2F%2Ftracker.cyberia.is%3A6969%2Fannounce",
        "seeder": "209",
        "leecher": "16"
    },
    {
        "rank": "12",
        "title": "VA - Apple Music The 100 Best Songs of 2020 (Mp3 320kbps)",
        "link": "magnet:?xt=urn:btih:22AE1539A65367660BC4790FDED5F21CE241A493&dn=VA+-+Apple+Music+The+100+Best+Songs+of+2020+%28Mp3+320kbps%29&tr=udp%3A%2F%2Ftracker.coppersurfer.tk%3A6969%2Fannounce&tr=udp%3A%2F%2F9.rarbg.to%3A2920%2Fannounce&tr=udp%3A%2F%2Ftracker.opentrackr.org%3A1337&tr=udp%3A%2F%2Ftracker.internetwarriors.net%3A1337%2Fannounce&tr=udp%3A%2F%2Ftracker.leechers-paradise.org%3A6969%2Fannounce&tr=udp%3A%2F%2Ftracker.coppersurfer.tk%3A6969%2Fannounce&tr=udp%3A%2F%2Ftracker.pirateparty.gr%3A6969%2Fannounce&tr=udp%3A%2F%2Ftracker.cyberia.is%3A6969%2Fannounce",
        "seeder": "208",
        "leecher": "15"
    },
    {
        "rank": "13",
        "title": "The Official UK Top 100 Singles Chart (26-March-2021) Mp3 320kbp",
        "link": "magnet:?xt=urn:btih:9B211344C5F98EA403102765160317FB1EE4FC77&dn=The+Official+UK+Top+100+Singles+Chart+%2826-March-2021%29+Mp3+320kbp&tr=udp%3A%2F%2Ftracker.coppersurfer.tk%3A6969%2Fannounce&tr=udp%3A%2F%2F9.rarbg.to%3A2920%2Fannounce&tr=udp%3A%2F%2Ftracker.opentrackr.org%3A1337&tr=udp%3A%2F%2Ftracker.internetwarriors.net%3A1337%2Fannounce&tr=udp%3A%2F%2Ftracker.leechers-paradise.org%3A6969%2Fannounce&tr=udp%3A%2F%2Ftracker.coppersurfer.tk%3A6969%2Fannounce&tr=udp%3A%2F%2Ftracker.pirateparty.gr%3A6969%2Fannounce&tr=udp%3A%2F%2Ftracker.cyberia.is%3A6969%2Fannounce",
        "seeder": "207",
        "leecher": "23"
    },
    {
        "rank": "14",
        "title": "Eminem - Music To Be Murdered By - Side B (Deluxe Edition)(2020)",
        "link": "magnet:?xt=urn:btih:349F3A3DB737A7A923C86F02A95048470A475A8B&dn=Eminem+-+Music+To+Be+Murdered+By+-+Side+B+%28Deluxe+Edition%29%282020%29&tr=udp%3A%2F%2Ftracker.coppersurfer.tk%3A6969%2Fannounce&tr=udp%3A%2F%2F9.rarbg.to%3A2920%2Fannounce&tr=udp%3A%2F%2Ftracker.opentrackr.org%3A1337&tr=udp%3A%2F%2Ftracker.internetwarriors.net%3A1337%2Fannounce&tr=udp%3A%2F%2Ftracker.leechers-paradise.org%3A6969%2Fannounce&tr=udp%3A%2F%2Ftracker.coppersurfer.tk%3A6969%2Fannounce&tr=udp%3A%2F%2Ftracker.pirateparty.gr%3A6969%2Fannounce&tr=udp%3A%2F%2Ftracker.cyberia.is%3A6969%2Fannounce",
        "seeder": "205",
        "leecher": "3"
    },
    {
        "rank": "15",
        "title": "Taylor Swift - folklore (2020) Mp3 (320kbps) [Hunter]",
        "link": "magnet:?xt=urn:btih:DF1D443FB45E674C0480596F12B501C41F551DC7&dn=Taylor+Swift+-+folklore+%282020%29+Mp3+%28320kbps%29+%5BHunter%5D&tr=udp%3A%2F%2Ftracker.coppersurfer.tk%3A6969%2Fannounce&tr=udp%3A%2F%2F9.rarbg.to%3A2920%2Fannounce&tr=udp%3A%2F%2Ftracker.opentrackr.org%3A1337&tr=udp%3A%2F%2Ftracker.internetwarriors.net%3A1337%2Fannounce&tr=udp%3A%2F%2Ftracker.leechers-paradise.org%3A6969%2Fannounce&tr=udp%3A%2F%2Ftracker.coppersurfer.tk%3A6969%2Fannounce&tr=udp%3A%2F%2Ftracker.pirateparty.gr%3A6969%2Fannounce&tr=udp%3A%2F%2Ftracker.cyberia.is%3A6969%2Fannounce",
        "seeder": "192",
        "leecher": "4"
    },
    {
        "rank": "16",
        "title": "VA - NOW 100 Hits Dance (2020) Mp3 (320kbps) [Hunter]",
        "link": "magnet:?xt=urn:btih:95F5346E245E16C0B32B0E1FF09352BB8099648E&dn=VA+-+NOW+100+Hits+Dance+%282020%29+Mp3+%28320kbps%29+%5BHunter%5D&tr=udp%3A%2F%2Ftracker.coppersurfer.tk%3A6969%2Fannounce&tr=udp%3A%2F%2F9.rarbg.to%3A2920%2Fannounce&tr=udp%3A%2F%2Ftracker.opentrackr.org%3A1337&tr=udp%3A%2F%2Ftracker.internetwarriors.net%3A1337%2Fannounce&tr=udp%3A%2F%2Ftracker.leechers-paradise.org%3A6969%2Fannounce&tr=udp%3A%2F%2Ftracker.coppersurfer.tk%3A6969%2Fannounce&tr=udp%3A%2F%2Ftracker.pirateparty.gr%3A6969%2Fannounce&tr=udp%3A%2F%2Ftracker.cyberia.is%3A6969%2Fannounce",
        "seeder": "189",
        "leecher": "7"
    },
    {
        "rank": "17",
        "title": "Billboard Hot 100 Singles Chart (03-April-2021) Mp3 320kbps",
        "link": "magnet:?xt=urn:btih:C4B1E817C0F55DB5D761F49A2E4495BA77C70504&dn=Billboard+Hot+100+Singles+Chart+%2803-April-2021%29+Mp3+320kbps&tr=udp%3A%2F%2Ftracker.coppersurfer.tk%3A6969%2Fannounce&tr=udp%3A%2F%2F9.rarbg.to%3A2920%2Fannounce&tr=udp%3A%2F%2Ftracker.opentrackr.org%3A1337&tr=udp%3A%2F%2Ftracker.internetwarriors.net%3A1337%2Fannounce&tr=udp%3A%2F%2Ftracker.leechers-paradise.org%3A6969%2Fannounce&tr=udp%3A%2F%2Ftracker.coppersurfer.tk%3A6969%2Fannounce&tr=udp%3A%2F%2Ftracker.pirateparty.gr%3A6969%2Fannounce&tr=udp%3A%2F%2Ftracker.cyberia.is%3A6969%2Fannounce",
        "seeder": "186",
        "leecher": "35"
    },
    {
        "rank": "18",
        "title": "Billboar 500 Songs of the 80s (Mp3 320kbps) [PMEDIA] \u2b50\ufe0f",
        "link": "magnet:?xt=urn:btih:2CBBD50B9DB1C6E51E9B8702E0BA246CEFAFA00F&dn=Billboar+500+Songs+of+the+80s+%28Mp3+320kbps%29+%5BPMEDIA%5D+%E2%AD%90%EF%B8%8F&tr=udp%3A%2F%2Ftracker.coppersurfer.tk%3A6969%2Fannounce&tr=udp%3A%2F%2F9.rarbg.to%3A2920%2Fannounce&tr=udp%3A%2F%2Ftracker.opentrackr.org%3A1337&tr=udp%3A%2F%2Ftracker.internetwarriors.net%3A1337%2Fannounce&tr=udp%3A%2F%2Ftracker.leechers-paradise.org%3A6969%2Fannounce&tr=udp%3A%2F%2Ftracker.coppersurfer.tk%3A6969%2Fannounce&tr=udp%3A%2F%2Ftracker.pirateparty.gr%3A6969%2Fannounce&tr=udp%3A%2F%2Ftracker.cyberia.is%3A6969%2Fannounce",
        "seeder": "183",
        "leecher": "229"
    },
    {
        "rank": "19",
        "title": "The Best R&B Album In The World...Ever! (2021) Mp3 320kbps",
        "link": "magnet:?xt=urn:btih:D948E3CC307A2AD205B2D5667541312333F2D79E&dn=The+Best+R%26amp%3BB+Album+In+The+World...Ever%21+%282021%29+Mp3+320kbps&tr=udp%3A%2F%2Ftracker.coppersurfer.tk%3A6969%2Fannounce&tr=udp%3A%2F%2F9.rarbg.to%3A2920%2Fannounce&tr=udp%3A%2F%2Ftracker.opentrackr.org%3A1337&tr=udp%3A%2F%2Ftracker.internetwarriors.net%3A1337%2Fannounce&tr=udp%3A%2F%2Ftracker.leechers-paradise.org%3A6969%2Fannounce&tr=udp%3A%2F%2Ftracker.coppersurfer.tk%3A6969%2Fannounce&tr=udp%3A%2F%2Ftracker.pirateparty.gr%3A6969%2Fannounce&tr=udp%3A%2F%2Ftracker.cyberia.is%3A6969%2Fannounce",
        "seeder": "175",
        "leecher": "17"
    },
    {
        "rank": "20",
        "title": "AC_DC - POWER UP (2020) Original Mp3 320kbps [PMEDIA] \u2b50\ufe0f",
        "link": "magnet:?xt=urn:btih:2B9A974BF0618DFED7FAC39E2DB2C609DB59BBDE&dn=AC_DC+-+POWER+UP+%282020%29+Original+Mp3+320kbps+%5BPMEDIA%5D+%E2%AD%90%EF%B8%8F&tr=udp%3A%2F%2Ftracker.coppersurfer.tk%3A6969%2Fannounce&tr=udp%3A%2F%2F9.rarbg.to%3A2920%2Fannounce&tr=udp%3A%2F%2Ftracker.opentrackr.org%3A1337&tr=udp%3A%2F%2Ftracker.internetwarriors.net%3A1337%2Fannounce&tr=udp%3A%2F%2Ftracker.leechers-paradise.org%3A6969%2Fannounce&tr=udp%3A%2F%2Ftracker.coppersurfer.tk%3A6969%2Fannounce&tr=udp%3A%2F%2Ftracker.pirateparty.gr%3A6969%2Fannounce&tr=udp%3A%2F%2Ftracker.cyberia.is%3A6969%2Fannounce",
        "seeder": "165",
        "leecher": "2"
    },
    {
        "rank": "21",
        "title": "The Weeknd - House Of Balloons (Original) (2021) Mp3 320kbps",
        "link": "magnet:?xt=urn:btih:B502CA85868AE0BFBC1E4C0716055A9E839D7E4B&dn=The+Weeknd+-+House+Of+Balloons+%28Original%29+%282021%29+Mp3+320kbps&tr=udp%3A%2F%2Ftracker.coppersurfer.tk%3A6969%2Fannounce&tr=udp%3A%2F%2F9.rarbg.to%3A2920%2Fannounce&tr=udp%3A%2F%2Ftracker.opentrackr.org%3A1337&tr=udp%3A%2F%2Ftracker.internetwarriors.net%3A1337%2Fannounce&tr=udp%3A%2F%2Ftracker.leechers-paradise.org%3A6969%2Fannounce&tr=udp%3A%2F%2Ftracker.coppersurfer.tk%3A6969%2Fannounce&tr=udp%3A%2F%2Ftracker.pirateparty.gr%3A6969%2Fannounce&tr=udp%3A%2F%2Ftracker.cyberia.is%3A6969%2Fannounce",
        "seeder": "162",
        "leecher": "4"
    },
    {
        "rank": "22",
        "title": "Bruce Springsteen - Letter To You (2020) Mp3 320kbps [PMEDIA] \u2b50\ufe0f",
        "link": "magnet:?xt=urn:btih:26AF5325B23175645F098B49F947E64FAD741B1F&dn=Bruce+Springsteen+-+Letter+To+You+%282020%29+Mp3+320kbps+%5BPMEDIA%5D+%E2%AD%90%EF%B8%8F&tr=udp%3A%2F%2Ftracker.coppersurfer.tk%3A6969%2Fannounce&tr=udp%3A%2F%2F9.rarbg.to%3A2920%2Fannounce&tr=udp%3A%2F%2Ftracker.opentrackr.org%3A1337&tr=udp%3A%2F%2Ftracker.internetwarriors.net%3A1337%2Fannounce&tr=udp%3A%2F%2Ftracker.leechers-paradise.org%3A6969%2Fannounce&tr=udp%3A%2F%2Ftracker.coppersurfer.tk%3A6969%2Fannounce&tr=udp%3A%2F%2Ftracker.pirateparty.gr%3A6969%2Fannounce&tr=udp%3A%2F%2Ftracker.cyberia.is%3A6969%2Fannounce",
        "seeder": "152",
        "leecher": "1"
    },
    {
        "rank": "23",
        "title": "Billboard Hot 100 Singles Chart (06-February-2021) Mp3 320kbps",
        "link": "magnet:?xt=urn:btih:0B28A9AE8E3E84803E5A55C402A89E8C822DC80B&dn=Billboard+Hot+100+Singles+Chart+%2806-February-2021%29+Mp3+320kbps&tr=udp%3A%2F%2Ftracker.coppersurfer.tk%3A6969%2Fannounce&tr=udp%3A%2F%2F9.rarbg.to%3A2920%2Fannounce&tr=udp%3A%2F%2Ftracker.opentrackr.org%3A1337&tr=udp%3A%2F%2Ftracker.internetwarriors.net%3A1337%2Fannounce&tr=udp%3A%2F%2Ftracker.leechers-paradise.org%3A6969%2Fannounce&tr=udp%3A%2F%2Ftracker.coppersurfer.tk%3A6969%2Fannounce&tr=udp%3A%2F%2Ftracker.pirateparty.gr%3A6969%2Fannounce&tr=udp%3A%2F%2Ftracker.cyberia.is%3A6969%2Fannounce",
        "seeder": "148",
        "leecher": "12"
    },
    {
        "rank": "24",
        "title": "Billboard Hot 100 Singles Chart (20-March-2021) Mp3 320kbps",
        "link": "magnet:?xt=urn:btih:F34CD10B9AD2464B457096450524C0A264EFEE2C&dn=Billboard+Hot+100+Singles+Chart+%2820-March-2021%29+Mp3+320kbps&tr=udp%3A%2F%2Ftracker.coppersurfer.tk%3A6969%2Fannounce&tr=udp%3A%2F%2F9.rarbg.to%3A2920%2Fannounce&tr=udp%3A%2F%2Ftracker.opentrackr.org%3A1337&tr=udp%3A%2F%2Ftracker.internetwarriors.net%3A1337%2Fannounce&tr=udp%3A%2F%2Ftracker.leechers-paradise.org%3A6969%2Fannounce&tr=udp%3A%2F%2Ftracker.coppersurfer.tk%3A6969%2Fannounce&tr=udp%3A%2F%2Ftracker.pirateparty.gr%3A6969%2Fannounce&tr=udp%3A%2F%2Ftracker.cyberia.is%3A6969%2Fannounce",
        "seeder": "146",
        "leecher": "10"
    },
    {
        "rank": "25",
        "title": "VA - Top 100 Running Songs (2019) Mp3 (320kbps) [Hunter]",
        "link": "magnet:?xt=urn:btih:1C44EB4A1EC00D6C35D89F43BCA6F8FD115A4197&dn=VA+-+Top+100+Running+Songs+%282019%29+Mp3+%28320kbps%29+%5BHunter%5D&tr=udp%3A%2F%2Ftracker.coppersurfer.tk%3A6969%2Fannounce&tr=udp%3A%2F%2F9.rarbg.to%3A2920%2Fannounce&tr=udp%3A%2F%2Ftracker.opentrackr.org%3A1337&tr=udp%3A%2F%2Ftracker.internetwarriors.net%3A1337%2Fannounce&tr=udp%3A%2F%2Ftracker.leechers-paradise.org%3A6969%2Fannounce&tr=udp%3A%2F%2Ftracker.coppersurfer.tk%3A6969%2Fannounce&tr=udp%3A%2F%2Ftracker.pirateparty.gr%3A6969%2Fannounce&tr=udp%3A%2F%2Ftracker.cyberia.is%3A6969%2Fannounce",
        "seeder": "146",
        "leecher": "10"
    },
    {
        "rank": "26",
        "title": "Beyond Order: 12 More Rules for Life - Jordan B. Peterson 2021",
        "link": "magnet:?xt=urn:btih:1488CC072D14AC1717AF69DD0C87D5E87BCE826E&dn=Beyond+Order%3A+12+More+Rules+for+Life+-+Jordan+B.+Peterson+2021&tr=udp%3A%2F%2Ftracker.coppersurfer.tk%3A6969%2Fannounce&tr=udp%3A%2F%2F9.rarbg.to%3A2920%2Fannounce&tr=udp%3A%2F%2Ftracker.opentrackr.org%3A1337&tr=udp%3A%2F%2Ftracker.internetwarriors.net%3A1337%2Fannounce&tr=udp%3A%2F%2Ftracker.leechers-paradise.org%3A6969%2Fannounce&tr=udp%3A%2F%2Ftracker.coppersurfer.tk%3A6969%2Fannounce&tr=udp%3A%2F%2Ftracker.pirateparty.gr%3A6969%2Fannounce&tr=udp%3A%2F%2Ftracker.cyberia.is%3A6969%2Fannounce",
        "seeder": "142",
        "leecher": "10"
    },
    {
        "rank": "27",
        "title": "A Promised Land - Barack Obama 2020",
        "link": "magnet:?xt=urn:btih:51EE8C648409CF25693E2A2A081F1577C2E8CFD1&dn=A+Promised+Land+-+Barack+Obama+2020&tr=udp%3A%2F%2Ftracker.coppersurfer.tk%3A6969%2Fannounce&tr=udp%3A%2F%2F9.rarbg.to%3A2920%2Fannounce&tr=udp%3A%2F%2Ftracker.opentrackr.org%3A1337&tr=udp%3A%2F%2Ftracker.internetwarriors.net%3A1337%2Fannounce&tr=udp%3A%2F%2Ftracker.leechers-paradise.org%3A6969%2Fannounce&tr=udp%3A%2F%2Ftracker.coppersurfer.tk%3A6969%2Fannounce&tr=udp%3A%2F%2Ftracker.pirateparty.gr%3A6969%2Fannounce&tr=udp%3A%2F%2Ftracker.cyberia.is%3A6969%2Fannounce",
        "seeder": "135",
        "leecher": "1"
    },
    {
        "rank": "28",
        "title": "Drake - Dark Lane Demo Tapes (2020) Mp3 (320kbps) [Hunter]",
        "link": "magnet:?xt=urn:btih:2BDCEA097422D43491A353242827C72A9E7DE177&dn=Drake+-+Dark+Lane+Demo+Tapes+%282020%29+Mp3+%28320kbps%29+%5BHunter%5D&tr=udp%3A%2F%2Ftracker.coppersurfer.tk%3A6969%2Fannounce&tr=udp%3A%2F%2F9.rarbg.to%3A2920%2Fannounce&tr=udp%3A%2F%2Ftracker.opentrackr.org%3A1337&tr=udp%3A%2F%2Ftracker.internetwarriors.net%3A1337%2Fannounce&tr=udp%3A%2F%2Ftracker.leechers-paradise.org%3A6969%2Fannounce&tr=udp%3A%2F%2Ftracker.coppersurfer.tk%3A6969%2Fannounce&tr=udp%3A%2F%2Ftracker.pirateparty.gr%3A6969%2Fannounce&tr=udp%3A%2F%2Ftracker.cyberia.is%3A6969%2Fannounce",
        "seeder": "134",
        "leecher": "4"
    },
    {
        "rank": "29",
        "title": "Taylor Swift - evermore (2020) FLAC Album [PMEDIA] \u2b50\ufe0f",
        "link": "magnet:?xt=urn:btih:22EFA5105F7E8550C6BB1935BD602E6A991934CE&dn=Taylor+Swift+-+evermore+%282020%29+FLAC+Album+%5BPMEDIA%5D+%E2%AD%90%EF%B8%8F&tr=udp%3A%2F%2Ftracker.coppersurfer.tk%3A6969%2Fannounce&tr=udp%3A%2F%2F9.rarbg.to%3A2920%2Fannounce&tr=udp%3A%2F%2Ftracker.opentrackr.org%3A1337&tr=udp%3A%2F%2Ftracker.internetwarriors.net%3A1337%2Fannounce&tr=udp%3A%2F%2Ftracker.leechers-paradise.org%3A6969%2Fannounce&tr=udp%3A%2F%2Ftracker.coppersurfer.tk%3A6969%2Fannounce&tr=udp%3A%2F%2Ftracker.pirateparty.gr%3A6969%2Fannounce&tr=udp%3A%2F%2Ftracker.cyberia.is%3A6969%2Fannounce",
        "seeder": "125",
        "leecher": "2"
    },
    {
        "rank": "30",
        "title": "Orwell Collection: Animal Farm and 1984 (Read by Stephen Fry)",
        "link": "magnet:?xt=urn:btih:29BA6CCE4E811C46F747CDC39BA04987E9510D39&dn=Orwell+Collection%3A+Animal+Farm+and+1984+%28Read+by+Stephen+Fry%29&tr=udp%3A%2F%2Ftracker.coppersurfer.tk%3A6969%2Fannounce&tr=udp%3A%2F%2F9.rarbg.to%3A2920%2Fannounce&tr=udp%3A%2F%2Ftracker.opentrackr.org%3A1337&tr=udp%3A%2F%2Ftracker.internetwarriors.net%3A1337%2Fannounce&tr=udp%3A%2F%2Ftracker.leechers-paradise.org%3A6969%2Fannounce&tr=udp%3A%2F%2Ftracker.coppersurfer.tk%3A6969%2Fannounce&tr=udp%3A%2F%2Ftracker.pirateparty.gr%3A6969%2Fannounce&tr=udp%3A%2F%2Ftracker.cyberia.is%3A6969%2Fannounce",
        "seeder": "122",
        "leecher": "3"
    },
    {
        "rank": "31",
        "title": "The Beatles Discography [14 Remastered Stereo Albums / 320kbps]",
        "link": "magnet:?xt=urn:btih:4F967B7263221576D8F8A7E6DA2F87BE7536CC55&dn=The+Beatles+Discography+%5B14+Remastered+Stereo+Albums+%2F+320kbps%5D&tr=udp%3A%2F%2Ftracker.coppersurfer.tk%3A6969%2Fannounce&tr=udp%3A%2F%2F9.rarbg.to%3A2920%2Fannounce&tr=udp%3A%2F%2Ftracker.opentrackr.org%3A1337&tr=udp%3A%2F%2Ftracker.internetwarriors.net%3A1337%2Fannounce&tr=udp%3A%2F%2Ftracker.leechers-paradise.org%3A6969%2Fannounce&tr=udp%3A%2F%2Ftracker.coppersurfer.tk%3A6969%2Fannounce&tr=udp%3A%2F%2Ftracker.pirateparty.gr%3A6969%2Fannounce&tr=udp%3A%2F%2Ftracker.cyberia.is%3A6969%2Fannounce",
        "seeder": "122",
        "leecher": "14"
    },
    {
        "rank": "32",
        "title": "The Beatles - Greatest Hits [Remastered/2009/MP3][Bubanee]",
        "link": "magnet:?xt=urn:btih:0898A4B562C1098EB69B9B801C61A51D788DF0F5&dn=The+Beatles+-+Greatest+Hits+%5BRemastered%2F2009%2FMP3%5D%5BBubanee%5D&tr=udp%3A%2F%2Ftracker.coppersurfer.tk%3A6969%2Fannounce&tr=udp%3A%2F%2F9.rarbg.to%3A2920%2Fannounce&tr=udp%3A%2F%2Ftracker.opentrackr.org%3A1337&tr=udp%3A%2F%2Ftracker.internetwarriors.net%3A1337%2Fannounce&tr=udp%3A%2F%2Ftracker.leechers-paradise.org%3A6969%2Fannounce&tr=udp%3A%2F%2Ftracker.coppersurfer.tk%3A6969%2Fannounce&tr=udp%3A%2F%2Ftracker.pirateparty.gr%3A6969%2Fannounce&tr=udp%3A%2F%2Ftracker.cyberia.is%3A6969%2Fannounce",
        "seeder": "117",
        "leecher": "3"
    },
    {
        "rank": "33",
        "title": "Influence: The Psychology of Persuasion by Rober Cialdini 2014",
        "link": "magnet:?xt=urn:btih:10DB4BDFC10CF0081EB66CE2937A9B728889997C&dn=Influence%3A+The+Psychology+of+Persuasion+by+Rober+Cialdini+2014&tr=udp%3A%2F%2Ftracker.coppersurfer.tk%3A6969%2Fannounce&tr=udp%3A%2F%2F9.rarbg.to%3A2920%2Fannounce&tr=udp%3A%2F%2Ftracker.opentrackr.org%3A1337&tr=udp%3A%2F%2Ftracker.internetwarriors.net%3A1337%2Fannounce&tr=udp%3A%2F%2Ftracker.leechers-paradise.org%3A6969%2Fannounce&tr=udp%3A%2F%2Ftracker.coppersurfer.tk%3A6969%2Fannounce&tr=udp%3A%2F%2Ftracker.pirateparty.gr%3A6969%2Fannounce&tr=udp%3A%2F%2Ftracker.cyberia.is%3A6969%2Fannounce",
        "seeder": "115",
        "leecher": "2"
    },
    {
        "rank": "34",
        "title": "Demi Lovato- Dancing With The Devil The Art of Starting Over MP3",
        "link": "magnet:?xt=urn:btih:3702B482CF82126A352DD393F93B9B699691FA99&dn=Demi+Lovato-+Dancing+With+The+Devil+The+Art+of+Starting+Over+MP3&tr=udp%3A%2F%2Ftracker.coppersurfer.tk%3A6969%2Fannounce&tr=udp%3A%2F%2F9.rarbg.to%3A2920%2Fannounce&tr=udp%3A%2F%2Ftracker.opentrackr.org%3A1337&tr=udp%3A%2F%2Ftracker.internetwarriors.net%3A1337%2Fannounce&tr=udp%3A%2F%2Ftracker.leechers-paradise.org%3A6969%2Fannounce&tr=udp%3A%2F%2Ftracker.coppersurfer.tk%3A6969%2Fannounce&tr=udp%3A%2F%2Ftracker.pirateparty.gr%3A6969%2Fannounce&tr=udp%3A%2F%2Ftracker.cyberia.is%3A6969%2Fannounce",
        "seeder": "114",
        "leecher": "19"
    },
    {
        "rank": "35",
        "title": "Harry Potter Audio Books 1-7; Read by Stephen Fry [MP3]",
        "link": "magnet:?xt=urn:btih:66132602C1981E3E77489086F8AF35B903D0643C&dn=Harry+Potter+Audio+Books+1-7%3B+Read+by+Stephen+Fry+%5BMP3%5D&tr=udp%3A%2F%2Ftracker.coppersurfer.tk%3A6969%2Fannounce&tr=udp%3A%2F%2F9.rarbg.to%3A2920%2Fannounce&tr=udp%3A%2F%2Ftracker.opentrackr.org%3A1337&tr=udp%3A%2F%2Ftracker.internetwarriors.net%3A1337%2Fannounce&tr=udp%3A%2F%2Ftracker.leechers-paradise.org%3A6969%2Fannounce&tr=udp%3A%2F%2Ftracker.coppersurfer.tk%3A6969%2Fannounce&tr=udp%3A%2F%2Ftracker.pirateparty.gr%3A6969%2Fannounce&tr=udp%3A%2F%2Ftracker.cyberia.is%3A6969%2Fannounce",
        "seeder": "113",
        "leecher": "10"
    },
    {
        "rank": "36",
        "title": "Queen Discography @ 320Kbps",
        "link": "magnet:?xt=urn:btih:1A8F9F4C7BD395CDA3DEAEF5AF8D22E31F6379BA&dn=Queen+Discography+%40+320Kbps&tr=udp%3A%2F%2Ftracker.coppersurfer.tk%3A6969%2Fannounce&tr=udp%3A%2F%2F9.rarbg.to%3A2920%2Fannounce&tr=udp%3A%2F%2Ftracker.opentrackr.org%3A1337&tr=udp%3A%2F%2Ftracker.internetwarriors.net%3A1337%2Fannounce&tr=udp%3A%2F%2Ftracker.leechers-paradise.org%3A6969%2Fannounce&tr=udp%3A%2F%2Ftracker.coppersurfer.tk%3A6969%2Fannounce&tr=udp%3A%2F%2Ftracker.pirateparty.gr%3A6969%2Fannounce&tr=udp%3A%2F%2Ftracker.cyberia.is%3A6969%2Fannounce",
        "seeder": "113",
        "leecher": "21"
    },
    {
        "rank": "37",
        "title": "Ariana Grande - positions (2020) Mp3 320kbps [PMEDIA] \u2b50\ufe0f",
        "link": "magnet:?xt=urn:btih:B2AD9087485C3754757FB166013B01C71C862208&dn=Ariana+Grande+-+positions+%282020%29+Mp3+320kbps+%5BPMEDIA%5D+%E2%AD%90%EF%B8%8F&tr=udp%3A%2F%2Ftracker.coppersurfer.tk%3A6969%2Fannounce&tr=udp%3A%2F%2F9.rarbg.to%3A2920%2Fannounce&tr=udp%3A%2F%2Ftracker.opentrackr.org%3A1337&tr=udp%3A%2F%2Ftracker.internetwarriors.net%3A1337%2Fannounce&tr=udp%3A%2F%2Ftracker.leechers-paradise.org%3A6969%2Fannounce&tr=udp%3A%2F%2Ftracker.coppersurfer.tk%3A6969%2Fannounce&tr=udp%3A%2F%2Ftracker.pirateparty.gr%3A6969%2Fannounce&tr=udp%3A%2F%2Ftracker.cyberia.is%3A6969%2Fannounce",
        "seeder": "111",
        "leecher": "6"
    },
    {
        "rank": "38",
        "title": "Eminem - Kamikaze (2018) Mp3 (320kbps) [Hunter]",
        "link": "magnet:?xt=urn:btih:55C3737267AC920ED18ECA2FB1A94DDF18A12397&dn=Eminem+-+Kamikaze+%282018%29+Mp3+%28320kbps%29+%5BHunter%5D&tr=udp%3A%2F%2Ftracker.coppersurfer.tk%3A6969%2Fannounce&tr=udp%3A%2F%2F9.rarbg.to%3A2920%2Fannounce&tr=udp%3A%2F%2Ftracker.opentrackr.org%3A1337&tr=udp%3A%2F%2Ftracker.internetwarriors.net%3A1337%2Fannounce&tr=udp%3A%2F%2Ftracker.leechers-paradise.org%3A6969%2Fannounce&tr=udp%3A%2F%2Ftracker.coppersurfer.tk%3A6969%2Fannounce&tr=udp%3A%2F%2Ftracker.pirateparty.gr%3A6969%2Fannounce&tr=udp%3A%2F%2Ftracker.cyberia.is%3A6969%2Fannounce",
        "seeder": "110",
        "leecher": "3"
    },
    {
        "rank": "39",
        "title": "Pink Floyd - Discography [EAC - FLAC] (oan)",
        "link": "magnet:?xt=urn:btih:6C9826BBED2E8483D8719AF2A905983F2A78D060&dn=Pink+Floyd+-+Discography+%5BEAC+-+FLAC%5D+%28oan%29&tr=udp%3A%2F%2Ftracker.coppersurfer.tk%3A6969%2Fannounce&tr=udp%3A%2F%2F9.rarbg.to%3A2920%2Fannounce&tr=udp%3A%2F%2Ftracker.opentrackr.org%3A1337&tr=udp%3A%2F%2Ftracker.internetwarriors.net%3A1337%2Fannounce&tr=udp%3A%2F%2Ftracker.leechers-paradise.org%3A6969%2Fannounce&tr=udp%3A%2F%2Ftracker.coppersurfer.tk%3A6969%2Fannounce&tr=udp%3A%2F%2Ftracker.pirateparty.gr%3A6969%2Fannounce&tr=udp%3A%2F%2Ftracker.cyberia.is%3A6969%2Fannounce",
        "seeder": "110",
        "leecher": "20"
    },
    {
        "rank": "40",
        "title": "Drake - Scorpion (2018) Mp3 (320kbps) [Hunter]",
        "link": "magnet:?xt=urn:btih:03DFEAEC1BF8FFA1B82522E9264C5288225B2CD0&dn=Drake+-+Scorpion+%282018%29+Mp3+%28320kbps%29+%5BHunter%5D&tr=udp%3A%2F%2Ftracker.coppersurfer.tk%3A6969%2Fannounce&tr=udp%3A%2F%2F9.rarbg.to%3A2920%2Fannounce&tr=udp%3A%2F%2Ftracker.opentrackr.org%3A1337&tr=udp%3A%2F%2Ftracker.internetwarriors.net%3A1337%2Fannounce&tr=udp%3A%2F%2Ftracker.leechers-paradise.org%3A6969%2Fannounce&tr=udp%3A%2F%2Ftracker.coppersurfer.tk%3A6969%2Fannounce&tr=udp%3A%2F%2Ftracker.pirateparty.gr%3A6969%2Fannounce&tr=udp%3A%2F%2Ftracker.cyberia.is%3A6969%2Fannounce",
        "seeder": "107",
        "leecher": "6"
    },
    {
        "rank": "41",
        "title": "Billboard Greatest Of All Time Pop Songs Mp3",
        "link": "magnet:?xt=urn:btih:B7D676EDDC912F84BA55D6114945BF18379C3274&dn=Billboard+Greatest+Of+All+Time+Pop+Songs+Mp3&tr=udp%3A%2F%2Ftracker.coppersurfer.tk%3A6969%2Fannounce&tr=udp%3A%2F%2F9.rarbg.to%3A2920%2Fannounce&tr=udp%3A%2F%2Ftracker.opentrackr.org%3A1337&tr=udp%3A%2F%2Ftracker.internetwarriors.net%3A1337%2Fannounce&tr=udp%3A%2F%2Ftracker.leechers-paradise.org%3A6969%2Fannounce&tr=udp%3A%2F%2Ftracker.coppersurfer.tk%3A6969%2Fannounce&tr=udp%3A%2F%2Ftracker.pirateparty.gr%3A6969%2Fannounce&tr=udp%3A%2F%2Ftracker.cyberia.is%3A6969%2Fannounce",
        "seeder": "106",
        "leecher": "8"
    },
    {
        "rank": "42",
        "title": "VA - Jukebox Hits Of Gold (3CD) (2021) Mp3 320kbps [PMEDIA] \u2b50\ufe0f",
        "link": "magnet:?xt=urn:btih:5217B0F7D6118585171B79D59726A422D97CE99A&dn=VA+-+Jukebox+Hits+Of+Gold+%283CD%29+%282021%29+Mp3+320kbps+%5BPMEDIA%5D+%E2%AD%90%EF%B8%8F&tr=udp%3A%2F%2Ftracker.coppersurfer.tk%3A6969%2Fannounce&tr=udp%3A%2F%2F9.rarbg.to%3A2920%2Fannounce&tr=udp%3A%2F%2Ftracker.opentrackr.org%3A1337&tr=udp%3A%2F%2Ftracker.internetwarriors.net%3A1337%2Fannounce&tr=udp%3A%2F%2Ftracker.leechers-paradise.org%3A6969%2Fannounce&tr=udp%3A%2F%2Ftracker.coppersurfer.tk%3A6969%2Fannounce&tr=udp%3A%2F%2Ftracker.pirateparty.gr%3A6969%2Fannounce&tr=udp%3A%2F%2Ftracker.cyberia.is%3A6969%2Fannounce",
        "seeder": "105",
        "leecher": "6"
    },
    {
        "rank": "43",
        "title": "Classic Soul - The Absolutely Essential Collection (3CD) (2021)",
        "link": "magnet:?xt=urn:btih:D51FD5007C80D90F17A1DECE89D91F5382D8C641&dn=Classic+Soul+-+The+Absolutely+Essential+Collection+%283CD%29+%282021%29&tr=udp%3A%2F%2Ftracker.coppersurfer.tk%3A6969%2Fannounce&tr=udp%3A%2F%2F9.rarbg.to%3A2920%2Fannounce&tr=udp%3A%2F%2Ftracker.opentrackr.org%3A1337&tr=udp%3A%2F%2Ftracker.internetwarriors.net%3A1337%2Fannounce&tr=udp%3A%2F%2Ftracker.leechers-paradise.org%3A6969%2Fannounce&tr=udp%3A%2F%2Ftracker.coppersurfer.tk%3A6969%2Fannounce&tr=udp%3A%2F%2Ftracker.pirateparty.gr%3A6969%2Fannounce&tr=udp%3A%2F%2Ftracker.cyberia.is%3A6969%2Fannounce",
        "seeder": "103",
        "leecher": "4"
    },
    {
        "rank": "44",
        "title": "Metallica - Discography 1983-2008 (19 Albums, 23 CDs)",
        "link": "magnet:?xt=urn:btih:24147293EBCCA6C1A76C7FA23E89A0B55DB312D8&dn=Metallica+-+Discography+1983-2008+%2819+Albums%2C+23+CDs%29&tr=udp%3A%2F%2Ftracker.coppersurfer.tk%3A6969%2Fannounce&tr=udp%3A%2F%2F9.rarbg.to%3A2920%2Fannounce&tr=udp%3A%2F%2Ftracker.opentrackr.org%3A1337&tr=udp%3A%2F%2Ftracker.internetwarriors.net%3A1337%2Fannounce&tr=udp%3A%2F%2Ftracker.leechers-paradise.org%3A6969%2Fannounce&tr=udp%3A%2F%2Ftracker.coppersurfer.tk%3A6969%2Fannounce&tr=udp%3A%2F%2Ftracker.pirateparty.gr%3A6969%2Fannounce&tr=udp%3A%2F%2Ftracker.cyberia.is%3A6969%2Fannounce",
        "seeder": "103",
        "leecher": "16"
    },
    {
        "rank": "45",
        "title": "Queen - The Ultimate Best Of Queen (2011) [mp3]",
        "link": "magnet:?xt=urn:btih:1DD2F41189131D71120434E9C454C868707ADA3A&dn=Queen+-+The+Ultimate+Best+Of+Queen+%282011%29+%5Bmp3%5D&tr=udp%3A%2F%2Ftracker.coppersurfer.tk%3A6969%2Fannounce&tr=udp%3A%2F%2F9.rarbg.to%3A2920%2Fannounce&tr=udp%3A%2F%2Ftracker.opentrackr.org%3A1337&tr=udp%3A%2F%2Ftracker.internetwarriors.net%3A1337%2Fannounce&tr=udp%3A%2F%2Ftracker.leechers-paradise.org%3A6969%2Fannounce&tr=udp%3A%2F%2Ftracker.coppersurfer.tk%3A6969%2Fannounce&tr=udp%3A%2F%2Ftracker.pirateparty.gr%3A6969%2Fannounce&tr=udp%3A%2F%2Ftracker.cyberia.is%3A6969%2Fannounce",
        "seeder": "102",
        "leecher": "4"
    },
    {
        "rank": "46",
        "title": "The Official UK Top 100 Singles Chart (19.03.2021) Mp3 320kbps",
        "link": "magnet:?xt=urn:btih:AC3E76CAC7024616540414032A34CF5C69F492FB&dn=The+Official+UK+Top+100+Singles+Chart+%2819.03.2021%29+Mp3+320kbps&tr=udp%3A%2F%2Ftracker.coppersurfer.tk%3A6969%2Fannounce&tr=udp%3A%2F%2F9.rarbg.to%3A2920%2Fannounce&tr=udp%3A%2F%2Ftracker.opentrackr.org%3A1337&tr=udp%3A%2F%2Ftracker.internetwarriors.net%3A1337%2Fannounce&tr=udp%3A%2F%2Ftracker.leechers-paradise.org%3A6969%2Fannounce&tr=udp%3A%2F%2Ftracker.coppersurfer.tk%3A6969%2Fannounce&tr=udp%3A%2F%2Ftracker.pirateparty.gr%3A6969%2Fannounce&tr=udp%3A%2F%2Ftracker.cyberia.is%3A6969%2Fannounce",
        "seeder": "101",
        "leecher": "10"
    },
    {
        "rank": "47",
        "title": "Talking to Strangers - What We Should Know About the People We D",
        "link": "magnet:?xt=urn:btih:017521ECB67BBA19CE5C5C82238D3B93CC6FEA90&dn=Talking+to+Strangers+-+What+We+Should+Know+About+the+People+We+D&tr=udp%3A%2F%2Ftracker.coppersurfer.tk%3A6969%2Fannounce&tr=udp%3A%2F%2F9.rarbg.to%3A2920%2Fannounce&tr=udp%3A%2F%2Ftracker.opentrackr.org%3A1337&tr=udp%3A%2F%2Ftracker.internetwarriors.net%3A1337%2Fannounce&tr=udp%3A%2F%2Ftracker.leechers-paradise.org%3A6969%2Fannounce&tr=udp%3A%2F%2Ftracker.coppersurfer.tk%3A6969%2Fannounce&tr=udp%3A%2F%2Ftracker.pirateparty.gr%3A6969%2Fannounce&tr=udp%3A%2F%2Ftracker.cyberia.is%3A6969%2Fannounce",
        "seeder": "101",
        "leecher": "2"
    },
    {
        "rank": "48",
        "title": "Billboard Hot 100 Singles Chart (06-March-2021) Mp3 320kbps",
        "link": "magnet:?xt=urn:btih:EDE17E3F1F631FB83958BECCEC31C4E78D0EE282&dn=Billboard+Hot+100+Singles+Chart+%2806-March-2021%29+Mp3+320kbps&tr=udp%3A%2F%2Ftracker.coppersurfer.tk%3A6969%2Fannounce&tr=udp%3A%2F%2F9.rarbg.to%3A2920%2Fannounce&tr=udp%3A%2F%2Ftracker.opentrackr.org%3A1337&tr=udp%3A%2F%2Ftracker.internetwarriors.net%3A1337%2Fannounce&tr=udp%3A%2F%2Ftracker.leechers-paradise.org%3A6969%2Fannounce&tr=udp%3A%2F%2Ftracker.coppersurfer.tk%3A6969%2Fannounce&tr=udp%3A%2F%2Ftracker.pirateparty.gr%3A6969%2Fannounce&tr=udp%3A%2F%2Ftracker.cyberia.is%3A6969%2Fannounce",
        "seeder": "100",
        "leecher": "7"
    },
    {
        "rank": "49",
        "title": "MICHAEL JACKSON GREATEST HITS [R.I.P.][Bubanee]",
        "link": "magnet:?xt=urn:btih:ABDAC3706DC99134DEFEBF3ACA1659403B1DD517&dn=MICHAEL+JACKSON+GREATEST+HITS+%5BR.I.P.%5D%5BBubanee%5D&tr=udp%3A%2F%2Ftracker.coppersurfer.tk%3A6969%2Fannounce&tr=udp%3A%2F%2F9.rarbg.to%3A2920%2Fannounce&tr=udp%3A%2F%2Ftracker.opentrackr.org%3A1337&tr=udp%3A%2F%2Ftracker.internetwarriors.net%3A1337%2Fannounce&tr=udp%3A%2F%2Ftracker.leechers-paradise.org%3A6969%2Fannounce&tr=udp%3A%2F%2Ftracker.coppersurfer.tk%3A6969%2Fannounce&tr=udp%3A%2F%2Ftracker.pirateparty.gr%3A6969%2Fannounce&tr=udp%3A%2F%2Ftracker.cyberia.is%3A6969%2Fannounce",
        "seeder": "99",
        "leecher": "1"
    },
    {
        "rank": "50",
        "title": "New Music Releases Week 12 of 2021 (Mp3 320kbps Songs)",
        "link": "magnet:?xt=urn:btih:081BE01F4ECA0A481A493BBB411FE988C78B7599&dn=New+Music+Releases+Week+12+of+2021+%28Mp3+320kbps+Songs%29&tr=udp%3A%2F%2Ftracker.coppersurfer.tk%3A6969%2Fannounce&tr=udp%3A%2F%2F9.rarbg.to%3A2920%2Fannounce&tr=udp%3A%2F%2Ftracker.opentrackr.org%3A1337&tr=udp%3A%2F%2Ftracker.internetwarriors.net%3A1337%2Fannounce&tr=udp%3A%2F%2Ftracker.leechers-paradise.org%3A6969%2Fannounce&tr=udp%3A%2F%2Ftracker.coppersurfer.tk%3A6969%2Fannounce&tr=udp%3A%2F%2Ftracker.pirateparty.gr%3A6969%2Fannounce&tr=udp%3A%2F%2Ftracker.cyberia.is%3A6969%2Fannounce",
        "seeder": "98",
        "leecher": "16"
    },
    {
        "rank": "51",
        "title": "Best of Pop 2020 (Mp3 320kbps) [PMEDIA] \u2b50\ufe0f",
        "link": "magnet:?xt=urn:btih:5999DE0BD05A7F34DA371ED29B0283D1EABB1BD8&dn=Best+of+Pop+2020+%28Mp3+320kbps%29+%5BPMEDIA%5D+%E2%AD%90%EF%B8%8F&tr=udp%3A%2F%2Ftracker.coppersurfer.tk%3A6969%2Fannounce&tr=udp%3A%2F%2F9.rarbg.to%3A2920%2Fannounce&tr=udp%3A%2F%2Ftracker.opentrackr.org%3A1337&tr=udp%3A%2F%2Ftracker.internetwarriors.net%3A1337%2Fannounce&tr=udp%3A%2F%2Ftracker.leechers-paradise.org%3A6969%2Fannounce&tr=udp%3A%2F%2Ftracker.coppersurfer.tk%3A6969%2Fannounce&tr=udp%3A%2F%2Ftracker.pirateparty.gr%3A6969%2Fannounce&tr=udp%3A%2F%2Ftracker.cyberia.is%3A6969%2Fannounce",
        "seeder": "98",
        "leecher": "3"
    },
    {
        "rank": "52",
        "title": "VA - The Best Love Songs Album In The World Ever (2021) Mp3 320k",
        "link": "magnet:?xt=urn:btih:F52EE6EA7A52963D01DA4E67527B83DC0B392205&dn=VA+-+The+Best+Love+Songs+Album+In+The+World+Ever+%282021%29+Mp3+320k&tr=udp%3A%2F%2Ftracker.coppersurfer.tk%3A6969%2Fannounce&tr=udp%3A%2F%2F9.rarbg.to%3A2920%2Fannounce&tr=udp%3A%2F%2Ftracker.opentrackr.org%3A1337&tr=udp%3A%2F%2Ftracker.internetwarriors.net%3A1337%2Fannounce&tr=udp%3A%2F%2Ftracker.leechers-paradise.org%3A6969%2Fannounce&tr=udp%3A%2F%2Ftracker.coppersurfer.tk%3A6969%2Fannounce&tr=udp%3A%2F%2Ftracker.pirateparty.gr%3A6969%2Fannounce&tr=udp%3A%2F%2Ftracker.cyberia.is%3A6969%2Fannounce",
        "seeder": "96",
        "leecher": "7"
    },
    {
        "rank": "53",
        "title": "The Weeknd - After Hours (2020) Mp3 320kbps [PMEDIA] \u2b50\ufe0f",
        "link": "magnet:?xt=urn:btih:9131781D82AEDB5594AF6F92EB5175814B2A4DE3&dn=The+Weeknd+-+After+Hours+%282020%29+Mp3+320kbps+%5BPMEDIA%5D+%E2%AD%90%EF%B8%8F&tr=udp%3A%2F%2Ftracker.coppersurfer.tk%3A6969%2Fannounce&tr=udp%3A%2F%2F9.rarbg.to%3A2920%2Fannounce&tr=udp%3A%2F%2Ftracker.opentrackr.org%3A1337&tr=udp%3A%2F%2Ftracker.internetwarriors.net%3A1337%2Fannounce&tr=udp%3A%2F%2Ftracker.leechers-paradise.org%3A6969%2Fannounce&tr=udp%3A%2F%2Ftracker.coppersurfer.tk%3A6969%2Fannounce&tr=udp%3A%2F%2Ftracker.pirateparty.gr%3A6969%2Fannounce&tr=udp%3A%2F%2Ftracker.cyberia.is%3A6969%2Fannounce",
        "seeder": "96",
        "leecher": "8"
    },
    {
        "rank": "54",
        "title": "Nas - King's Disease (2020) Mp3 (320kbps) [Hunter]",
        "link": "magnet:?xt=urn:btih:01E85D3D689F875CC6FF22393E5513FA86D76B7B&dn=Nas+-+King%27s+Disease+%282020%29+Mp3+%28320kbps%29+%5BHunter%5D&tr=udp%3A%2F%2Ftracker.coppersurfer.tk%3A6969%2Fannounce&tr=udp%3A%2F%2F9.rarbg.to%3A2920%2Fannounce&tr=udp%3A%2F%2Ftracker.opentrackr.org%3A1337&tr=udp%3A%2F%2Ftracker.internetwarriors.net%3A1337%2Fannounce&tr=udp%3A%2F%2Ftracker.leechers-paradise.org%3A6969%2Fannounce&tr=udp%3A%2F%2Ftracker.coppersurfer.tk%3A6969%2Fannounce&tr=udp%3A%2F%2Ftracker.pirateparty.gr%3A6969%2Fannounce&tr=udp%3A%2F%2Ftracker.cyberia.is%3A6969%2Fannounce",
        "seeder": "96",
        "leecher": "6"
    },
    {
        "rank": "55",
        "title": "The Official UK Top 100 Singles Chart (12.03.2021) Mp3",
        "link": "magnet:?xt=urn:btih:76CF79FDDBB511CBBB2F36E53F5B90E509CCC30A&dn=The+Official+UK+Top+100+Singles+Chart+%2812.03.2021%29+Mp3&tr=udp%3A%2F%2Ftracker.coppersurfer.tk%3A6969%2Fannounce&tr=udp%3A%2F%2F9.rarbg.to%3A2920%2Fannounce&tr=udp%3A%2F%2Ftracker.opentrackr.org%3A1337&tr=udp%3A%2F%2Ftracker.internetwarriors.net%3A1337%2Fannounce&tr=udp%3A%2F%2Ftracker.leechers-paradise.org%3A6969%2Fannounce&tr=udp%3A%2F%2Ftracker.coppersurfer.tk%3A6969%2Fannounce&tr=udp%3A%2F%2Ftracker.pirateparty.gr%3A6969%2Fannounce&tr=udp%3A%2F%2Ftracker.cyberia.is%3A6969%2Fannounce",
        "seeder": "95",
        "leecher": "9"
    },
    {
        "rank": "56",
        "title": "Lady Gaga - Chromatica (2020) Mp3 (320kbps) [Hunter]",
        "link": "magnet:?xt=urn:btih:FC8BC83DAEA6D95DE1C33F366734A0952780D682&dn=Lady+Gaga+-+Chromatica+%282020%29+Mp3+%28320kbps%29+%5BHunter%5D&tr=udp%3A%2F%2Ftracker.coppersurfer.tk%3A6969%2Fannounce&tr=udp%3A%2F%2F9.rarbg.to%3A2920%2Fannounce&tr=udp%3A%2F%2Ftracker.opentrackr.org%3A1337&tr=udp%3A%2F%2Ftracker.internetwarriors.net%3A1337%2Fannounce&tr=udp%3A%2F%2Ftracker.leechers-paradise.org%3A6969%2Fannounce&tr=udp%3A%2F%2Ftracker.coppersurfer.tk%3A6969%2Fannounce&tr=udp%3A%2F%2Ftracker.pirateparty.gr%3A6969%2Fannounce&tr=udp%3A%2F%2Ftracker.cyberia.is%3A6969%2Fannounce",
        "seeder": "95",
        "leecher": "1"
    },
    {
        "rank": "57",
        "title": "The Killers - Imploding The Mirage (2020) Mp3 320kbps",
        "link": "magnet:?xt=urn:btih:25045DA43827C0F7A10F41E939976F27B9C99F24&dn=The+Killers+-+Imploding+The+Mirage+%282020%29+Mp3+320kbps&tr=udp%3A%2F%2Ftracker.coppersurfer.tk%3A6969%2Fannounce&tr=udp%3A%2F%2F9.rarbg.to%3A2920%2Fannounce&tr=udp%3A%2F%2Ftracker.opentrackr.org%3A1337&tr=udp%3A%2F%2Ftracker.internetwarriors.net%3A1337%2Fannounce&tr=udp%3A%2F%2Ftracker.leechers-paradise.org%3A6969%2Fannounce&tr=udp%3A%2F%2Ftracker.coppersurfer.tk%3A6969%2Fannounce&tr=udp%3A%2F%2Ftracker.pirateparty.gr%3A6969%2Fannounce&tr=udp%3A%2F%2Ftracker.cyberia.is%3A6969%2Fannounce",
        "seeder": "93",
        "leecher": "1"
    },
    {
        "rank": "58",
        "title": "Post Malone - Hollywood's Bleeding (2019) Mp3 (320kbps) [Hunter]",
        "link": "magnet:?xt=urn:btih:0A10EDB6EB88FAC8A6933A2DEA53D8104CA81DCA&dn=Post+Malone+-+Hollywood%27s+Bleeding+%282019%29+Mp3+%28320kbps%29+%5BHunter%5D&tr=udp%3A%2F%2Ftracker.coppersurfer.tk%3A6969%2Fannounce&tr=udp%3A%2F%2F9.rarbg.to%3A2920%2Fannounce&tr=udp%3A%2F%2Ftracker.opentrackr.org%3A1337&tr=udp%3A%2F%2Ftracker.internetwarriors.net%3A1337%2Fannounce&tr=udp%3A%2F%2Ftracker.leechers-paradise.org%3A6969%2Fannounce&tr=udp%3A%2F%2Ftracker.coppersurfer.tk%3A6969%2Fannounce&tr=udp%3A%2F%2Ftracker.pirateparty.gr%3A6969%2Fannounce&tr=udp%3A%2F%2Ftracker.cyberia.is%3A6969%2Fannounce",
        "seeder": "92",
        "leecher": "3"
    },
    {
        "rank": "59",
        "title": "VA - Platinum Rock (3CD) (2020) Mp3 320kbps",
        "link": "magnet:?xt=urn:btih:F8EE527D586B9925170506FC9149E34683F16930&dn=VA+-+Platinum+Rock+%283CD%29+%282020%29+Mp3+320kbps&tr=udp%3A%2F%2Ftracker.coppersurfer.tk%3A6969%2Fannounce&tr=udp%3A%2F%2F9.rarbg.to%3A2920%2Fannounce&tr=udp%3A%2F%2Ftracker.opentrackr.org%3A1337&tr=udp%3A%2F%2Ftracker.internetwarriors.net%3A1337%2Fannounce&tr=udp%3A%2F%2Ftracker.leechers-paradise.org%3A6969%2Fannounce&tr=udp%3A%2F%2Ftracker.coppersurfer.tk%3A6969%2Fannounce&tr=udp%3A%2F%2Ftracker.pirateparty.gr%3A6969%2Fannounce&tr=udp%3A%2F%2Ftracker.cyberia.is%3A6969%2Fannounce",
        "seeder": "90",
        "leecher": "5"
    },
    {
        "rank": "60",
        "title": "TOOL - Fear Inoculum (Deluxe) (2019) Mp3 (320kbps) [Hunter]",
        "link": "magnet:?xt=urn:btih:3D18AA83A63A2571F602E929C8387F1D58F75A8E&dn=TOOL+-+Fear+Inoculum+%28Deluxe%29+%282019%29+Mp3+%28320kbps%29+%5BHunter%5D&tr=udp%3A%2F%2Ftracker.coppersurfer.tk%3A6969%2Fannounce&tr=udp%3A%2F%2F9.rarbg.to%3A2920%2Fannounce&tr=udp%3A%2F%2Ftracker.opentrackr.org%3A1337&tr=udp%3A%2F%2Ftracker.internetwarriors.net%3A1337%2Fannounce&tr=udp%3A%2F%2Ftracker.leechers-paradise.org%3A6969%2Fannounce&tr=udp%3A%2F%2Ftracker.coppersurfer.tk%3A6969%2Fannounce&tr=udp%3A%2F%2Ftracker.pirateparty.gr%3A6969%2Fannounce&tr=udp%3A%2F%2Ftracker.cyberia.is%3A6969%2Fannounce",
        "seeder": "89",
        "leecher": "0"
    },
    {
        "rank": "61",
        "title": "Greenlights - Matthew McConaughey",
        "link": "magnet:?xt=urn:btih:73A567FDFF4DCB4909653A98FFD3F1C9C79CA587&dn=Greenlights+-+Matthew+McConaughey&tr=udp%3A%2F%2Ftracker.coppersurfer.tk%3A6969%2Fannounce&tr=udp%3A%2F%2F9.rarbg.to%3A2920%2Fannounce&tr=udp%3A%2F%2Ftracker.opentrackr.org%3A1337&tr=udp%3A%2F%2Ftracker.internetwarriors.net%3A1337%2Fannounce&tr=udp%3A%2F%2Ftracker.leechers-paradise.org%3A6969%2Fannounce&tr=udp%3A%2F%2Ftracker.coppersurfer.tk%3A6969%2Fannounce&tr=udp%3A%2F%2Ftracker.pirateparty.gr%3A6969%2Fannounce&tr=udp%3A%2F%2Ftracker.cyberia.is%3A6969%2Fannounce",
        "seeder": "88",
        "leecher": "0"
    },
    {
        "rank": "62",
        "title": "The Five Elements of Effective Thinking [Audiobook]",
        "link": "magnet:?xt=urn:btih:DEF25B0F2B6B6AB6F27F14FDC83B077291A7516E&dn=The+Five+Elements+of+Effective+Thinking+%5BAudiobook%5D&tr=udp%3A%2F%2Ftracker.coppersurfer.tk%3A6969%2Fannounce&tr=udp%3A%2F%2F9.rarbg.to%3A2920%2Fannounce&tr=udp%3A%2F%2Ftracker.opentrackr.org%3A1337&tr=udp%3A%2F%2Ftracker.internetwarriors.net%3A1337%2Fannounce&tr=udp%3A%2F%2Ftracker.leechers-paradise.org%3A6969%2Fannounce&tr=udp%3A%2F%2Ftracker.coppersurfer.tk%3A6969%2Fannounce&tr=udp%3A%2F%2Ftracker.pirateparty.gr%3A6969%2Fannounce&tr=udp%3A%2F%2Ftracker.cyberia.is%3A6969%2Fannounce",
        "seeder": "88",
        "leecher": "0"
    },
    {
        "rank": "63",
        "title": "Abba - Greatest Songs (2018) Mp3 (320kbps) [Hunter]",
        "link": "magnet:?xt=urn:btih:421AF392532E263950FF09234997AC1ED1A0FBBF&dn=Abba+-+Greatest+Songs+%282018%29+Mp3+%28320kbps%29+%5BHunter%5D&tr=udp%3A%2F%2Ftracker.coppersurfer.tk%3A6969%2Fannounce&tr=udp%3A%2F%2F9.rarbg.to%3A2920%2Fannounce&tr=udp%3A%2F%2Ftracker.opentrackr.org%3A1337&tr=udp%3A%2F%2Ftracker.internetwarriors.net%3A1337%2Fannounce&tr=udp%3A%2F%2Ftracker.leechers-paradise.org%3A6969%2Fannounce&tr=udp%3A%2F%2Ftracker.coppersurfer.tk%3A6969%2Fannounce&tr=udp%3A%2F%2Ftracker.pirateparty.gr%3A6969%2Fannounce&tr=udp%3A%2F%2Ftracker.cyberia.is%3A6969%2Fannounce",
        "seeder": "86",
        "leecher": "3"
    },
    {
        "rank": "64",
        "title": "Travis Scott - ASTROWORLD (2018) Mp3 (320kbps) [Hunter]",
        "link": "magnet:?xt=urn:btih:89A925E3B8CE2CEBF76747ED0A8AF82DC2EBF54D&dn=Travis+Scott+-+ASTROWORLD+%282018%29+Mp3+%28320kbps%29+%5BHunter%5D&tr=udp%3A%2F%2Ftracker.coppersurfer.tk%3A6969%2Fannounce&tr=udp%3A%2F%2F9.rarbg.to%3A2920%2Fannounce&tr=udp%3A%2F%2Ftracker.opentrackr.org%3A1337&tr=udp%3A%2F%2Ftracker.internetwarriors.net%3A1337%2Fannounce&tr=udp%3A%2F%2Ftracker.leechers-paradise.org%3A6969%2Fannounce&tr=udp%3A%2F%2Ftracker.coppersurfer.tk%3A6969%2Fannounce&tr=udp%3A%2F%2Ftracker.pirateparty.gr%3A6969%2Fannounce&tr=udp%3A%2F%2Ftracker.cyberia.is%3A6969%2Fannounce",
        "seeder": "86",
        "leecher": "3"
    },
    {
        "rank": "65",
        "title": "The Pretty Reckless - Death By Rock And Roll (2021) Mp3 320kbps",
        "link": "magnet:?xt=urn:btih:9269E10EF0FB3D4F0D5029DBEB646441F1F38FF0&dn=The+Pretty+Reckless+-+Death+By+Rock+And+Roll+%282021%29+Mp3+320kbps&tr=udp%3A%2F%2Ftracker.coppersurfer.tk%3A6969%2Fannounce&tr=udp%3A%2F%2F9.rarbg.to%3A2920%2Fannounce&tr=udp%3A%2F%2Ftracker.opentrackr.org%3A1337&tr=udp%3A%2F%2Ftracker.internetwarriors.net%3A1337%2Fannounce&tr=udp%3A%2F%2Ftracker.leechers-paradise.org%3A6969%2Fannounce&tr=udp%3A%2F%2Ftracker.coppersurfer.tk%3A6969%2Fannounce&tr=udp%3A%2F%2Ftracker.pirateparty.gr%3A6969%2Fannounce&tr=udp%3A%2F%2Ftracker.cyberia.is%3A6969%2Fannounce",
        "seeder": "85",
        "leecher": "2"
    },
    {
        "rank": "66",
        "title": "The Sandman - Neil Gaiman, Dirk Maggs 2020",
        "link": "magnet:?xt=urn:btih:D37D1D1FA69AFC98A1944C77F0D584D6227897D8&dn=The+Sandman+-+Neil+Gaiman%2C+Dirk+Maggs+2020&tr=udp%3A%2F%2Ftracker.coppersurfer.tk%3A6969%2Fannounce&tr=udp%3A%2F%2F9.rarbg.to%3A2920%2Fannounce&tr=udp%3A%2F%2Ftracker.opentrackr.org%3A1337&tr=udp%3A%2F%2Ftracker.internetwarriors.net%3A1337%2Fannounce&tr=udp%3A%2F%2Ftracker.leechers-paradise.org%3A6969%2Fannounce&tr=udp%3A%2F%2Ftracker.coppersurfer.tk%3A6969%2Fannounce&tr=udp%3A%2F%2Ftracker.pirateparty.gr%3A6969%2Fannounce&tr=udp%3A%2F%2Ftracker.cyberia.is%3A6969%2Fannounce",
        "seeder": "85",
        "leecher": "3"
    },
    {
        "rank": "67",
        "title": "Alice Cooper - Detroit Stories (2021)",
        "link": "magnet:?xt=urn:btih:6D6405A7D496479E3600EBFE83494920E508B26E&dn=Alice+Cooper+-+Detroit+Stories+%282021%29&tr=udp%3A%2F%2Ftracker.coppersurfer.tk%3A6969%2Fannounce&tr=udp%3A%2F%2F9.rarbg.to%3A2920%2Fannounce&tr=udp%3A%2F%2Ftracker.opentrackr.org%3A1337&tr=udp%3A%2F%2Ftracker.internetwarriors.net%3A1337%2Fannounce&tr=udp%3A%2F%2Ftracker.leechers-paradise.org%3A6969%2Fannounce&tr=udp%3A%2F%2Ftracker.coppersurfer.tk%3A6969%2Fannounce&tr=udp%3A%2F%2Ftracker.pirateparty.gr%3A6969%2Fannounce&tr=udp%3A%2F%2Ftracker.cyberia.is%3A6969%2Fannounce",
        "seeder": "84",
        "leecher": "2"
    },
    {
        "rank": "68",
        "title": "Blockchain: The Complete Guide to Uncovering Bitcoin, Cryptocurr",
        "link": "magnet:?xt=urn:btih:AF28B94D125DAE652E0F769C0B8009A6F9675511&dn=Blockchain%3A+The+Complete+Guide+to+Uncovering+Bitcoin%2C+Cryptocurr&tr=udp%3A%2F%2Ftracker.coppersurfer.tk%3A6969%2Fannounce&tr=udp%3A%2F%2F9.rarbg.to%3A2920%2Fannounce&tr=udp%3A%2F%2Ftracker.opentrackr.org%3A1337&tr=udp%3A%2F%2Ftracker.internetwarriors.net%3A1337%2Fannounce&tr=udp%3A%2F%2Ftracker.leechers-paradise.org%3A6969%2Fannounce&tr=udp%3A%2F%2Ftracker.coppersurfer.tk%3A6969%2Fannounce&tr=udp%3A%2F%2Ftracker.pirateparty.gr%3A6969%2Fannounce&tr=udp%3A%2F%2Ftracker.cyberia.is%3A6969%2Fannounce",
        "seeder": "84",
        "leecher": "3"
    },
    {
        "rank": "69",
        "title": "Dune - Audiobook Collection 2015",
        "link": "magnet:?xt=urn:btih:F4425771C01F25A7BB940E8E3027E0881C4A5212&dn=Dune+-+Audiobook+Collection+2015&tr=udp%3A%2F%2Ftracker.coppersurfer.tk%3A6969%2Fannounce&tr=udp%3A%2F%2F9.rarbg.to%3A2920%2Fannounce&tr=udp%3A%2F%2Ftracker.opentrackr.org%3A1337&tr=udp%3A%2F%2Ftracker.internetwarriors.net%3A1337%2Fannounce&tr=udp%3A%2F%2Ftracker.leechers-paradise.org%3A6969%2Fannounce&tr=udp%3A%2F%2Ftracker.coppersurfer.tk%3A6969%2Fannounce&tr=udp%3A%2F%2Ftracker.pirateparty.gr%3A6969%2Fannounce&tr=udp%3A%2F%2Ftracker.cyberia.is%3A6969%2Fannounce",
        "seeder": "84",
        "leecher": "22"
    },
    {
        "rank": "70",
        "title": "Billboard Hot 100 Singles Chart (09-January-2021) Mp3 320kbps",
        "link": "magnet:?xt=urn:btih:442671C594093715081DABE179B3F64A1A059AA6&dn=Billboard+Hot+100+Singles+Chart+%2809-January-2021%29+Mp3+320kbps&tr=udp%3A%2F%2Ftracker.coppersurfer.tk%3A6969%2Fannounce&tr=udp%3A%2F%2F9.rarbg.to%3A2920%2Fannounce&tr=udp%3A%2F%2Ftracker.opentrackr.org%3A1337&tr=udp%3A%2F%2Ftracker.internetwarriors.net%3A1337%2Fannounce&tr=udp%3A%2F%2Ftracker.leechers-paradise.org%3A6969%2Fannounce&tr=udp%3A%2F%2Ftracker.coppersurfer.tk%3A6969%2Fannounce&tr=udp%3A%2F%2Ftracker.pirateparty.gr%3A6969%2Fannounce&tr=udp%3A%2F%2Ftracker.cyberia.is%3A6969%2Fannounce",
        "seeder": "83",
        "leecher": "4"
    },
    {
        "rank": "71",
        "title": "Critical Thinking: How to Effectively Reason, Understand Irratio",
        "link": "magnet:?xt=urn:btih:847E2604C3601292D63427DA45F29E24116126D9&dn=Critical+Thinking%3A+How+to+Effectively+Reason%2C+Understand+Irratio&tr=udp%3A%2F%2Ftracker.coppersurfer.tk%3A6969%2Fannounce&tr=udp%3A%2F%2F9.rarbg.to%3A2920%2Fannounce&tr=udp%3A%2F%2Ftracker.opentrackr.org%3A1337&tr=udp%3A%2F%2Ftracker.internetwarriors.net%3A1337%2Fannounce&tr=udp%3A%2F%2Ftracker.leechers-paradise.org%3A6969%2Fannounce&tr=udp%3A%2F%2Ftracker.coppersurfer.tk%3A6969%2Fannounce&tr=udp%3A%2F%2Ftracker.pirateparty.gr%3A6969%2Fannounce&tr=udp%3A%2F%2Ftracker.cyberia.is%3A6969%2Fannounce",
        "seeder": "83",
        "leecher": "1"
    },
    {
        "rank": "72",
        "title": "Dua Lipa - Dua Lipa (Complete Edition) (2018) Mp3 (320kbps)",
        "link": "magnet:?xt=urn:btih:E9B773ACFA0C4CE28031C28A092927741D974832&dn=Dua+Lipa+-+Dua+Lipa+%28Complete+Edition%29+%282018%29+Mp3+%28320kbps%29&tr=udp%3A%2F%2Ftracker.coppersurfer.tk%3A6969%2Fannounce&tr=udp%3A%2F%2F9.rarbg.to%3A2920%2Fannounce&tr=udp%3A%2F%2Ftracker.opentrackr.org%3A1337&tr=udp%3A%2F%2Ftracker.internetwarriors.net%3A1337%2Fannounce&tr=udp%3A%2F%2Ftracker.leechers-paradise.org%3A6969%2Fannounce&tr=udp%3A%2F%2Ftracker.coppersurfer.tk%3A6969%2Fannounce&tr=udp%3A%2F%2Ftracker.pirateparty.gr%3A6969%2Fannounce&tr=udp%3A%2F%2Ftracker.cyberia.is%3A6969%2Fannounce",
        "seeder": "83",
        "leecher": "4"
    },
    {
        "rank": "73",
        "title": "Weezer \u2013 OK Human (2021) Mp3 320kbps [PMEDIA] \u2b50\ufe0f",
        "link": "magnet:?xt=urn:btih:0E63316126C706981BF285E38B8E264586AB08F4&dn=Weezer+%26ndash%3B+OK+Human+%282021%29+Mp3+320kbps+%5BPMEDIA%5D+%E2%AD%90%EF%B8%8F&tr=udp%3A%2F%2Ftracker.coppersurfer.tk%3A6969%2Fannounce&tr=udp%3A%2F%2F9.rarbg.to%3A2920%2Fannounce&tr=udp%3A%2F%2Ftracker.opentrackr.org%3A1337&tr=udp%3A%2F%2Ftracker.internetwarriors.net%3A1337%2Fannounce&tr=udp%3A%2F%2Ftracker.leechers-paradise.org%3A6969%2Fannounce&tr=udp%3A%2F%2Ftracker.coppersurfer.tk%3A6969%2Fannounce&tr=udp%3A%2F%2Ftracker.pirateparty.gr%3A6969%2Fannounce&tr=udp%3A%2F%2Ftracker.cyberia.is%3A6969%2Fannounce",
        "seeder": "82",
        "leecher": "2"
    },
    {
        "rank": "74",
        "title": "Ikigai: The Japanese Secret to a Long and Happy Life",
        "link": "magnet:?xt=urn:btih:3E760F6A4DD1669B165F2BE5CD7745E40CCC6418&dn=Ikigai%3A+The+Japanese+Secret+to+a+Long+and+Happy+Life&tr=udp%3A%2F%2Ftracker.coppersurfer.tk%3A6969%2Fannounce&tr=udp%3A%2F%2F9.rarbg.to%3A2920%2Fannounce&tr=udp%3A%2F%2Ftracker.opentrackr.org%3A1337&tr=udp%3A%2F%2Ftracker.internetwarriors.net%3A1337%2Fannounce&tr=udp%3A%2F%2Ftracker.leechers-paradise.org%3A6969%2Fannounce&tr=udp%3A%2F%2Ftracker.coppersurfer.tk%3A6969%2Fannounce&tr=udp%3A%2F%2Ftracker.pirateparty.gr%3A6969%2Fannounce&tr=udp%3A%2F%2Ftracker.cyberia.is%3A6969%2Fannounce",
        "seeder": "81",
        "leecher": "1"
    },
    {
        "rank": "75",
        "title": "The Art of Impossible: A Peak Performance Primer - Steven Kotler",
        "link": "magnet:?xt=urn:btih:796D7E385F1655073E338463118C056831F4BCFA&dn=The+Art+of+Impossible%3A+A+Peak+Performance+Primer+-+Steven+Kotler&tr=udp%3A%2F%2Ftracker.coppersurfer.tk%3A6969%2Fannounce&tr=udp%3A%2F%2F9.rarbg.to%3A2920%2Fannounce&tr=udp%3A%2F%2Ftracker.opentrackr.org%3A1337&tr=udp%3A%2F%2Ftracker.internetwarriors.net%3A1337%2Fannounce&tr=udp%3A%2F%2Ftracker.leechers-paradise.org%3A6969%2Fannounce&tr=udp%3A%2F%2Ftracker.coppersurfer.tk%3A6969%2Fannounce&tr=udp%3A%2F%2Ftracker.pirateparty.gr%3A6969%2Fannounce&tr=udp%3A%2F%2Ftracker.cyberia.is%3A6969%2Fannounce",
        "seeder": "79",
        "leecher": "0"
    },
    {
        "rank": "76",
        "title": "VA - Baker Street - 100 Classics from the 70s (2021) Mp3 320kbps",
        "link": "magnet:?xt=urn:btih:1DDAEC485C337F017E29F5B1484AE68EF7432B24&dn=VA+-+Baker+Street+-+100+Classics+from+the+70s+%282021%29+Mp3+320kbps&tr=udp%3A%2F%2Ftracker.coppersurfer.tk%3A6969%2Fannounce&tr=udp%3A%2F%2F9.rarbg.to%3A2920%2Fannounce&tr=udp%3A%2F%2Ftracker.opentrackr.org%3A1337&tr=udp%3A%2F%2Ftracker.internetwarriors.net%3A1337%2Fannounce&tr=udp%3A%2F%2Ftracker.leechers-paradise.org%3A6969%2Fannounce&tr=udp%3A%2F%2Ftracker.coppersurfer.tk%3A6969%2Fannounce&tr=udp%3A%2F%2Ftracker.pirateparty.gr%3A6969%2Fannounce&tr=udp%3A%2F%2Ftracker.cyberia.is%3A6969%2Fannounce",
        "seeder": "78",
        "leecher": "3"
    },
    {
        "rank": "77",
        "title": "Paul McCartney - McCartney III (2020) Mp3 320kbps [PMEDIA] \u2b50\ufe0f",
        "link": "magnet:?xt=urn:btih:7D6A74CAF62153CAB7B9D52B7646115151F83821&dn=Paul+McCartney+-+McCartney+III+%282020%29+Mp3+320kbps+%5BPMEDIA%5D+%E2%AD%90%EF%B8%8F&tr=udp%3A%2F%2Ftracker.coppersurfer.tk%3A6969%2Fannounce&tr=udp%3A%2F%2F9.rarbg.to%3A2920%2Fannounce&tr=udp%3A%2F%2Ftracker.opentrackr.org%3A1337&tr=udp%3A%2F%2Ftracker.internetwarriors.net%3A1337%2Fannounce&tr=udp%3A%2F%2Ftracker.leechers-paradise.org%3A6969%2Fannounce&tr=udp%3A%2F%2Ftracker.coppersurfer.tk%3A6969%2Fannounce&tr=udp%3A%2F%2Ftracker.pirateparty.gr%3A6969%2Fannounce&tr=udp%3A%2F%2Ftracker.cyberia.is%3A6969%2Fannounce",
        "seeder": "78",
        "leecher": "1"
    },
    {
        "rank": "78",
        "title": "Big Sean - Detroit 2 (2020) Mp3 (320kbps) [Hunter]",
        "link": "magnet:?xt=urn:btih:A17B0E5745AAE32EBC6D3DA4A3D66F70D4A542FE&dn=Big+Sean+-+Detroit+2+%282020%29+Mp3+%28320kbps%29+%5BHunter%5D&tr=udp%3A%2F%2Ftracker.coppersurfer.tk%3A6969%2Fannounce&tr=udp%3A%2F%2F9.rarbg.to%3A2920%2Fannounce&tr=udp%3A%2F%2Ftracker.opentrackr.org%3A1337&tr=udp%3A%2F%2Ftracker.internetwarriors.net%3A1337%2Fannounce&tr=udp%3A%2F%2Ftracker.leechers-paradise.org%3A6969%2Fannounce&tr=udp%3A%2F%2Ftracker.coppersurfer.tk%3A6969%2Fannounce&tr=udp%3A%2F%2Ftracker.pirateparty.gr%3A6969%2Fannounce&tr=udp%3A%2F%2Ftracker.cyberia.is%3A6969%2Fannounce",
        "seeder": "78",
        "leecher": "5"
    },
    {
        "rank": "79",
        "title": "Justin Bieber - Changes (2020) Mp3 (320kbps) [Hunter]",
        "link": "magnet:?xt=urn:btih:807DA31772FE9A4C56FCA74704520273218C61E2&dn=Justin+Bieber+-+Changes+%282020%29+Mp3+%28320kbps%29+%5BHunter%5D&tr=udp%3A%2F%2Ftracker.coppersurfer.tk%3A6969%2Fannounce&tr=udp%3A%2F%2F9.rarbg.to%3A2920%2Fannounce&tr=udp%3A%2F%2Ftracker.opentrackr.org%3A1337&tr=udp%3A%2F%2Ftracker.internetwarriors.net%3A1337%2Fannounce&tr=udp%3A%2F%2Ftracker.leechers-paradise.org%3A6969%2Fannounce&tr=udp%3A%2F%2Ftracker.coppersurfer.tk%3A6969%2Fannounce&tr=udp%3A%2F%2Ftracker.pirateparty.gr%3A6969%2Fannounce&tr=udp%3A%2F%2Ftracker.cyberia.is%3A6969%2Fannounce",
        "seeder": "78",
        "leecher": "1"
    },
    {
        "rank": "80",
        "title": "The Rolling Stones - Greatest Hits (2008) 320 vtwin88cube",
        "link": "magnet:?xt=urn:btih:33AE84F6546AEF1579434D1D0F06CD1BE7AB410E&dn=The+Rolling+Stones+-+Greatest+Hits+%282008%29+320+vtwin88cube&tr=udp%3A%2F%2Ftracker.coppersurfer.tk%3A6969%2Fannounce&tr=udp%3A%2F%2F9.rarbg.to%3A2920%2Fannounce&tr=udp%3A%2F%2Ftracker.opentrackr.org%3A1337&tr=udp%3A%2F%2Ftracker.internetwarriors.net%3A1337%2Fannounce&tr=udp%3A%2F%2Ftracker.leechers-paradise.org%3A6969%2Fannounce&tr=udp%3A%2F%2Ftracker.coppersurfer.tk%3A6969%2Fannounce&tr=udp%3A%2F%2Ftracker.pirateparty.gr%3A6969%2Fannounce&tr=udp%3A%2F%2Ftracker.cyberia.is%3A6969%2Fannounce",
        "seeder": "78",
        "leecher": "7"
    },
    {
        "rank": "81",
        "title": "DISCO HITS - The BEST late 70s early 80s disco/dance/funk",
        "link": "magnet:?xt=urn:btih:16B4B840F9D7DC712F06A7C0F41FCBC7755F5377&dn=DISCO+HITS+-+The+BEST+late+70s+early+80s+disco%2Fdance%2Ffunk&tr=udp%3A%2F%2Ftracker.coppersurfer.tk%3A6969%2Fannounce&tr=udp%3A%2F%2F9.rarbg.to%3A2920%2Fannounce&tr=udp%3A%2F%2Ftracker.opentrackr.org%3A1337&tr=udp%3A%2F%2Ftracker.internetwarriors.net%3A1337%2Fannounce&tr=udp%3A%2F%2Ftracker.leechers-paradise.org%3A6969%2Fannounce&tr=udp%3A%2F%2Ftracker.coppersurfer.tk%3A6969%2Fannounce&tr=udp%3A%2F%2Ftracker.pirateparty.gr%3A6969%2Fannounce&tr=udp%3A%2F%2Ftracker.cyberia.is%3A6969%2Fannounce",
        "seeder": "78",
        "leecher": "5"
    },
    {
        "rank": "82",
        "title": "NOW That's What I Call Music 107 (2020) Mp3 320kbps",
        "link": "magnet:?xt=urn:btih:C9C8279A4EFF7626AA93C341B9DBC4EC3846CF7F&dn=NOW+That%27s+What+I+Call+Music+107+%282020%29+Mp3+320kbps&tr=udp%3A%2F%2Ftracker.coppersurfer.tk%3A6969%2Fannounce&tr=udp%3A%2F%2F9.rarbg.to%3A2920%2Fannounce&tr=udp%3A%2F%2Ftracker.opentrackr.org%3A1337&tr=udp%3A%2F%2Ftracker.internetwarriors.net%3A1337%2Fannounce&tr=udp%3A%2F%2Ftracker.leechers-paradise.org%3A6969%2Fannounce&tr=udp%3A%2F%2Ftracker.coppersurfer.tk%3A6969%2Fannounce&tr=udp%3A%2F%2Ftracker.pirateparty.gr%3A6969%2Fannounce&tr=udp%3A%2F%2Ftracker.cyberia.is%3A6969%2Fannounce",
        "seeder": "77",
        "leecher": "9"
    },
    {
        "rank": "83",
        "title": "Sapiens: A Brief History of Humankind - Yuval Harari",
        "link": "magnet:?xt=urn:btih:040212FE7DBB29F3B9672B91318783F15559E8F2&dn=Sapiens%3A+A+Brief+History+of+Humankind+-+Yuval+Harari&tr=udp%3A%2F%2Ftracker.coppersurfer.tk%3A6969%2Fannounce&tr=udp%3A%2F%2F9.rarbg.to%3A2920%2Fannounce&tr=udp%3A%2F%2Ftracker.opentrackr.org%3A1337&tr=udp%3A%2F%2Ftracker.internetwarriors.net%3A1337%2Fannounce&tr=udp%3A%2F%2Ftracker.leechers-paradise.org%3A6969%2Fannounce&tr=udp%3A%2F%2Ftracker.coppersurfer.tk%3A6969%2Fannounce&tr=udp%3A%2F%2Ftracker.pirateparty.gr%3A6969%2Fannounce&tr=udp%3A%2F%2Ftracker.cyberia.is%3A6969%2Fannounce",
        "seeder": "77",
        "leecher": "0"
    },
    {
        "rank": "84",
        "title": "Lana Del Rey - Chemtrails Over The Country Club (2021) FLAC CD",
        "link": "magnet:?xt=urn:btih:7CAE74B86E2F6AA30EA49A10BA99A05D8268BA31&dn=Lana+Del+Rey+-+Chemtrails+Over+The+Country+Club+%282021%29+FLAC+CD&tr=udp%3A%2F%2Ftracker.coppersurfer.tk%3A6969%2Fannounce&tr=udp%3A%2F%2F9.rarbg.to%3A2920%2Fannounce&tr=udp%3A%2F%2Ftracker.opentrackr.org%3A1337&tr=udp%3A%2F%2Ftracker.internetwarriors.net%3A1337%2Fannounce&tr=udp%3A%2F%2Ftracker.leechers-paradise.org%3A6969%2Fannounce&tr=udp%3A%2F%2Ftracker.coppersurfer.tk%3A6969%2Fannounce&tr=udp%3A%2F%2Ftracker.pirateparty.gr%3A6969%2Fannounce&tr=udp%3A%2F%2Ftracker.cyberia.is%3A6969%2Fannounce",
        "seeder": "76",
        "leecher": "0"
    },
    {
        "rank": "85",
        "title": "Ready Player Two - Ernest Cline MP3",
        "link": "magnet:?xt=urn:btih:232B84587FC29B48A19129F2F67AE5E4864EF348&dn=Ready+Player+Two+-+Ernest+Cline+MP3&tr=udp%3A%2F%2Ftracker.coppersurfer.tk%3A6969%2Fannounce&tr=udp%3A%2F%2F9.rarbg.to%3A2920%2Fannounce&tr=udp%3A%2F%2Ftracker.opentrackr.org%3A1337&tr=udp%3A%2F%2Ftracker.internetwarriors.net%3A1337%2Fannounce&tr=udp%3A%2F%2Ftracker.leechers-paradise.org%3A6969%2Fannounce&tr=udp%3A%2F%2Ftracker.coppersurfer.tk%3A6969%2Fannounce&tr=udp%3A%2F%2Ftracker.pirateparty.gr%3A6969%2Fannounce&tr=udp%3A%2F%2Ftracker.cyberia.is%3A6969%2Fannounce",
        "seeder": "76",
        "leecher": "1"
    },
    {
        "rank": "86",
        "title": "Evanescence - The Bitter Truth (2021) FLAC CD-Rip",
        "link": "magnet:?xt=urn:btih:881D3999EA30333C944B3B78574DE31FB55DDD0B&dn=Evanescence+-+The+Bitter+Truth+%282021%29+FLAC+CD-Rip&tr=udp%3A%2F%2Ftracker.coppersurfer.tk%3A6969%2Fannounce&tr=udp%3A%2F%2F9.rarbg.to%3A2920%2Fannounce&tr=udp%3A%2F%2Ftracker.opentrackr.org%3A1337&tr=udp%3A%2F%2Ftracker.internetwarriors.net%3A1337%2Fannounce&tr=udp%3A%2F%2Ftracker.leechers-paradise.org%3A6969%2Fannounce&tr=udp%3A%2F%2Ftracker.coppersurfer.tk%3A6969%2Fannounce&tr=udp%3A%2F%2Ftracker.pirateparty.gr%3A6969%2Fannounce&tr=udp%3A%2F%2Ftracker.cyberia.is%3A6969%2Fannounce",
        "seeder": "75",
        "leecher": "3"
    },
    {
        "rank": "87",
        "title": "Chevelle - NIRATIAS (2021) Mp3 320kbps [PMEDIA] \u2b50\ufe0f",
        "link": "magnet:?xt=urn:btih:71B68EB3E9D076ADF3D307496DAD509095CFA35F&dn=Chevelle+-+NIRATIAS+%282021%29+Mp3+320kbps+%5BPMEDIA%5D+%E2%AD%90%EF%B8%8F&tr=udp%3A%2F%2Ftracker.coppersurfer.tk%3A6969%2Fannounce&tr=udp%3A%2F%2F9.rarbg.to%3A2920%2Fannounce&tr=udp%3A%2F%2Ftracker.opentrackr.org%3A1337&tr=udp%3A%2F%2Ftracker.internetwarriors.net%3A1337%2Fannounce&tr=udp%3A%2F%2Ftracker.leechers-paradise.org%3A6969%2Fannounce&tr=udp%3A%2F%2Ftracker.coppersurfer.tk%3A6969%2Fannounce&tr=udp%3A%2F%2Ftracker.pirateparty.gr%3A6969%2Fannounce&tr=udp%3A%2F%2Ftracker.cyberia.is%3A6969%2Fannounce",
        "seeder": "75",
        "leecher": "1"
    },
    {
        "rank": "88",
        "title": "Top 50 Fitness & Workout Hits! 2021 Music Playlist (2021)",
        "link": "magnet:?xt=urn:btih:D66AE918B67DEBB320A6384344539CE89C9360C7&dn=Top+50+Fitness+%26amp%3B+Workout+Hits%21+2021+Music+Playlist+%282021%29&tr=udp%3A%2F%2Ftracker.coppersurfer.tk%3A6969%2Fannounce&tr=udp%3A%2F%2F9.rarbg.to%3A2920%2Fannounce&tr=udp%3A%2F%2Ftracker.opentrackr.org%3A1337&tr=udp%3A%2F%2Ftracker.internetwarriors.net%3A1337%2Fannounce&tr=udp%3A%2F%2Ftracker.leechers-paradise.org%3A6969%2Fannounce&tr=udp%3A%2F%2Ftracker.coppersurfer.tk%3A6969%2Fannounce&tr=udp%3A%2F%2Ftracker.pirateparty.gr%3A6969%2Fannounce&tr=udp%3A%2F%2Ftracker.cyberia.is%3A6969%2Fannounce",
        "seeder": "74",
        "leecher": "8"
    },
    {
        "rank": "89",
        "title": "Miley Cyrus - Plastic Hearts (2020) Mp3 320kbps Album",
        "link": "magnet:?xt=urn:btih:90FCBC7AF7E137CB7F429ABDD5964870B4718C2D&dn=Miley+Cyrus+-+Plastic+Hearts+%282020%29+Mp3+320kbps+Album&tr=udp%3A%2F%2Ftracker.coppersurfer.tk%3A6969%2Fannounce&tr=udp%3A%2F%2F9.rarbg.to%3A2920%2Fannounce&tr=udp%3A%2F%2Ftracker.opentrackr.org%3A1337&tr=udp%3A%2F%2Ftracker.internetwarriors.net%3A1337%2Fannounce&tr=udp%3A%2F%2Ftracker.leechers-paradise.org%3A6969%2Fannounce&tr=udp%3A%2F%2Ftracker.coppersurfer.tk%3A6969%2Fannounce&tr=udp%3A%2F%2Ftracker.pirateparty.gr%3A6969%2Fannounce&tr=udp%3A%2F%2Ftracker.cyberia.is%3A6969%2Fannounce",
        "seeder": "74",
        "leecher": "4"
    },
    {
        "rank": "90",
        "title": "Tame Impala - The Slow Rush (2020) Mp3 (320kbps) [Hunter]",
        "link": "magnet:?xt=urn:btih:148765DAAB16DBB4CF719CB37A65741D1F95577D&dn=Tame+Impala+-+The+Slow+Rush+%282020%29+Mp3+%28320kbps%29+%5BHunter%5D&tr=udp%3A%2F%2Ftracker.coppersurfer.tk%3A6969%2Fannounce&tr=udp%3A%2F%2F9.rarbg.to%3A2920%2Fannounce&tr=udp%3A%2F%2Ftracker.opentrackr.org%3A1337&tr=udp%3A%2F%2Ftracker.internetwarriors.net%3A1337%2Fannounce&tr=udp%3A%2F%2Ftracker.leechers-paradise.org%3A6969%2Fannounce&tr=udp%3A%2F%2Ftracker.coppersurfer.tk%3A6969%2Fannounce&tr=udp%3A%2F%2Ftracker.pirateparty.gr%3A6969%2Fannounce&tr=udp%3A%2F%2Ftracker.cyberia.is%3A6969%2Fannounce",
        "seeder": "74",
        "leecher": "1"
    },
    {
        "rank": "91",
        "title": "The Lord of the Rings Complete Audiobooks J. R. R. Tolkien [EarR",
        "link": "magnet:?xt=urn:btih:DBB2D2733B4FCB9857A24D16D5ED28EE5BE3B83C&dn=The+Lord+of+the+Rings+Complete+Audiobooks+J.+R.+R.+Tolkien+%5BEarR&tr=udp%3A%2F%2Ftracker.coppersurfer.tk%3A6969%2Fannounce&tr=udp%3A%2F%2F9.rarbg.to%3A2920%2Fannounce&tr=udp%3A%2F%2Ftracker.opentrackr.org%3A1337&tr=udp%3A%2F%2Ftracker.internetwarriors.net%3A1337%2Fannounce&tr=udp%3A%2F%2Ftracker.leechers-paradise.org%3A6969%2Fannounce&tr=udp%3A%2F%2Ftracker.coppersurfer.tk%3A6969%2Fannounce&tr=udp%3A%2F%2Ftracker.pirateparty.gr%3A6969%2Fannounce&tr=udp%3A%2F%2Ftracker.cyberia.is%3A6969%2Fannounce",
        "seeder": "74",
        "leecher": "5"
    },
    {
        "rank": "92",
        "title": "Bruce Springsteen - Los Angeles April 1988 (2021) Mp3 320kbps",
        "link": "magnet:?xt=urn:btih:A95BB2F0E4CC5AED3C5EA7894271D1CA3BCC7940&dn=Bruce+Springsteen+-+Los+Angeles+April+1988+%282021%29+Mp3+320kbps&tr=udp%3A%2F%2Ftracker.coppersurfer.tk%3A6969%2Fannounce&tr=udp%3A%2F%2F9.rarbg.to%3A2920%2Fannounce&tr=udp%3A%2F%2Ftracker.opentrackr.org%3A1337&tr=udp%3A%2F%2Ftracker.internetwarriors.net%3A1337%2Fannounce&tr=udp%3A%2F%2Ftracker.leechers-paradise.org%3A6969%2Fannounce&tr=udp%3A%2F%2Ftracker.coppersurfer.tk%3A6969%2Fannounce&tr=udp%3A%2F%2Ftracker.pirateparty.gr%3A6969%2Fannounce&tr=udp%3A%2F%2Ftracker.cyberia.is%3A6969%2Fannounce",
        "seeder": "73",
        "leecher": "17"
    },
    {
        "rank": "93",
        "title": "Suzi Quatro - The Devil In Me (2021)",
        "link": "magnet:?xt=urn:btih:52BE49580730959CC8C1F9C8EFD5C8670F5FC6FE&dn=Suzi+Quatro+-+The+Devil+In+Me+%282021%29&tr=udp%3A%2F%2Ftracker.coppersurfer.tk%3A6969%2Fannounce&tr=udp%3A%2F%2F9.rarbg.to%3A2920%2Fannounce&tr=udp%3A%2F%2Ftracker.opentrackr.org%3A1337&tr=udp%3A%2F%2Ftracker.internetwarriors.net%3A1337%2Fannounce&tr=udp%3A%2F%2Ftracker.leechers-paradise.org%3A6969%2Fannounce&tr=udp%3A%2F%2Ftracker.coppersurfer.tk%3A6969%2Fannounce&tr=udp%3A%2F%2Ftracker.pirateparty.gr%3A6969%2Fannounce&tr=udp%3A%2F%2Ftracker.cyberia.is%3A6969%2Fannounce",
        "seeder": "73",
        "leecher": "1"
    },
    {
        "rank": "94",
        "title": "Sia - Music - Songs From and Inspired By the Motion Picture",
        "link": "magnet:?xt=urn:btih:7C6E828DC92183FAE61356082224F0810DCAF8AE&dn=Sia+-+Music+-+Songs+From+and+Inspired+By+the+Motion+Picture&tr=udp%3A%2F%2Ftracker.coppersurfer.tk%3A6969%2Fannounce&tr=udp%3A%2F%2F9.rarbg.to%3A2920%2Fannounce&tr=udp%3A%2F%2Ftracker.opentrackr.org%3A1337&tr=udp%3A%2F%2Ftracker.internetwarriors.net%3A1337%2Fannounce&tr=udp%3A%2F%2Ftracker.leechers-paradise.org%3A6969%2Fannounce&tr=udp%3A%2F%2Ftracker.coppersurfer.tk%3A6969%2Fannounce&tr=udp%3A%2F%2Ftracker.pirateparty.gr%3A6969%2Fannounce&tr=udp%3A%2F%2Ftracker.cyberia.is%3A6969%2Fannounce",
        "seeder": "73",
        "leecher": "1"
    },
    {
        "rank": "95",
        "title": "Juice WRLD - Legends Never Die (2020) Mp3 (320kbps) [Hunter]",
        "link": "magnet:?xt=urn:btih:570BA0BF1321E8F7C3CE1E3FB9049A2BD062B6A3&dn=Juice+WRLD+-+Legends+Never+Die+%282020%29+Mp3+%28320kbps%29+%5BHunter%5D&tr=udp%3A%2F%2Ftracker.coppersurfer.tk%3A6969%2Fannounce&tr=udp%3A%2F%2F9.rarbg.to%3A2920%2Fannounce&tr=udp%3A%2F%2Ftracker.opentrackr.org%3A1337&tr=udp%3A%2F%2Ftracker.internetwarriors.net%3A1337%2Fannounce&tr=udp%3A%2F%2Ftracker.leechers-paradise.org%3A6969%2Fannounce&tr=udp%3A%2F%2Ftracker.coppersurfer.tk%3A6969%2Fannounce&tr=udp%3A%2F%2Ftracker.pirateparty.gr%3A6969%2Fannounce&tr=udp%3A%2F%2Ftracker.cyberia.is%3A6969%2Fannounce",
        "seeder": "73",
        "leecher": "5"
    },
    {
        "rank": "96",
        "title": "1984 by George Orwell (Audiobook)",
        "link": "magnet:?xt=urn:btih:C4DE2BEF418468A1343FB73D604A83BA2FFB28D7&dn=1984+by+George+Orwell+%28Audiobook%29&tr=udp%3A%2F%2Ftracker.coppersurfer.tk%3A6969%2Fannounce&tr=udp%3A%2F%2F9.rarbg.to%3A2920%2Fannounce&tr=udp%3A%2F%2Ftracker.opentrackr.org%3A1337&tr=udp%3A%2F%2Ftracker.internetwarriors.net%3A1337%2Fannounce&tr=udp%3A%2F%2Ftracker.leechers-paradise.org%3A6969%2Fannounce&tr=udp%3A%2F%2Ftracker.coppersurfer.tk%3A6969%2Fannounce&tr=udp%3A%2F%2Ftracker.pirateparty.gr%3A6969%2Fannounce&tr=udp%3A%2F%2Ftracker.cyberia.is%3A6969%2Fannounce",
        "seeder": "73",
        "leecher": "0"
    },
    {
        "rank": "97",
        "title": "The First 20 Hours How to Learn Anything Fast - Josh Kaufman",
        "link": "magnet:?xt=urn:btih:5CB83E792EE5663014531A3D58EEEB7663FBF88F&dn=The+First+20+Hours+How+to+Learn+Anything+Fast+-+Josh+Kaufman&tr=udp%3A%2F%2Ftracker.coppersurfer.tk%3A6969%2Fannounce&tr=udp%3A%2F%2F9.rarbg.to%3A2920%2Fannounce&tr=udp%3A%2F%2Ftracker.opentrackr.org%3A1337&tr=udp%3A%2F%2Ftracker.internetwarriors.net%3A1337%2Fannounce&tr=udp%3A%2F%2Ftracker.leechers-paradise.org%3A6969%2Fannounce&tr=udp%3A%2F%2Ftracker.coppersurfer.tk%3A6969%2Fannounce&tr=udp%3A%2F%2Ftracker.pirateparty.gr%3A6969%2Fannounce&tr=udp%3A%2F%2Ftracker.cyberia.is%3A6969%2Fannounce",
        "seeder": "72",
        "leecher": "1"
    },
    {
        "rank": "98",
        "title": "Deep Work: Rules for Focused Success in a Distracted World - Cal",
        "link": "magnet:?xt=urn:btih:97293B9FA1992FA8223AAFEF4DF154B90BFB4C2C&dn=Deep+Work%3A+Rules+for+Focused+Success+in+a+Distracted+World+-+Cal&tr=udp%3A%2F%2Ftracker.coppersurfer.tk%3A6969%2Fannounce&tr=udp%3A%2F%2F9.rarbg.to%3A2920%2Fannounce&tr=udp%3A%2F%2Ftracker.opentrackr.org%3A1337&tr=udp%3A%2F%2Ftracker.internetwarriors.net%3A1337%2Fannounce&tr=udp%3A%2F%2Ftracker.leechers-paradise.org%3A6969%2Fannounce&tr=udp%3A%2F%2Ftracker.coppersurfer.tk%3A6969%2Fannounce&tr=udp%3A%2F%2Ftracker.pirateparty.gr%3A6969%2Fannounce&tr=udp%3A%2F%2Ftracker.cyberia.is%3A6969%2Fannounce",
        "seeder": "72",
        "leecher": "0"
    },
    {
        "rank": "99",
        "title": "Norse Mythology audiobook by Neil Gaiman [EarReaders]",
        "link": "magnet:?xt=urn:btih:E9154D48CEC7CDCB8E4C957C65338EC3797D4046&dn=Norse+Mythology+audiobook+by+Neil+Gaiman+%5BEarReaders%5D&tr=udp%3A%2F%2Ftracker.coppersurfer.tk%3A6969%2Fannounce&tr=udp%3A%2F%2F9.rarbg.to%3A2920%2Fannounce&tr=udp%3A%2F%2Ftracker.opentrackr.org%3A1337&tr=udp%3A%2F%2Ftracker.internetwarriors.net%3A1337%2Fannounce&tr=udp%3A%2F%2Ftracker.leechers-paradise.org%3A6969%2Fannounce&tr=udp%3A%2F%2Ftracker.coppersurfer.tk%3A6969%2Fannounce&tr=udp%3A%2F%2Ftracker.pirateparty.gr%3A6969%2Fannounce&tr=udp%3A%2F%2Ftracker.cyberia.is%3A6969%2Fannounce",
        "seeder": "72",
        "leecher": "2"
    },
    {
        "rank": "100",
        "title": "Bob Marley - Greatest Hits [Mp3]",
        "link": "magnet:?xt=urn:btih:C60E036301583A28C88FEFE5252C4DE897D0BE7D&dn=Bob+Marley+-+Greatest+Hits+%5BMp3%5D&tr=udp%3A%2F%2Ftracker.coppersurfer.tk%3A6969%2Fannounce&tr=udp%3A%2F%2F9.rarbg.to%3A2920%2Fannounce&tr=udp%3A%2F%2Ftracker.opentrackr.org%3A1337&tr=udp%3A%2F%2Ftracker.internetwarriors.net%3A1337%2Fannounce&tr=udp%3A%2F%2Ftracker.leechers-paradise.org%3A6969%2Fannounce&tr=udp%3A%2F%2Ftracker.coppersurfer.tk%3A6969%2Fannounce&tr=udp%3A%2F%2Ftracker.pirateparty.gr%3A6969%2Fannounce&tr=udp%3A%2F%2Ftracker.cyberia.is%3A6969%2Fannounce",
        "seeder": "72",
        "leecher": "1"
    }
]
